2362666626625422334645666
FFFFLLLLLLLLFFFFFFFFFFLLL
5254631666166666626666656
FFFFFLLLLLLLLLLLLLLLLLLLL
2666621615316443266666666
FLLLLFFFFFFFFFFFFFFFLLLLL
4141441366265532535436224
FFFFFFFFFFFFFFFFFFFFFFFFF
5342266516256666666666664
FFFFFLLFFFFFLLLLLLLLLFLFF
5441366626413421211114526
FFFFFLLFFFFFFFFFFFFFFFFFF
6616166515651153453441556
FFFFFFLLFFFFFFFFFFFFFFFFF
5534464653536145223213611
FFFFLLLLFFFFFFFFFFFFFFFFF
5566665356365164263364336
FFLLLLLFFFFFFFFFFFFFFFFFL
4663545411664552433166664
LLLFFFFFFFLFFFFFFFFFFLLLL
6666152412234546432346663
LLLLFFFFFFFFFFFFFFFFFLLLL
6666666666335616663646165
LLLLLLLLLLFFLLLLLLFFFLFFF
6311141144146565261365232
FFFFFFFFFFFFFFFFFFFFFFFFF
4666656551344566646644531
LLLLLLLFFFFFFFLLLLLLLFFFF
3215141314524652212233334
FFFFFFFFFFFFFFFFFFFFFFFFF
6345356436666665243314142
LFFFFFFFFFLLLLLLFFFFFFFFF
1541314526136661666666636
FFFFFFFFFLLLLLLLLLLLLLLLL
3416642662533215516656261
FFFFFFFFFFFFFFFFFFLLFLLLL
4113236563634445461652441
FFFFFFFFFFFFFFFFFFFFFFFFF
1641251444154316666666262
FFFFFFFFFFFFFFLLLLLLLLLLL
6463145356433441243344342
FFFFFFFFFFFFFFFFFFFFFFFFF
1553652111125434264666666
FFFFFFFFFFFFFFFFFFFLLLLLL
6666666666662566362616665
LLLLLLLLLLLLLLLLLLLLLLLLF
4661242636126666661666612
FFFFFFFFFFFFLLLLLLLLLLLFF
6626615251114515125116341
LLLLLFFFFFFFFFFFFFFFFFFFF
4666666363365134513264666
FLLLLLLFFFFFFFFFFFFFFFLLF
6616563466626235232232663
LLLLFFFFLLLLLFFFFFFFFFLLF
2253514626666256344113666
FFFFFFFLLLLLLFFFFFFFFFLLL
6211311242622364646666446
FFFFFFFFFFFFFFLLLLLLLFFFF
6523241635313552645513416
FFFFFFFFFFFFFFFFFFFFFFFFF
6666662666654121316111361
LLLLLLLLLLLFFFFFFFFFFFFFF
2261322361666664246223562
FFFFFFFFFFFLLLLFFFFFFFFFF
4254136114326656652136435
FFFFFFFFFFFFLLLLLFFFFFFFF
6641253566162113633666266
FFFFFFFFFLFFFFFFFFFLLLLLL
1216366334135232544256142
FFFFFFFFFFFFFFFFFFFFFFFFF
6666661261636411663555212
LLLLLLFFFLLLFFFFFLFFFFFFF
6636666255351644136666616
LLLLLLLFFFFFFFFFFFLLLLLLL
4146331414322543661454166
FFFFFFFFFFFFFFFFFFFFFFFLL
6666646666666666666366646
LLLLLLLLLLLLLLLLLLLLLLLLL
6631334366615255443145521
FFFFFFFFLLLFFFFFFFFFFFFFF
