52561331613666366166666466642656451621462262134656
FFFFFFFFFFFLLLLLLLLLLLLLLLLFFFFFFFFFFFFFFFFFFFFFFF
66616551243466626665666356666566613265321316666664
FLLLLLFFFFFFFLLLLLLLLLLLLLLLLLLLLFFFFFFFFFFLLLLLLF
61656646666426426163616666564666626256523623345165
LLLLLLLLLLLLFFFFFFFFFFLLLLLLLLLLLFFFFFFFFFFFFFFFFF
66263223113634566666365666666666664566332266661436
LLLLFFFFFFFFFFFFLLLLLLLLLLLLLLLLLLLLLLFFLLLLLLFFFF
23512431111616626666621656522552121431154431251214
FFFFFFFFFFFFFFFFFLLLLFFFFFFFFFFFFFFFFFFFFFFFFFFFFF
43466266666424335126316664663533463325665541332644
FFFLLLLLLLLFFFFFFFFFFFFLLLLLFFFFFFFFFFFFFFFFFFFFFF
64351644561446666666666532553326661665133321112422
FFFFFFFFFFFFFLLLLLLLLLLFFFFFFFFFFFFFFFFFFFFFFFFFFF
66665661642322236413353544625261132661635342355526
LLLLLLLFLFFFFFFFFFFFFFFFFFFFFFFFFFFLFFFFFFFFFFFFFF
16614334655616366666251651155442144565454316466166
FLLFFFFFFFFLLLFLLLLLLFFFFFFFFFFFLLFFFFFFFFFFFLLLLL
36264163623535341263265131553356131531523133256634
FFFFFFFFFFFFFFFFFFFFFFFFFFFFFFFFFFFFFFFFFFFFFFFFFL
65442234615264666666666625332564552136464662452333
FFFFFFFFFFFFLLLLLLLLLLLLFFFFFFFFFFFFFFFFFFFFFFFFFF
21632163666666566656436466666662126325652322554134
FFFFFFLLLLLLLLLLLLLLFLLLLLLLLLLFFFFFFFFFFFFFFFFFFF
63666666666666666165466665366666166661636266666664
FLLLLLLLLLLLLLLLLLLFFLLLLLLLLLLLLLLLLLLLLLLLLLLLLL
41153126425246162136411535631134623556214465455542
FFFFFFFFFFFFFFFFFFFFFFFFFFFFFFFFFFFFFFFFFFFFFFFFFF
45566466261666621266662666266631261566666266666264
LLLLLLLLLLLLLLLLLLLLLLLLLLLLLLFFFFFFFFLLLLLLLLLLLL
56666433352323114323135616125454444241543365225651
LLLLLFFFFFFFFFFFFFFFFFFFFFFFFFFFFFFFFFFFFFFFFFFFFF
33332351646155516666166666666666164511641642345326
FFFFFFFFLFFFFFFFLLLLLLLLLLLLLLLLLLFFFFFFFFFFFFFFFL
52561663361463166622653315122641263252445612366341
FFFFFFFFFFFFFFFFFFFFFFFFFFFFFFFFFFFFFFFFFFFFFFFFFF
64634626414213344443263466666636264422321361463561
LLLFFLLLLFFFFFFFFFFFFFFFLLLLLLLLLLLFFFFFFFFFFFFFFF
31622452164354621344355432131213431666666454225512
FFFFFFFFFLFFFFFFFFFFFFFFFFFFFFFFLLLLLLLLFFFFFFFFFF
