66645423313662224655324542461245666412224634244633
LLLLFFFFFFFFFFFFFFFFFFFFFFFFFFFFFFFFFFFFFFFFFFFFFF
51441454452432444254166246615111244566666645622612
FFFFFFFFFFFFFFFFFFFFFFFFFFFFFFFFFFFFFLLLLLFFFFFFFF
33645654115652326433266656666666666611363662534223
FFFFFFFFFFFFFFFFFFFFFLLLLLLLLLLLLLLLLFFLLLFFFFFFFF
31666666166631332262522225666666616655532634624325
LLLLLLLLLLLLFFFFFFFFFFFFFFLLLLLLLLLLFFFFFFFFFFFFFF
42543452651232435264446666662655132336241161151366
FFFFFFFFFFFFFFFFFFFFFFLLLLLLFFFFFFFFFFFFFFFFFFFFFF
63155214136512216423252446466636611636623566665665
LFFFFFFFFFFFFFFFFFFFFFFFLLLLLLLLLLFLLLLLLLLLLLLLFF
21515462526431336542166366162643662555115132523666
FFFFFFFFFFFFFFFFFFFFFFLLLLFLLLLFFFFFFFFFFFFFFFFLLL
11532643326366666661666656464413653462513566464136
FFFFFFFFFFLLLLLLLLLLLLLLLLLLFFFFFFFFFFFFFFFFFFFFFL
44156245246535145126436614131452536516366666663646
LFFFFFFFFFLFFFFFFFFFFFFFFFFFFFFFFFFFFLFLLLLLLFFFFF
11523136531121466135535535556343541231416241313566
FFFFFFFFFFFFFFFLLFFFFFFFFFFFFFFFFFFFFFFFFFFFFFFFFF
33165545566666621255132254651664464144535125666366
FFFFFFFLLLLLLLLFFFFFFFFFFFFFFFLLLFFFFFFFFFFFLLLLLL
66325226236624246323562654253614624546633111352265
LFFFFFFFFFFFFFFFFFFFFFFLLFFFFFFFFFFFFFFFFFFFFFFFFF
46364261132442363164141666213645256666666664656666
LLFFFFFFFFFFFFFFFFFFFFFFFFFFFFFFFFLLLLLLLLLLLLLLLL
64464666665552333566415623366666234566221241225123
LLLLLLLLLFFFFFFFFFFFFFFFFFLLLLLLFFFFFFFFFFFFFFFFFF
25542632456662522464315542616355226246556662666666
FFFFFFFFFFFFFFFFFFFFFFFFFFLFFFFFFFFFFFFFLLLLLLLLLL
66646651661511532513333315561646541142451514566446
LLLLLLFFFFFFFFFFFFFFFFFFFFFFFFFLFFFFFFFFFFFFFFFFFF
54656662644311123151121366562646666661656155621645
FFFFLLLLFFFFFFFFFFFFFFFFLLLLLLLLLLLLLLLLLLFFFFFFFF
65135435353164424513466666666366665162116441536346
FFFFFFFFFFFFFFFFFFFFFLLLLLLLLLLLLFFFFFFFFFFFFFFFLL
62666661556131124166465655416236663126666663124245
LLLLLLLFFFFFFFFFFLLLLLFFFFFFFFFLLLLFLLLLLLLLFFFFFF
45555663526666666662666641565166646533165165641251
FFFFFFFFFFLLLLLLLLLLLLLLFFFFFFFFFFFFFFFLFFFFFFFFFF
