41161113666266616545412325646333121244532546125666
FFFFFFFFLLLLLLLLLFFFFFFFFFFFFFFFFFFFFFFFFFFFFFFFLL
16666666666436321645512443536252162622631666665162
LLLLLLLLLLFFFFFFFFFFFFFFFFFFFFFFFFFFFFFFFLLLLLFFFF
45623565533361324612626164166666662611255633662566
FFFFFFFFFFFFFFFFFFFFFFFFFFLLLLLLLLLFFFFFFFFFLLLLLL
31666656666666632436416113532665526665626666666166
LLLLLLLLLLLLLLLFFFFFFFFFFFFFFFFFFFLLLLLLLLLLLLLLLL
54222133436233252215365546666666656666666646666662
FFFFFFFFFFFFFFFFFFFFFFFFFLLLLLLLLLLLLLLLLLLLLLLLLL
35126124242215361522643356666616626666632423621236
FFFFFFFFFFFFFFFFFFFFFFFFFLLLLLLLLLLLLLLFFFFFFFFFFF
26662426656116446365513345663363155544535346235351
LLLLFFFFFFFFFFFFLFFFFFFFFFFFFFFFFFFFFFFFFFFFFFFFFF
64512114131636324466645346616663446521343241335225
LFFFFFFFFFFFFFFFFFLLLLLLLLLLLLLFFFFFFFFFFFFFFFFFFF
26126465666666666616466666666666346656636666226531
FFFFFFFFFLLLLLLLLLLLLLLLLLLLLLLLLLLLLLLLLLLLFFFFFF
24133216431544624643664434561522143524126566622446
FFFFFFFFFFFFFFFFFFFFFLFFFFFFFFFFFFFFFFFFFFFLFFFFFL
63256566666666666666666366626666666663266661666666
LLLLLLLLLLLLLLLLLLLLLLLLLLLLLLLLLLLLLLLLLLLLLLLLLL
33554511515536155356434236553654225366666316522643
FFFFFFFFFFFFFFFFFFFFFFFFFFFFFFFFFFFFLLLLLLFFFFFFFF
66266666626366666554626666666662632546366662664665
LLLLLLLLLLLLLLLLLLLLLLLLLLLLLLLLLFFFFFLLLLLLLLLLLF
66666666666666156261665436666665222466466666666666
LLLLLLLLLLLLLLLLLLLLLFFFLLLLLLLFFFFFFFFLLLLLLLLLLL
52645611346162355321664643514536131436435354316123
LLLFFFFFFFFFFFFFFFFFFFFFFFFFFFFFFFFFFFFFFFFFFFFFFF
53241456654155525266434666666626615443342336656666
FFFFFFFFFFFFFFFFFFFFFFFLLLLFFFFFFFFFFFFFFFFLLLLLLL
44645361231415656414545331244666116354166666431214
FFFFFFFFFFFFFFFFFFFFFFFFFFFFFFFFFFFFFFFLLLLLFFFFFF
44615666666665266666666155356561666636666666666663
FFFFFFLLLLLLLFFFLLLLLLLFFFFFFFLLLLLLLLLLLLLLLLLLLL
66663531242162421131265442145224665462621413261646
LLLLFFFFFFFFFFFFFFFFFFFFFFFFFFFFFFFFFFFFFFFFFFFFFF
46666646366666563425521131664643542532342632562416
LLLLLLLLLLLLLLLLLFFFFFFFFFFFFFFFFFFFFFFFLLFFFFFFFF
21163266666666666616643533256412213454655665666666
FFFFFFLLLLLLLLLLLLLLLFFFFFFFFFFFFFFFFFFFFFFFFLLLLL
52531235424634466463424662656666666666414146433166
FFFFFFFFFFFFFFLLLFFFFFFFLLLLLLLLLLLLLLFFFFFFFFFFFL
15225542563116543233461325135134134434654351544366
FFFLLFFFFFFFFFFFFFFFFFFFFFFFFFFFFFFFFFFFFFFFFFLLLL
53443451664666613241253116114233125544611553235362
FFFFFFFLLLLLLLFFFFFFFFFFFFFFFFFFFFFFFFFFFFFFFFFFFF
36321263452464466362331644542612452364666666666666
FFFFFFFFFFFFFFFLLLFFFFFFFFFFFFFFFFFFLLLLLLLLLLLLLL
66644525211456114543411341414322343212224445361655
LLFFFFFFFFFFFFFFFFFFFFFFFFFFFFFFFFFFFFFFFFFFFFFFFF
63256133263246216662532113256324314565634153166661
LFFFFFFFFFFFFFFFLLLFFFFFFFFFFFFFFFFFFFFFFFFFFLLLLL
66666166121446514225236316646663356663666266266166
LLLLLLLLFFFFFFFFFFFFFFFFFFLLLLLLLLLLLLLLLLLLLLLLLL
22155356335241214256463311664666666666622666616252
FFFFFFFFFFFFFFFFFFFFFFFFFFFLLLLLLLLLLLLLLLLLLFFFFF
44614313434556662616666565611666666626662666666656
FFFFFFFFFFFFLLLLLLLLLLLLLLLLLLLLLLLLLLLLLLLLLLLLLL
43234225515623265526346512423563512216433666662216
FFFFFFFFFFFFFFFFFFFFFFFFFFFFFFFFFFFFFFFFFLLLLLLLLL
21414645166663466666666666566666466666626466663664
FFFFFFFFFLLLFFFLLLLLLLLLLLLLLLLLLLLLLLLLLLLLLLLLLL
25265666646666526666666665455333615251516131136426
FFFFFFLLLLLLLLLLLLLLLLLLLFFFFFFFFFFFFFFFFFFFFFFFFF
62543616626666656136651226112432521353345211643345
FFFFFLLLLLLLLLLLLFFFFFFFFFFFFFFFFFFFFFFFFFFFFFFFFF
65441216651343515635353341261622661643115326355435
FFFFFFFLLFFFFFFFFFFFFFFFFFFFFFFFFFFFFFFFFFFFFFFFFF
65551662126345234253666656611366666566666666666666
FFFFFFFFFFFFFFFFFFFFFLLLLLLLLLLLLLLLLLLLLLLLLLLLLL
66663264561516163136161635261251426666666616666642
LLLLFFFFFFFFFFFFFFFFFFFLFFFFFFFFFLLLLLLLLLLLLLLLFF
52533465362664161256355545454445424466661666616364
FFFFFFFFFFFLLLFFFFFFFFFFFFFFFFFFFFFFLLLLLLLLLLLLLL
15114224266663646666664631635252463333155415133166
FFFFFFFFFLLLLLLLLLLLLLLLFFFFFFFFFFFFFFFFFFFFFFFFLL
66666666661622553111522351425665664153342135513534
LLLLLLLLLLLFFFFFFFFFFFFFFFFFLLLFFFFFFFFFFFFFFFFFFF
41363662664134635262445632413436662156132161534331
FFFFFLLFFFFFFFFFFFFFFFFFFFFFFFFFLFFFFFFFFFFFFFFLLF
23666636631111212431634266656633644143135166532423
LLLLLLLLFFFFFFFFFFFFFFFFLLLLLLFFFFFFFFFFFFLLFFFFFF
66453434132534566164152221452625623556246614615356
LLFFFFFFFFFFFFFFFFFFFFFFFFFFFFFFFFFFFFFFFFFFFFFFFF
42641653562464343161122114226662666366666666666366
FFFFFFFFFFFFFFFFFFFFFFFFFFFLLLLLLLLLLLLLLLLLLLLLLL
11163436143362666666616646666511653242231254464423
FFFFFFFFFFFFFFLLLLLLLLLLLLLLLFFFFFFFFFFFFFFFFFFFFF
25341116461666666545326663666666466666636666266666
FFFFFFFFFFFFLLLFFFFFFFLLLLLLLLLLLLLLLLLLLLLLLLLLLL
13451156666661646445551113336434552565343545412535
FFFFFFFFLLLLLLLLLFFFFFFFFFFFFFFFFFFFFFFFFFFFFFFFFF
31665465545353451355163643616666632316666316165256
FFFFFFFFFFFFFFFFFFFFFLFFFFLLLLLLLFFFFFLLLLLLFFFFFF
64616666466146566666633643111613463455335414214115
LLLLLLLLLLLLLLLLLLLLFFFFFFFFFFFFFFFFFFFFFFFFFFFFFF
64645415123512421132133511666666142332562345521666
LLLFFFFFFFFFFFFFFFFFFFFFFFLLLLLLFFFFFFFFFFFFFFFLLL
66633356656663654524241224666651664164542646666656
LLLLLLLLLLLLLFFFFFFFFFFFFLLLLLLLLFFFFFFFFFFLLLLLLL
65426415635663522116546545243666666626566233542352
FFFFFFFFFFFFFFFFFFFFFFFFFFFFFLLLLLLLLLLLLFFFFFFFFF
23522566666653211414124323625122232621564251566321
FFFFFFLLLLFFFFFFFFFFFFFFFFFFFFFFFFFFFFFFFFFFFFFFFF
46616646624644261263115666366665615126246666522344
FLLLLLLLFFFFFFFLLFFFFFLLLLLLLLLLLFFFLLLLLLLLLFFFFF
66666656124666643625615446553552133666664665566621
LLLLLLLLFFFFLLLFFFFFFFFFFFFFFFFFFFFLLLLLLLLLLLLFFF
31215453615146426416215231112236225314414543542164
FFFFFFFFFFFFFFLLLFFFFFFFFFFFFFFFFFFFFFFFFFFFFFFFFF
51424421451412223333425124232641416155166666125345
FFFFFFFFFFFFFFFFFFFFFFFFFFFFFFFFFFFFFFFFFLLLFFFFFF
53456634531515241512246434136663663365666666614446
FFFFFFFFFFFFFFFFFFFFFFFFFFFLLLLLLLLLLLLLLLLLLFFFFF
56621363411266656164664544413122656166234651216161
FFFFFFFFFFFFFFFFFFFFFFFFFFFFFFFFLLLLLLFFFFFFLFFFFF
66565166444353211541426214464526641461546655666663
LLLLLLLLFFFFFFFFFFFFFFFFFFFFFFFLLLLFFFFFFFFFFLLLLF
66662621645415626115546662614516623636666662664662
LLLLFFFFFFFFFFFFFFFFFFFFFFFFFFFFFFFLLLLLLLLLLLLLLL
11222336356136522223466466463666461314253261666624
FFFFFFFFFFFFFFFFFFFFFFLLLLLLLLLLLLFFFFFFFFLLLLLLLF
41631624644166544342663454263314263253645261564631
FFFFFFFFFFFFFFFFFFFFFFFFFFFFFFFFFFFFFFFFFFFLFFFFFF
66646366661212666666566636666666666366455364114535
LLLLLLLLLLLLLLLLLLLLLLLLLLLLLLLLLLLLLLLFFFFFFFFFFF
16666455256665664664645234524566665256156641642143
LLLLLFFFFFFLLLLLLLLLLLLFFFFFFFLLLLFFFFFFFFFFFFFFFF
66666666144136536151461551266436663566665652132166
LLLLLLLLFFFFFFFFFFFFFFFFFFFFFFFLLLLLLLLLFFFFFFFLLL
12333165324626111131661165643615662666666666666666
FFFFFFFFFFFFFFFFFFFFLFFFFFFFFFFFFLLLLLLLLLLLLLLLLL
14216634353213121144222522614361534136433356444114
FFFFFFFFFFFFFFFFFFFFFFFFFFFFFFFFFFFFFFFFFFFFFFFFFF
56253125262124165356314153351466663666665515161423
LLLFFFFFFFFFFFFFFFFFFFFFFFFFFFLLLLLLLLLLFFFFFFFFFF
64323266666162666652114465212134462266416313514124
LFFFFFLLLLLLLLLLLLFFFFFFLFFFFFFFFFFFLLLFFFFFFFFFFF
51625515661141423366654463326445445562126342623666
FFFFFFFFFFFFFFFFFFFFFFFFFFFFFFFFFFFFFFFFFFFFFFFLLL
51666666666266663512421322223622445252566344636616
FFFLLLLLLLLLLLLFFFFFFFFFFFFFFFFFFFFFFFFFFFFFLLLLLL
66666666661666655233212421422654453214246665666633
LLLLLLLLLLFLLLLFFFFFFFFFFFFFFFFFFFFFFFFFLLLLLLLLLL
46632515444652511662666166346666466625363511641332
FFFFFFFFFFFFFFFFFFFFLLLLLLLLLLLLLLLLFFFFFFFFFFFFFF
55256413526323325653153664626664666664666225161333
FFFFFFFFFFFFFFFFFFFFFFFLLLLLLLLLLLLLLLLLLLFFFFFFFF
36512421262246256666264531226666166662666666666663
FFFFFFFFFFFFFFFLLLLLFFFFFFFFLLLLLLLLLLLLLLLLLLLLLL
45556663611322464461122441335343163244544416431233
FFFFFFFFFFFFFFFFFFFFFFFFFFFFFFFFFFFFFFFFFFFFFFFFFF
22335466366666666666654656663522666666426546223331
FFFFFLLLLLLLLLLLLLLFFFFFFFFFFFFFLLLLLLLFFFFFFFFFFF
42542163262141162215256626646144624264661666135556
FFFFFFFFFFFFFFFFFFFFFFFLLLLFFFFFLFFLLLLLLLLFFFFFFF
23625322521531651251435263233624226335335563636666
FFFFFFFFFFFFFFFFFFFFFFFFFFFFFLFFFFFFFFFFFFFFFFLLLL
65213314524132261663246665155246252643534366566144
FFFFFFFFFFFFFFFFFFFFFFFFFFFFFFFFFFFFFFFFFFFLLLLFFF
35232166412531666465666642266666566165464264431416
FFFFFFFFFLFFFLLLLLLLLLLLFFFFFFFFFFFFFFFFFFFFFFFFFF
46662666656613631652566666466662344312555561352124
LLLLLLLLLLLLFFFFFFFFFLLLLLLLLLLFFFFFFFFFFFFFFFFFFF
66666314123411321645652565116466645455324164651145
LLLFFFFFFFFFFFFFFFFFFFFFFFFFFFFFFFFFFFFFFFFFFFFFFF
14464244126336336215166665666666666666666656666166
FFFFFFFFFFFFFFFFFFFFFLLLLLLLLLLLLLLLLLLLLLLLLLLLLL
16611111222435315533363136162215441665614632322124
FFFFFFFFFFFFFFFFFFFFFFFFFFFFFFFFFFFFFFFFFFFFFFFFFF
53666611525231351552612154543433536324433266654666
FFLLLFFFFFFFFFFFFFFFFFFFFFFFFFFFFFFFFFFFFFLLLLLLLL
55543526266345445212123454523411666166666666664645
FFFFFFFLLLLFFFFFFFFFFFFFFFFFFFFFLLLLLLLLLLLLLLLLLL
22536662121663431646616266666662666661365315412412
FFFFFFFFFFFFFFFFFFFLLLLLLLLLLLLLLLLLLFFFFFFFFFFFFF
56565265635165266246624244521256256563666666666666
LLLLLLLLLFFFFFFFFFFFFFFFFFFFFFFFFFFFLLLLLLLLLLLLLL
55253432353263535446212623263164666666114661461345
FFFFFFFFFFFFFFFFFFFFFFFFFFFFFFLLLLLLLFFFFLLLFFFFFF
44635234636666566616646623141462153321226666666655
FFFFFFFFFFLLLLLLLLLLLLLLLFFFFFFFFFFFFFFFFFLLLLLFFF
54526644425513662565546431161312244531126126666666
LFFFLLLFFFFFFFFFFFFFFFFFFFFFFFFFFFFFFFFLLLLLLLLLLL
13214514445255135543453662666616515612234612241565
FFFFFFFFFFFFFFFFFFFFFFFFFFLLLLLLFFFFFFFFFFFFFFFFFF
26666663621164314161156536366666615466136132315431
LLLLLLLLLFFFFFFFFFFFFFFFFLLLLLLLFFFFFLFFFFFFFFFFFF
66432654225411334666414142236656636666666666466662
FFFFFFFFFFFFFFFFFFLLFFFFFFFFLLLLLLLLLLLLLFLLLLLLLL
63253521623611432161542456532645666466666666646646
FFFFFFFFFFFFFFFFFFFFFFFFFFFFLLFFLLLLLLLLLLLLLLLLLL
12524532353243166662536424152562553324341465216446
FFFFFFFFFFFFFFFFLFFFFFFFFFFFFFFFFFFFFFFFFFFFFFFFFL
31413252551533143211225142664266566665466663263261
FFFFFFFFFFFFFFFFFFFFFFFFFFFFFFFLLLLLLLLLLLLFFFFFFF
63656666666413315166513232124542635113666646666654
FFFFLLLLLLLFFFFFFFFFFFFFFFFFFFFFFFFFFFLLLLLLLLLLFF
26211443131452361461541556666614614356246255455113
FFFFFFFFFFFFFFFFFFFFFFFFFFFFFFFFFFFFFLFFFFFFFFFFFF
64665215336365464652566646613243243463313466626626
FFFFFFFFFFFFFFFFFFFFFFFFFLLFFFFFFFFFFFFFFFLLLLLLFF
66666661666666666415322152131666166145143512453642
LLLLLLLLLLLLLLLLLFFFFFFFFFFFFLLLLLLLFFFFFFFFFFFFFF
26666666666632633326123325444331666664145252454666
LLLLLLLLLLLFFFFFFFFFFFFFFFFFFFFFLLLLFFFFFFFFFFFLLL
36636666661243641146666663463366656666662266563666
FLLLLLLLLLLFFFFFFFFLLLLLLLLLLLLLLFLLLLLLLLLLLLLLLL
33466616613114223635655311226153641661114645126536
FFFLLLLLLFFFFFFFFFFFFFFFFFFFFFFFFFFFFFFFFFFFFFFFFF
32123111423534563434126216666666216265621656666666
FFFFFFFFFFFFFFFFFFFFFFFFFLLLLLLLFLLLLLLLLLLLLLLLLL
61613124136345261145441454413425622445511555256515
FFFFFFFFFFFFFFFFFFFFFFFFFFFFFFFFFFFFFFFFFFFFFFFFFF
61666662616433433466665663666664626231222264646666
LLLLLLLLLLLFFFFFFFLLLLLLLLLLLLLLFFFFFFFFFFFFLLLLLL
14433465661462122131346556111353166666664441522356
FFFFFFLLLLLLLFFFFFFFFFFFFFFFFFFFLLLLLLLLFFFFFFFFFF
66663665526666661145154333335666666423655266666165
LLLLLLLLLLLLLLLLLFFFFFFFFFFFLLLLLLLFFFFFFFFFLLLLLL
54652556241666553314333412544656511426516166622664
FFFFFFFLLLLLLLLFFFFFFFFFFFFFFFFFFFFFFFFFFFFLLFFFFF
66666632166466666666645332466625465121263665651333
LLLLLLLLFLLLLLLLLLLLLFFFFFFLLLFFFFFFFFFLLLLFFFFFFF
34215354161535342253616636624611141662533212665666
FFFFFFFFFFFFFFFFFFFFLLLLLLLFFFFFFFFFFFFFFFFFLLLLLL
36126666666666532214645666663635663364326626226132
FFFFLLLLLLLLLLFFFFFFFFFLLLLLLLLFFFFFFFFFLLFFFFFFFF
26666632666666636662666666656632666266612222633114
FLLLLLLLLLLLLLLLLLLLLLLLLLLLLLFFLLLLLLLLFFFFFFFFFF
65523341161153141616366666664343366346524213552434
LFFFFFFFFFFFFFFFFFFLLLLLLLLLFFFFFLLLLLFFFFFFLFFFFF
12636666263235264654651566313635415461156626211434
LLLLLLLLFFFFFFFFFFFFFFFFFFFFFFFFFFFFFFFFFFFFFFFFFF
56666661226666616665665664161314332444253646135216
LLLLLLLLLLLLLLLLLLLLLLLLLLFFFFFFFFFFFFFFFFFFFFFFFF
66665666466664666665666661661555524516646643635155
LLLLLLLLLLLLLLLLLLLLLLLLLLLLFFFFFFFFFFLLLLFFFFFFFF
44356666624212124645156165352153436663131364636646
FFFFLLLLLFFFFFFFFFFFFFFFFFFFFFFFFFFFFFFFFFFFLLLLLL
66636666656263321634623116666666666343116165213163
LLLLLLLLLFFFFFFFFFFFFFFFLLLLLLLLLLLFFFFFFFFFFFFFFF
14652346656244356661116226666666666642611222631144
FFFFFFFLLLLFFFFFFFFFFFFFFLLLLLLLLLLLLLLFFFFFFFFFFF
64666366666666566641221366266666666666665666665412
LLLLLLLLLLLLLLLLLFFFFFFFLLLLLLLLLLLLLLLLLLLLLFFFFF
64225334253265566111123233564266661666161336166566
LFFFFFFFFFFFFFFFFFFFFFFFFFFFLLLLLLLLLLFFFFFFFFFLLL
65165256433542633325645116643666165661336354154114
FFFFFFFFFFFFFFLFFFFFFFFFFLLFFLLLFFFFFFFFFFFFFFFFFL
36244454666526666566666626664342321566653446245556
FFFFFFFFLLLLLLLLLLLLLLLLFLLLLFFFFFFFFFFFFFFFFFFFFF
35535113463626666666666366622666666451316366323625
FFFFFFFFFLLLLLLLLLLLLLLLLLLLLLLLLLLLFFFFFFFFFFFFFF
43656424632666666666666436666666662642155123361366
FFFFFFFFFFLLLLLLLLLLLLLLLLLLLLLLLFFFFFFFFFFFFFFFFF
31441244244146212525554655421215156545131261233434
FFFFFFFFFFFFFFFFFFFFFFFFFFFFFFFFFFFFFFFFFFFFFFFFFF
62646454421351455514232266332246545423432412226452
FFFFFFFFFFFFFFFFFFFFFFFFFFFFFFFFFFFFFFFFFFFFFFFFFF
52116442421111661535544466666664326351146656462426
FFFFFFFFFFFFFFFFFFFFFFFFLLLLLLFFFFFFFFFFLLLLFFFFFF
21261132321523234623655452214314256656666635366616
FFFFFFFFFFFFFFFFFLFFFFFFFFFFFFFFFFLLLLLLLLFFFFLLLL
66246366666666143314131411642231462336315616666666
LLLLLLLLLLLLLLFFFFFFFFFFFFFFFFFFFFFFFFFFFLLLLLLLLL
15152465666666616626266666666662166662666663663656
FFFFFFFFLLLLLLLLLLLLLLLLLLLLLLLLLLLLLLLLLLLLLLLLLL
66616415616366666663666435666115115363211234155363
LLLLLLLLLLLLLLLLLLLLLLLLLLLFFFFFFFFFFFFFFFFFFFFFFF
61413226611563123146336416641265556466666666366666
FFFFFFFFFFFFFFFFFFFFFFFFFFFFFFLFFFFLLLLLLLLLLLLLLL
41366666166134354261666625325446566633623314332431
FFFLLLLLLLLFFFFFFFLLLLLLFFFFFFFFFFFFFFFFFFFFFFFFFF
16555335664661333334665131521415536564253314126516
LFFFFFFFLLLLLLFFFFFFLFFFFFFFFFFFFFFFFFFFFFFFFFFFFL
14241215132266656662666666666666661431631544344313
FFFFFFFFFFFFLLLLLLLLLLLLLLLLLLLLLLLFFFFFFFFFFFFFFF
22212332111255363362364163223366661666552661145151
FFFFFFFFFFFFFFFFFFFFFFFFLLFFFFLLLLLLLLLFFFFFFFFFFF
45434431354434524633332344553526221122151242511114
FFFFFFFFFFFFFFFFFFFFFFFFFFFFFFFFFFFFLFFFFFFFFFFFFF
56452456161666662362355542415212524356213225423133
FLLFFFFFFLLLLLLFFFFFFFFFFFFFFFFFFFFFFFFFFFFFFFFFFF
56666666616662646661266216466611526626652116661162
LLLLLLLLLLLLLLLLLLLLLLFFFLLLLLFFFFFFFFFFFFFLLLLLLL
66666664114163666626666646646656666166666666661264
LLLLLLFFFFFLLLLLLLLLLLLLLLLLLLLLLLLLLLLLLLLLLLLLLL
66666646666432222543446421416263364264564663666666
LLLLLLLLLLLFFFFFFFFFFFFFFFFFFFFFFLLFLLLLLLLLLLLLLL
24264361662166352666666566666644644143665133664466
FFFFFFLLLLFFLLLLLLLLLLLLLLLLLLLLLFFFFFFFFFFFLLLLLL
66666666666664266624414544441626244666666466666364
LLLLLLLLLLLLLLLLFFFFFFFFFFFFFFFFFFFLLLLLLLLLLLLLLF
53435111614643466631125561666466366666645414444544
FFFFFFFFFFFFFFFFFFFFFFFFFFLLLLLLLLLLLLLFFFFFFFFFFF
63266666666642216341251253545312515131662661333461
FFFLLLLLLLLLFFFFFFFFFFFFFFFFFFFFFFFFFFLLLLLLFFFFFF
46365115332435566666661666654654634656635526555112
LLFFFFFFFFFFFFFFFLLLLLLLLLFFFFFFLFFFFFFFFFFFFFFFFF
35364416366646642435136321166645443324142634662211
FFFFFFFLLLLLFFFFFFFFFFFFFFLFLLFFFFFFFFFFFFFFFFFFFF
26531531311145252515454426436666534164224146666631
FFFFFFFFFFFFFFFFFFFFFFFFFFFFLLLLFFFFFFFFFFLLLLLLLL
54366666663645665142466466213323516653553626666663
FFFLLLLLLLLLFFFFFFFFFFLLLLFFFFFFFFFFFFFFFLLLLLLLLL
21256666266666533121464244155515615566666666661655
FFFFFLLLLLLLLLFFFFFFFFFFFFFFFFFFFFFFLLLLLLLLLLLLLL
66666666616666666666626166243633266654255325625266
LLLLLLLLLLLLLLLLLLLLLLLFFFFFFFFFFLLLLFFFFFFFFFFFFL
14566661165363411316666534665525365113445431261466
FFFLLLFFFFFFFFFFFFFFFFFFFFFFFFFFFFFFFFFFFFFFFFFFLL
23242625316454623165366515445636663666166662426362
FFFFFFFFFFLFFFFFFFFFFFFFFFFFFLLLLLLLLLFLLLLFFFLLLL
55254351321262466456235666261636666665665624146664
FFFFFFFFFFFFFFFFFFFFFFLLLLLLFLLLLLLLLFLLLLLLFLLLLL
44346151451541111656616666666444131663264224536432
FFFFFFFFFFFFFFFFFFFLLLLLLLLLLFFFFFFFFFFFFFFFFFFFFF
46661666665246366661666663666666363633266536656666
LLLLLLLLLLLLLLLLLLLLLLLLLLLLLLLLLLFFFFFLLLFLLLLLLL
36241622666666636613151636651552646621141454431116
FFFFFFFFFLLLLLLLLLFFFFFFFFFFFFFFFFFFFFFFFFFFFFFFFF
13142432246235455212366666666643666643546562234535
FFFFFFFFFFFFFFFFFFFFFLLLLLLLLLFFFLLLFFFFFFFFFFFFFF
16666663213516656635333343533334661545322645564156
LLLLLLFFFFFFFFLLLLFFFFFFFFFFFFFFFFFFFFFFFFFFFFFFFF
24526626666666663465651225611323422516542422336545
FFFFLLLLLLLLLLLLFFFFFFFFFFFFFFFFFFFFFFFFFFFFFFFFFF
66266212242164625533441645624366161661551525315126
LLLLLFFFFFFFFFFFFFFFFFFFFFFFFLLLLLLLFFFFFFFFFFFFFF
61111211531666666566656662466663634662166666666611
FFFFFFFFFFFLLLLLLLLLLLLLLLLLLLLLLLLLLLLLLLLLLLLLFF
64324513621436146546566543124536143516654134326626
FFFFFFFFFFFFFFFFLLLLLLLFFFFFFFFFFFFFFFFFFFFFFFLLLL
15151156614555464166412564666666666666613665162666
FFFFFFFFFFFFFFFFFFFFFFFLLLLLLLLLLLLLLLLLLLLLLLLLLL
44165133353413266443616666662566316511155644611426
FFFFFFFFFFFFFFFFFFFFLLLLLLLLLLLLFFFFFFFFFFFFLFFFFF
25314364666136526664666662564466564266144451262666
FFFFFFFFFFFFFFFFLLLLLLLLLFFFFFLLLLLLLLFFFFFFFFLLLL
45666626666626634666663465166366625666666666666333
LLLLLLLLLLLLLLLLLLLLLLFFFFFFFFLLLLLLLLLLLLLLLLFFFF
65615355234536666566666664616626542635422122436163
FFLFFFFFFFFFFFLLLLLLLLLLLLLLLLLLLLLLFFFFFFFFFFFLLL
53551331516666665315165242266666113222366666656564
FFFFFFFFFFLLLLLLLFFFFFFFFFFLLLLFFFFFFFLLLLLLLLLFFF
25465441626526251462626263166366665322252261632635
FFLLFFFFFFFFFFFFFFFFFFFFFFFLLLLLFFFFFFFFFFFFLFFFFF
62444136535513342265261666313251224146354331142536
FFFFFFFFFFFFFFFFFLLLLLLLLLFFFFFFFFFFFFFFFFFFFFFFFF
21245141634215145342666513135562311335532141166666
FFFFFFFFFFFFFFFFFFFFFLLFFFFFFFFFFFFFFFFFFFFFLLLLLL
53621414565655534266166434361666666113666666154534
FFFFFFFFFLLLFFFFFFFFFFFFFFFLLLLLLLLLLLLLLLLLFFFFFF
51665343335644133511452556355362366466666166665353
LLLLLFFFFFFFFFFFFFFFFFFFFFFFFFLLLLLLLLLLLLLLLFFFFF
66414355412653343532554131436614651526514346331656
LLFFFFFFFFFFFFFFFFFFFFFFFFFFLLFFFFFFFFFFFFFFFFFFLL
16622654366441236466621653643334632213615551463535
LLLLLLFFFLLLLFFFFFFFFFFFFFFFFFFFFFFFFFFFFFFFFFFFFF
44666666641665666666663616626366666666351246366616
FLLLLLLLLFFLLLLLLLLLLLLLLLLLLLLLLLLLLLFFFFFFFFLLLL
51366662266654116646415432625553324164162542635464
FFFFLLLLLLLLFFFFFFFFFFFFFFFFFFFFFFFFFFFFFFFFFFFFFF
66436536421145366666166646522331356626411434661356
LLLLFFFFFFFFFFLLLLLLLLLLLLFFFFFFFFFFFFFFFFFFLLFFFF
65343325622423524121251646654562313162224353663256
FFFFFFFFFFFFFFFFFFFFFFFFFFFFFFFFFFFFFFFFFFFFLLFFFF
16532116451566666466666634422235245563654114431652
LFFFFFFFFFFFLLLLLLLLLLLLFFFFFFFFFFFFFFFFFFFFFFFFFF
33256265363431464316664145266662626234366626466456
FFFFFFFFFFFFFFFFFFFLLLFFFFLLLLLFFFFFFFFLLLLLLLLLLL
23214516411524213666666466666666366664616665122212
FFFFFFFFFFFFFFFFFLLLLLLLLLLLLLLLLLLLLLLLLLFFFFFFFF
11532455154621361626461361565525626253125443124243
FFFFFFFFFFFFFFFFFFFFFFFFFFFFFFFFFFFFFFFFFFFFFFFFFF
23666651566265245444663445443533666453414664162266
LLLLLLLLLLLFFFFFFFFFLLLFFFFFFFFFFFFFFFFFFFFFFFFFFF
62536666666666664666461463633163556616643466666666
FFFFLLLLLLLLLLLLLLLLLLFFFFFFFFFFFFLLFFFFFFLLLLLLLL
35152151626544163442256665551664666225413424214235
FFFFFFFFFFLFFFFFFFFFFFLLLFFFFFFFFFFFFFFFFFFFFFFFFF
66663666661666433362412221566366511443632345256666
LLLLLLLLLLLLLLFFFFFFFFFFFFFLLLLLLFFFFFFFFFFFFFFFLL
62142311116565266666666265311153543436112326515235
FFFFFFFFFFFFFFFLLLLLLLLLLFFFFFFFFFFFFFFFFFFFFFFFFF
61326314242445331514415354322611145166666346125122
FFFFFFFFFFFFFFFFFFFFFFFFFFFFFFFFFFFFFFLLLLLLLFFFFF
66614224246415116166665666666666666661621332631345
LLLFFFFFFFFFFFFFFFLLLLLLLLLLLLLLLLLLFLLLFFFFFFFFFF
15164325643662663666661416311323261245246261416646
FFFFFFFFFFLLLLLFLLLLLLLFFFFFFFFFFLFFFFFFFFFFFFFFFL
61666136541661363654214436416254613451165322162466
FFFFFFFLLLLLLLLLLFFFFFFFFFFFFFFFFFFFFFFFFFFFFFFFFF
64566166624211242214525256436346666666626566556655
FFFLLLLLLFFFFFFFFFFFFFFFFFFFLLLLLLLLLLLLLLLLLFFLFF
26531545441452212536254256422663546544426612433166
FFFFFFFFFFFFFFFFFFFFFFFFFFFFFFFFFFFFFFFFFFFFFFFFLL
