1126666661666666561456646
FFFLLLLLLLLLLLLLLLLLLLLLL
5362565116421135314564434
FFFFFFFFFFFFFFFFFFFFFFFFL
6622223366156666666436251
LLFFFFFFFFFFLLLLLLLFFFFFF
2256532556251142233461233
FFFFFFFFFFFFFFFFFFFFFFFFF
6632421222352551566122644
LFFFFFFFFFFFFFFFFFFFFFFFF
2361665431356433333156136
FFFFFFFFFFFFFFFFFFFFFFFFL
4632666666616666166266666
LLLLLLLLLLLLLLLLLLLLLLLLL
1333641266666666666666656
FFFFFFFFLLLLLLLLLLLLLLLLL
2532226112534613343252552
FFFFFFFFFFFFFFFFFFFFFFFFF
3632413413653621632541366
FFFFFFFFFFFFFLFFLFFFFFLLL
1442513143554616455262435
FFFFFFFFFFFFFFFFFFFFFFFFF
4426266442642123663452542
FFFFFFFFFFFFFFFFFFFFFFFFF
1165165143562666666666666
FFFFFFFFLLLLLLLLLLLLLLLLL
6454664542616666264411412
LLFFFFFFFFFFLLLLFFFFFFFFF
4624154556432124536124326
FFFFFFFFLLFFFFFFFFFFFFFFL
6145156554612213136551246
FFFFFFFFFFFFFFFFFFFFFFFFF
6664535153535624455631251
LLLFFFFFFFFFFFFFLFFFFFFFF
1666616666666642531244334
FLLLLLLLLLLLLLFFFFFFFFFFF
6666366663265335416563666
LLLLLLFFFFFFFFFFFFLLLLLLL
3321131566666662366663652
FFFFFFFFLLLLLLLLLLLLLLLFF
3266666143365666664243136
FFFFLLLFFFFLLLLLLLFFFFFFF
6666666666666666666616366
LLLLLLLLLLLLLLLLLLLLLLLLL
4666366663426315425213566
LLLLLLLLLFFFFFFFFFFFFFFFL
1546442566666665643246216
FFFFFFLLLLLLLLLLLFFFFFFFF
4666666666446165666666666
LLLLLLLLLLLLLLLLLLLLLLLLL
6466666646654216666663321
FLLLLLLLLLLFFFLLLLLLFFFFF
6166366664353354616666146
LLLLLLLLLLFFFFFFFFLLLLLLL
6666213552334312666624515
LLFFFFFFFFFFFFFLLLLLFFFFF
6666636166616666662111665
LLLLLLLFFLLFLLLLLLFFFFLLL
1666643553416664425344116
FFLLLLFFFFFFFFFFFFFFFFFFF
2455121521353335123452443
FFFFFFFFFFFFFFFFFFFFFFFFF
4314423162322142255614531
FFFFFFFFFFFFFFFFFFFFFFFFF
4654556346666666663646666
FFFFFFFLLLLLLLLLLFFLLLLLL
3535341653661565666666613
FFFFFFFFFFLLLLLLLLLLLLLLF
6666644546526624521361544
LLLLLLFFLFFFFFFFFFFFFFFFF
6142656656656345425114153
FFFFLLLLLLLFFFFFFFFFFFFFF
2662241321116656634466666
FFFFFFFFFFFFLLLLLFFFLLLLL
5666226666161454163134126
FLLLLLLLLLLLFFFFFFFFFFFFF
1432666422463236266666666
FFFFFFFFFFFFFFFFFLLLLLLLL
6666266641666616666661561
LLLLLLLLLLLLLLLLLLLLLFFFF
