6343243126313615341423161
FFFFFFFFFFFFFFFFFFFFFFFFF
5311533652616664566366533
FFFFFFFFFFFFLLLLFLLLLLFFF
5345635134266656641345315
FFFFFFFFFFFLLLLLLFFFFFFFF
4411534661662451563141325
FFFFFFFLLLLLFFFFFFFFFFFFF
2554553165635451223131114
FFFFFFFFLLLFFFFFFFFFFFFFF
2466244122266446162525165
FFFFFFFFFFFLLLLLFFFFFFFFF
5434443266666616666664666
FFFFFFFFLLLLLLLLLLLLLLLLL
5454654434442436652163132
FFFFFFFFFFFFFFFFFFFFFFFFF
1615452633631442116413356
FFFFFFFFFFFFFFFFFFFFFFFFL
1545564153451132434652213
FFFFFFFFFFFFFFFFFFFFFFFFF
4251535521124632226551531
FFFFFFFFFFFFFFFFFFFFFFFFF
4223561544221224416531412
FFFFFFFFFFFFFFFFFFFFFFFFF
4662561563216311635266611
FFLFFFFFFFFFFFFFFFFFFFFFF
6346156521636632624343122
FFFFFFFFFFFFFFFFFFFFFFFFF
6654664214561663265666325
FFFFFFFFFFLLFLLLLLLLLLFFF
5161364254252145113231666
FFFFFFFFFFFFFFFFFFFFFFLLL
6654225134113522614236665
LLFFFFFFFFFFFFFFFFFFFFFFF
2156366566666666666266666
FFFFLLLLLLLLLLLLLLLLLLLLL
5655666664634644556335665
FFFFLLLLLLLLLLLFFFFFFFFFF
6666634452151566661441624
FFFFFFFFFFFLLLLLLLLLLLLLF
4443612246335334142125633
FFFLLLLLFFFFFFFFFFFFFFFFF
3513514145656662666622431
FFFFFFFFFFLLLLFLLLLLFFFFF
4443562445345466144336416
FFFFFFFFFFFFFFFFFFFFFFFFF
5311326555615426226644636
FFFFFFFFFFFFFFFFFFFFFFFFF
6464312151433555615666666
FFFFFFFFFFFFFFFFFFFLLLLLF
6646666623126152644425435
LLLLLLLLFFFFFFFFFFFFFFFFF
6666462234621435666666566
LLLLFFFFFFFFFFFFLLLLLLLLL
6666666666666566321234661
LLLLLLLLLLLLLLLFFFFFFFFFF
6235425443321152654414133
FFFFFFFFFFFFFFFFFFFFFFFFF
6142464145611232261514254
FFFFFFFFLFFFFFFFFFFFFFFFF
1341636665121523546666666
FFFFFFLLLFFFFFFFFFLLLLLLL
5254441612562326331563245
FFFFFFFFFFFFFFFFFFFFFFFFF
4331645431662666666665265
FFFFFFFFFLLLLLLLLLLLLFFFF
2426656611163626666621411
FLLLLLLLFFFFFFFLLLLLFFFFF
2223332135616123434246666
FFFFFFFFFFFFFFFFFFFFFLLLL
3266414554146312666664666
FFFFFFFFFFFFFFFFLLLLLLLLL
4462624561656156342242115
FFFFFFFFFFFFFFFFFFFFFFFFF
6154362115345613411223424
FFFFFFFFFFFFFFFFFFFFFFFFF
1122663242346136646226356
FFFFFFFFFFFFFFFLLLLLLLLLL
6626166666666661516266461
LLLLLLLLLLLLLLFFFFLLLLLLF
4151166446262164616252333
FFFFFFFFFFFFFFFFFFFFFFFFF
2524552365351411151316214
FFFFFFFFFFFFFFFFFFFFFFFFF
2665336321142446666532364
LLFFFFFFFFFFFFLLLLFFFFFFF
3614665424556566615165414
FFFFFFFFFFFFLLLLLFFFFFFFF
6322366666466666246666146
FFFFFLLLLLLLLLLLLLLLLLFFF
6666656365153554221441351
FLLLLLLLLFFFFFFFFFFFFFFFF
4663666666666365654225513
LLLLLLLLLLLLLFFFFFFFFFFFF
6415141212231634666665446
FFFFFFFFFFFFFFFFFFFLLFFFF
1155536234322146635341433
FFFFFFFFFFFFFFFFFFFFFFFFF
4452252536321416626124462
FFFFFFFFFFFFFFFLFFFFFFFFF
6315612345666666666666321
FFFFFFFFFLLLLLLLLLLLLLFFF
5425246646561545666663663
FFFFFFFFLLFFFFFFFFLLLLLLL
6636666256516664666366666
LLLLLLLLLLLLLLLLLLLLLLLLL
6166666236616666666666666
LLLLLLLLLLLLLLLLLLLLLLLLL
6164333242365123521125514
LFFFFFFFFFFFFFFFFFFFFFFFF
1351666666163666666164411
FFFFLLLLLLLLLLLLLLLLLLFFF
4224314325615666625215331
FFFFFFFFFFFFFLLLLFFFFFFFF
6215315642152135466623446
FFFFFFFFFFFFFFFFFLLFFFFFF
3521356426662162425313126
FFFFFFLFLFFFFFFFFFFFFFFFF
5341426315124425362253152
FFFFFFFFFFFFFFFLLFFFFFFFF
6114332426121641362426254
FFFFFFFFFFFFFFFFFFFFFFFFF
6252655512415211232554613
FFFFLLFFFFFFFFFFFFFFFFFFF
1662262443431344456226666
FFFFFFFFFFFFFFFFFFLLLLLLL
5424566262613152115665612
FFFFLLLLLLLLFFFFFFFFFFFFF
6446626525351152234656666
LLLLLFFFFFFFFFFFFFFFFLLLL
2664155261215666364365332
FFFLLFFFFFFFFFFFFLLFFFFFF
2314563633422136441166666
FFFFFFFFFFFFFFFFFFFFFLLLL
1634241515131411142666663
FFFFFFFFFFFFFFFFFFFLLLLLL
1536625614236666646166315
FFFLLFFFFFFFLLLLLLLLFFFFF
6453532332142656166646663
FFFFFFFFFFFFLLLLFLLLLLLLL
4666666666661666263225243
FLLLLLLLLLLLLLLLLLLFFFFFL
6412361325651251153213521
LFFFFFFFFFFFFFFFFFFFFFFFF
2522616336356111323532115
FFFFFFFFFFFFFFFFFFFFFFFFF
6264321166514644325645424
LFFFFFFFFFFFFFFFFFFFFFFFF
6566466666621441133433512
LLLLLLLLLLLFFFFFFFFFFFFFF
1216132212433666144632621
FFFFFFFFFFFFFFFFFFFFFFFFF
6666666662313623443336146
LLLLLLLLFFFFFFFFFFFFFFFFF
6626461635141244632254451
FFFFFFFFFFFFFFFFFFFFFFFFF
4343463532312512465254264
FFFFFFFFFFFFFFFFFFFFFFFFF
2141114623456663666252132
FFFFFFFFFFFFLLLLLLLFFFFFF
