21314666666554666615133542134525553322564122563443
FFFFLLLLLLLLLLLLLLLFFFFFFFFFFFFFFFFFFFFFFFFFFFFFFF
51464325366211242532463666666665666566466565666366
FFFFFFFFFFFFFFFFFFFFLLLLLLLLLLLLLLLFFFFLLLLLLLLLLL
31456666666666663666656222254115431524425666365364
FFFFLLLLLLLLLLLLLLLLLLLLFFFFFFFFFFFFFFFFFLLFFFFFFF
53252143431365616616654354633335254541232652134644
FFFFFFFFFFFFFFFFFFFFFFFFFFFFFFFFFFFFFFFFFFFFFFFFFF
65514663624166363266454611262345232645361332125236
FFFFFFLLLLFFFLLLLLLLFFFFFFFFFFFFFFFFFFFFFFFFFFFFFF
16255666666656143666666666666666661352335521246443
FFFFFLLLLLLLLLLLLLLLLLLLLLLLLLLLLLFFFFFFFFFFFFFFFF
32555253513655421333556542344562232251422132436355
FFFFFFFFFFFFFFFFFFFFFFFFFFFFFFFFFFFFFFFFFFFFFFFFFF
64336143233531643412415642254635156364154645436666
FFFFFFFFFFFFFFFFFFFFFFFFFFFFFFFFFFFFFFFFFFFFFFLLLL
66362412444553545464553456164163552162455666665656
LLFFFFFFFFFFFFFFFFFFFFFFFFFFFFFFFFFFLFFFFLLLLLFFFF
66666666554224231524133633566662662435631536664466
LLLLLLLLLFFFFFFFFFFFFFFFFFFFLLLLLLFFFFFFFFFLLFFFLL
46522666666666666653344524336462221255566242465666
FFFLLLLLLLLLLLLLLLFFFFFFFFFFLFFFFFFFFFFFFFFFLLLLLL
66363426552566666463436335543641262452212566266641
FFFLFFFFFFFFLLLLLLFFFFFFFFFFFFFFFFFFFFFFFLLLLLLFFF
46666666421546646265666652216235325465163622533316
FFLLLLLLFFFFLLLLLLLLLLLFFFFFFFFFFFFFFFFFFFFFFFFFFF
44562135124423141633622266445644642233263364454436
FFFLFFFFFFFFFFFFFFFFFFFFLFFFFFFFFFFFFFFFFFFFFFFFFF
64666666616666662266255456632561412225216423322265
LLLLLLLLLLLLLLLLLLLLFFFFFFFFFFFFFFFFFFFFFFFFFFFFFF
25563416421666531266626666666662524355663241351441
FFFFFFFFFFFLLLLLLLLLLLLLLLLLLLLFFFFFFFFFFFFFFFFFFF
66666642662651232335524121666666645644514666666666
LLLLLLLLLLLLLFFFFFFFFFFFFFFLLLLLLFFFFFFFFFLLLLLLLL
31542512342222156666664546616466666643566666266626
FFFLFFFFFFFFFFFLLLLLLLLFFLLLLLLLLLLLLLLLLLLLLLLLLL
46626665616656225424262533213131563246331522135136
FFLLLLLLLLLLLLFFFFFFFFFFFFFFFFFFFFFFFFFFFFFFFFFFFF
65366661636146461335632133366451423324146666666666
LLLLLLFFFFFFFFFFFFFFFFFFFFFFFFFFFFFFFFFFFFLLLLLLLL
34551452664131452436435235435411461662651666666666
FFFFFFFFFFFFFFFFFFFFFFFFFFFFFFFFFFFFFFLLLLLLFLLLLL
11512623212433516666666452415666362515514123421562
LLFFFFFFFFFFFFFFLLLLLFFFFFFFFLLLLLFFFFFFFFFFFFFFFF
55355652432364162621326641115325356412643626461651
FFFFFFFFFFFFFFFFFFFFFFLLLFFFFFFFFFFFFFFFFFFFFFFFFF
11621455444464216356666666661663642346646666666666
FFFFFFFFFFFFFFFFFFFLLLLLLLLLLLLFFFFFFFLLLLLLLLLLLL
55562223315216256515666211464453414666663666663363
FFFFFFFFFFFFFFFFFFFFLLFFFFFFFFFFFFFLLLLLLLLLLLFFFF
25523123542532315636561214431525511411224564654666
FFFFFFFFFFFFFFFFLLFFFFFFFFFFFFFFFFFFFFFFFFLLLLLLLL
61366646666166626666665666666242546156666666666666
FFLLLLLLLLLLLLLFFLLLLLLLLLLLLFFFFFFFFLLLLLLLLLLLLL
52633454666526666356323632165641422413441612363465
FFFFFFFFLLLLLLLLFFFFFFFLFFFFFFFFFFFFFFFFFFFFFLFFFF
66625612451113123234314533646324315455236631431424
LLFFFFFFFFFFFFFFFFFFFFFFFFFFFFFFFFFFFFFFFFFFFFFFFF
25335462665644166166363654624341326222645132513113
FFFFFFFFLLLLLLLLLLLLLLFFFFFFFFFFFFFFFFFFFFFFFFFFFF
61646666366122141236616666666666666661612153236352
LLLLLLLLLLLFFFFFFFFLLFLLLLLLLLLLLLLLLFFFFFFFFFFFFF
61666366646112336134161265624346666666666646662416
LLLLLLLLLLLFFFFFFFFFFFFFFFFFFFFLLLLLLLLLLLLLLLFFFF
36242114316113352532546525252355235545214413452342
FFFFFFFFFFFFFFFFFFFFFFFFFFFFFFFFFFFFFFFFFFFFFFFFFF
66263332131124112116153232616564336645644356342543
LLLLFFFFFFFFFFFFFFFFFFFFFFLLFFFFFFFFFFFFFFFFFFFFFF
65355236351234216616666666666116666664355615666365
FFFFFFFFFFFFFFFFFFFLLLLLLLLLLLLLLLLLLFFFFFFFFFFFFF
42356346135136233532535633455356152541345124355442
FFFFFFFFFFFFFFFFFFFFFFLLFFFFFFFFFFFFFFFFFFFFFFFFFF
43136146666656666626561666666366646636666666633253
FFFFFFFLLLLLLLLLLLFFLLLLLLLLLLLLLLLLLLLLLLLLLFFFFF
61366612466111352341443363515663666666613313264353
LLLLLLLLLLLFFFFFFFFFFFFFFFFFFLLLLLLLLFFFFFFFFFFFFF
44116416232541622434146562421151165626666226224152
FFFFFFFFFFFFFFFFFFFFFFFFFFFFFFFFFLLLLLLLLLLFFFFFFF
26625166666666665461535513133465424446453315364122
LLLLLLLLLLLLLLLFFFFFFFFFFFFFFFFFFFFFFFFFFFFFFFFFFF
