32432536323155536452666626666566636666662663666666
FFFFFFFFFFFFFFFFFFFFLLLLLLLLLLLLLLLLLLLLLLLLLLLLLL
16146156636664666646661636632654526542221352631116
FFFFFFFLLLLLLLLLLLLLLLLLLLLFFFFFFFFFFFFFFFFFFFFFFF
33246211236544345432166415223561611224511365226261
FFFFFFFFFFFFFFFFFFFFFFFFFFFFLLLFFFFFFFFFFFFFFFFFFF
66666666166644661666143352666426646325325312666646
LLLLLLLLLLLLLLLLLLLLLFFFFFFFFFFFFFFFFFFFFFFFFLLLLL
46666664666335446366636666666331226156636165664666
FLLLLLLLLLLFFFFFFFLLLLLLLLLLLFFFFFFFFLLLLLLLLLLLLL
56566631662316412132612236156146656545266666666666
FFFLLLFFFFFFFFFFFFFFFFFFFLLLLFFFFFFFFFFFLLLLLFLLLL
44255436434241454463343413614111233442236523556456
FFFFFFFLLFFFFFFFFFFFFFFFFFFFFFFFFFFFFFFFFFFFFFFFFF
44325356566642212566425654315664314642153121441325
FFFFFFFLLLLLLFFFFFFFFFFFFFFFLFFFFFFFFFFFFFFFFFFFFF
15623325633245311361264566363623364644514233543256
FFFFFFFFFFFFFFFFFFFFFFFFFLLLLFFFFFFFFFFFFFFFFFFFFF
33666666666466662255665646616166666666663644512666
LLLLLLLLLLLLLLLLFFFFFFFFFFLLLLLLLLLLLLLLLLLLLLLLLL
16666316536565656123115353644144114565564136256234
LLLLFFFFFFFLLFFFFFFFFFFFFFFFFFFFFFFFFFFFFFFFFFFFFF
32412366666666666666554464153632316646254422154166
FFFFFFLLLLLLLLLLLLLLLLFFFFFFFFFFFFFFFFFFFFFFFFFLLL
66136666666443636666566666662366666665662242312134
LLLLLLLLLLLLLLLLLLLLLLLLLLLLLLLLLLLLLFFFFFFFFFFFFF
52422655646643456663465634666666624445566135452545
FFFFFFFFFFFFFFFFFFFFFFFFFFLLLLLLLLFFFFFFFFFFFFFFFF
66266551463153666666666666664513646655136656666634
LLLLLFFFFFFFFFLLLLLLLLLLLLLLLLFFLLLLFFFFFLLLLLLLFF
66666664566616666666661666666662666666666446666661
LLLLLLLLLLLLLLLLLLLLLLLLLLLLLLLLLLLLLLLLLFFLLLLLLL
63141546444213431453364521626242263361325642126162
FFFFFFFFFFFFFFFFFFFFFFFFFFFFFFFFFFFFFFFFFFFFFFFFLL
42235524666446535416632224542256646342645325214645
FFFFFFFFFFFFFFFFFFFFFFFFFFFFFFFFFFFFFFFFFFFFFFFFFF
62666663642636364434143514655632666666666634326466
LLLLLLFFFFFFFFFFFFFFFFFFFFFFFFFFLLLLLLLLLLFFFLLLLL
66666635615436351516421666666636266664541342153116
LLLLLLFFFFFFFFFFFFFFFFLLLLLLFFFFLLLLFFFFFFFFFFFFFL
32545346251526562465265613516526442665666266666656
FFFFFFFFFFFFFFFFFFFFFFFFFFFFFFFFFFFLLLLLLLLLLLLLLL
66666162543264555546215541661666666666665666666663
FLLLLLFFFFFFFFFFFFFFFFFFFFLLLLLLLLLLLLLLLLLLLLLLLF
61661446131311642125452361242225666245326465455622
LLLLFFFFFFFFFFFFFFFFFFFFFFFFFFFFFFFFFLLFFFFFFFFFFF
36635623433132345565153454523361412532665666665663
LLLFFFFFFFFFFFFFFFFFFFFFFFFFFFFFFFFFFFFLLLLLLLLLLL
66666636665432452234264621535453641262151623266414
LLLLLLFFFFFFFFFFFFFFFFFFFFFFFFFFFFFFFFFFFFFFFFFFFF
34655425332243552122442534456666136666666666263616
FFFFFFFFFFFFFFFFFFFFFFFFFFFFLLLLLLLLLLLLLLLLLLLLLL
66666664366634266666666664646616523124251125614633
LLLLLLLFFFFFFFFLLLLLLLLLLFLLLLLLFFFFFFFFFFFFLFFFFF
12122664145366133141426454356564256516614166565626
FFFFFFFFFFFFFFFFFFFFFFFFFFFFFFFFFFFFFFFFFFFLLLLLLL
11666666666644223532323522466554554432666152621641
FLLLLLLLLLFFFFFFFFFFFFFFFFFFFFFFFFFFFLLLLLLFFFFFFF
66666666666666623655146634543454251416452551154662
LLLLLLLLLLLLLLLFFFFFFFFFFFFFFFFFFFFFFFFFFFFFFFLLFF
44463623521221664666666632431642224161211116361155
FFFFFFFFFFFFFFFLLLLLLLLLFFFFFFFFFFFFFFFFFFFFFFFFFF
43235252424424466332465162464566616666666165663145
FFFFFFFFFFFFFFFFFFFFFFFFLLLLLLLLLLLLLLLLLLLLLFFFFF
31415443412663212125142655241462555346636666655121
FFFFFFFFFFFFFFFFFFFFFFFFFFFFFFFFFFFFFLLLLLLLLFFFFF
66252141525333146465355322111115236165643265166245
FFFFFFFFFFFFFFFFFFFFFFFFFFFFFFFFFFFFFFFFFFFFFFFFFF
62436664636266646616661663364646424651663413216666
FFFFLLLLLLLLLLLLLLLLLLLLLFFFFLLLFFFFFFFFFFFFFFLLLL
13166646635666666666626355653621441421555261636366
FFFLLLLLLLLLLLLLLLLLLLLFFFFFFFFFFFFFFFFFFFFFFFFFLL
24366666213352231666465264653624362135224316213214
FFFLLLLLLFFFFFFFFLLLLLLFLLLFFFFFFFFFFFFFFFFFFFFFFF
16621311136124221513456326553666666664566612256213
FFFFFFFFFFFFFFFFFFFFFFFFFFFFFFFLLLLLLFFLLFFFFFLFFF
66566665666666314143614134315536524466232455636666
LLLLLLLLLLLLFFFFFFFFFFFFFFFFFFFFFFFFFFFFFFFFFFFLLL
45224363666642614165433666666654666666666666322354
FFFFFFLLLLLLFFFFFFFFFFFLLLLLLLLLLLLLLLLLLLLLLFFFFF
35541556413516311526666466132545445154114612513162
FFFFFFFFFFFFFFFFFFFLLLLLLLFFFFFFFFFFFFFFFFFFFFFFFF
61663666636666452241141361666616666166666666666666
LLLLLLLLLLLLLLLLFFFFFFFFFLLLLLLLLLLLLLLLLLLLLLLLLL
66666652666255132456251513546664166666666666666666
LLLLLLLLLLLFFFFFFFFFFLFFFFLLLLLLLLLLLLLLLLLLLLLLLL
55166336621335533164342656666663666663254212265463
FFFLLLLLLFFFFFFFFFFFFFFLLLLLLLLLLLLLLFFFFFFFFFFFLL
66143246533436666664666666535662346154456666661666
FFFFFFFFFFFFFFLLLLLLLLLLLLLLLLLFFFFFFFFFLLLLLLLLLL
55536616226633666666566631564164346453666666666661
FFFFFFFFFFLLLLLLLLLLLLLLLFFFFFFFFFFFFFFFLLLLLLLLLF
36454153166626666266124512666626446666466666624666
LLLFFFFFFLLLLLLLLLLLLFFFFFLLLLLLLFLLLLLLLLLLLLLLFF
36616213231131213321512261521426626635626635161661
FFFFFFFFFFFFFFFFFFFFFFFFFFFFFFFLFFFLLLLLFFFFFFLLFF
65166666666666646661143564124144251666636666666566
FFFLLLLLLLLLLLLLLLLFFFFFFFFFFFFFFFLLLLLLLLLLLLLLLL
66666661331232526253236442622131525622222345213466
LLLLLLLFFFFFFFFFFFFFFFFFFFLFFFFFFFFFFFFFFFFFFFFFLL
26545265525113164266551334346221265116421552231433
FFFFFFFFFFFFFFFFFFFFFFFFFFFFFFFFFFFFFFFFFFFFFFFFFF
15443215516365235614646536162241663661666666666266
FFFFFFFFFFFFFFFFFFFFLFFFFFFLFFFFLLLLLLLLLLLLLLLLLL
46653553133143242111343432641255266661666662643326
FFFFFFFFFFFFFFFFFFFFFFFFFFFFFFFFFLLLLLLLLLLLLFFFFF
23546541564615263142336116666666636666666666632265
FFFFFFFFFFFFFFFFFFFFFFFFFLLLLLLLLLLLLLLLLLLLFFFFFF
66636416626422463423612112546656663666221123162512
LLLLLLLLLLLFFFFFFFFFFFFFFFFFFFFLLLLLLLLLLLFFFFFFFF
66666656666366666616656566666662625454651126311414
LLLLLLLLLLLLLLLLLLLLLLLLLLLLLLLFFFFFFFFFFFFFFFFFFF
64533666341536265666466635236115666651666266666666
FFFFFFFLFFFFFLFLLLLLLLLLFFFFFFFFLLLLLLLLLLLLLLLLLL
65464511116556355221366662666615136424464646524536
LFFFFFFFFFFFLLFFFFFFFFFFLLLLLLFFFFFFFFFFFFFFFFFFFF
66444416111333211326311366313414343446456162662426
FFFFFFFFFFFFFFFFFFFFFFFFFFFFFFFFFFFFFLLLLLLLLLFFFF
12666166266615331366616316346214163156141542562656
FFLLLLLLLLLLFFFFFFLLLFFFFFFFFFFFFFFFFFFFFFFFFFFFFF
66622345664666666366266616666654612125366661135135
LLLLFFFFFLLLLLLLLLLLLLLLLLLLLLFFFFFFFFFLLLLFFFFFFF
66226462661655645636231142112665623665566626366666
FLLLFFFFFFFFFFFFFFFFFFFFFFFFFFFFFFFFFFFLLLLLLLLLLL
66632636346142653125545215656642464534545646661623
LLLLLLLLFFFFFFFFFFFFFFFFFFFFFFFFFFFFFFFFFFFFLLLLFF
36352666626626416355132114432621335416231215542355
FFFFFLLLLLLLLLFFLLFFFFFFFFFFFFFFFFFFFFFFFFFFFFFFFF
45166164666666461642512453463222316254414422666664
FFFFFFFLLLLLLFFFFFFFFFFFFFFFFFFFFFFFFFFLFFFFFLLLFL
54644613144353511112512661662645424152315165512526
FFFFFFFFFFFFFFFFFFFFFFFLLLLLLLFFFFFFFFFFFFFFFFFFFF
54156666616661646626666666666666566466416666656666
FFFFLLLLLLLLLLLLLLLLLLLLLLLLLLLLLLLLLLLLLLLLLLLLLL
14263415666661633243611666623646666666452334344141
FFFFFFFFLLLLFFFFFFFFFFFFFLLLFLLLLLLLLFFFFFFFFFFFFF
24111133212116542262451146155352645222551236434214
FFFFFFFFFFFFFFFFFFFFFFFFFFFFFFFFLFFFFFFFFFFFFFFFFF
56666245152363262312222612125552126624265522415525
FLLLLFFFFFFFFFFFFFFFFFLLFFFFFFFFFFFFFFFFFFFFFFFFFF
15211331245511666661336644555564546461421236643335
FFFFFFFFFFFFFFLLLLLFFFFFFFFFFFFFFFFFFFFFFFFFFFFFFF
61424136446122316614652243166115666666161664662616
FFFFFFFLLLLFFFFFFFFFFFFFFFFFFFFLLLLLLLLLLLLLLLFFFF
51545664666633622652362424566666262536345223266461
FFFFFFFFLLLFFFFFFFFFFFFFFFFLLLLLLLFFFFFFFFFFFFFFFF
22522554141535256561226356652656162143666666666666
FFFFFFFFFFFFFFFFFFFFFFFFFLLFFLLLFLLFFFLLLLLLLLLLLL
66625666666666666661626646664665346244616216666663
LLLLLLLLLLLLLLLLLLLLLLLLLLLLLLLFFFFFFFFFFFFLLLLLLL
12323535353363614442633446666665666216636666612514
FFFFFFFFFFFFFFFFFFFFFFFFFLLLLLLLLLLLLLLLLLLLLFFFFF
44625435261223531625636261162234422161165545155436
FFFFFFFFFLFFFFFFFFFFFFFFFFFFFFFFFFFFFFFFFFFFFFFFFF
24141622632365356163646564613121266616213626566536
FFFFFFFFFFFFFFFFFFFFFFFFFFFFFFFFFLLLLLLLLLLLLLLLLF
66666666656545153231415665313661332166361566666244
LLLLLLLLLLLFFFFFFFFFFFFFFFFFFLLFFFFFFFFFFFLLLLLLLL
43326666666626651564445344333312424552356156125354
FFFFFLLLLLLLLLLLFFFFFFFFFFFFFFFFFFFFFFFFFFFFFFFFFF
25135354666656662634255163221542343212656324226635
FFFFFFFFLLLLLLLLFFFFFFFFFFFFFFFFFFFFFFFFLFFFFFLLFF
44463464513446454331523655143263666425161646115315
FFFFFFFFFFFFFFFFFFFFFFFFFFFFFFLLLLFFFFFFFFFFFFFFFF
16361621254642361651243135656413414253363614626656
FFFFFFFFFFFFFFFFFFFFFFFFFFFFFFFFFFFFFFFFFFFFLLLLLL
26145523126666646666662666666666366666423256666666
FFFFFFFFFLLLLLLLLLLLLLLLLLLLLLLLLLLLLLFFFFFFLLLLLL
15424333464546666666233365666166466366664345663616
FFFFFFFFFFFFFFFLLLLLLFFFFFLLLLLLLLLLLLLLFFFLLLLLLL
64646636551116666425416661125663265611114443216156
FFFFFFFFFFFFFLLLLLLFFFFLLFFFFFFFFFFFFFFFFFFFFFFFFF
66663666664252456132163661666666666262626666131344
LLLLLLLLLLFFFFFFFFFFFLLLLLLLLLLLLLLFFFFFLLFFFFFFFL
61144651135423115152246541465616626625566365246666
FFFFFLLFFFFFFFFFFFFFFFFFFFFFFFFFFFFFFFFFFFFFFFLLLL
56136221135444452656166666644651565156234442262362
FFFFFFFFFFFFFFFFLLLLLLLLLLLLLLFFFFFFFFFFFFFFFFFFFF
42625336454153431666251651156465311641213516643564
FFFFFFFFFFFFFFFFFLLLFFFFFFFFFFFFFFFFFFFFFFFFFFFFFF
66416666646666653626616566666624315356153524355512
LLFFFFLLLLLLLLLFFLLLLLLLLLLLLLFFFFFFFFFFFFFFFFFFFF
25223263131663655114211436543154331636312565464335
FFFFFFFFFFFLLLLFFFFFFFLFFFFFFFFFFFFFFFFFFFFFFFFFFF
35466626455136543232334643646326343132231345314316
FFFFFFFFFFFFFFFFFFFFFFFFFFFFLFFFFFFFFFFFFFFFFFFFFF
24142226113663633353432332514631666456466166266366
FFFFFFFFFFFFFFLFFFFFFFFFFFFFFFFFLLLLLLLLLLLLLLLLLL
62624454463365462434621456124644133366616666666663
LLLFFFFFFFFFFFFFFFFFFFFFFFFFFFFFFFFFLLLLLLLLLLLLLF
66261136222645463164215324646663351133123466662452
LLLLFFFFFFFFFFFFFFFFFFFFFFFFLLLFFFFFFFFFFFFLFFFFFF
42312463666266162556661666666666656666664141543212
FFFFFLLLLLLLLLLLLLLLLLLLLLLLLLLLLLLLLLLFFFFFFFFFFF
66661233666666666666325661666666666666666664245625
LLLFFFFFLLLLLLLLLLLLFLLLLLLLLLLLLLLLLLLLLLLLFFFFFF
66666666254331616245133431543143665565342426556312
LLLLLLLLFFFFFFFFFFFFFFFFFFFFFFFFFFFFFFFFFFFFLLLFFF
11626322344651666346231333126313662631661666666644
FFFFFFFFFFFFFFLLLFFLFFFFFFFFFFFFFFFFFFLLLLLLLLLLLL
36123556666366166666543244513651213124541611322161
FFFFFFFLLLLLLLLLLLLLFFFFFFFFFFFFFFFFFFFFFFFFFFFFFF
62664264446435334353543353425512136536655522666666
FFLLFFFFFFFFFFFFFFFFFFFFFFFFFFFFFFFFFFFFFFFFFLLLLL
52264451433644114631163432345323332311124663616656
FFFFFFFFFFFFFFFFFFFFFFFFFFFFFFFFFFFFFFFFFLLLLLLLLL
66355416626666652666611566666666661666666666444636
LLFFFFLLLLLLLLLLLLLLLFFFLLLLLLLLLLLLLLLLLLLLLLLLFF
52326413631434421131633136532651656366454456613554
FFFFFFFFFFFFFFFFFFFFFFFFFFFFFFFFFFLFFFFFFFFFFFFFFF
66646666466631114155256216311146425526522553452316
LLLLLLLLLLLLFFFFFFFFFFFFFFFFFFFFFFFFFFFFFFFFFFFFFF
24366666633643546362165462552366232424464144256166
FFLLLLLLLLFFFFFFFFFFFFFFFFFFFFFFFFFFFFFFFFFLLLLLLL
33233213651151634155411134456652666615466452425333
FFFFFFFFFFFFFFLFFFFFFFFFFFFLLLLLLLLLFFFFFFFFFFFFFF
32552562342246434234142122555535536411211461416336
FFFFFFFFFFFFFLFFFFFFFFFFFFFFFFFFFFFFFFFFFFFFFFFFFF
44434466612452242236345465363466534441165321441413
FFFFFFFFFFFFFFFFFFFFFFFFFFFFFFFFFFFFFFFFFFFFFFFFFF
11351426311614212346232254415166523522641155425425
FFFFFFFFFFFFFFFFFFFFFFFFFFFFFFFFFFFFFFFFFFFFFFFFFF
55456311164355411121644136455211531366666652666661
FFFFFFFFFFFFFFFFFFFFFFFFFLFFFFFFFFLLLLLLLLLLLLLLLL
65266626666664632466666666162666666636166616266666
FFFFFLLLLLLLLLFFFFLLLLLLLLFLLLLLLLLLLLLLLLLLLLLLLL
66612111643453621466621466334566166526666346655125
LLLLFFFFFFFFFFFFFFFFFFFFFFFFFFLLLLLLLLLLLLLLLFFFFF
26666161666334266321325645132351224611265342354122
LLLLLLLLLLLFFFFFFFFFFFFFFFFFFFFFFFFFFFFFFFFFFFFFFF
63222246311125561633234666666666566666665112651152
LLFFFFFFFFFFFFFFFFFLLLLLLLLLLLLLLLLLLLLLFFFFFFFFFF
31246243666662564523126634216666443222162636521363
FFFFFFFFLLLLLFFFFFFFFFFFFFFFFLLFFFFFFFFFFFFFFFFFFF
55354625154342153532261423414312454112645666616666
FFFFFFFFFFFFFFFFFFFFFFFFFFFFFFFFFFFFFFFFFLLLLLLLLL
56344462121343211233665666666146144446442646643666
FFFFFFFFFFFFFFFFFFFFLLLLLLLLLFFFFFFFFFFFFLLLLLLLLL
16326334664156126444631566566666266666636666166663
FFFFFFFFFFFFFFFFFFFFFFFFLLLLLLLLLLLLLLLLLLLLLLLLLL
66662115332134443325543221516225535361521333515233
LLLLLLLFFFFFFFFFFFFFFFFFFFFFFFFFFFFLLFFFFFFFFFFFFF
35166144413544154666656666664666666656666626666156
FFFFFFFFFFFFFFFFFFLLLLLLLLLLLLLLLLLLLLLLLLLLLLLLLL
53355335425433221531316666666463244563533121613316
FFFFFFFFFFFFFFFFFFFFFFFLLLLLFFFFFFFFFFFFFFFFFFFFFF
66636136345112341466666666666666566465666662663666
LLLLFFFFFFFFFFFFFFLLLLLLLLLLLLLLLLFFLLLLLLLLLLLLLL
45245434231143424562263662414216351366436132463154
FFFFFFFFFFFFFFFFFFFFFFFFFFFFFFFFFFFFFFFFFFFFFFFFFF
21666666662533445141652245562364355556166666666646
LLLLLLLLFFFFFFFFFFFFFFFFFFFFFFFFFFFFFFLLLLLLLLLLLF
54265446555566355565315555416161561665451466266113
FFFFFFFFFFFFLLFFFFFFFFFFFFFFFFFFFFFLLFFFFFFLLFFFFF
66666666566661552534531556666643666556225144463422
LLLLLLLLLLLLLLFFFFFFFFFFFLLLLLLFLLFFFFFFFFFFFFFFFF
34144411666266666566663623112624244526651143461636
FFFFFFFLLLLLLLLLLLLLLLLLLFFFFFFFFFFFFFFFFFFFFLLLLL
65461316331612633366566566666253666666561666666665
FFFFFFFFFFFFFFFFLLLLLLLLLLLLLLLLLLLLLLLLLLLLLLLLLL
62646666166666466666516514666652445166143546615435
LLLLLLLLFLLLLLLLLLLFFFFFFFLLLLFFFFFFLLFFFFFFFFFFFF
51122326231646532343163366656666656363666666664666
FFFFFFFFFFFFFFFFFFFFFFFFLLLLLLLLLLLLLLLLLLLLLLLLLL
55163325513422442661661636466666661666666666613411
FFFFFFFFFFFFFFFFLLLLLLLLLLLLLLLLLLLLLLLFLLLLLFFFFF
23636521625646316666666666663636562666666666666236
FFFFFFFFFFFFFFFLLLLLLLLLLLLLLLLLLLLLLLLLLLLLLLLLLL
64253225234513143464236164212266324216666166666515
FFFFFFFFFFFFFFFFFFFFFFFFFFFFFFFFFFFFFLLLLLLLLLLFFF
42366233342465426531661335344641521331252261643531
FFFFFFFFFFFFFFFFFFFFFFFFFFFFFFFFFFFFFFFFFFFFFFFFFF
66452356251433642361235643615662666152165223321332
LLFFFFFFFFFFFFFFFFFFFFFFFFFFFFLLLLLFFFFFFFFFFFFFFF
66621666666666466666666266616626651666666616666614
LLLLLLLLLLLLLLLLLLLLLLLLLLLLLLLLLLLLLLLLLLLLLLLLFF
66666616265462255154466666666516665666636462436526
LLLLLLLLFFFFFFFFFFFLLLLLLLLLLFFLLLLLLLLFFFFFFFFFFF
63132425413451325654666666666666666313461242241636
FFFFFFFFFFFFFFFFFFFFLLLLLLLLLLLLLLLLFFFFFFFFFFFFFF
24642624545132461631214442123332122465116245134261
FFFFFFFFFFFFFFFFFFFFFFFFFFFFFFFFFFFFFFFFFFFFFFFFFF
53612666626663662434312416466464213344424151563632
FFLLLLLLLLLLLLLLFFFFFFFFFLFFFFFFFFFFFFFFFFFLLLFFFF
21236526226124664116633432626261525224334333354461
FFFFFFFFFFFFFFFFFFFFFFFFFFFFFFFFFFFFFFFFFFFFFFFFFF
66656466466663226666616422541211321263254666666666
LLLLLLLLLLLLLLLLLLLLLLFFFFFFFFFFFFFFFFFLLLLLLLLLLL
66124166624651642213436341236626463666666666662666
LLLLFFFLFFFFFFFFFFFFFFFFFFFFFFFLLLLLLLLLLLLLLLLLLL
64425422526331334542534551544116665612435646325453
LFFFFFFFFFFFFFFFFFFFFFFFFFFFFFLLLLLLFFFFLLFFFFFFFF
62356666243134246324512253644564641112122136446331
FFFLLLLLFFFFFFFFFFFFFFFFFFFFFFFFFFFFFFFFFFFFFFFFFF
66663666666665222136666431352554226224556633342352
LLLLLLLLLLLLLFFFFFFLLLLFFFFFFFFFFFFFFFFFFLLFFFFFFF
55143252365626361515514521166621321644254412266616
FFFFFFFFLLLLLLFFFFFFFFFFFLLLLLLLFFFFFFFFFFFFFFFLLL
31251523425531115431621163256646414313415166436142
FFFFFFFFFFFFFFFFFFFFFFFFFFFFFFFFFFFFFFFFFFFFFFFFFF
64666666414436246665231664641231624554246666431645
LLLLLLLLFFFFFFFFLLLFFFFFFFFFFFFFFFFFFFFFLLLFFFFFFF
12522545356666665366611531333543666663345656216544
FFFFFFFFFFLLLLLLLLLLLLFFFFFFFFLLLLLLLLFFFFFFFFFFFF
56665633543151442421354232645142644212145466261135
LLLLLLFFFFFFFFFFFFFFFFFFFFFFFFFFFFFFFFFFFFFFFFFFFF
12666633321324653536216664666665135522654424253511
FFFFFFFFFFFFFFFFFFFFFFLLLLLLLLLFFFFFFFFFFFFFFFFFFF
66661666626651423141332666622665466623666616135323
LLLLLLLLLLLFFFFFFFFFFFFLLLFFFFFFFLLLLLLLLLFFFFFFFF
34111516556166666356555556134612366666666666666646
FFFFFFFFFFFFLLLLLFFFFFFFFFFFFFFFFLLLLLLLLLLLLLLLLL
55214465361213412533452144516253316341346164564656
FFFFFFFFFFFFFFFFFFFFFFFFFFFFFFFFFFFFFFFFFFFFFFFFLL
21316214535343666624666666653243315411523514166525
FFFFFFFFFFFFFFFLLLLLLLLLLLFFFFFFFFFFFFFFFFFFFLLLLL
31546342231213263453234635655442153365546461461352
FFFFFFFFFFFFFFFFFFFFFFFFFFFFFFFFFFFFFFFFFFFFFFFFFF
46236666636326662115113221126642413426511415661166
LLLLLLLLLLFFFLLFFFFFFFFFFLFFFFFFFFFFFFFFFFFLLLLLLL
66366666664662566663656666666666466666663666566666
LLLLLLLLLLLLLLLFLLLLLLLLLLLLLLLLLLLLLLLLLLLLLLLLLL
22666666666616466262656266612313226261523135313663
FFLLLLLLLLLLLLLLLLLLLLLLLLLLLLLFFFFFFFFFFFFFFFFFFF
13536224131212262621534616353245541344535432255236
FFFFFFFFFFFFFFFFFFFFFFFFFFFFFFFFFFFFFFFFFFFFFFFFFF
51546642424252534552164313263463662666651222316615
FFFFLLFFFFFFFFFFFFFFFFFFFFFLFFLLLLLLLLLFFFFFFFLLFF
55541332334555333523541556242662631341344424264362
FFFFFFFFFFFFFFFFFFFFFFFFFFFFFLLLLFFFFFFFFFFFFFFFFF
66666666616561311116112213664666661652364336423441
LLLLLLLLLFFFFFFFFFFFFFLLLLLLLLLLLLFFFFFFFFFFFFFFFF
26646116666656535226226661664666666246354661424332
LLLLLLLLLLLLFFFFFFFFFFLLLLLLLLLLLLLLLLLFFLLFFFFFFF
66666666266664666662653566666662666666656342345342
LLLLLLLLLLLLLLLLLLLLLLLLLLLLLLLLLLLLLLLFFFFFFFFFFF
64422242666513666656666546354423366566666664666465
FFFFFFFFLLLLLLLLLLLLLLLLFFFFFFFFLLLLLLLLLLLLLLLFFF
53545452313512245114643425663535524341242345561666
FFFFFFFFFFFFFFFFFFFFFFFFFFFFFFFFFFFFFFFFFFFFFFFLLL
62232431331154423624666665621333521336444143445123
LFFFFFFFFFFFFFFFLLLLLLLLLLLFFFFFFFFFFFFFFFFFFFFFFF
66126666466266616362465654662666643256342126424523
LLLLLLLLLLLLLLLLLLLLFLLLLLLLLLLLLLFFFFFFFFFFFFFFFF
25641115246262462666366636355545541121456614452461
FFFFFFFFFFFFFFFFFLLLLLLLFFFFFFFFFFFFFFFLLLFFFFFFFF
56446222661456614451145416466666663662562636316132
FFFFFFFFFFFFFFFFFFFFFFFFFLLLLLLLLLLLLFFFFFFFFFFFFF
36142616666666666666666666666263666661666661445665
FFFFFFFLLLLLLLLLLLLLLLLLLLLLLLLLLLLLLLLLLLLLFFFFFF
54134263544233625233343123134526465164155261464331
FFFFFFFFFFFFFFFFFFFFFFFFFFFFFFFFFFFFFFFFFFFFFFFFFF
53664125434452336235622125465643152244632164133231
FFFFFFFFFFFFFFFFFFFFFFFFFFFFFFFFFFFFFFFFFFFFFFFFFF
34123635661126654516216556352464666366462622533132
FFFFFFFFFFFFFFFFFFFFFFFFFFFFFFFFLLLLLLLLFFFFFFFFFF
34442361636636666222645266625666666466566666635666
FFFLLLLLLLLLLLLLLFFFFFFFLLLLLLLLLLLLLLLLLLLLLLLLLL
44125124661653231441132246665654666316666415616625
FFFFFFFLLLFFFFFFFFFFFFFFFFLLLLLFLLLLLLLLLLFFFFFFFF
46446251322134652356163666626625524256666666666666
FFFFFFFFFFFFFFFFFFFFFLLLLLLLLLFFFFFFFLLLLLLLLLLLLL
53316261444412326666464434152413244141444666666666
FFFFFFFFFFFFFFFFLLLLLFFFFFFFFFFFFFFFFFFFLLLLLLLLLL
12255113146432455523414154636666666336321243212666
FFFFFFFFFFFFFFFFFFFFFFFFFFFFLLLLLLFFFFFFFFFFFFFLLL
66631616126665345253666346243564111514635652623656
LLLFFFFFFFFFFFFFFFFFFFLLLLLFFFFFFFFFFFFFFFFFFFFFFF
55212565231124151346415452312235324464514243115434
FFFFFFFFFFFFFFFFFFFFFFFFFFFFFFFFFFFFFFFFFFFFFFFFFF
36532551361246346336566314311644255465213666616246
FFFLFFFFFFFFFFFFLFLLLLLFFFFFFFFFFFFFFFFFFLLLLLLLLL
53621166246555264466645566426626266666665234366143
FFFFFFFFFFFFFFFFFFFFFFFFFFFFLLLLLLLLLLLFFFFFFFFFFF
36666666666666663545524643436456666666661666542212
LLLLLLLLLLLLLLLLFFFFFFFFFFFFFFLLLLLLLLLLLLLLFFFFFF
24626126616661566626646346664362653453243251213611
FFFFFFFLLLLLLFLLLLLLLLLLLLLLFFFFFFFFFFFFFFFFFFFFFF
36346666221633251212523444511566123234665465655653
FFFFLLLLFFFFFFFFFFFFFFFFFFFFFFFFFFFFFLLLFFFFFFFFFF
42514325356531666661366626625153531262461645654454
FFFFFFFFFFFFFLLLLLLFLLLLFFFFFFFFFFFFFFFFFFFFFFFFFF
22436554624144666626662226255255136342316526534342
FFFFFFFFFFFFFFFLLLLLFFFFFLFFFFFFFFFFFFFFFFFFFFFFFF
41511644525453151262145262431666334212464321326234
FFFFFFFFFFFFFFFFFFFFFFFFFFFFFFFFFFFFFFFFFFFFFFFFFF
66666666666653262433315134661646666666466566666214
LLLLLLLLLLLLLFFFFFFFFFFFFFFFFLLLLLLLLLLLLLLLLLLFFF
52365162115135613324666665624511326463154621316456
FFFFFFFFFFFFFFFFFFFFLLLLLLFFFFFFFFFFFFFFFFFFFFFFFF
21162133213466626666666666252666656646366664614266
FFFFFFFFFFFFFLLLLLLLLLLLLFFFFLLLLLLLLLLLLLLLFFFFLL
26461315334666254444452463213621363353421546252411
FFFFFFFFFFFLLLFFFFFFFFFFFFFFFLLLFFFFFFFFFFFFFFFFFF
62551116645351215666636666616642636214336626563313
FFFFFFFFFFFFFFFFFLLLLLLLLLLLLLFFFFFFFFFFFFFFFFFFFF
42661636152431316664666366466663446645242464423464
FFLLLLLLLFFFFFFFFFFFLLLLLLLLLFFFFFFFFFFFFFFFFFFFFF
66625441633643636332614254466646162626243652616166
FFFFFFFFFFFLLLLLLFFFFFFFFFFFFFFFFFFFFFFFFLFFFFFLLL
53364356455423534344431643112233241244354126563126
FFFFFFFFFFFFFFFFFFFFFFFFFFFFFFFFFFFFFFFFFFFFFFFFFF
45656252666666666664264666666664666664566611666161
FFFFFFLFLLLLLLLLLLLLLLLLLLLLLLLLLLLLLLLLLLLFFFFFFF
66662666315422316666661646351161635366666566261431
LLLLLLLFFFFFFFFLLLLLLFFFFFFFFFFFFFFFLLLLLLLLLFFFFF
44666136646646264424166656665332616662562624166621
LLLLLFFLLLLLLLLFFFFFFLLLLLLLLLLFLLLLLFLLLLFFFFFFFF
63645211666166666666666666665566666666624466263352
FFFFFFFFLLLLLLLLLLLLLLLLLLLLLLLLLLLLLLLFFFFFFFFFFF
66664666661623634633343663215144566666666666666666
LLLLLLLLLLLLFFFFFFFFFFFLLFFFFFFFFLLLLLLLLLLLLLLLLL
55561533443126661151135445255545522326666666666666
FFFFFFFFFFFFFLLFFFFFFFFFFFFFFFFFFFFFFLLLLLLLLLLLLL
65521152324345312452554515164614513465656332146442
FFFFFFFFFFFFFFFFFFFFFFFFFFFFFFFFFFFFFFFFFFFFFFFFFF
22424166641666612425535626666666346665666466656626
FFFFLLLLLLLLLLLFFFFFFFFFFLLLLLLLLLLLLLLLLLLLLLLLLL
61412433223324545322565366212666666666666666651454
FFFFFFFFFFFFFFFFFFFFFFFFFFFFFLLLLLLLLLLLLLLLLFFFFF
23554465233144416246412523512525553511361355262125
FFFFFFFFFFFFFFFFFFFFFFFFFFFFFFFFFFFFFFFFFFFFFFFFFF
31662536315521365435431533353666566166665656255313
FFFFFFFFFFFFFFFFFFFFFFFFFFFFFFFFFLLLLLLLLLLLFFFFFF
66112666366655541155253551236153416412643244465624
LLFFFLLLLLLLFFFFFFFFFFFFFFFFFFFFFFFFFFFFFFFFFFFFFF
52225363461355456666665644416224464646636326455155
FFFFFFFFFFFFFFFLLLLLLLFFFFFFFFFFFLFFFLLLLLLFFFFFFF
12366666666114444425134625146342655646655252236666
LLLLLLLLLLFFFFFFFFFFFFFFFFFFFFFFFFFFFFFFFFFFFFLLLL
62431362526531215442555441252444146366613336422243
FFFFFFFFFFFFFFFFFFFFFFFFFFFFFFFFFFLLLLLFFFFFFFFFFF
31666664666646663644666666663166666645665421126155
FFLLLLLFLLLLLLLLLLLLLLLLLLLLFFLLLLLLLLLLFFFFFFFFFF
45413615133545361642154533666115412213622535511436
FFFFFFFFFFFFFFFFFFFFFFFFFFFFFFFFFFFFFFFFFFFFFFFFFF
46666463363313653445563615461531456241314561661632
LLLLLFFFFFFFFFFFFFFFFFFFFFFFFFFFFFFFFFFFFFFFFFFFFF
31435566531655162231346666636366666145426342154661
FFFFFFFFFFFFFFFFFFFFFFLLLLLLLLLLLLLFFFFFFFFFFFFFFF
43166661663134251123335523466266666636261514411355
FFLLLLLLFFFFFFFFFFFFFFFFFFFLLLLLLLLLLLLLFFFFFFFFFF
66665541145661666626666666666313235415414611666666
LLLFFFFFFFLLLLLLLLLLLLLLLLLLLFFFFFFFFFFFFFFFLLLLLL
66655536445226566342353232563666666662632666612466
LLLLFFFFFFFFFFFFFFFFFFFFFFLLLLLLLLLLLFFFFLLLLLLLLL
45641666441531312454666666665445515321632344534256
FFFLLLLFFFFFFFFFFFFFFLLLLLLLLFFFFFFFFFFFFFFFFFFFFF
32221361625452266246366666616666662343121636664116
FFFFFFFFFFFFFFFFFFFLLLLLLLLLLLLLLLFFFFFFFLLLLLLFFF
66266366361351415412321254666666666542561426424215
LLLLLLLLLLFFFFFFFFFFFFFFFFLLLLLLLLLLLFFFFFFFFFFFFF
22555353265436666666666662266666666666666666513234
FFFFFFFFFFFFLLLLLLLLLLLLLLLLLLLLLLLLLLLLLLLLLFFFFF
12144666366124462334661563433363666166636266623155
FFFFFFLLFFFLLFFFFFFFFFFFFFFFFFFFFLLLLLLLLFFLFFFFFF
65316331322345262635663311545516431431644522615246
FFFFLFFFFFFFFFFFFFFFFFFFFFFFFFFFFFFFFFFFFFFFLFFFFF
55416666666666661226554435561132326232433334645164
LLFFLLLLLLLLLLLLFFFFFFFFFFFFFFFFFFFFFFFFFFFFFFFFFF
26662446636346616665666463624626566356366652611453
FFFFFFLLLFFLLLLLLLLLLLLLLLLLLLLLLLFFFFFFFFFFFFFFFF
21665646666266122152211361166636466566666366666666
LLLLLLLLLLLLLFFFFFFFFFFFFFFFFFFLLLLLLLLLLLLLLLLLLL
33221634225336563224112666664666653224251252666666
FFFFFFFFFFFFFFFFFFFFFFFLLLLLLLLLLFFFFFFFFFFFLLLLLL
12145512125236416656626666224513524155116514336342
FFFFFFFFFFFLLLLLLLLLLLLLLLLFFFFFFFFFFFFFFFFFFFFFFF
53553232526666666666466322466265244631246661611631
FFFFFFFFLLLLLLLLLLLLLLLFFFFLLFFFFFFFFFFFFFFFFFFFFF
16666262351526465455456642264465256353511131661416
LLLLLFFFFFFFFFFFFFFFFFFFFFFFFFFFFFFFFFFFFFFFFFFFFF
21523611142462132166664666362666663166662522156436
FFFFFFFLFFFFFFFFFFFLLLLLLLLLLLLLLLLLLLLLFFFFFFFFFF
66666666652216134362114461122664412351266252556223
LLLLLLLLLLLFFFFFFFLFFFFFFFFFFLLFFFFFFFFFFFFFFFFFFF
66166662131654231461331521534354666266635652243461
LLLLLLLFFFFFFFFFFFFFFFFFFFFFFFFFLLLLLLLFFFFFFFFFFF
62366646666666626663366363136666662432256264665166
LLLLLLLLLLLLLLLLLLLFFFFFLFFFFLLLLLFFFFFFFFFFFLLLLL
36554613134324544331164666362544113541414645161321
FFFFFFFFFFFFFFFFFFFFLLLLLLFFFFFFFFFFFFFFFFFFFFFFFF
66644415166145244531412654456564365514233666636336
LLLFFFFFFFFFFFFFFFFFFFFFFFFFFFFFFFFFFFFFFLLLLLLLLL
12166666666665566364666646626662666666664566163652
FFFLLLLLLLLLLLLLLFLLLLLLLLLLLLLLLLLLLLFFFFFFFFFFFF
15321345413441666266625335436366123635456225413413
FFFFFFFFFFFFFFLLLLLLLFFFFFFFFFFFFFFFFFFFFFFFFFFFFF
42425333233166666466666666441135126665316566666666
FFFFFFFFFFFFFLLLLLLLLLLLLLFFFFFFFFFFFFFFFFLLLLLLLL
66634663665163166155613641416631554154665113124665
LLLLLLLLLLFFFFFFFFFFLFFFFFFFFFFFFFFFFFFFFFFFFFFFFF
14346341554532414164535621454344636626666466233511
FFFFFFFFFFFFFFFFFFFFFFFFFFFFFFFFFFLLLLLLLLLLFFFFFF
63146416566553613631241314246563313356413261154112
FFFFFFFFFFFFFFFFFFFFFFFFFFFFFFFFFFFFFFFFFFFFFFFFFF
34566666661666664662621626665345152353523146332566
FFFLLLLLLLLLLLLLLLLLFFFFFFLLFFFFFFFFFFFFFFFFFFFFLL
65663166666665366521264466666616311643666615264252
LLLLLLLLLLLLLFFFFFFLLLLLLLLLLLFFFFFLLLLLLLLFFFFFFF
26334426443665666664566666636443146454216612462651
FFFFFFFFFFFLLLLLLLLLLLLLLLLFFFFFFFFFFFFFFFFFFFFFFF
33215644632264435666666452162664266666666666665666
FFFFFFFFFFFFFFFFFLLLLLLFFFFLLLLLLLLLLLLLLLLLLLLLLL
35365542135513264653632513344645216412624456464444
FFFFFFFFFFFFFFFLLLLFFFFFFFFFFFFFFFFFFFFFFFFFFFFFFF
34433453624241626132643251562361321626223314655523
FFFFFFFFFFFFFFFFFFFFFFFFFFFFFFFFFFFFFFFFFFFFFFFFFF
43112143414164213424251622133114341321241121112112
FFFFFFFFFFFFFFFFFFFFFFFFFFFFFFFFFFFFFFFFFFFFFFFFFF
56665456662656543442153534633253552666435324143434
LLLLFFFLLLLLLFFFFFFFFFFFFFFFFFFFFFLLLLFFFFFFFFFFFF
21435653662266664663666366332414656365456641235162
FFFFFFFFLLFLLLLLLLLLLLLLLFFFFFFFFFFFFFFFFFFFFFFFFF
16661666666436124246321125611551341124343551666644
LLLLLLLLLLLFFFFFFFFFFFFFFFFFFFFFFFFFFFFFFFFLLLLLLF
23645315644646166664666226665661636666641426635463
FFFFFFFFFFFFFFFLLLLFLLLLLLLLLLLLLLLLLLLFFFFFFFFFFF
66666146514566666665641352461126411664223415131314
LLLLLLLLFFFFLLLLLLLFFFFFFFFFFFFFFFFLFFFFFFFFFFFFFF
56221154324663632311513311343151441622535326556254
FFFFFFFFFFFFLFFFFFFFFFFFFFFFFFFFFFFFFFFFFFFFFFFFFF
35426234351633311632655324223433666666666666511454
FFFFFFFFFFFFFFFFFFFFFFFFFFFFFFFLLLLLLLLLLLLLFFFFFF
63635622436533565666666566666224554564533613215664
LFLLFFFFFFFFFFFFLLLLLLLLLLLLFFFFFFFFFFFFFFFFFFFFFF
66666666656636266262514412146626624643315164325246
LLLLLLLLLLLLFLFFFFFFFFFFFFFFLLLLLFFFFFFFFFFFFFFFFF
55412641453451143466616565561421452654513124534514
FFFFFFFFFFFFFFFFFFLLLFFFFFFLFFFFFFFFFFFFFFFFFFFFFF
11652634625353423431221122423661665515221346666651
FFFFFFFFFFFFFFFFFFFFFFFFFFFFFLLFFFFFFFFFFFFLLLFFFF
35266122623455415466146136153631213465452613413265
FFFFFFFFFFFFFFFFFFFFFFFFFFFFFFFFFFFFFLLFFFFFFFFFFF
53113212114524234432146633131613616543233143526141
FFFFFFFLFFFFFFFFFFFFFLLLFFFFFFFFFFFFFFFFFFFFFFFFFF
25661162136656666146123466421154425133444423453521
FFLLLLLLFFLLLLLLLFFFFFFFFFFFFFFFFFFFFFFFFFFFFFFFFF
66666666566666663355514351442666666666553623623662
LLLLLLLLLLLLLLLLFFFFFFFFFFFFFLLLLLLLLLFFFFFFFFFFFF
61544661634341163361626666266666566665231431222224
FFFFFFFFLLLFFFFLLLLLLLLLLLLLLLLLFFLLLFFFFFFFFFFFFF
66666666665136624353623664165162651664666666661254
LLLLLLLLLLFFFFFFFFFFFFFFFFFFFFFFFFFLLLLLLLLLLFFFFF
66631626651422164341665453566661253656253666562652
LLLLLLLLLFFFFFFFFFFFFFFFFFFFFFFFFFFFFFFFFLLLLLLFFF
23323455633452413423425615164525663243464566251326
FFFFFFFFFFFFFFFFFFFFFFFLLFFFFFFFFFFFFFFFFFFFFFFFFF
44544321231156233211233546146566442456141216665665
FFFFFFFFFFFFFFFFFFFFFFFFFFFFLLLLFFFFFFFFFFFLLLLLLL
46625235341542646541611534566645365515355425566666
FFFFFFFFFFFFFFFFFFFFFFFFFFFFFFFFFLFFFFFFFFFFFFLLLL
61451416422126436331532443664421616423216163225214
LFFFFFFFFFFFFFFFFFFFFFFFFFFFFFFFFFFFFFFFFFFFFFFFFF
66664621666666666666466666666666666566636414212623
LLLLLLLLLLLLLLLLLLLLFFLLLLLLLLLLLLLLLLLLLLLLFFFFFF
35646661666366666566666424634666666664626666626666
FFFFLLLLLLLLLLLLLLLLLLLFFFFFFLLLLLLLLLLLLLLLLLLLLL
56664232532613335415143334256555115552112132413423
FLLLFFFFFFFFFFFFFFFFFFFFFFFFFFFFFFFFFFFFFFFFFFFFFF
23613365162326664364633144651413322353551643513666
FFFFFFFFFFFFFLLLFFLLLFFFFFFFFFFFFFFFFFFFFFFFFFFFFF
12254312421656453335336666666626652266443611656662
FFFFFFFFFFFFFFFFFFFFFFLLLLLLLLLLLLFFFFFFFFFFLLLLLL
35254311665366665641663636366323523311136564551523
FFFFFFFFFFFFLLLLLLFFLLLLFLFFFFFFFFFFFFFFFFFFFFFFFF
63216666666566662162666366666665251266613666555362
LLLLLLLLLLLLLLLLLLLLLLLLLLLLLLLFFFFFFFFFLFFFFFFFFF
13665113423264664654123262266625335255351666666244
FFFFFFFFFFFFFFFLFFFFFFFFFFLLFFFFFFFFFFFFLLLLLLLFFF
12315246456632515413256643545236564236466666666666
FFFFFFFFFFFFFFFFFFFFFFLLLLFFFFFFFFFFFLLLLLLLLLLLLL
61666124325654343624264212666666656466644266636266
LLLLLFFFFFFFFFFFFFFFFFFFFFLLLLLLLFLLLLLFFFFFFFLFLL
66666466666626666611411666666446414611336643164424
LLLLLLLLLLLLLLLLLLFFFFFLLLLLLLLLLFFFFFFFFFFFFFFFFF
14366626114222333351225545634366335652663455141656
FFFFFFFFFFFFFFFFFFFFFFFFLLLFFFLLLLFFFFFFFFFFFFFFFF
11611416646565662646554545365626666666466331665612
FFFFFFFLLLLLLLLLLLLLFFFFFFFFFLLLLLLLLLLFFFFFLLLLFF
16615524552252112644162122164662531164164441623214
FFFFFFFFFFFFFFFFFFFFFFFFFFFFFLLFFFFFFFFFFFFFFFFFFF
66665531146366236362311566166666662666616534266666
LLLLLFFFFFLLLFFFFFFFFFFFLLLLLLLLLLLLLLLLLFFFFLLLLL
66641666636246213346216516666666666666666666666663
LLFFFLLLLLFFFFFFFFFFFFFFFLLLLLLLLLLLLLLLLLLLLLLLFF
32163562453322222661516461153262451312145651424161
FFFFFFFFFFFFFFFFFFFFFFFFFFFFFFFFFFFFFFFFFFFFFFFFFF
36166666666636626666666623326131344241413314662334
LLLLLLLLLLLLLLLLLLLLLLLLFFFFFFFFFFFFFFFFFFFFFFFFFF
26661666666556466166666265666544552444423322151334
LLLLLLLLLLLLLLLLLLLLLLLLLLLLLFFFFFFFFFFFFFFFFFFFFF
63662546231623243345431645133626626523642531646635
LLLLFFFFFFFFFFFFFFFFFFFFFFFFFFFFFFFFFFFFFFFFFFFFFF
46416666656656626232666543264641424162666566662153
FFFFLLLLLLLLLLLLLLFFFFFFFFFFFFFFFFFFFFFFFFLLLLFFFF
46333654431353551651151532266666366126232624312215
FFFFFFFFFFFFFFFFFFFFFFFLFFLLLLLLLLFFFFFFFFFFFFFFFF
63416656534535412344633414544234166636615413452363
FFFFFFFFFFFFFFFFFFFFFFFFFFFFFFFFLLLLLLLFFFFFFFFFFF
55346412162666666666233244121324114522466666666666
FFFFFFFFFLLLLLLLLLLLFFFFFFFFFFFFFFFFFFFLLLLLLLLLLL
41115134611664642432246666661435325366666561424125
FFFFFFFFFFFLLFFFFFFFFFFLLLLLLLFFFFFFLLLLLLLFFFFFFF
31626222666665351646322253642553554531365645222232
FFFFFFFFLLLLLLFFFFFFFFFFFFFFFFFFFFFFFFFFFFFFFFFFFF
13611356215512526666664222634521142556264636666663
FFFFFFFFFFFFFFFFLLLLLLFFFFFFFFFFFFFFFFFFFLLLLLLLLF
22265615664162515443165262136135122233144226466666
FFFFFFFFFFFFFFFFFFFFFFFFFFFFFFFFFFFFFFFFFFFLLLLLLL
16114566244651131452132331141144144536231162666666
FFFFFLLLFFFFFFFFFFFFFFFFFFFFFFFFFFFFFFFFFLLLLLLLLL
66666666666666666666663443266364335262234166662663
LLLLLLLLLLLLLLLLLLLLLFFFFFFFFFFFFFFFFFFFFLLLLLLLLF
15432666136663666441216512566644441664223513464554
FFFFFLLLLLLLLLLFFFFFFFFFFFFLLLFFFFFLLFFFFFFFFFFFFF
24424415366666612416553212523616365241114365324323
FFFFFFFFFLLLLLLLFFFFFFFFFFFFFFFFFFFFFFFFFFFFFFFFFF
66626666663423334642125466664644113552445626541554
LLLLLLLLLFFFFFFFFFFFFFFFLLLLFFFFFFFFFFFFFFFFFFFFFF
43256152623666656266416666656623211525636343136265
FFFFFFFFFFFFLLLLLLLLLLLLLLLLLLFFFFFFFFFFFFFFFFFFFF
52643666665666632635444233422213131553331152546666
FFLLLLLLLLLLLLLLLLFFFFFFFFFFFFFFFFFFFFFFFFFFFFLLLL
63642362225136166166653616666666556563114324563245
LFFFFFFFFFFFFFFLLLLLLLLLLLLLLLLFFFFFFFFFFFFFFFFFFF
62663543332666662661433416122245166466334451626351
FFFFFFFFFFFLLLLLLLLFFFFFFFFFFFFFFFFFFFFFFFFFFFFFFF
53623442552521543331254366666666666666643316436662
FFFFFFFFFFFFFFFFFFFFFFFFFLLLLLLLLLLLLLLLFFFFFFLLLL
16666666666661666566266666666466666451315515432142
FFLLLLLLLLLLLLLLLLLLLLLLLLLLLLLLLLLFFFFFFFFFFFFFFF
55255354341544623553666656616666666566666536664316
FFFFFFFFFFFFFFFFFFFLLLLLLLLLLLLLLLLLLLLLLLLLLLFFFL
66216666666266626666331533411426651525262121653233
LLLLLLLLLLLLLLLLLLLLFFFFFFFFFFFFFFFFFFFFFFFFFFFFFF
12465444352211326626466552666544124662466666252222
FFFFFFFFFFFFFFFFLLLLLLLLFFFFFFFFFFFLLLLLLLLLLFFFFF
11616666316666626666666154546221632212566531565246
FFLLLLLLLLLLLLLLLLLLLLLFFFFFFFFFFFFFFFFFLFFFFFFFFF
61133161461355446661666661666666661666451246152513
FFFFFFFFFFFFFFFFLLLLLLLLLLLLLLLLLLLLLLFFFFFFFFFFFF
26266664446166666545462512666666666666666636643636
LLLLLLLFFFFFLLLLLFFFFFFFFFLLLLLLLLLLLLLLLLLLLLLLLL
25216551533363626632164142352636666335642653254361
FFFFFFFFFFFFFFFFFFFFFFFFFFFFFFFLLLLFFFFFFFFFFFFFFF
36626666665451232651366356216166636254516256644263
FLLLLLLFFFFFFFFFFFFFFFFFFFFFLLLLLLFFFFFFFFFFFFFFFF
56656223266226345542131544666666666666661355111553
LLLFFFFFFFFFFFFFFFFFFFFFFFFLLLLLLLLLLLLLFFFFFFFFFF
66666666662215344554445232464544554212126666666566
LLLLLLLLLFFFFFFFFFFFFFFFFFFFFFFFFFFFFFFLLLLLLLLLLL
55666663166146666666666446666466666621666666355666
FFFLLLLLLLLLLLLLLLLLLLLLLLLLLLLLLLLLFLLLLLLLLLLLLL
66666666666454664156662666142461545213662166666666
LLLLLLLLLLLFFFFFFFFFFFFFFFFFFFFFFFFFFFLLLLLLLLLLLL
62516354415645443212555455422113454551424653263432
FFFFFFFFFFFFFFFFFFFFFFFFFFFFFFFFFFFFFFFFFFFFFFFFFF
15222152356514435543563524222536362464112655666666
FFFFFFFFFFFFFFFFFFFFFFFFFFFFFFFFFFFFFFFFFFFFFFLLLL
21243356124656411555224162665561166156266636646462
FFFFFFFFFFFFFFFFFFFFFFFFFFFFFFFFFFFFFFFLLLLLLLLLLF
55433244355524226666666666466616666666662333545456
FFFFFFFFFFFFFFFFLLLLLLLLLLLLFLLLLLLLLLLFFFFFFFFFFF
66646666666666661146656616151252626655425536631642
LLLLLLLLLLLLLLLLLLLLLLLLLFFFFFFFFFFFFFFFFFFFFFFFFF
66666566466626366631232611566136666666666666666666
LLLLLLLLLLLLLLLLLLLFFFFFFFFFFFFLLLLLLLLLLLLLLLLLLL
15126153446426565665534263666556562452131545155451
FFFFFFFFFFFFFFFLLLLFFFFFFFLLLLFFFFFFFFFFFFFFFFFFFF
66666666346555666362666466516666366666666566666643
LLLLLLLLFFFFFFFLLLLLLLLLLLLFLLLLLLLLLLLLLLLLLLLLFF
66666616666666666616666666636666656625466323353324
LLLLLLLLLLLLLLLLLLLLLLLLLLLLLLLLLLLLFFFFFFFFFFFFFF
33666664662435163325225325145461425626316664316642
FFLLLLLLLLFFFFFFFFFFFFFFFFFFFFFFFFFFFLLLLLLLLLLLLL
64111136141666455414154144144661666666613143251236
LFFFFFFFLLLLLFFFFFFFFFFFFFFFFLLLLLLLLLLFFFFFFFFFLL
66666664156413625211444256116636666654654213366366
LLLLLLLFFFFFFFFFFFFFFFFFFFFFLLLLLLLLFFFLFFFFFFLLLL
66316665666666666666666666626666646666665266666666
LLLLLLLLLLLLLLLLLLLLLLLLLLLLLLLLLLLLLLLLLLLLLLLLLL
12512116666666666666626656266566566666663666666665
FFFFFFFLLLLLLLLLLLLLLLLLLLLLLLLFFLLLLLLLLLLLLLLLLL
66364666665551161666666665666121132265522543414616
LLLLLLLLLLFFFFFLLLLLLLLFFFFFFFFFFFFFFFFFFFFFFFFFFF
11553515666662666626462454666246666655463633266336
FFFFFFFFLLLLLLLLLLLLLLFFFFLLLLLLLLLLLFFLFFFFFFFFFF
46136552516223134356454631453645314446166666666666
FFFFFFFFFFFFFFFFFFFFFFFFFFFFFFFFFFFFFFLLLLLLLLLLLL
52145354663642664263515522165242363246443152115666
FFFFFFFFLLLLLFFFFFFFFFFFFFFFFFFFFFFFFFFFFFFFFFFLLL
65642636232246665566241656366666636664551432466666
FFLFFFFFFFFFFLLLLLLLLLFFFFFLLLLLLLLLLFFFFFFFFFLLLL
65666564634135436666114645263516666666342256644631
LLLLLLLFFFFFFFFFLLLLFFFFFFFFFFFFLLLLLLLFFFFFFFFFFF
65416466162244166216651363261155566666646363616664
FFFFFFFFFLFFFFFFFFFFFFFFFFFFFFFFFLLLLLLLLLLLLLLLLL
66163445163223516666126656666666626616661656663415
LLFFFFFFFFFFFFFFFLLFFFLLLLLLLLLLLLLLLLLLLLLLLLLFFF
61341634462361652533644522225164352533615525465663
FFLFFFFFFFFFFFFFFFFFFFFFFFFFFFFFFFFFFFFFFFFFFFFFFF
41135354626425134544411524436136162356546666666431
FFFFFFFFFFFFFFFFFFFFFFFFFFFFFFFFFFFFFFFFLLLLLLLFFF
46135512453321356542252652621562466633666651266666
FFFFFFFFFFFFFFFFFFFFFFFFFFFFFFFFFLLLLLLLLLLLLLLLLL
52234155245446512126661666413146256216666666466665
FFFFFFFFFFFFFFFFFFFLLLLLLLFFFFFFFFFFFFFLLLLLLLLLLF
66442256666666361666626626352162666452266636645614
LLFFFFFLLLLLLLLLLLLLLLLLFFFFFFFFLLLFFFFFFLLLLLLLLF
14462666513525435122421452644446344636446666666661
FFFFFFFFFFFFFFFFFFFFFFFFFFFFFFFFFFFFFLLLLLLLLLLLLL
64666666666666666366466646216113236256434244253111
LLLLLLLLLLLLLLLLLFLLLLLLFFFFFFFFFFFFFLFFFFFFFFFFFF
66623666646666662646666636625666165553416556154616
LLLLLLLLLLLLLLLLLLLLLLLLLLLLLLLLLLFFFFFFFFFFFFFFFF
12566226144214514532143445236126611126666661665666
FFFFFFFFFFFFFFFFFFFFFFFFFFFFFFFFFFFFLLLLLLLLLLFLLL
43335545336234626664616524466644215355626631646462
FFFFFFFFFFFFFFLLLLLLLFFFFFFFFFFFFFFFFFFFLLLLLLLLLF
51163332654566334222434551516251116166666115451312
FFFFFFFFFFFFLLLFFFFFFFFFFFFFFFFFFFFFFLLLLLFFFFFFFF
36146164235142135546215364624134362146135151152114
FFFFFFFFFFFFFFFFFFFFFFFFFFFFFFFFFFFFFFFFFFFFFFFFFF
66666655421266666265666666121351234634613524522342
LLLLLLFFFFFLLLLLLLLLLLLLLLFFFFFFFFFFFFFFFFFFFFFFFF
55363664626514565224143613653316441134535145243564
FFFLLLLLLLLFFFFFFFFFFFFFFFFFFFFFFFFFFFFFFFFFFFFFFF
26666266656644224134134365314623434645432246366336
FFLLLLLLLLLLFFFFFFFFFFFFFFFFFFFFFFFFFFFFFFFFFFFFFF
41132243263142666666561363415663122113143665256643
FFFFFFFFFFFFFFLLLLLLFFFFFFFFFFFFFFFFFFFFFFFFFLLLFF
66526331442466666624155334643555535445166546562222
LLFFFFFFFFFFFLLLLLFFFFFFFFFFFFFFFFFFFFFFFFFFFFFFFF
54214131115322243325466644212533326334616666562136
FFFFFFFFFFFFFFFFFFFFFLLLLFFFFFFFFFFFFFLLLLLLLLFFFF
53236616666662645664366564623225223666463152566411
FFFFFFFFLLLLLLFFFLLLLLLLLLLLFFFFFFFLLLLLFFFFFFFFFF
65653666666663666262241265421351131613256461326613
FFLLLLLLLLLLLLLLLFFFFFFFFFFFFFFFFFFFFFFFFFFFFFLLLL
56646666545611564133611463244212311444252366654646
FLLLLLLLFFFFFFFFFFFFFFFFFFFFFFFFFFFFFFFFFFFFFFFFFF
12425443451643234216135666566212622341132253256663
FFFFFFFFFFFFFFFFFFFFFFFFLLLLLFFFFFFFFFFFFFFFFFLLLL
66634353463631126563262414134231434346446525665452
LLLFFFFFFFFFFFFFFFFFFFFFFFFFFFFFFFFFFFFFFFFFFFFFFF
43165614132216434562443626131122543626161544614451
FFFFFFFFFFFFFFFFFFFFFFFFFLFFFFFFFFFFFFFFFFFFFFFFFF
66266656666142166466666656326665516666666666156666
LLLLLLLLLLLFFFFLLLLLLLLLLLFFLLLLLLLLLLLLLLLLLLLLLL
66311646666666663646346363622666666656666644244533
LLLLLLLLLLLLLLLLFFFFFFFFFFFFFLLLLLLLLLLLLLFFFFFFFF
66623455311641155625666666665114345512242166166666
LLLFFFFFFFFFFFFFFFFFLLLLLLLLLFFFFFFFFFFFFFFFFLLLLL
44536356115114251654233661216624643635452534366622
FFFFFFFFFFFFFFFFFFFLLLFFFFFFFFFFFFFFFFFFFFFFFFLLLF
43424115266656616666665666666365442432333253135511
FFFFFFFFFLLLLLLLLLLLLLLLLLLLLLLFFFFFFFFFFFFFFFFFFF
45434666666666662624633312655166666666636466236626
LLFFFLLLLLLLLLLLFFFFFFFFFFFFFLLLLLLLLLLLLLLLFFFFFF
51451246215245125322166666666631623363145665333651
FFFFFFFFFFFFFFFFFFFFFLLLLLLLLFFFFFFFFFFFFFFFFFFFFF
65561653642531651512552515643225154655663463551166
FFFFFFFFFFFFFFFFFFFFFFFFFFFFFFFFFFFFFFFFFFFFFFFFFL
42451112246634543112653541553424356214646251351416
FFFFFFFFFFFFFFFFFFFFFFFFFFFFFFFFFFFFFFFFFFFFFFFFFF
54441323565453112333433332211633636454122366424364
FFFFFFFFFFFFFFFFFFFFFFFFFFFFFFFFFFFFFFFFFFFFFFFFFF
66666666626562636543613135644135421334651265265463
LLLLLLLLLLFFFFFFFFFFLFFFFFFFFFFFFFFFFFFFFFFFFFFFFF
35563651166666664636431416364132643666626625666666
FFFLLLLLLLLLLLLLFFFFFFFFFFLLLFFFFFFFLLLLLLLLLLLLLL
46341652166522126126153651414254564422526664466363
FFFFFFFFFFFFFFFFFFFFFFFFFFFFFFFFFFFFFFFFFFFFFFFLLF
23553426662166664622254214642131313226336466326526
FFFFFFFFFFFFFFFFFFFFFFFFFFFFFFFFFFFFFFFFFFFFFFFFFF
45644666666666625424233166646666666665666666666534
FFFFFLLLLLLLLLLFFFFFFFFFLLLLLLLLLLLLLLLLLLLLLLLFFF
35525651261526666446666666666666666666616526336616
FFFFFFFFFFFFFLLLLLLLLLLLLLLLLLLLLLLLLLLLFFFFFLLLLL
42652366625526136643644641415223636666661541614235
FFFFFFLLLFFFFFFFFFFFFFFFFFFFFFFFFFLLLLLLFFFFFFFFFF
36233316666656666466636666462564366346223145553562
FFFFFFFFLLLLLLLLLLLLLLLLLLLLFFFFFFFFFFFFFFFFFFFFFF
62156516466666145224644546322211343162646651515115
FFFFFFFLLLLLLLFFFFFFFFFFFFFFFFFFFFFFFFLLLLFFFFFFFF
13421233166662666666663666666666666666125455345645
FFFFFFFFFLLLLLLLLLLLLLLLLLLLLLLLLLLLLLLFFFFFFFFFFF
64662213462112666666246311626113466566666616455233
FFFFFFFFFFFFLLLLLLLLFFFFFFFFFFFFFLLLLLLLLLFFFFFFFF
56614466666536626566616421632613633126266311426636
FLLLLLLLLLLLLLLLLLLLFFFFFFFFFFFFFFFFFFFFFFFFFFLLLL
44125542352245163666666666666666616666661341262232
FFFFFFFFFFFFFFFFFFLLLLLLLLLLLLLLLLLLLLLLFFFFFFFFFF
32543216343343552516611414426436365236646663254335
FFFFFFFFFFFFFFFFFFFFFFFFFFFFFFFFFFFFFLLLLLLLFFFFFF
51265466352456514161266433432112543122566311355264
FFFFFFFFFFFFFFFFFFFFFFFFFFFFLFFFFFFFFFFFFFFFFFFFFF
36626641666634236612552463522553361116165266155653
LLLLLLLLLLLLLFFFFFFFFFFFFFFFFFFFFFFFFFFFFFLLFFFFFF
