6266666645
LLLLLLLFFF
1616121116
FFFFFFFFFF
6546666666
FFLLLLLLLL
4511336136
FFFFFFFFFF
6311666664
FFFFFLLLLL
3255161332
FFFFFLLFFF
4312515612
FFFFFFFFFF
4222144656
FFFFFFLLLL
6466666623
FLLLLLLLFF
4136423613
FFFFFFFFFF
1634623164
FFFFFFFFFF
1562363616
FFFFFFFFFF
3635666663
LLLLLLLLLL
4166661663
FFLLLLLLLL
3665264112
FLLFFFFFFF
6214223453
FFFFFFFFFF
1413651143
FFFFFFFFFF
6666666636
LLLLLLLLLL
4415155646
FFFFFFFFFF
5426366646
FFFLLLLLLL
6626666166
LLLLLLLLLL
6664226452
LLFFFFFFFF
1666665666
FFLLLLFFFF
6526321666
FFFFFFFFFF
1621223666
FFFFFFFFLL
6361251443
LLLFFFFFFF
5225444462
FFFFFFFFFF
1163262453
FFFFFFFFFF
6663223633
LLLFFFFFFF
4121613563
FFFFFFFFFF
6644343622
LLFFFFFFFF
2222615652
FFFFFFFFFF
5231315666
FFFFFFFFLL
6664666466
FLLLLLLLLL
5463512111
FFFFFFFFFF
1256314353
FFFFFFFFFF
6666664666
LLLLLLLLLL
5226666665
FFFLLLLLLF
2625235514
FFFFFFFFFF
5353136553
FFFFFFFFFF
5534643652
FFFFFFFFFF
6631366666
LLFFFFLLLL
5632666252
FFFFFLFFFF
4643566666
FFFFLLLLLL
5624426445
FFFFFFFFFF
3255151462
FFFFFFFFFF
4264455251
FFFFFFFFFF
6251415334
FLFFFFFFFF
5442256611
FFFFFFFFFF
6664666636
LLLLLLLLLL
4651444662
FFFFFFLLLL
1261461422
FFFFFFFFFF
6511653251
LFFFFFFFFF
2112266666
FFFFFLLLLL
6426451314
LFFFFFFFFF
6266666666
LLLLLLLLLL
6666666666
LLLLLLLLLL
6664332354
LLLFFFFFFF
6232336265
FFFFFFFFFF
4122666141
FFFFFFFFFF
2154114436
FFFFFFFFFF
1123563251
FFFFFFFFFF
3666666666
FFLLLLLLLL
3562365216
FFFFFFFFFF
3254232633
FFFFFFFFFF
5422666666
FFFFFLLLLL
1212625152
FFFFFFFFFF
3663616662
FLLLLLLLLF
3636126665
FFFFFFLLLL
2242455352
FFFFFFFFFF
6556266626
LLLLLLLLLL
2635452252
LLFFFFFFFF
1466666612
FFLLLLLLFF
6612562363
LLLLLLLLFF
5631624636
FFFFFFFFFL
6523644265
FFFFFFFFFF
6615662662
FLLFLLLLLF
6521653246
FFFFFFFFFF
3415536622
FFFFFFFFFF
5222643112
FFFFFFFFFF
5216616616
FFFLLFLLLL
6563454345
LFFFFFFFFF
6632161252
FLFFFFFFFF
3114164311
FFFFFFFFFF
6652656542
FFFFFFFFFF
1111661132
FFFFLLFFFF
2553366665
FFFFFFLLLL
5411313562
FFFFFFFFFF
2431142331
FFFFFFFFFF
5642533355
FFFFFFFFFF
6662121432
LLLFFFFFFF
2426235426
FFFFFFFFFF
6312512363
FFFFFFFFFF
6666614421
LLLLLFFFFF
5652516663
FLLFFLLLLL
3242245335
FFFFFFFFFF
6266366616
FFFFFLLLLL
6266666666
LLLLLLLLLL
6666656561
LLLLLLLFFF
5215166666
FFFFFLLLLL
