1651114536
FFFFFFFFFF
4666666666
FLLLLLLLLL
2421154656
FFFFFFFFFL
6666666666
LLLLLLLLLL
4436366656
FFFLLLLLLL
6465643352
FFFFFFFFFF
6656462236
LLLLLLLLFF
6165641315
LFFFFFFFFF
5634535465
FFFFFFFFFF
6666666665
LLLLLLLLLL
4254452222
FFFFFFFFFF
6321456515
LFFFFFFFFF
2351226361
FFFFFFFFFF
6622142143
LLLFFFFFFF
5652345163
FFFFFFFFFF
6666663666
LLLLLLLLLL
6522663666
FFFFLLLLLL
6664666666
LLLLLLLLLL
1333363316
FFFFFFFFFF
6334326563
FFFFFFFFFF
6434324612
FFFFFFFFFF
1166626666
FFLLLLLLLL
2414242166
FFFFFFFFLL
4233335666
FFFFFLLLLL
6666645315
LLLLLFFFFF
5542115626
FFFFFFFFFF
2416241155
FFFFFFFFFF
5541264233
FFFFFFFFFF
1166636666
LLLLLLLLLL
1566662566
FFFLLLLLLL
5614645333
FFFFFFFFFF
5416315166
FFFFFFFLLL
6642651235
LLFFFFFFFF
5666635423
FFFFFFFFFF
5653514266
LLFFFFFFLL
3536165566
FFFLLLLLLL
6311163533
FFFFFFFFFF
3222323663
FFFFFFLLLL
2612563646
FFFFFFFFFL
1411561666
FFFFFLLLLL
1546666451
FFLLLLLLLF
1636366464
FFFFFFFFFF
6662666366
LLLLLLLLLL
5366666666
LLLLLLLLLL
6666652265
FLLLFFFFFF
4612616563
FFFFLLLLLF
6516366254
FFFFFLLLLL
6466566666
FFFFLLLLLL
6666666232
LLLLLLFFFF
6623115434
FFFFFFFFFF
6666646666
LLLLLLLLLL
4541656153
FFFFFFFFFF
3114662646
FFFFFFFFFF
2131344224
FFFFFFFFFF
3422422361
FFFFFFFFFF
1564666422
FFFFLLLLFF
4364413121
FFFFFFFFFF
6662466666
LLLLLLLLLL
4562366545
FFFFFLLFFF
5324146266
FFFFFFFFFF
3145253643
FFFFFFFFFF
6532442646
LLFFFFFFFF
2611225565
FFFFFFFFFF
3466612342
FFLLLFFFFF
4364462125
FFFFFFFFFF
6442351636
FFFFFFFFFF
3251342566
FFFFFFFFFF
5164615236
FFLLLLFFFF
1663652252
FLLLLFFFFF
5625224642
FFFFFFFFFF
5652662633
LLLLLLLLLF
4132155414
FFFFFFFFFF
2653343423
FFFFFFFFFF
6536525126
FFFFFFFFFF
4516212653
FFFFFFFFFF
4532624656
FFFFFFLLLL
3516412551
FFFFFFFFFF
6666662656
LLLLLLFFFF
6111553453
LFFFFFFFFF
6664222146
LLLFFFFFFF
2264221524
FFFFFFFFFF
6215566643
LLFFFFFFFF
5636661521
LLLLLFFFFF
6664666461
LLLLLLLLLF
3661322326
FLLLFFFFFF
3666666666
LLLLLLLLFF
5446521416
FFFFFFFFFF
4114152133
FFFFFFFFFF
6626661566
LLLLLLLLLL
3332123213
FFFFFFFFFF
3266312114
FFLLFFFFFF
1443433445
FFFFFFFFFF
4213334155
FFFFFFFFFF
6266666666
LLLLLLLLLL
2142643441
FFFFFFFFFF
4112664566
FFFFLLLLLL
6441361666
LLLFLLLLLL
3141646412
FFFFFFFFFF
1613226663
LLFFFFLLLL
4123211646
FFFFFFFLLL
