3324622441
FFFFFFFFFF
3165135335
FFFFFFFFFF
6666646364
LLLLLLLLLL
5662531133
FFFFFFFFFF
3125465365
FFFFFFFFFF
5662462636
FFFFFFFFFL
6465511122
LFFFFFFFFF
1424325643
LFFFFFFFFF
6665613166
LLLLLLLLLL
6442555261
FFFFFFFFFF
1431663314
FFFFFFFFFF
5661626661
FLLLLLLLLF
3652134436
FFFFFFFFLL
2666235654
FLLLLFFFFF
2565561455
LLFFFFFFFF
6234524355
FFFFFFFFFF
4113264333
FFFFFFFFFF
6411221412
FFFFFFFFFF
6313424561
LFFFFFFFFF
6246311645
FFFFFFFFFF
4533615663
FFFFFFFFFF
3221435236
FFFFFFFLLL
1451165666
FFFFFFFLLL
2155531545
FFFFFFFFFF
1466666666
FFLLLLLLLL
6644462464
LLLLLLLFFF
6666666663
LLLLLLLLLF
1442323634
FFFFFFFFFF
6666666666
LLLLLLLLLL
6132421455
FFFFFFFFFF
1641245226
FLFFFFFFFF
4456121223
FFFFFFFFFF
1241315443
FFFFFFFFFF
6666646266
LLLLLLLLLL
4324136111
FFFFFFFFFF
2353156411
FFFFFFFFFF
3361666566
FFFFLLLLLL
6556315366
FFFFFFFFFF
6254261132
LFFFFFFFFF
6626615566
FLLLLLLFLL
5226626662
FFFFLLLLLF
3131234226
FFFFFFFFFF
1113215234
FFFFFFFFFF
2362132533
FFFFFFFFFF
6316215162
FFFFFFFFFF
6666265666
LLLLLLLLLL
2345421115
FFFFFFFFFF
5153241664
FFFFFFFFFF
5352346316
FFFFFFLFFL
4466666632
FFLLLLLLLL
6666621566
LLLLFFFFLL
5345432546
FFFFFFFFFF
3643141566
FFFFFFFFFF
6435662366
FFFFLLLLLL
6254426123
LFFFFFFFFF
5632626143
FFFLLLLFFF
4143323456
FFFFFFFFFF
6616644224
LLLLLLFFFF
1223622125
FFFFFFFFFF
1255264323
FFFFFFFFFF
6632433215
FFFFFFFFFF
6666666366
LLLLLLLLLL
6421635255
FFFFFFFFFF
3134643565
FFFFFFFFFF
1666446661
FFFFFFFFFF
4663426152
FLLFFFFFFF
6562666626
LLLLLLLLLL
2666344666
FFFFFFFLLL
6325644333
FFFFFFFFFF
4636443346
FLLLFFFFFL
6666162336
LLLLLLFFLL
5344563166
FFFFFFFFFF
6131515542
LFFFFFFFFF
6212321224
LFFFFFFFFF
2452562515
FFFFFFFFFF
6213263126
FFFFFLFFFL
6666665666
LLLLLLLLLL
4221433641
FFFFFFFLLL
6666665616
LLLLLLLLLL
6666143433
LLLFFFFFFF
6661524664
FFFFFFLLLL
6662336446
LLLLFFFFFF
4142241631
FFFFFFFFFF
4212125213
FFFFFFFFFF
5666666245
FFLLLLFFFF
2145623665
FFFFFFFFLL
6326346123
FFFFFFFFFF
6442116626
FFFFFFFFFF
5136656666
FFLLLLLLLL
4446664346
FFFLLLLLLL
2451255622
FFFFFFFFFF
2146262535
FFFFFFFFFF
1122126525
FFFFFFFFFF
6666666666
LLLLLLLLLL
6434661216
FFFFFFFLLL
2414543611
FFFFFFFFFF
2662666666
FLLLLLLLLL
2326466616
FFFFFLLLLL
4151332553
FFFFFFFFFF
6666466452
LLLLLLLLFF
5313515224
FFFFFFFFFF
6156126344
LFFFFFFFFF
6666656446
LLLLLFFFFF
3435443424
FFFFFFFFFF
5262412323
FFFFFFFFFF
1443541454
FFFFFFFFFF
1565134636
FFFFFFFLLL
6642524332
FFFFFFFFFF
1354451151
FFFFFFFFFF
5321666616
FFFFLLLLLL
6314262512
LLFFFFFFFF
2236156314
FFFFFFFFFF
6666456113
LLLLFFFFFF
4332136632
FFFFFFFLFF
6161434624
FFFFFFFFFF
2254624356
FFFFFFFFFF
6666656666
LLLLLLLLLL
6141261452
FFFFFFFFFF
1652432316
FFFFFFFFFL
6666666612
LLLLLLLLFF
4211336243
FFFFFFFFFF
6666666462
LLLLLLFFFF
3335163346
FFFFFFFFFF
6225446511
FFFFFFFFFF
1341263666
FFFFFLLLLL
6653564556
FFFFFFFFFF
4641424222
FFFFFFFFFF
1563211463
FFFFFFFFFF
6315156142
FFFFFFFFFF
5666666634
LLLLLLLLFF
3122363145
FFFFLLFFFF
1326666661
FFFLLLLLLF
1212523625
FFFFFFFFFF
4236646263
FFFFFFFFFF
3433151366
FFFFFFFFLL
6666666656
LLLLLLLLLL
6365226562
LLLLFFFFFF
5331544651
FFFFFFFFFF
6331351413
FFFFFFFFFF
2566125663
FFFFFFFFFF
6666666666
LLLLLLLLLL
6666465244
LLLLLLFFFF
6435542246
FFFFFFFFLL
6251516321
FFFFFFFFFF
4365666612
FFFFLLLLFF
6162661434
FFFFFFFFFF
6544235363
FFFFFFFFFF
6466613554
LLLLLLFFFF
3555664323
FFFFFFFFFF
4661451263
FFFFFFFFFF
4112151666
FFFFFFFLLL
6465631553
LLLFFFFFFF
6666666266
LLLLLLLLLL
4266556155
FFFFFFLFFF
6661161544
LLLFFFFFFF
6236653365
FFFLLFFFLL
6654666513
FFFFFLLFFF
6666531543
LLLLFFFFFF
6666466664
LLLLLLLLLF
4453266116
FFFFFFFFFF
2136646666
FFFFLLLLLL
6666666666
LLLLLLLLLL
5416516666
FFFFFFLLLL
2261665644
FFFFFFFFFF
1663566666
LLLLLLLLLL
6144233263
LFFFFFFFFF
6666661666
LLLLLLLLLL
6663361211
FFFFFFFFFF
6626112323
LLLLFFFFFF
6666622234
LLLFFFFFFF
5162224535
FFFFFFFFFF
6253535443
FFFFFFFFFF
6634663621
LLFLLLLLFF
6454666666
FFFLLLLLLL
2112165464
FFFFFFFFFF
6612366261
LLLLFFFFFF
6665562616
LLLLLLLLLL
1612261256
FFFFFFFFFF
6646316554
LLLFFFFFFF
1666621666
LLLLLLFLLL
6116116666
LLLLLLLLLL
6641426336
LLFFFFFFFF
6566666566
LLLLLLLLLL
2252532623
FFFFFFFFFF
1255524641
FFFFFFFFFF
2534664132
FFFFFFFFFF
3666436651
FLLLLLLLFF
2553252221
FFFFFFFFFF
1324544625
FFFFFFFFFF
6366654666
LLLLLLLLLL
3112634523
FFFFFFFFFF
6421514343
FFFFFFFFFF
1341266666
FFFLLLLLLL
1333313624
FFFFFFFFFF
1523522142
FFFFFFFFFF
4445633141
FFFFFFFFFF
2515465663
FFFFFFFFFF
1236534225
FFFFFFFFFF
6455165516
FFFFFFFFFL
3563652466
FFFFFFFFLL
