5645346665
FFFFFFFLFF
6566166366
LLLLLLLLLL
2631422221
FLFFFFFFFF
6666665656
LLLLLLLLLL
1666663533
LLLLFFFFFF
5224246666
FFFFFFLLLL
5421416661
FFFFFLLLLL
2325352455
FFFFFFFFFF
6666664411
LLLLLLFFFL
1224131523
FFFFFFFFFF
2666626665
FFLLLLLLLL
4521336662
FFFFFFLLLF
5461311643
FFFFFFFFFF
6666666614
LLLLLLLLFF
6665564224
LLLFFFFFFF
6362666666
LLLLLLLLLL
6616666615
LLLLLLLLFF
4661341436
LLLFFFFFFF
1435236325
FFFFFFFFFF
1633223651
FFFFFFFFFF
6656661666
LLLLLLLLLL
5661136326
FFFFFFFFFF
3362416664
FFFFFFLLLL
1515226566
FFFFFFFFLL
6153625566
FFFFFFFFFF
2446366365
FFFFFFFFFF
4443532164
FFFFFFFFFF
6666666556
LLLLLLLLLL
5625165516
FFFFFFFFLL
6154536511
FFFFFFFFFL
4162325131
FFFFFFFFFF
4362566655
FFFFFFFFFF
3163152356
FFFFFFFFFF
6542145136
FFFFFFFFFF
1463224515
FFFFFFFFFF
6665161126
LLLFFFFFFF
4456165111
FFFFFFFFFF
1551466126
FFFFFFFFFL
2516356666
FFFFFFLLLL
6642422555
LLFFFFFFFF
3256423466
FFFFFFFFLL
2223626666
FFFFLLLLLL
1666626566
LLLLLLLLLL
4646142545
FFFFFFFFFF
1366246666
FFLLLLLLLL
6626625414
LLLLLFFFFF
5566646666
FLLFFFLLLL
6666651362
LLLLLFFFFF
1326415263
FFFFFFFFFF
1462521354
FFFFFFFFFF
5545445652
FFFFFFFFFF
3246666666
FFLLLLLLLL
3253563625
FFFFFFFFFF
6661541624
LLLFFFFFFF
6466366663
LLLLLLLLLL
1424265666
FFFFFFFLLL
2356211645
FFFFFFFFFF
6641422666
FFFFFFLLLL
2626662415
LLLLLLFFFF
6646656635
LLLLLLLLLL
6124444644
LFFFFFFFFF
3645661223
FFFLLLLFFF
4436246132
FFFFFFFFFF
6632664562
LLLLLLFFFF
3416134613
FFFFFFFLLF
4515135516
FFFFFFFFFF
6666666636
LLLLLLLLFL
4222532651
FFFFFFFFFF
3263664466
FFFFLLLLLL
5556336525
FFFFFFFFFF
6425236336
FFFFFFFFFF
2156211262
FFFFFFFFFF
3612353452
FFFFFFFFFF
4621561455
FFFFFFFFFF
2231433142
FFFFFFFFFF
4436666636
FFFLLLLLLL
6261621266
FFFFFFFFFF
2153456641
FFFFFFFFFF
2446355132
FFFFFFFFFF
6611552666
LLLFFFFFLL
2625665562
LLLLLFFFFF
6616626644
LLLLLFFFFF
3662233236
FFFFFFFFFF
4564316666
FFFFFFLLLL
5441624122
FFFFFFFFFF
6666666366
LLLLLLLLLF
3246414261
FFFFFFFFFF
2221666512
FFFFLLLFFF
4252264413
FFFFFFFFFF
3345142464
FFFFFFFFFF
6362656462
LLLFFFFFFF
4266256444
FFFFFFFFFF
1551231666
FFFFFFFLLL
6444521461
FFFFFFFFFF
2321256526
FFFFFFFFFF
2522453655
FFFFFFFFFF
2655442334
FFFFFFFFFL
4534225633
FFFFFFLLFF
3624421121
FFFFFFFFFF
3336614336
FFFFFFFFFF
1565544563
FFFFFFFFFF
3166626666
FFFLLLLLLL
2555225136
FFFFFFFFFF
4522322134
FFFFFFFFFF
6616462433
LLLLLLFFFF
4441163155
FFFFFFFFFF
6661412662
LLLLLLLLLF
2244332241
FFFFFFFFFF
6646662666
LLLLLLLLLL
1456664243
FFLLLLFFFF
5645465144
FFFFFFFFFF
4343422436
FFFFFFFFFF
6542643165
FFFFFFFFFF
1155512552
FFFFFFFFFF
6666666526
LLLLLLFFFF
6666266235
LLLLLLLFFF
3112611364
FFFFFFFFFF
3455556553
FFFFFFFFFF
5366266665
FLLLLLLLLL
6666661631
LLLLLLLLFF
2523665242
FFFLLLFFFF
6612321346
LLFFFFFFFF
3546346432
FFFFFFFFFF
6643454666
FFFFFFLLLL
5142455266
FFFFFFFFLL
4316224342
FFFFFFFFFF
6255125156
FFFFFFFFFF
6666125543
LLLLLFFFLL
3662356445
FFFFFFFFFF
5252414444
FFFFFFFFFF
2354522651
FFFFFFFFFF
3346112136
FFFFFFFFFF
4255112523
FFFFFFFFFF
3531263623
FFFFFFFFFF
4346666666
FFLLLLLLLL
4522153563
FFFFFFFFFF
3666121624
LLLLFFFFFF
2623133666
FFFFFFFFLL
3313121245
FFFFFFFFFF
4521241413
FFFFFFFFFF
4525466235
FFFFFFFFFF
6521426131
FFFFFFFFFF
6661666666
LLLLLLLLLL
6666666666
LLLLLLLLLL
1614566636
FFFFFFLLLL
2244541452
FFFFFFFFFF
6624545641
FFFFFFFFFF
1145514453
FFFFFFFFFF
6266162351
FFFFFFFFFF
6626442266
LLFLFFFFFF
3555353224
FFFFFFFFFF
2153123313
FFFFFFFFFF
6666666652
LLLLLLLFFF
6666641635
LLLLLLLLFF
1655236523
FFFFFFLLLL
5352616331
FFFFFFFFFF
6143215261
FFFFFFFFFF
6666646616
LLLLLLLLLL
6666636121
LLLLLFFFFF
4666633463
FLLLFFFFFF
4561646666
FLLLLLLLLL
4666366666
LLLLLLLLLL
4456335112
FLLLLLFFFF
4663254624
FLLFFFFFFF
2511254145
FFFFFFFFFF
6664453643
LLLLFFFFFF
1566614666
FFLLLLLLLL
5542132163
FFFFFFFFFF
1362554615
FFFFFFFFFF
2666613646
LLLLLLLLLL
3266366436
FFLLLLLLLL
6536355666
FFFFFFFFFL
4663445513
LLFFFFFFFF
1233152553
FFFFFFFFFF
5126455224
FFFFFFFFFF
6666512441
LLLLFFFFFF
2546114124
FFFFFFFFFF
1666616614
FLLLLLLLFF
1125212446
FFFFFFFFFF
4562432153
FFFFFFFFFF
6644323212
FFFFFFFFFF
1341422146
FFFFFFFFFF
6131246452
FFFFFFFFFF
3436652523
FFFFFFFFFF
5624612513
FFFFFFFFFF
6562326336
FFFFFFFFFF
1264116563
FFFFFFFFFF
6443436365
FFFFFFFFFF
6145621156
FFFFFFFFFF
3612661351
FFFFFFFFFF
3252311165
FFFFFFFFFF
2522661654
FFFFFFFFFF
6661636442
LLLLLLFFFF
6656636666
LLLLLLLFFL
6326545666
LLFFFFLLLL
1155455263
FFFFFFFFFF
6166666666
LLLLLLLLLL
3233246566
FFFFFFLLLL
6525213362
FFFFFFFFFF
6666666666
LLLLLLLLLL
6321215666
LFFFFFFLLL
6653541521
FLFFFFFFFF
6453666666
FFFFLLLLLL
4656622263
LLLLLFFFFF
5241413251
FFFFFFFFFF
4325126314
FFFFFFFFFF
1525261233
FFFFFFFFFF
6664161661
LLLFFFLLLL
6434542655
FFFFFFFFFF
6666663616
LLLLLLLLLL
6552514336
FFFFFFFFFF
2226626653
FFFFFFFFFF
5625144142
FFFFFFFFFF
3226334324
FFFFFFFFFF
2666164135
FLLFFFFFFF
5634622666
FFFFFFLLLL
1536266626
LFFLLLLLLL
3166666666
FFLLLLLLLL
2641321232
FFFFFFFFFF
3416142666
FFFFFLLLLL
3626125536
FFFFFFFFFF
6666664546
LLLLLLLLLL
3345336165
FFFFFFFFFF
5454434363
FFFFFFFFFF
1451412612
FFFFFFFFFF
4534613433
FFFFFFFFFF
3233512665
FFFFFFFLLF
6235435353
FFFFFFFFFF
3663646346
LLLLLFFFFF
6216162451
FFFFFFFFFF
3246525242
FFFFFFFFFF
2463525322
FFFFFFFFFF
1666613625
LLLLLFFFFF
5516655666
FFFFLFFLLL
6441666461
LFFLLLLLLL
6166666666
LLLLLLLLLL
1566151115
FFFFFFFFFF
1331613554
FFFFFFFFFL
4256646666
FFFLLLLLLL
5443325561
FFFFFFFFFF
6452656666
FFFFLLLLLL
1622632424
FFFFFFFFFF
5432432534
FFFFFFFFFF
2525313552
FFFFFFFFFF
4616551543
FFFFFFFFFF
1266422315
FFLLFFFFFF
6661521526
LLLFFFFFFL
1146525332
FFFFFFFFFF
2136666226
FFFLLLLLLL
1313234443
FFFFFFFFFF
1646322634
FFFLFFFFFF
5245546353
FFFFFFFFFF
6516666466
FFLLLLLLLL
1122411366
FFFFFFFFLL
4314342362
FFFFFFFFFF
4666621155
FLLLLFFFFF
4266266646
FFLLLLLLFF
5324112216
FFFFFFFFLL
1256666662
FFLLLLLLFF
6625365464
FFFFFFFFFF
1546563651
FFFFFFFFFF
5623266466
FFFFFLLLLL
4616262635
FFFFFFFFFF
1644616166
FFFFFFLLLL
1355164526
FFFFFFFFFF
2263142464
FFFFFFFFFF
6156345265
LLFFFFFFFF
3511216535
FFFFFFFFFF
6626664656
LLLLLLLLLL
3353112251
FFFFFFFFFF
3415136146
FFFFFFFFFF
2666356666
LLLLFFLLLL
5513544655
FFFFFFFFFF
6663666666
LLLLLLLLLL
3361353326
LFLLFFFFFL
5426256466
FFFFFFFFFF
4241416166
FFFFFFFFFF
6326622152
LLLLFFFFFF
2666666666
LLLLLLLLLL
3351431112
FFFFFFFFFF
1651423163
FFFFFFFFFF
2266664663
LLLLLLLLLF
5553454656
FFFFFFFFLL
1324156616
FFFFFFLLFF
6431343263
LFFFFFFFFF
6161365226
LLLLFFFFFL
6662213625
LLLLFFFFFF
5131341332
FFFFFFFFFF
6664665511
LLLLLLLLLL
4155664666
FFFLLLLLLL
5526266656
FFFFLLLLFF
2466666666
FFLLLLLLLL
2146664666
FFLLLLLLLL
2422113546
FFFFFFFFFL
6626664666
FFFLLLLLLL
2355222415
FFFFFFFFFF
2413414154
FFFFFFFFFF
6666615466
LLLLLLLLLL
3562345214
FFFFFFFFFF
4364333665
FFFFFFFFLF
