24465266424146322424
FFFFFFFFFFFFFFFFFFFF
16662626235253116666
LLFFFFFFFFFFFFFFLLLL
14114662225661361221
FFFFFFFFFFFFFFFFFFFF
66626366555241646543
LLLLLLLLFFFFFFFFFFFF
31614221245243152625
FFFFFFFFFFFFFFFFFFFF
56255443466611223532
FFFFFFFFFFFFFFFFFFFF
66666636666661661646
LLLLLLLLLLLLLLLFFFFF
66616616666662445565
LLLLLLLLLLLLFFFFFFFF
11321326122251122311
FFFFFFFFFFFFFFFFFFFF
54461566666666666666
FFFFFLLLLLLLLLLLLLLL
41246666666256566633
FFLLLLLLLLLFFFFFFFFF
51424443223655132356
FFFFFFFFFFFFFFFFFFFF
63656216666161662556
LLLLLLLLLLLLLLLLFFFF
66254315134354356613
FFFFFFFFFFFFFFFFFFFF
31125256666612126666
FFFFFFFLLLLLFFFFFLLL
62553146156133422155
FFFFLFLLFFFFFFFFFFFF
12666645156665664344
FFFFFFFFFFLLLLLLFFFF
32325116645212454413
FFFFFFFFFFFFFFFFFFFF
26142643612146113652
FFFFFFFFFFFFFFFFFFFF
66663664656656626666
LLLLLLLLLLLLLLLLLLLL
66156635466666366514
LLLLLLFFLLLLLLFFFFFL
66134422251352665663
LLFFFFFFFFFFFFFFFFFF
42466636666666666656
LLLLLFFLLLLLLLLLLLLL
32434541563221416666
FFFFFFFFFFFFFFFLLLLL
66666466463536611261
LLLLLLLLLLLFFFFFFFFF
61265556666636666666
FFFFFFFLLLLLLLLLLLLL
64225244315366442645
FFFFFFFFFFFFFFFFFLLF
23463454662212135346
FFFFFFFFFFFFFFFFFFFF
66666311663556444656
LLLLLFFFFFFFFFFFFFFL
65663536666636666222
FFLLFLLLLLLLLLLLLFFF
41321232353411642451
FFFFFFFFFFFFFFFFFFFF
46632225413544322315
FFFFFFFFFFFFFFFFFFFF
13555123515131141423
FFFFFFFFFFFFFFFFFFFF
56162626664665666666
LLLLFFFLLLLLLLLLLLLL
66646635346666616644
LLLLLLLLLLLLLLLLLLFF
46666566636536142521
LLLLLLLLLLLFFFFFFFFF
45144366662261352123
FFFFFFFLLLFFFFFFFFFF
12236211555112435462
FFFFFFFFFFFFFFFFFFFF
66666666666665666512
LLLLLLLLLLLLFFFFFFFF
66142546331636316436
LLLFFFFFFFFFFFFFFFFF
33226635546666263656
FFFFLLFFFFLLLLLLLLLL
12456166161665416366
FFFFFFLFFFFFFFFFFFLL
33433464616664666635
FFFFFFFLLLLLLLLLLLFF
52142133223536666662
FFFFFFFFFFFFFLLLLLLL
26622634334243664642
LLLFFFFFFFFFFLLLFFFF
63662625122654565512
FFFFFFFFFFFFFFFFFFFF
66666666666666266666
LLLLLLLLLLLLLLLLLLLL
66464561346114666261
LLFFFFFFFFFFFFFFLLLF
42661665663165561523
FFFFFLLFFFFFFFFFFFFF
55546665531155466415
FFFFFFFFFFFFFFFLLFFF
45611222466666464556
FFFFFFFFLLLLLLFFFFFL
35654543126564525644
FFLLLFFFFFFFFFFFFFFF
16642666666666666665
FFLFFLLLLLLLLLLLLLLL
65536666666635613354
LFFFLLLLLLLFFFFFFFFF
62662653666166615126
LLLLLLLLLLLLLLLFFFFF
41241261224365544666
FFFFFFFFFFFFFFFFFLLL
61152566266666166264
FFFFFFLLLLLLLLLLLLLL
44455656513333465154
FFFFFFFFFFFFFFFFFFFF
65124564113662415521
FFFFFFFFFFFFFFFFFFFF
66563666264566666666
LLLLLLLLLLLLLLLLLLLL
66662266461113656145
LLLLFLLLFFFFFFFFLFFF
63221611655141656666
FFFFFFFFLLFFFFFFFLLL
46224263366251545264
FFFFFFFFFFFFFFFFFFFF
41216662526666363466
FFFLLLLFFFLLLLLLLLLL
16664463125251363666
FFFFFFFFFFFFFFFFFLLL
33436431246421352613
FFFFFFFFFFFFFFFFFFFF
66566566446443536441
LLLLLLLLLFFFFFFFFFFF
43526351514241666266
FFFFFFFFFFFFFFLLLLLL
56666636655336353424
FLLLLLLLFFFFFLFFFFFF
54442535465626251223
FFFFFFFFFFFFFFFFFFFF
66643666566666666666
LLLFFLLLLLLLLLLLLLLL
66666665666666612626
LLLLLLLLLLLLLLLFFFFL
44535516324353423235
FFFFFFFFFFFFFFFFFFFF
66662454524355436333
LLLLFFFFFFFFFFFFLLFF
51411622144532562615
FFFFFFFFFFFFFFFFFFFF
66666626625261666666
LLLLLLLLLFFFLLLLLLLL
42614433166565621565
FFFFFFFFFLLFFFLFFFFF
63413521516624535433
FFFFFFFFFFFFFFFFFFFF
66544615666666666666
LLLFFFFFLLLLLLLLLLLL
43266666126666666664
FFFFFFFFFFLLLLLLLLLF
31223246562411622325
FFFFFFFFFFFFFFLLFFFF
66666623366361514655
LLLLLLLFFFFFFFFFFFFF
26256236666666666666
FFFFFFFLLLLLLLLLLLLL
35652143623266466666
FFFFFFFFFFFFFLLLLLLL
44624346654463143165
FFFFFFFFFFFFFFFFFFFF
66211465131221211566
LLFFFFFFFFFFFFFFFFFF
66666666666366665666
LLLLLLLLLLLFLLLLLLLL
41654612645632565645
FFFFFFFFFFFFFFFFFFFF
32262666466666611264
FFLLLLLLLLLLLLLFFFFF
63466625415556344655
LFFLLLFFFFFFFFFFFFFF
36665561411153621325
FFFFFFFFFFFFFFFFFFFF
34511532526555156266
FFFFFFFFFFFFFFFFFFFF
11436133613556666666
FFFFFFFFFFFFFFLLLLLL
66664124334316346641
LLFFFFFFFFFFFFFFFFFF
15215226634543463341
FFFFFFFFFFFFFFFFFFFF
36666161366216666651
FLLLLLLLLLLLLLLLLLLL
54663516451653234343
FLLLFFFFFFFFFFFFFFFF
16666466352441154155
FLLLLLLLFFFFFFFFFFFF
51354223456251145511
FFFFFFFFFFFFFFFFFFFF
65461336666666636252
FFFFFFFLLLLLLLFFFFFF
61121666525466666661
FFFFFLLLLLLLLLLLLLLL
22366356464366466666
FFLLLFFFFFFFLLLLLLLL
65435166422634261462
LFFFFFFFFFFFFFFFFFFF
61612524365334353532
FFFFFFFFFFFFFFFFFFFF
43256112261541543633
FFFFFFFFFFFFFFFFFFFF
34531411353321464116
FFFFFFFFFFFFFFFFFFLL
66423115226516466663
FFFFFFFFFFFFLLLLLLLF
46341651364636442413
FFFFFFFFFFFFFFFFFFFF
46316151324166636656
FFFFFFFFFFFLLLLLLLFF
16556664666666666666
LLLLLLLLLLLLLLLLLLLL
32123123133653422423
FFFFFFFFFFFFFFFFFFFF
24465265666612666664
FFFFFFLLLLLLFFLLLLLL
55422145536532625252
FFFFFFFFFFFFFFFFFFFF
43636666665665551556
LLLLLLLLLLLLLFFFFFFF
66356666666666262424
LLLLLLLLLLLLLLLLLLFF
35224454135235412355
FFFFFFFFFFFFFFFFFFFF
14526653241242241121
FFFFFFFFFFFFFFFFFFFF
65353656252124461512
FFFFFFFFFFFFFFFFFFFF
54561311664146554426
FFFLFFFFFFFFFFFFFFFF
66666161426616666134
LLLLLFFFFFLLLLLLLLLL
63316625422125664132
FFFFFFFFFFFFFFFFFFFF
16122456666666666666
FFFFFFLLLLLLLLLLLLLL
62666464416461365162
LLLLLLLFFFFFFFFFFFFF
35423562436363423255
FFFFFFFFFFFFFFFFFFFF
66624451651623623162
LLLFFFFFLFFFFFFFFFFF
54655666355612616646
FFLLLLLLFFFFFFLLLLLL
66666566666665666656
LLLLLLLLLLLLLLLLLLLL
35153514551636666666
FFFFFFFFFFFLLLLLLLLL
66166636266665665425
LLLLLLLLLLLLLLLFFFFF
52262626354364461312
FFLLLFFFFFFFLFFFFFFF
56146666655434464546
LLLLLLLLLFFFFFLLFFFL
22666666346665666666
FFLLLLLLLLLLLLLLLLLL
66662266626214313113
LLLLLLLLLLLFFFFFFFFF
12651664625166666666
FFFFFFFFFFFFFLLLLLLL
12463416421354525312
FFFFFFFFFFFFFFFFFFFF
66626662555411645233
LLLLLLLFFFFFFFFFFFFF
66666544451315515455
LLLLLFFFFFFFFFFFFFFF
26333363424362666166
FFFFFFFFFFFFFFLLLLLL
66666243462526126564
LLLLLFFFFFFFFFFFFFFF
52466666236232252666
FFFLLLLLFFFFFFFFFFLL
66625166166666644331
LLLFFFLLLLLLLLFFFFFF
16666666666636112254
LLLLLLLLLLLLLLFFFFFF
51251415143641216451
FFFFFFFFFFFFFFFFFFFF
42115654344565251215
LFFFFFFFLFFFFFFFFFFF
66656535623666336561
LLLFFFFFLLFLLLFFFFLL
44335521614616651253
FFFFFFFFFFFFFFFFFFFF
66424226166443532166
FFFFFFFFFFFFFFFFFLLL
51365666513632124554
FFFLFFFFFFFFFFFFFFFF
62626333311146155463
LFFFFFFFFFFFFFFFFFFF
56465661666666656664
FFFLLLLLLLLLLLLLLLLL
66465666656666613661
LLLLLLLLLLLLLLLLLLLL
62614233366666166662
LLLFFLFFFLLLLLLLLLLF
66515425661612553331
FFFFFFFFFFFFFFFFFFFF
13634636314152123235
FFFFFFFFFFFFFFFFFFFF
24121314366666366263
FFFFFFFFFLLLLLLLLLLL
66656536661666666166
LFFFLLLLLLLLLLLLLLLL
36666664466254111513
FLLLLLLFFFFFFFFFFFFF
14556223311666662616
FFFFFFFFFFLLLLLLLLLL
65666661463235342114
LLLLLLFFFFFFFFFFFFFF
14262225265235245413
FFFFFFFFFFFFFFFFFFFF
31665666666556666666
FFLLLLLLLLLLLLLLLLLL
13336621435155253116
FFFFFFFFFFFFFFFFFFLL
33335544256662523135
FFFFFFFFFFLLLLFFFFFF
53335322464226156162
FFFFFFFFFFFFFLFFFFFF
44263361262416114415
FFFFFFFFFFFFFFFFFFFF
11641145512144463633
FFFFFFFFFFFFFFFFFFFF
66561666366636344666
LLLLLLLLLLLLLFFFFLLL
11356316653432434633
FFFFFFFFFFFFFFFFFFFF
41435441533342261166
FFFFFFFFFFFFFFFFFFFF
63326311221442123626
FFFFFFFFFFFFFFFFFFFL
56335132266666664121
FFFFFFFFFLLLLLLLFFFF
62251636414235322632
FFFFFFFFFFFFFFFFFFFF
66666666216266566636
LLLLLLLLFFLLLLLLLLLL
14232163623442121443
FFFFFFFFFFFFFFFFFFFF
41411424663466666666
FFFFFFFLLLLLLLLLLLLL
34611665556666666636
FFFFFFFFFFFFLLLLLLLL
65234515424266242442
FFFFFFFFFFFFFLFFFFFF
24346343644356663166
FFFFFFFFFFFFFLLLLLLL
36262655563611454212
LLLFFFFFFFFFFFFFFFFF
22565264435226466666
FFFFFFFFFFFFFFFFLLLL
36515636661356666664
FFFFLLLLLLLLLLLLLFFF
56136666666626656666
FFFFLLLLLLLLLLLLLLLL
16111111563641243266
FFFFFFFFFFFFFFFFFFLL
32662622365323563154
FFFFFFFFFFFFFFFFFFFF
51412656343541362443
FFFFFLLLFFFFFFFFFFFF
61354255113412266666
FFFFFFFFFFFFFFFLLLLL
13256362134414613114
FFFFFFFFFFFFFFFFFFFF
31211662246664666664
FFFFFFFFFFFLLFFLLLLL
66266553654552616362
LLLLLFFFFFFFFFFFFFFF
66666613265431636666
LLLLLLFFFFFFFFLLLLLL
66666663343625114454
LLLLLLFFFFFFFFFFFFFF
31266411615254165151
FFFFFFFFFFFFFFFFFFFF
41226346435363162316
FFFFFFFFFFFFFFFFFFFF
13166636164133331142
LLLLLLFFFFFFFFFFFFFF
56614465414334132166
FFFFFFFFFFFFFFFFFFFF
36666544666633142424
FLLLLFFFLLLLFFFFFFFF
66621663645464316666
LLFFFLLFFFFFFFFFLLLL
11215342141165455551
FFFFFFFFFFFFFFFFFFFF
46666666666666666665
LLLLLLLLLLLLLLLLLLLF
23153662255413634663
FFFFFFFFFFFFFFFFFFFF
