44543634245524332232
FFFFFFFFFFFFFFFFFFFF
55153232666466661611
FFFFFFFFFLLLLLLLLLFF
66663116622336656616
LLLLLLLLLFFFFLLLLLFF
66266663241565263415
LLLLLLLFFFFFFFFFFFFF
52534666466551432364
FFFFFLLLFFFFFFFFFFFF
66261124243615321541
LLLLFFFFFFFFFFFFFFFF
46566626666664666666
FLLLLLLLLLLLLLLLLLLL
23113666654166666611
FFFFFLLLLLLLLLLLLLLL
53545643662421246665
FFFFFFFFFFFFFFFFLLLL
66446466316666666666
LLLLLLLLLLLLLLLLLLLL
31266143654353535224
FFFFFFFFFFFFFFFFFFFF
32224411523542464566
FFFFFFFFFFFFFFFFFFFF
43546462121246463235
FFFFFFFFFFFFFLLFFFFF
22531326666666166616
FFFFFFFLLLLLLLLLLLLL
14246636244352452445
FFFFFFFFFFFFFFFFFFFF
41654342512234665666
FFFFFFFFFFFFFFFFFLLL
66666666636636662666
LLLLLLLLLLLLLLLLLLLL
54353232566445333656
FFFFFFFFFFFFFFFFFFFF
56666666626346115464
LLLLLLLLLFFFFFFFFFFF
31312155346341521626
FFFFFFFFFFFFFFFFFFFF
62614266666266666364
FFFFFFFLLLLLLLLLLLLL
66166666666626636463
LLLLLLLLLLLLLLLLLLLL
44216656666666666666
FFFFFFFFLLLLLLLLLLLL
66666651564613116345
LLLLLLLFFFFFFFFFFFFF
66641545266666666666
LLLFFFFFFLLLLLLLLLLL
65636666133436523335
LLLLLLLLLLFFFFFFFFFF
56212315346516236661
FFFFFFFFFFFFFFFFFLLF
61666526526644113253
LLLLLFFFFFLLFFFFFFFF
33322111113512423351
FFFFFFFFFFFFFFFFFFFF
12536666666222661432
FFFFLLLLLLLFFFFFFFFF
45366635142525321541
FFFLLLFFFFFFFFFFFFFF
66413666616416411626
LLFFFLLLLFFFFFFFFFFF
15336166666665626636
FFFFLLLLLLLLLLLLLFFL
22333665363564116666
FFFFFFFFFFFFFFFFLLLL
55163552166635666666
FFFFFFFFFLLLLLLLLLLL
64342356616666166666
FFFFFFLLLLLLLLLLLLLL
54145233263341153646
FFFFFFFFFFFFFFFFFFFF
24253362412555454666
FFFFFFFFFFFFFFFFLLLL
25366122443226624536
FFFFFFFFFFFFFFFFFFFF
64222433514236341544
LFFFFFFFFFFFFFFFFFFF
16526344525411116561
LLFFFFFFFFFFFFFFFFLL
34645212633331436352
FFFFFFFFLLFFFFFFFFFF
44623361231323134545
FFFFFFFFFFFFFFFFFFFF
25151645444226355116
FFFFFFFFFFFFFFFFFFFF
55341556324233366553
FFFFFFFFFFFFFFFFFFFF
66366666366666652223
LLLLLLLLLLLLLLLFFFFF
32225566666661125423
FFFFFFLLLLLLLFFFFFFF
66666663666366666666
LLLLLLLLLLLLLLLLLLLL
35564422524666666633
FFFFFFFFFFFFLLLLLLFF
66615612646666566362
LLLLLLLLLFLLLLLLLFLL
25456513165231566524
FFFFFFFFFFFFFFFFFFFF
66666636335351144455
LLLLLLLLFFFFFFFFFFFF
56545426241466642523
FFFFFFFFFFFFFFFFFFFF
66666666666666662623
LLLLLLLLLLLLLLLLLLFF
43264325533616666333
FFFFFFFFFFFLLLLLLLLF
66646266166661666663
LLLFLLLLLLLLLLLLLLLL
26162666616664133242
FFFFFLLLLLLLLFFFFFFF
66166234443221216166
LLLLLLFFFFFFFFFFFFLL
24662536635364126114
LLLFFFFLFFFFFFFFFFFF
26666665666656666656
FLLLLLLLLLLLLLLLLLLL
66661566614366336664
LLLLLLLLLLLLLLFFFFLL
53111465351536656441
FFFFFFFFFFFFFFFFFFFF
42444215135564563322
FFFFFFFFFFFFFFFFFFFF
41665116461224464135
FFFFFFFFFFFFFFFFFFFF
24655462166666316121
FFFFFFFFFLLLLLFFFFFF
42651164466656232656
FFFFFFFFFFLLLLFFFFFF
56166646661111525661
FFFLLLLLLLFFFFFFFLLF
26465123444252651361
FFFLFFFFFFFFFFFFFFFF
66666223265121616311
LLLLLFFFFFFFFFFFFFFF
46111256231363463434
FFFFFFFFFFFFFFFFFFFF
26344363666625316666
FFFFFFFFLLLLLFFFLLLL
66661666661646342165
LLLLLLLLLLLLFFFFFFFF
61643335622161134653
LLFFFFFFFFFFFFFFFFFF
66563666165224134233
LLLLLLLLLFFFFFFFFFFF
64262624544361322546
FFFFLLLFFFFFFFFFFFFF
51612666325536446666
FFFFLLLLFFFFFLLLLLLL
31536266524156355343
FFFFFFFFFFFFFFFFFFFF
12311621244362666666
FFFFFFFFFFFFFFFFLLLL
56221345636516242544
FFFFFFFFFFFFFFFFFFFF
66666664523343462266
LLLLLLFFFFFFFFFFLLLL
33451454366666666266
FFFFFFFFLLLLLLLLLLLL
52366465322145433563
FFFFFFFFFFFFFFFFFFFF
11355424155232623654
FFFFFFFFFFFFFFFFFFFF
42523546666165666362
FLFFFFFLLLLLLLLLLFFF
43313355436645344324
FFFFFFFFFFFFFFFFFFFF
13136456542261111511
FFFFFFFFFFFFFFFFFFFF
66666646626656666616
LLLLLLLLLFLLLLLLLLLL
66626666651231666663
LLFFLLLLLFFFFFFLLLLL
14555442546666266626
FFFFFFFFFFLLLLLLLLLL
26661665613252666666
LLLLLLLFFFFFFFLLLLLF
44256621246366666513
FFFFFFFFFFLLLLLLLFFF
15466662666442241613
FFFLLLLLLLLFFFFFFFFF
35352125521363666666
FFFFFFFFFFFFFLLLLLLL
66545666464666666666
LLFFFLLLLLLLLLLLLLLL
36563434221354145126
FFFFFFFFFFFFFFFFFFFF
11642231335664566533
FFFFFFFFFFFFFFFFFFFL
14131531644666364266
FFFFFFFFFFFLLLFFFFLL
63266666666666626666
FFFLLLLLLLLLLLLLLLLL
63364556226451145444
FFFFFFFFFFFFFFFFFFFF
32335452135423452662
FFFFFFFFFFFFFFFFLLLF
34226612545231636623
FFFFFFFFFFFLLLLLLLLL
46146343633224331666
LLFFFFFFFFFFFFFFFFLL
66366666666661266666
LLLLLLLLLLLLLLLLLLLL
66664632264456116666
LLLLFFFFFFFFFFFFLLLL
62141264466666453346
FFFFFFLLLLLLLLFFFFFF
64666466666666214335
FFLLLLLLLLLLLLFFFFFF
26663666666636666266
LLLLLLLLLLLLLLLLLLLL
66526315546253534254
FFFFFFFFFFFFFFFFFFLL
21666666136162466666
FLLLLLLLLLLLLLLLLLLL
14613543242162133614
FFFFFFFFFFFFFFFFFFFF
46526666416665314616
FFFFLLLLLLLLLFFFFFFL
41634422423525536636
FFFFFFFFFFFFFFFFLLFF
64665623546621512333
LLLLLLLFFFFFFFFFFFFF
53446663662666666166
FFFLLLLLLLLLLLLLLLLL
36656216532151152453
FFFFFFFLLFFFFFFFFFFF
56656666642661636666
LLLLLLLLLFFLLLLLLLLL
45666245535431251111
FFFLLFFFFFFFFFFFFFFF
64665435612465151655
LLLLFFFFFFFFFFFFFFFF
51225261165351652522
FFFFFFFFFFFFFFFFFFFF
35122146661663654413
FFFFFFFLLLLLLLLLFFFF
21535156111525162512
FFFFFFFFFFFFFFFFFFFF
35654643666666266666
FFFFFFFFLLLLLLLLLLLL
23256566616266636166
FFFLLLLLLLLLLLLLLFFF
62466662463636561446
LLLLLLLLLLLLLLLLFFFF
42336136666666411631
FFFFFFFLLLLLLLLFFFFF
65255364253434356624
LFFFFFFFFFFFFFFFFFFF
65645422656321666666
FFFFFFFFFFFFFFLLLLLL
66666664566566652164
LLLLLLLLLLLLLLLLLLLL
56545242352144526245
FFFFFFFFFFFFFFFFFFFF
45546645424646246463
FFFFFFFFFFFFFFFFFFFF
35161665346511413363
FFFFFFFFFFFFFFFFLFFF
51223251142154166643
FFFFFFFFFFFFFFFFFFFF
26666326666461224253
FLLLLFFLLLLLLFFFFFFF
26612365355334652531
FFFFFFFFFFFFFFFFFFFF
34316434536462655212
FFFFFFFFFFFFFFFFFFFF
66266116666664636664
LLLLLLLLLLLLLLLLLLLL
66664444666666166666
LLLLLLLLLLLLLLLLLLLL
51255364661522565666
FFFFFFFFFFFFFFFLLLLL
26414332154415556345
LLFFFFFFFFFFFFFFFFFF
13465355464266555236
FFFLFFFFFFFFFFFFFFFL
66546112415653513242
LFFFFFFFFFFFFFFFFFFF
61265663666614664662
LLLLLLLLLLLLLLLLLLLL
64523626232444536315
FFFFFFFFFFFFFFFFFFFF
66266464624663412563
LLLLLLLLLLLLFFFFFFFF
43551211563434166266
FFFFFFFFFFFFFFFLLLLL
66653556666643613246
LLLLLFFLLLLLFFFFFFFF
32346142453344562554
FFFFFFFFFFFFFFFFFFFF
66656162234233251244
FFFFFFFFFFFFFFFFFFFF
41115323453335414613
FFFFFFFFFFFFFFFFFFFF
65254666666666636666
FFFFFLLLLLLLLLLLLLLL
25535344316336626666
FFFFFFFFFFFFFLLLLLLF
22226164224262463126
FFFFFFFFFFFFFFFFFFFF
33231156655366365666
FFFFFFFFLFFFFFFFFLLL
66264666241231236512
FFFFLLLLFFFFFFFFFFFF
66666116562666666636
LLLLLLLLLLLLLLLLLLLL
24366142666624616666
FFFFFFFFFFFFFFFLLLLL
13242662362545234215
LLLLLLLLLLFFFFFFFFFF
66616666641166255255
LLLLLLLLLFFFLFFFFFFF
13416613125246354666
FFFFLLLLFFFFFFFFFLLL
45544631616252126435
FFFFFFFFFFFFFFFFFFFF
21434363432664642644
FFFFFFFFFFFFFFFFFFFF
63331661326434666646
LLLFFFFFFFFFFLLLLLLL
15553256456366664516
FFFFFFFFFFFFLLLLLLLL
62631452561316351224
LFFFFFFFFFFFFFFFFFFF
42545213332616664566
FFFFFFFFFFFFFLLLLLLL
66666663433442254234
LLLLLLLFFFFFFFFFFFFF
66142651343342442453
LLFFFFFFFFFFFFFFFFFF
51543623363564634466
FFFFFFFFFFFFFFLFFFLL
66666666646666566144
LLLLLLLLLLLLLLLLLFFF
54131532352641561166
FFFFFFFFFFFFFFFFLLLL
56645246125264463531
LLLLLLLLLLFFFFFFFFFF
63252465114313162646
LFFFFFFFFFFFFFFFFFFF
31411556656466166616
FFFFFFFFFLLLLLLLLLLL
46634225156351612324
LLLFFFFFFFFFFFFFFFFF
63562121346651655645
FFFFFFFFFLLFFFFFFFFF
43466366124562653423
FFLLLLLLLFFFFFFFFFFF
66261116663643663466
FFFFFFFFFFFFFFFFFFLL
56663666666666666545
LLLLLLLLLLLLLLLLLFFF
53656246663213623163
FFFFFFLLLLLFFFFFFFLL
63666661415651324366
LLLLLLLLFFFFFFFFFFFF
56421453426434622155
FFFFFFFFFFFFFFFFLFFF
66646666466666666666
LLLLLLLLLLLLLLLLLLLL
66666244365261236131
LLLLLFFFFFFFFFFFFFFF
61461165415263423333
FFFFFFFFFFFFFFFFFFFF
21666616664515424553
FFLLLLLLFFFFFFFFFFFF
66666364656652666666
LLLLLLLLLLLLLLLLLLLL
22541666664666566662
FFFFFLLLLLLLLLLLFFFF
62646563644415561243
LLLFFFFFFFFFFFFFFFFF
23666645551256663645
LLLLLLLFFFFFFFFFFFFF
44156331344522665645
FFFFFFFFFFFFFFFFFFFF
42124563431554411126
FFFFFFFFFFFFFFFFFFFF
41135156366455216454
FFFFFFFFFLLFFFFFFFFF
56626252653613636166
LLFFFFFFFFFFFFFFLLLL
66234664334166566656
LLFFFFFFFFFFLLLLLLLL
41436364223666366366
LLFFFFFFFFFLLLLLLLLL
21245216263542663662
FFFFFFFFFFFFFFFFLLLL
55613266251411161442
FFFFFFLLFFFFFFFFFFFF
65142231423113644125
LFFFFFFFFFFFFFFFFFFF
66664626656666666466
LLLLLLLLLLLLLLLLLLLL
66662645666643626666
FFFFFFFFLLLLLLLLLLLL
