3444424424342414213312214
ACCCBCCBBBBCBBBBBBBBBBBAB
1234231311144441144444424
AAABBBBBAAACCCCBBCCCCCCBB
4441121233124442111124443
CCCAAAABBBBBCCCABBBBBBBBA
1423444444414411421314134
BBBBCCCCCCCCCCBBCBAAACABC
3433122142112211422212122
BCCBBBBBBBAAAAAAAAAAAAAAA
4214414214342144121221221
AAAACCCAAABBBABBBAAACAABB
3423111111122424431341424
BBBBCAAAAAAABBBBBCBBCCCBB
4111122441311142422212222
AAAAABBBCBBBBBBBAAAAAAAAA
1134421444444244434213124
AACCCCCCCCCCCCCCCCABBBBBB
2113232432222241144321114
AAABBBAAAAAAABBBACCBABBBC
2214233334332223442444421
AAACBBBBBBACAAAACCCCCCCCC
4344434341331313114444442
AABBBBBBBBBBACCCCCCCCCCBB
1244233422241442444444141
CBBBBBBBBAAAACCACCCCBCCCC
4344143412231444434442312
CBCBBBBBAABBBBBBBBBBBBBBB
1322134443244421224244342
AAAAABCCCBBCCCBBBACCCABBB
1231224334332141224234142
ABBBBBCBBBBAABBCBBBABBBBB
2432121113121411122132311
AAAAABBAAAAAAAAAAAAAAABBB
1242444444144412424443214
AACACCACCAACCCBBBBBBBBBBC
1321123112412332121331113
ABAAABBBBBAAAAAAAAABBBBBB
2132144112343122224144423
AAAAACBBBABBBBABBBBBBBBAB
2242423442213434234212432
AAAAAAACCBBBBBBBBBCBAAABB
1343441332314122134231212
ABCCCCABBBBBBBBBBBBBBBAAA
2114243224143212332411112
AABBBBBBBBBBAAABBBBBBAABB
1221334423142111113143134
AAAABBBCBBBBAAAAAAABCBBBC
1412311344314341124321123
BBBBBBBBBCABBBBBBBBBBAAAA
1214344113134343112414334
AACCCCCBBBBBBCCCBBBCCCBBB
4143241334131244322432122
BBBBBBBBBBBBBBCCBBBCBBAAB
2111212224211124244142112
AAAAAAAACCAAAAAAACCCCCAAA
1443323311221421342344244
ACCCBBBBBBAABBBBBCCCCCCCC
4142124342441414222114424
AABBBBBBBCCCBBCCBBAAAAAAA
3312212322441334114233344
BBBBBBBBAAAAAABBBBBBBCCCC
1113222144343444314342142
AAABBBBBBBCCCCBBAABBBBBBB
1414444144424442431232114
ACCCCCCCCCCCCCCBBBBBBBABC
3112211321341432323132421
AAAAAAAABBBCCBBABBCBBBBBB
2444422141421243422422314
ACCCCBAABBAABBBBBBBCCBAAC
4324321224412431121324312
ABBBBBBBBBBBBBBBABBBBCBBB
2444422243214423341331142
ACCCBBAAAABBBCABBBBCCCBBA
4221141342121142422114121
AABBBBBACBBBBBBBBBBBBCAAB
4424432131221432411322413
CCCCCBBAAAAAAAABBBBBBACCC
2112421431242233244142113
AAAABBBBBBBCAABBBBBBBABBB
