11324421322323243244121132134244231111121444122112
AAAABBBBBBBBBBBCCCCCAAABBBBBBBBAAAAAACAAACCCAAAAAA
34143311214212422344442132424221123411322233222141
ABBBBBBBBBBBBBBAABBBBBBBBBBACAAABBBBBBBBBBBBBBBBBB
13444323122224444414441114423132231432444421421223
AABBCBBBAAAABCCCCCCCBCBBBBBBBBBBBBCCCCCCCCCCCCBAAA
44444444211111244242342414441444421444311144444244
BBCCCCCCBAAAAAACCCCBBBBCCCCCCCCCCBBBCCCBBBCCCCAAAC
11111214444424414432414413234242241244311244233144
AAAAAABCCCCCCCCCCCAAAACBBBBAAABBBBBBCCBAAABBABBBBB
12141422131334312441233144112222241343321124423221
AAACCCAAAAAAAABBBBCBBBBBCCAAAAAAABBBCBBAABBCCBBBBB
11323234342332434424413314444421424441433231422134
BABBAAACCCCBBBBBCCBABBBBBCCCCCAAAAACBBBBBBBBCCBCBB
22424333214344212141221141242423334444123211141213
AAAAAAAAABBBBCABAAAAAAACCAAAABBBBBCBBBBBBBAAABBBBB
12421424111431324444242134233232144241331442113344
BBAAAAAAAAAABBBBACCCBBBBBBBBBBBBBBCCCBBBBCCAAABBBC
11224221211131413221341443233412242312313212244323
AAAACAAAAAAAAAAAAAAACCCCBBBBBCBBBBABBBBBBBAAAAAAAC
42221232244241422233144432412331214324222124112414
AAAAAABAACBBBBBBBBBBBBCCCCBBBBBAAACCCCCBBBBBBBBBBB
14331211411321221211231132114243121121123344212111
BBAAAAABBCBBBAAAABBAAABBBBBBBBBBBBBAACCBBBCCABBAAA
12234412233444413442232114121121122212441223111112
AAABBBBBBBBBCCCCCCCBBBAAAAAAAAAAAAABCCCCBBBBBBBAAA
21442444341124441144443444414221312232211424412212
AAACCCCCCCBBACCCCCCCCCCCBCCAAAAAABABBBBBCCBCCAAAAA
34324123243441423321311221223244411234434444311212
BBBBBBBBBBBBCCBBBBBBBAAAAABBBCCCAAABBCBBCCCBBBAABB
22212213244343224131332332122231411343332324213242
AAAAAAAAABBBBBBAAAAABBCAAAAABBBBBBBBBBBBBBCCBBBBBB
11343311324334333144122214444224133341311444244211
AABBBBBBBBBBBCCABBBBAAAAAACCCCBBBBBBBBBABBCCCCCAAA
13244441414244441134111232324122112421442444444214
BAACCCCABBAAAAAABABBBBBBBBBBBBBBBBBBAACCCCCCCCCCCC
23221334212444424443133342224422211112224433222421
BBCBBAABBBBCCCCCCCCBBBBBAAABCBBAAAAAAABCCBBCCAAAAA
31211212212241144444321343334132222242124424123141
AAAAAAAAAAAAAAACCCCCCABCCABCBBBCCCAAAAAACCBBBBBBBC
