24414314114123112122413441314341143444431444243442
ACCCCCBCBBBBBBAAAAAAABBCCBBBBBBBBCCBBCCCCCCCBBBBBB
22431412113444124224412412412431421114231343431143
AAAAAAAAABBBBBAACAACCBBCBBBAABBCCBBBBBBBBBBBBBAABB
11244214324214442423414442433324123143322234114434
AAAABBCCCCBBBBCCCCBBCCCCCBABBBBBBBBABBBBBBBBAACBBB
22111214133224344321343113111442444444421244424344
AAAAAABBBBBBBCCCCBAABBBBBBAAACCCCCCCBCCAAACCCCCBBA
22444214231144324412244222244444444441342412213221
BBBBBBBBBBBCCCCCCCAABCCBABACCCCCCCCCCCCCCCBBBABBAA
11214314344242321431213334413324142123231424444443
ABBBBBBBBBBBBBBBBBBBBBBBBBBABBBCACBBBCBBCCCCCCCCBB
24134221213222221311132412412132241111424342242414
BBBBBBBBBBBBBBBCBABBCBBCBBCAAAAAACAAAABABCCAABBBBC
22422424442132131231234341242342132134444212422214
AACACCCCCBBBBBBBBBBBBBBBBAAAABBBBBBBBBBBBBBBBBBBBB
13314431323114244324232222442132344113412322343114
ABBBCBABBBAAACBBBBABBBBBBBBBBBBBBBBBBBBAAAAABBBBBB
11211321211212213443114122332142424122143322144441
AAAAAAAAAAAAAAABBBBAABBCAABBBBCCCBBBBBABBBAAACCCCC
41441432233324421211244343342344221342324214411211
AAACCBBAABBBBBBAAAAAAABBBBBBBBCCBCBBBBBBCABCCAAAAA
14344443442411221131413344434421243231244443442112
AACCCCCCCCCCBBBBBBBBBBBBBBCBBBBBBBBBBBBCCCCCCCCCAA
21123411431111113313234343423214324444434443311313
AAAABBACBBBAAAAABBBBCBBBCCCBAABBCCCCCCCCCCCCBBBBAB
14422244434444114432124344322311241214242443424313
BBBCCBCCCCCACCBBBBBBBBBBBBBBBAAABBBBBBBCCCBABBBBBB
12441111144441124242332442312244223441134233213122
BBCCAAAAAACCCAABBBCCBBBBBAAAAAABBBBCCAAAAABBBBBBBB
22442423414431413414112322233323244144444441421144
AACCBBBBCCBBBBBBBCBBAAAAAAAAAAABACCBCCCCCCCAAAABCC
11212241242211222411222444112113143212222212412441
AAAAAAAAACBBBBBBBBBBAAABCCCAAAAAAAAAAAAAAAAAAABBBB
21422422314133321112311424114211112132422342232211
ABBBBBBBBBBBBBAAAAAAAAABBBBBBBBBBBBBBBCBBBCAAAAAAB
12122423234311232214441212224123243343441321333341
AAAAACCCABBBBBBBBBACCCAAABBCCBBBBBBBBCCCCCCCCBBBBB
11143241444413314234224444111413421113142232214442
AAAAAACCCCBBBBAABBBBBBCCCAAAABBBCAAABBBBBBBBBAACCC
41323424144112231112233413121421222121221444341311
ABBBBBCCBCCBBBAAAAAABBAAACAAAAABBBAAABBBBCCCCCBBBB
21142424214323443442421132344444413443324232342412
AACCCCCCCCBBBBBBBCCBCBBBBBBBBBCCCCCCBBBBCBBBBBBBBB
21242111122412422242333134143121333234213144241424
AAABAAAAABBBCCCBBBBBBBBBBBBBBBBBBBBBBBBBBACCABBBBA
11212312324211322344312443234434132411424424331331
AAAAABBBBBBBBAAACCCCBBBBBBBBBCCCBBAABBCCCBBCBBBBBB
34213214212332444444124144443122314222211112442223
BCAAAAAAAAAAAAAAACCCCCCCCCCCBAAAAAAAAABBBAAACCCBBB
23424111111432244314444434213411442323312221231222
ABCAAAAAAAABBBBBBBBCCCBBBBBBCCABBBBBBBAAAAAAABAABB
44334221112122111142233324214214124121444314431244
BBBBBABAAAAAAAAAABBACBBBBBBBBBACCBBBBBCCCBBBBBABBC
22224442413122444142324242223233341344443431142424
AAAACCCBABBBAACCCCCCCCCBBBCCCAAABBBBCCCCBCCBBCBBBB
44233344421212422114243123212221434113133423413434
ABBBBBCCCAABBBAAAABBBBBBBBBBBAABBBCBBBBBBBBBBBBBBB
11243143442222241212242241422122444422144444144421
ABBCBBBBCCBBCCAABBBBBBBBBAAAAAAACACCCCCCCCCCCCCCBB
12231442112241344434212314224244212243321222222414
AAAABCCAABBBBBCCCCCBBBAAABBBBBBBAAAACBBBAAAAACCBCC
14442121222344441444122444434424412121122222242142
AABBBBBBBABCCCCCCCCCABBCCCCCCCBBBBBAAAAAAAAAAABAAA
44124414213343344142221443331112441211212441424142
BBBBBCAAAABBBBBBBBBBBBBBBBBBBBCCCCBBBAACBBBBBBBABB
44141443113321444333224211114144411122444312424412
CCBCCCCBBBBBBACCCBBBAACAAAAAAABCBBBAACCCBBBBBBBCBB
24124332133411144114344214413444444444422321134324
BBBBBCCBBBBBAABBBAABBBBBCCCCCCCCCCCCCCCAABBBBBBBBB
12312124231142121213343424434131142423144131424241
CBBABABBBBBBBBBBAABBBBBBBBBBBBBBBBAAAAAACBBBBBBBBB
42431441443441131221332412422244134122222242411324
ABBBBBBBCCCCCBBBABBBBCCBBBBAABBBCBBBBBBBBBBBBBBBBA
44443311212221212232121432122234213214121122232224
CCCCBAAAAAAAAAAAAAAABABBBBAAAABBBBBBBBBBBBAAAAAAAA
13134424421441244421443444432143434324132334424313
AABBBBBBBBBBBBBCCCCCCCCCCCCCCCCBBBCBBBBBBBBCCCABBB
12144441444444414444423244441113141323221341211312
BACCCCBCCCCCCCCCCCCCCAAACCCCBAAAAAACAAABBBAAAAABAA
24414323122113211343444414332123423224442411323244
ACCCBBBBAAAAAAAAACCCCCCCCCBBAAABBBCCBBCCACBBBBBBBB
42324113324214221122423331134442322421121321324233
BBBBBAACBACCBBABAABBBBBBBBBCCCCABABCAAAAACBBBBCBBB
14242323332244444444212144111421311243443312141242
ACCCBBBBBACCCCCCCCCCCAAABBBABCBBAAAAAAABBBBBABABCB
22314343321242423212211214441311132221112114232321
AACCBBBBBBBBBBBBBBAAABBBBBCBBBAAABBBBBABAACCABBBBB
11122244221333224124444443341341223242241122314211
ABABBBCCBBABBBBBCCCCCCCCCCCCBAAABABBBBAAACBBBAAAAA
44414324444432214422224412414112314213141441131211
CCCCCCCCCCCBBCAABBBBBBBBBBBBBBBBBCCBBBBBBACBBBBBBB
33343341234244124444342444241144323212124112344214
BBBBBBBAAACACCAACCCCCCCCCCAAAAAAAABBBBBBBAAABBCAAB
34431224411214443442121421221324134122224124322423
CCCBAAAABBBBBCCCBBBBABBBBBAABBBBBBBBBAAACAABBCCCCC
11323341111344334323334344322422122134242212311124
AAAABBCCBAAAAAABAAABBBBBBBCBBBAAAAAABBBCBBBBBBBBBB
42314444231124444244221122141411424242411441212443
AABBBBCCCBAACCCCCCCCCBBBBAACAAAABBAAAABBBCCAAACCCB
44142341144442234441242121244243433212442322344133
AABBBBCAACCCCCCCCCCBBBABAAAABBCBBBBBAABBBBBBBBBBAB
21221312223431444314414211411111243424224441323341
AAAAAAAAABBBBBCCCCBBCCCAAACAAAAAACBCCCCCCBBBBBBBBB
24142422343144444424444413241444234144311222211324
AAACBBCCCBBBCCCCCCBBCACCBBBBBBBBBBCBCCCAAAAAAAABBC
14134234422242144112132423441443222244444133133342
AABBBBBBBBBABBCCCAAAABBCCCCCCCCBBBBCCCCBCBBBBBBBCC
32441344414444142144441343244314443441444232434233
CCCCCCCCCCCCCCCAAACCCBBBCCBCCCCCCCCCCCCCBBBBBBBBBB
21411112421441123122142123221444221144211243134121
AABAAAAAAAACCAAAAAAAABBBBBBBBBBBABBBBBBBBBBBBBBAAB
24423413112413214411241222113114111313332232314243
ACCCBBBBBBBBBBBBCBAAACAAAAAAAAAAAABBBBBBBBBBBBBBAA
14124241212142222144444312214244443322324221243344
AAAAAABAABBBBBAAAAACCCBBCBBBCCCCCCCBBBBBBBAACCCCCB
42333114423212141444432231221444421242432323434121
BBBBBCCCBBBBBBBAACCCCBBBBBBBBCCCCAAABBBBAAABBCCBBB
14131341212143112444434134214122113424412441111432
ACBBBBCAAAAABAAAACCACBBBABBBAAAAAACCCBBCBBAAAAACBB
11444433333212144244434432221242134444122124441211
AACCCCBBBBBAABBCCBBCCBCCBAAABAAABBACCCAAAAACCCAABB
14314344424441344231142122332234441242444344243241
CCBBBBCCCCCCCCBBBBBCAAAAAABBBBACCCCCAACCCCCCBBAAAA
22232212141224134212143442143223222222223314323131
AAAAAAAAABBBBBBBBBBBBBBCCAACBBBBBBBBBBACCBABBBBBBB
22221244214114314214444112421413434143142314114411
AAAACCCCCCCBBBBCCCCCCBBBBBBBAABBBBBBBBABABACCCCCBA
11114444411114144113243432422314411434211142443131
ABBBBBBBAAAAAABBBABBBBBBAACABBCCCAACBBBBBBCCCBBBBB
12144441141134341422112312241434221243221241243144
AAACCCBBBBBCCCCCCCAABBBBBBBBBBBCCBBBBBBBBBBBBBBBBB
12114133211144434143141113442243444432212211224444
AAAABBBBBAAABBBBBABBBBBBBBBBBBBCCCCCCCAAAAAAACCCCC
22214444144444321224334223311432212444241213211414
AAACCCCCCCCCCCCBAABBBBBAABBBBBBBAAABBBABAAAAAAAAAB
33233111122112211144442444143112322124311132441243
ABBBBBBBCAABAAAAAACBCCCCCCAAAAAAAAAAABBBBBBBCCBBBB
11413122241121343231124444224124234144413211424414
BAABBBAAAAAAAACCCAAAAAACCCBABBBBBBBBCCCCCCABBBBABC
43242244431424411241323144323322113211113424343324
BBBBBACCBBBCCCCAAACBBBBBBBBBBBBAAAAAAAAABBBBBBBBBB
42334122121323431114122443231234213322232413341421
AAAACAAAABCCBBBBBBBCBBBCCBBBBBBBBBBBBAAAAAABBBBBBB
11144334413433134212111344332114122332414322413113
AACCBBBCBBBBBBBBBBBBBAABBBBBBBBBBCBBBBCABBAABAAAAA
21421212231124421222234221132213141411231322312113
AABBAAAAAAABBBCAAAAABBBBBBBBBABBBBAAAAAAAAAAAAAAAA
34121143144234331133144444444342241122312422332412
ACAABACAABBBBBBBBBBBBCCCCCCBBBBBBABBBBBBABBAAAAAAA
11114213314324242412414244444444444414441312132442
AAAAAAABBBBCCCCCCCCACCCCCCCCCCCCAAABBCCCCBBBBBBBBB
13134213242444234442414344142211213433342321111342
BBCBBBBBBCCCCCCCCCCBBACCCCCCCAAAAACCBBBBAAABBBBBBB
22111322222131423111123111432243244424222334444341
AABBBBAAAABBBACBBBAAAAAAAAACBBBBCCCCCCBBBBBCCCCCCA
21132424131322424243414444414233444421243311333311
AAAABBCCAAAAAAAACCCCCCCCCCCBBBBBBBCCAAAAAAABABBBAA
22321344432222111421444214341423432111343122123123
ABBBBBBBBBAAAAAAAAABBBBCCCCCBCCCCCBBBBBBBBBBBBBBBB
43424124444442443434323443142434233414341143232132
BBBBBAACCCCCCBBBBBBBBBBBBBBCACBBBBBCCCBBBBBBBBBBBC
22232232133214212141321413423331323214444434324231
AAAAAABBBBBBBAAAAABBBBBBBBBBCBBBBAAAABBBBBCCBBBBBB
42321412444141442322114411112431444211244444414334
CBBBABBBCCCACCCCAAAAAAACAABBBBBBBCCCAAACCCCCCBBBBB
42131242211421114424233122411112344423444412431144
AAAAAAAABBBBABBBBBBBBBAAAAAAAAAAACCCCCCBCCAACCBBCC
24214424412213232241421142142144422211223121144441
ACCCCCCCCCAAAABBBBBBBBBBBABBBABAAAAAAAAAAAAAACCCBB
12324421322444411142413232224344411212144213443223
AACCCCAAAABCCCCBBBBBBBBBBBBBBBCCCBBBBBBBCCCCCCCBBB
13422244342211322341312422342442441124444124421334
BBBBBBCCBBBBBBBBBBBAABBBBBBCBBBBBBBAACBBBBBCCCCCCC
22321142134444112143314414111323421334431341432334
AAAAAAABBBBCCCAAAABBBACCCCBBBBBBBBBBBBBBBBBBBBBBAA
42423432334224222211314134412413334431334414144212
BBBABAAABBBBBBBBBBBACCBBBBCBBAABBBBBBBBBCCBACCBABB
43242331344431441214411221421424442424242112144123
ABBBBBBBCCCCCCCCBBBBABBBCCCBBBBCCCCCCCBCAABBBBCAAA
13221312313134111113344242323124444431433413434331
BBBBBBBBBBBBBBAAABBBBBCCCBBBBBACBCCCCBBBBBBBBBBBBB
41444123424241111143213322114312424434411244444432
AABCCCBBBBBCCAAAAAAAAAAAAAACCBCAAACCCCCCAACCCCCCCA
21444444432234111133311114243344212131243143232141
BBBBCCCCCCAABCBBBBBBBBBBCCCBBBBCAABBBBBBBBBBBBBBBB
13123313342221333442143214221244342444414244444244
BBBBABBBBBBBBBBBBCCAAAABBCAAAAAAAAACCCCCCCCCCCCCCC
22211324111234442343444434423121143223214144412441
AAABBBBCCCBBBCCCCCCCCCCCBBBBBBBBBCBBBBBBAACCBAAAAB
41422422444412224344412443121133311443133221243213
BBBAABBBBCCBBAACCCCBAAABBBBAAAAABBBBBBBBBAAAABBABB
24441431111241124414422212442332124444334441333142
ABCBCCBAAAAABBBBBBBBBBAAAABBBBAAABCCCCCBBBBBBBBBBB
22223141424441244444212134314323323432313124444342
BBAABBBCCBBBCCCCCCCBBAAAABBBCBBBBBBBBBBBBBBCCCCCCC
21444134414234324343321111112234434442211212213313
AACCCCCCCBBBBBBCCBBBAAAAAAABABBCCCCCBBAAAAAAAAACAA
12144124122241221441442144421442412312242144434424
AAACBBBBBBBABAAACCCABBBBBCCAAACCCBBBBBBBBBBBCCBBBC
34432223231213233211212341322241221132144444222421
CCCBABBBBAAAABBBAAAAAAAACBBBAABBBBBBBBBBBCBBAAAAAA
43113413423421344433121211112244214144214334442441
BBBBBBBBCCBCCBBCCCCAAAAAAAAAAACCBBBBBBBBAAACCCCCCC
12342411221223312412231431412444113221434224141441
AABBBBBAAAAAAAAAAAABBAACCCCCBBCCCCAAAAABBABCCCBCCC
12424424221212212223444314424124443243444341131444
AAAACCBCAAAAAAAAAAAACCCBBBCBCCCCCBBBCCCCCCCAAAACCA
44411211211424122422144244332424231144412323121121
BBBBAAAAABBBBBBAABBBBBCBBBBBBBBBBBBBCBBBBBBBBBBBBB
24324422413343333244421123131312421111314421311322
ABBBBCAACCBBBBBBBBCCCAAAABBBBBBBBBBABBBBBBBBBBAABB
24444312242134411211324122131331142223113144344422
BBBCCBBBBBBBBBCAAAABBBBBABBBAAAABAAAAAABBBBBBBBBBA
11112222343231211412412424242144441212144422241223
AAAAAAAAAABBAAABBCBABBBBAABBABCCCCAAAABCCBBBBBABBB
23244443332312112121234314421224314244443121112122
CCCCCCCBABBBAAAAAAABBBCCCCCCBAAABBBBBBBBBBAAABBAAA
32222244312124424213213243114234221334142233222424
BBBBBBBBAAAAACCCCCBBCBBBBBAAAAAAAABBBCBBBBBBBBBBBC
42122312131434331432213111422314131214231314444442
AAAAABAAABBBBBBBCCBBBAABAACABBBBCCCBABBBBBACCCCBBB
22112113312241122221111111231241411142111122232414
AABBBBBBBBBBBBBBBAAAAAABAAAABBBBBBAACAAAAABBBBBBBB
11321224444411132431141224141221311144442324224224
AAAAAAACCCCCBBBBBBBAAAAAACCAAAAAAAAABCCCCBBBBBCBBB
22142342342134114213444212434111423143424411131231
ABBAACBBBCAAAAAAAAACCCCBBBBBBBBBBBBBCCCCCCAABBBBBB
12122443134444413114324141222233222444324224224133
AAAAACCBBBCCCCCBBBBBBBBBBBBAAABBBBBCCCCBBBBCCCCBBB
12212224223211123223334112444312221112241314123113
AAAAAAAABAAAABBBBBBBAACCCCCCCBBBAAAAAAAAABBBBCCBBB
31212213314444444214411114112423441222422143311134
BBCCAAABBBCCCCCCCCCCCAAAACBBBBBBBBBBAAAAAACBBBBBBA
22112221133122211444434113221444414144242444311422
AAAAAAAAAAAAAAAAACCCCBAAAAAAACCCCCCCCBBBBCCCCBBBAB
12114143211122121314431141112412424442343242222134
AABBABBBCBAAAAAAACCCCCAAAAAAAAAABBAAAABBBCBBBBBBBC
21411232144241442444242111422413141111122434422211
AAABBBBBCCCCCCCCCCCCAAAAAAAAACBBAAAAAAAAABBCCBAABB
13414422313212244233222112321144424323212221414212
ABBBBBBCAAAAAACCCBBBBAABBBBAAAACCBBBBBAAAABBBACAAA
14344244433144344214341313422144342443242231422311
ACCCCCCCCCABBBBAAAACCCBBCCCABBCCCCCCCCAAAAAAAAAAAA
12143113213223143114134123444444423221114123211242
AAAAAAABBBBAABBBBBBCABBBBBACCCCCCCCAAAAAAAAAAAABBA
11244444414421314411212442113222121112122333334444
AAACCCCCCCCCBABCCCBBAABBBBBBBBBBBAABAAACBBBBBBBCCC
44134134421341121224224433124134314123222211241111
BCABBBBBBBBBBBBBBBAAAACCBBBBBBBCCBBBBABBAABAAAAAAA
31344134242443224242312423333214113222312424433433
AABBBBBBBBCCBBBBBBBBBBBBBBBBBBBBAAAAAABBBBBBBBBBBA
33111214414442112224211143212444432111122412132323
AAAAAABCCCCCCCCAAAACCAABAAAAABCCCAAAAAAACCCCBBBBBB
23112322123233124341313334224333221241121322341143
AAAAAAABBBBBBBBBBBBBCBBBABBBBBBBAABCCBBBBBBBBBCBBB
44434423443133112211311142232214124342423114414221
ACCCCCBBBBBBBBBBBBBBBBBBBBBCABBBAACBBAAABBBCCCCCCA
42244244441444442414244244324444341114444434444421
AAACCCCCCCCCCCCCBBBBBCCCCCBBBBBBBBBBBCCCCCCCCCCAAA
11211223312441331342342221311123111242432321333443
AAAAABBBBBBBBCCBBBBBBBAAAAAABBBBCBBBBBBBBBBBBBBCCC
14311313332221341444124214441432444223221213144313
ABBBBBBBBAAACBBBBACCBBBBBCCCCCBCCCCCCCCAABBBBBBBBB
44133142334114342221121432424433444112411223333112
BBBBBBBBBBBAAAAAAAABBBBBBBBACBBBCCCCCCCBAABBBBBAAA
24244444411442443332434421233341144141413112234244
ABBCCCCCCCCCABCCBBBBBBBBBBCCCCCCCCCABACBBBBBBBCACC
24422132443444412421434142231122413244321211444434
CCCBABBACCCCBBBBBBBBBBBCBBBBBBBBBBBBCCBBBBBBBBCCCC
24142432112121423424343342144443441233123242224222
BBBACCCAAAAAAABBBCCCCCBBBBCCCCCBBAABBBBAAABAABBBAA
11212332131434224342131111342132231112142124421422
AAAABBBACCCCCCBABABBBBBBBBBBBBBBBBAAAAABBBBBCBBBBC
22244442422412311142212341333232441141132342212212
AAAACCCBBBBCAABBBBBBAAABBBBBBBBCCCCCCCABBBBAAAAAAA
23234121223422212121112434324121243222232343333433
AAABBAAAAABBBBBBAAAAAAAABBBAACCCABBBBBBBBBCCCBBBBB
23311443212122122444421434212421121324434123414411
ABBAAABBBBBAAAAACCCBBBBBBBBBBAAAAABBBBBBAAAABBCCAA
32344442114324242122443332433214221144141441232342
AACCCCCBAABBBCBBBBBBBCBBBBCCCCCCCCBBABBBBBBBBBCCCA
22133441222424444434122214133431143332322121242233
AAABBAAAAAAABBCCCCCCCCAAABBBBBBBABBBBBBCBBBBCCBBBB
12111334422111221231324343342332113222314322142413
ABAABBBBBAAAAAAAAAAAACCCCCCCBBBBBBBAABBBBBBBBCCCCC
33311321232443231443212311324441122213142112344441
ABBBBBBBBBBBBBBBBCCCAAABBABBBBBBBBBBBBBBAACBBBCCCC
21421244111224212142244442344234113321431334223433
AACBBBBBAAAAAAAAAABBBCCCBBBBCBBAABBBBABBBBBBBBBBBA
14341342144222441241412224413341144134344413334143
ACCAABBBBCCBBBCCBBBAAAAABBBABBCBBCCCCCCCCBBCAAAAAB
41132424414422124133122311134323423323131444444343
ABACCCCCCCCCAAAABBBBBAAAAAAAAABBBBBBBBBBACCBCCCCCC
24321343241121422234132444213323322422444244342342
ABBAABBBBBBAABBABBBBBBBCCCCCBBBBAAABBBCCCBCBBBBBBB
33213444411333142221112221122132444432231141312221
BBBBBCCCCAABBBBBBAAAAAAAAAABBBBACCCBBBBBBBBAAAABBB
11314444411223431334412211344114313134134334241422
AABBBBCCBBBBBBBBBBBBBBBBBBBBBBBCBBBBBAABBBBBBBAAAB
32132444121324411133143432121222212144413134244443
AAAAACCBBBBBBCBBBBBCCCCCBBBBBBAAAABBCCCAAABBACCCCC
32442211124441442443332112424412342331112141134242
BBCBBBAAABCCCABBBCCBBBBBBBCCCBBABBBBBCBBBACAAABBCB
14241232421442233431232424213444321124441434134422
BBBCBAAAABBBBBBBBBBBBBBBBCBBBCCCBBBAACCCCBBBBBBBBB
14122344442111444421111222311134413444424431433432
AAABBBBCCCCBBBBCCCCAAAABAABBAAACCBCCCCBBBBBBCCCCBB
33312443231413444211422243332443422312244322111314
BBBBBBBBBAAAAAABBBBABBBBBBBBBBBBBBBAAACCCCABBBBBBA
22243121332434444144243241321222414243422111444324
BBBBCABBBBBCBCCBBBBBABBBBBBBAABBBBCCBBBBBBBBBBBBBB
12111113213422342311124231244334143141444442442444
AAAAAAAAAABBBBBBBBBBBABBBAAAABBBCCCBBBCCCCCBBBBCCB
11244222111424334434442411231144443211324114322221
ABBBBBBBAAAAAABBCCCCCCCCBABBBBAAACABBBBBBBBABAAAAB
13221344433112422114441331211112131343242142211112
AABBBBBBBABBAAAAAABCCCABBBBBBBBBBBBBCBBBCCBBAAAABA
14241234111134124312222133432433412144324122144411
ABBBBBBBABBBBBBBCCCBBBABBBBBBBBBBBBBBBBBBBBBBCCCCA
14111234242143431213324443331144442323312444443433
BBBBBABAABBCCCCCBBBBBBBBBBBABBBBBBBBAAAAACCCCCCCBB
22212223442143214444444414414114224434341411314443
AAAAAABBBCBBBBBBCCCCCCCCCCCBBBBBBBBBBCABBBACCCCCCB
21141232144423244444421223321213334231444414414221
AAABBBBAAABCCCCCBBCCCAABBBBBBBBBBBBBBBBCCCBBBAAAAA
11221414133324342122441213313412144444122112431312
AAAABBBBBBBBCCCCABBBCCAAAAAABBBBBCCCCAAAAAAAAAAABC
22114144144433421324243413444424444113422422443234
AAAABBBBBBBBBBBBBBBBBBBBBBBCCBACCCAABBBAAAAACCBBBB
11212122444341121112112444334341412132441313444432
AAAAAAAACCCBBAAAAAAAAAABCCBBBBBBBBBBBBBBBBBBCCCCCB
12241211331122212143444122313221332441121444421242
AAAAAABBBBBBBBBBAAAACCCAAABBAACCBBBBBBBBBCCCBBBBBB
43223124214334244343242231411244443444432114223243
AAACBBBBAABBBBBBBBBBBBBBBBBBBBCCCCCCCCCBBBABBBBBCB
22111332222122122333114444422444412244424112122412
AAABBBBBAAAAAAAABBBAACCCCCCCCCCCCCBCCCCBAAAAAAACAA
24143141224224444241442423324122223213444114323312
AAABBBBBAACBBCCCCCBACCCCAABBCBBBBBBBBBBBBBBBBBBBBB
22212144242423442412434242122432142124432311344424
BAAAABBBAABBBBBABAAABBAABAAAAABABBBBACBABBBBBCCCAA
12241124241212124444122442324441121444233332314444
BBBBCBBBBBBBBBBBCCCCAAABBBBBBBBAABBBCCABBBBCCCCCCC
11112122331242231441332321341222113414441231121242
AAAAAABBBBBBBBBBBBBCAAABBACBBBBBBBBBBBBBBBBBAAAABB
43211144121121432411324314211231432142224444434144
AAAABBCBBCBBBABBBBBAAAACCCCCAACCCCCBBBBCCCCBBBBBCC
13141423322141214312441444432331341223124443222443
AABCCBBBBAAAAAAABABBCCCCCCCBBBBBBAAACBBBCCCCBABBBB
22131433312423213123143114211221112111422144332134
ABBBCBBBBAABBBBBAAABBBAAAAAABBAAAAAAABBBABBBBBBBBB
44422232444233231314342344113442444434444341341213
CCCAAAABBBBBBBBBBBAABBBBCCBBBCCCCCCCCCCCCCCBBBBBBB
23224343344122121122444421413324211214424442433112
BBBBBBBCACCAAAABAAACCCCCBABAAABBBBBAABCCCCCBBBBAAB
43444411424434424442444244421124121224141212122244
ABBBCCCCCBBBBBBBBCCCCCCCCCCAAAAAAAABBCBBBBBAAABBCC
23244433414412441244433422223233411134232243221311
ABBCCCCCCBBBBBBBBBCCCBABBBBBBABCCCABBCAAACCCAAAAAA
34444243423111144143424241142222122444244313142124
CCCCCCCBBBBBBAACCCCBBBBCCBBBAAAAAAACCBBBCAAAABBBBB
21221132233141312124422423214222433213313144433112
AAAAABBBBBBBBBAAAAAAAABBAAACCCAABBBBBBBABCCCCBBBBB
13421413224234414142343144322311334111444444422441
AABABBBBBBCBCCCBBBBBBBBACCCBBBBBAAABBCCCCCCCCABBBB
11121441114223424241444223224134322222333214321343
AAAAACCAABBBBBCCCCCCCCCCABBBBBBBBBBBBBBBBBABBBBBBB
33324441134211424444231144342144144212142233122412
ABBBBCCCBBBBBCCCCCCCBBBABBBBBCCCCABAAAAAAABAABBBAA
24444412342221234414231443242221421421214342414223
AABCCCBBBBBAABBBBBBBBBBCCCBBAAAACAABBBBBBBCAAAAACB
41221144221434214411411143421444214123221222144233
AAAAAABBBBBBBBAACCBBBBBBCCCAACCCACCAABBBBBBBBBBBBB
22423231444444412311421312244412213124421341434131
AAAAAAAACCCCCCCAACCCCBBCABBCCCBAAABBAAAABBBBBBBBBB
41141112243441414443322413133434441312422111422231
BBBBBBBBBBBBBACCCBBBBBBBBBBBCCCCCCAAACBBBACCCAAAAA
22221124444442244122113141221434343144443444143444
AAAAAACCCCCCCBBCCABBBBBBBBBBBBBBBBBBCCCCCCCCCCCCCC
34214433442412324424421344144432421212222121343314
BCAABBBBCCAAAABACCCCCBCCBBBCCCBBBCAAAAABBBABBBBBAA
44242112211212442114444134222433141131214122311231
BBBBBAAAAAAAACCCCACCCCCCCCCBBCBBBBBAAABBAAAAAAAAAA
12112411234421422142322423324412313134444442344141
AABAAAACBBCCCCCBBBBBBBBBBAAABCCCBBBBBCCCCCCCCCCCCB
44224211144123232113212341333244212344444144432131
CCCCCCBBBBBCBBBBBBABBAABBBBBBBBBAABBCCCCCBBBBBBBBB
44141421331212444441144132241332322221434443133233
AAABBBBBBBBBAACCCCCBACCCBBBBBBBBBBBBBBBBCBBBBBBBBB
33124441222211211411242243421441434422332424322111
BBBBCBBBBBCAABCCCCABBBBABBBBBCBBCCBCBBBBBBBBAAAAAB
21211224124213434314242134132343133134311234233422
AAAAAAAAAABBBBBBBBBBBBBBBBBBCBBBABBBBBBAABBBBBBBBB
22343442332444221313342344232212214232211413313344
ABBBBCCBBCCCCCCABBBBAAAABBBBBBBABBBBBBBBBBBBBBBBCC
13421143124142221342221122431232134444112114124421
AACABACBBBBBBBCAAABAAABAABCBBBBBABBBBCCBAAABBBCCCA
11433111122112424432343133441411123122232222114411
AAAAAAAAAAABBBBBBCCBBBBBBACCABBCCBBBAAAAAAAACAAAAA
