12124431122232324411321234441313222421314224444244
ABBBBCABBBBCBBBBBBBBBBBAACCCABBBCCBBAAAAABCCCCCCCC
11324113323324332433122114142221331111421121144411
AABBBBBBBBBBBBBBBBBBAAAAACBBBBBBBBBBAAAAAAAAACCCBB
42212212121144222222143142244133222211114441421214
AAAAAAAAAABCCAAAAAAAAABBBBBBCBABBBBBAAAAAAAABAAAAC
22424444111312122234344214214342114444441144114211
AAAACCCCBBBBBBABBBBBBBBBBBBCCCCBBBCCCCCCABBBBBBBCC
24322411323242221413412314221222331312434142444442
ACCCCCAABBBBBBAAABBBBBBBBBAAAAABBBBAABBBBAAACCCCBB
24444324334321113414414411341331444241113313144424
BBBBCBBBBBBBBBBBBBABCCCCBBBBBBBBBCBCCCBBBBBBBCCCCC
43222223424311224414212413142233224414313431144133
AABBBBBBBBBAAAACCBABBAAAAAACABBBAACCCCCABBBBBBBABB
14244442433232431323212122142414443143244421241412
BCCCCCCBBBBBBBBBBABBBAAAAAABBBBCCCBBBBBCCCAAABCCAB
24412322434322131424411343344234444414224241444224
BBBAABBBBBBBBCABBBCCCBBBBBBCCCBBBCCCBBABBBBCCCCCBB
31444312134211121142211321313213324424341432321223
CCCCCAAACBAAAAAAAAABBBBBBBBBBBBBBBCCAACCCCAAABBBBB
21121314332444444412222143212422313244312124411124
AAAACBBBBBCCCCCCCCCAABAAAAABBBAAAABBBBBBBBBCCAAAAA
23132212144212124242332123341222423111221211441244
AAAAAAAAAABBAAABBBBABBBBBBBBBBBBBBBBBAAAAAAACCAAAC
12342143344112134431434444432412332224233414222411
ABBBBBCBBBCBBBBBBBBBBCCCCCCBBBBBBBCCABAABBBBAAABBB
21143441434143113314444242221434323112333441421314
ABBBBBBBCBAAABBBBBBCCCCCCAAAAABBBBBBBAAAAACCBBBBBB
41322211244433444111323122212332232323142312122221
CABAAAAAACCCBBBBBBBBBBBBBAABBBBAAAABBBBBAAABBBBBBB
12323444321414413442132434212444214444414311112222
ABBBBCCCBBBBBCCBBCCAAAACBBAACCCCAACCCCBBBBBAAAAAAA
13142234112111442342221214233432311211121124232343
BCBBBBBCBBAAAABBBBBBBBBBBBBBBBBBBABAAAAAAAACCBBBBB
22314241342443212414144412331424224444221224244242
AAAAAABBBBBCCACBBBBBBBBBBBBBBBBCBBBBBCAAAAABBCCCCB
21411442423244132321211411242213223443444411443114
AAABBBBBBBBBCBBBAAAAAABBACCCCAABBBBBCCCCCCCBCCABBB
21231424433442221211314114211124234231142413114413
ABBBBBBBBBBCBAAAAAABBBBBBBAAAAAAABCCAAACCCCBBCCCBB
12411113212222242221334412241131121124444242432213
AAAAAABBAAAAAAAABAAABBABBBBCBAAAAAAABCCCCACCAAABBB
34444242311122322224244423322444341442232111414414
CCCCCCCBBAAAAAABAAABBBBBBBBBBCCBBCCCCCAAABBBCCCCCC
24124321112244444242441442411224313423431423111211
ACCBBBBAAAAACCCCCCCCCCCCCCCAAAACBBBCCCCCCCBBBBBBBB
14424424244231223314142134411434444112224222432221
ACCCCBBBBBBBBBBBBBBBBCCABCCAACCCCCCBBAAAAAAAAAAAAA
32334413411441332334144113413421422113243144421241
AAACCCBBBBBBBBBBBCCCCCCCBBBBBBBAAAAABBBBBBBCCAABCB
11133343311213234431222441311433113231344444232322
AAACCCCBBBBAABBBBABBBABCCAABBBBBBBBBBBBCBCCCBBBBAA
21121214133242333323323444443424441134334444441243
AAAAAAAABBBBBBBBBBBBBBBCCCCBBBBBCCAACCCCCCCCCCBBCC
42113444444421232413242433224434241424112411444444
AACBBCCCCCCCAAAABBBBBBBBBBBBCCCCAAACCCCAAAABBCCCBB
12211443111112122221144411422311431413244233311213
ABBACCBBAAAABBAAAAAABBCCBCCAABBBBBAAABBCCABBBBBBBB
14422422144443444122434312123413212134313114444444
CCCBBBAAACBBBBCCCBBBBBBBAABBBAAAABBBBBBBBBBBCCCCCC
13134423234411211242412211321121244443312124413232
BBBBBCCBBBBBBAAABACBBAAAAABBBBBBBBBCCCAAAACCCCBAAA
44243444412311131111214411424144422234332324324344
CBBBBCCCCCBAAAABBBBBCCCCAACCCCCCCAAABBBBBBBBBABBBB
24323341411231214142224124113222111221212232233443
BBBBBACBBBAAAAAAAAAAABAAABBBBBBBBBAAAAAAAABBABCCBB
22434424314342434243444413424431211114123242212414
BBCCBCBBBBBBBCCBBBBBBBBBBCCCCCCAAAABBBABBBBAAAACCC
22432414442322443121222112443221144431432314444342
AAABBCCCCCCBBCCAAAAAAAAAAABBAAAAACCBBABBBBBCCCCCCA
42244441214443422241124132242321444421244224322211
AAACCCCAAAABBBBAAAAAAAAABBBBBBAACCCCABBCCCBCCCAAAA
44112212124331112444443244214443123342444241324444
CCAAAAAAAACBBBBAACCCCCBBBBBBBBCBBBBBBCCCAAAAAABBCC
22424434444214214141233232211311141434424411144222
AABCCCCCCBBBBBBCCCCBBBBAACCCBBBBBCBCCCCCCCAACCCAAB
44312212212232411412211212212224211133114411431111
BBBBBAAAAAABBBBBAAAAAABBBBCCCAAAAAAABBAAAAAAABBBBB
34124431411442433421431311132112444444342234444133
AAABBCCCCABCCACBBBCBBBBBAAAAAABBBCCBBBBBBBCCCCCBBB
22322213432422444412434411444142212111414312133333
BBBBAAAABBBBBBBCCBBBBBBBBBBCCCBBAABBAACCBBBAAAAABB
11144344443411212411121211214321344133234344344444
AACCCCCCCCBBBBBBAAAAAAAAABBBBBCCBBBABBACCBCCCCCCBB
22444442242441412413111114223433132141443441334442
ACCCBBBBBBCCCBBBAABBBAAAABBBABBBABBBBBCCCCCBBCCCCC
41144423134423344312333433232442124331431221114212
ACCCCBBBBBCCAABCCCCCBBBBBCBBBBBAAABBBBBBAAAAABBBBA
22311132324312333444444321334433223113431413144411
BBBBBBBBBBCBBAABBBBCCCCCCAABBBBBBBBBBBBBBABBBBCCCC
32113212222414343111123223122112432411331233414132
AAAAAAAAAAAAAACCAAAAAAAAAAAAAABBCCCCBBBBBBBBBBBBBB
12424413141321444414214243444443222412212334444441
ABBCCCCBBBBBBACCCCCCCABCCCCCCCCCAAAAAAAAAAABCCCCCC
14443142124433142234444112323134331242222141144333
BBCCCCCBBBBBBBBCBAABCCBAAAABBBBCCABBBBAABBCCCCCBBB
14214322321113234424244322221111414334413214443341
AAAACCCCBBAAAAAAACCCCCCAAAAAAAAABBBBBBBBBBCCCCAABB
14112444441212113243224344422132411341131424124312
ACBBBBBBBBBBBBBCCBBAAACBCCCCABBBBBABBBBBBBBBBBBBBB
34244443311112414142424122411122222224144142134312
ACCCCCBBBBAAAABBBACBBBBAACAAAAAAAAAAABBBBABBBBBBBB
24331212241324333214143321112332442442144413442233
ABBAABBAACCBBBBBBBBBBBBBBBBBBBBBBCACCCCCBCCCCBBBBB
44343322223421212413433411414321421312433121434243
CCCCBBBBAAAAAAABABBBBBBBAACCBBBBBBBBBBBBBBAACCCCCC
12441241112144422134422444124242344411444444234314
ABBBAABBBAAACCCCBBACCBBCCCBABBCBBCCAAABBCBBBABBBBB
13143423311411114111124314442242242111421132334341
BBBBBBBBBBBCCBAAAAABBBBBBCCCAAAAAAAAAAAAAAAABBBBBB
12211114441211143122134113443421413114341223114141
AAAAAACCCCAAAAACCAAAACCCBBBBBBBABBBCCCACAAABBBBCCB
11111411123113212422344243112111414241244241414412
BBBBAAABBBBBBBAAAAAACCCBBBBAAAAAAABACBBBBACBBACCCB
11221112132221224124444212132124444233242312341141
AAAAAAAAABBAAAAAABBCCCCCBBBAAABBBCCCBBCCAAABBBBAAB
24142113134431114331234224213132344343434134413112
ACAAAAABBCCCCAAABBBBBBBBBBBBBBBBBBBBCCCABBBCCBBBBB
24112121222311121211424443231434322141111442224111
AAABBAAABBBBAAAAAAAACCCCCBBBBBBAAAAAAAAAACCBBABAAA
22234231434442343442213244423342223311112334423214
AAAACCBBCCCCCBBBBBBACAAABBBBBBAABBBBBAAABBBBBBBAAB
23223332122441334111342133224312122131142422214324
ABBAAAAAAAACCCCBCCAABBBCBBBBBAAAAAAAAAAAAAAAAABBCC
12442212122244414422341133143312212123413242414424
AAABBBBBBAAABBBBBCAAAABBBBBBBBBBBBBBBBBBBBBBBBBBBC
14313311312214234443442144421324132144431131231214
BBBBBBAAAAAAAAAACCCBAAABCCBAAAABBBBCCCCBBBBBBBBBCC
24141424233114332322231221242431122213342411114344
ACBBBBBBBBBBBBBBBBBBBBBAAAACBBBBBAAAAACCCCAAAACCCC
24444443424441431234244431241144113423143444444131
ABCCCCCBCBBBBBBBBBCCACBCAAAAAABCAAAAACCCCCBCCCCBBB
43433224143112322122132224244442423421341122212134
BBBBBBACBBBBCCBBBBBBBABAABBCCCCBBBBBBBBBBBBBAABBBC
12234344444213232212144442444143212422111414441421
AAABCCCCCCCBAAAABABBBAAACCCCCBBBBBBBBBAAAAABBBBBAA
12112112422111423222443141214224214322431332221424
AAAAAAAAAAAAAAACCBBBBCBBBBBBBAAAABBBBBBBBBBBBBBBBB
14442432322114133221114232222244212312344434112112
ACCCCCBBBBCBBBBBBBBAAACCBAABBAABBBBBBBCBBBBBAAAAAA
12122244413424321232214131332122113222321133342122
AAAAAACCCCBCABBBBBBBBBBBBBCCAAAAAAAAAABBBBBBBBABBB
22322423412144413144444133341333422132141142432312
BBBACCABBBBBCCCBBBCCCCCCCCCCCBBBBBBBCCCCABBABBBBBB
21134421434224142422444443221323243411443421211242
AAAACCBBCCCAABBBCCAACCCCCCBBBBCBBBBCCCCCCCAAABAAAB
41321124221112133312232421431221323424241243141122
AAAAAABBBAAAAAAABBBBBBAABCBBBBBBBBBBBCAAABBBBCBBBB
34131141424444231114423441243224442142411434223141
BCBBBBBBCCCBBBBBBAAAABBBBBBBBBBBBCBBBCCCBBBBBBBBBA
24344444412321213314244341224113124432113323244443
BCCCCCCCCAAAAAAABBBBCCCBBBBBBAACBACCBBAABBBBBCCCBB
12121441334442133444313144413212323112313421311244
AAAAACBBBBBBCBBBBBBBBBAAAAAAAABBBBBBBBAABBBBAAAAAC
23431411112441443444131131443441242213442341444143
ABBBAAAAABACCCCCCCCCBBCACBCCCCCBBBBAAABBBBBAACCCCC
23422133434214121332212111342444433221122411311133
AABAAACBBBCBBBBBABBBAABBBBBBBCCCCCCAAAAAABBBAAAABB
21212443231341112321213122221223132333143413222434
AAAAACCCCBAACAAAABAACBBBAAAAAAABBBBBBBBBBBBBBBAAAB
13221123443314441324412324444442243242432312132212
AABAAAACCCCCCCCCBBCCCBBBBBCCCCCAABBBBBBBAAAAACCAAA
43213344444444212223444444212142231122434312421444
BBBBBBBCCCCCCCCACBBBCCCCCCBBBBCAAAABBABBBBBCCCCCCC
44241112211232234134421312121111422444212343234132
CCBAAAAAAAAABBBAAAACBBBBBBBBBBBBBBBBCCCAABBBAABBAA
14114224224241124444432442111224222111231111431112
AAAAAACCCBBBBBBBCCCCCCBCCAABAAACBBBBAABBBBBBAAAAAA
22233412241322122344141123121424432213421241444342
AAAABBBBBBAAABAAACCCABAAAAAACCBBBBBBBBCCCBBBBBBBBA
31223132222344411421212432244111414414414341244442
BBBBBBBBBBBBCCCCCCCAAAAABAAABAAAACCCCCCBBBAAACCCCC
41211111322413341122424232141113212124444144212223
AAAABBBBBBBBBBBBAAABBBBBBBABAAABAAAABBBCCCCCAAAAAB
23114314423431444341221434121411222144414414414444
AAAAAAABACCCBBCCCCBBABBBBBBBBBBAAAACBBCCCCCCCCCCCC
31134344123221444324241313112442433313134423311444
AAACCCCBAAAAABCCCAAAACBBABBBBBBBBABBBBBBBBBBBBBCCC
21444244422334234241424334434214144444144432113423
AACCCCCCCAABBBBBBBAAAACCBCCAAAACCCCCCCBBCCABAABBBB
12421321112111131114142113423232422243414423334442
BBBBAAABBBBBAABBABBBBBBAABBBBBBBBCCCCBBBBCBBBBBBBB
21222114332121212424241432114341334422423221421421
AAAAAAACCCABBBBCBBBCABBBBBBBBBBBBBBBBBCBCAAAABBBAA
24412212223344143114334111132134443444413224144412
AACAAAABBBBBBBBBBBCCBBBAAABBBBBCCCCCCCCBBCCCCCCCBB
21412112212212431232124243132344444222224121234424
AAAAAAAAAAAAAAAAAABBBBBBBBBBAAACCCAAAAAAAAAABBBCCC
34222321211444244422342311434424423113434144222121
AAAAABAAACCCCCCCCCCABBBBBBCBBBBBCCCCABBBBBBBBBBBBB
44244124144314412342312344434443342122234122412112
BBBCBBBBBBBCBCBBBBBABBBBBCCCCCCBBBBBBBBBBBABBBBAAA
21211211312343341114444113114121412411242144421341
AAAAAAAAAABCCCCCCAACCCBBAAABBBBBCABBBBBCCCCCCCCBBB
22341444344344434412432334434124311442321134344411
BBBCCCCCBBBBBBBBBBBBBBBBBBCBBBBCBBBBCCCAAABCCCCCAA
34443223443132434331221114411144444444314233414242
BBBBBBBCCBBABABBBBBBBBBBBCCCCCCCCCCCCCBBBBBBBBBBBB
33413442213111234433222444323343124444111311222244
BBBBBBCAAAAAABBBCCCCCCCCCCBBBBAAAABBCCAAABBBBCCCCC
12122432144224423134424442444333144244144324134321
ACCCCCCBBBBBBCCBBBBBCCCCCCCCCCCCCCCAACBBCBBBBBCAAA
14144421142131223331132234144111322444214431141344
ACCCCCBAABBBBBBBBBAAABBBBBCCCCAABBACBBBBBBBBCCCCCC
22431313134412414343214133314134424424424414231323
ABBBBBBBBBCCCCCCCCCCBBBBBBBBCCBCCCCCABBBBBBBABBBBB
23111111441224134311124244222432121433232431144441
AAAAAABBBBBAACBBBBBAACCCCCBBBBBBAABBBBBCBCCBBBBBBA
31213443343424441114324142242313443132144111332431
BBBBBBBBBBBBAACCBBBBBBCCCBBBBBBBCCBBBBBCCCBBBBBBBB
12434312133334324144334244331244211221411232111411
AACCCBBBBBBBBBBBBBBBBBBBBBBBBBBCAAAABBBAAABBBBBBBB
11111242334434411234124144432343432314444424112341
AAAAAABBBBBBBBBBABCCAABACCBBBBBBBCAAAACCCCAAAAAAAA
24114221444433342342213312442134211434313322412442
BCBBCAABCCCCBBBBBBBAAAAAABBBBBBBBBBBBCBBBBBBBBBBBC
21121424142213344434122144414124441324443221314231
AAABCCCCCCCBBBBBBCBBBAAACBBBBAACCBBBBBCCBABBBBBBBA
41434313323421144424444421113431122212344421222224
ABBBBBBBBABBBBBCCCCCCCCCBBBBBABAAAAAAACCCCBAAAAAAB
11124122122241221144424413241123432444444323431322
AAAABBBAAAAAABBAAACCCCCCBBBCBBBBCBBBBCCCCCBBBBBBBB
22233212312212422344423322242212421113232113214444
ABBBBBAAAAABBBBBBBBCCBBBABBBBBBBCCCBBBBBBCBBBACCCC
11312332212424342314132112142241444322322244412434
AAAAAABBBBBBBBBBBBBBBBBBAAAAAACCCCCABBBCCACCCCCCCC
43444433331344444123431343422212424442443424412143
CBCCCAAAABBCCCCCCABBBBBBBBBAAAAAACCCCBCCCCBBBBAAAA
13221222111442244241314444142442323444234132433311
AAAAAAAAAAACCBBBBAAAAABBBBBBCCCBBBBBCCCCCBBBABBBBB
44441432444432342123323341244244212434144434443424
CCCCCCCCCCCCBBBCBBBBBBBBBBBBCCCBBBBBBBCCCCCCCCCCCC
11212311333132413411213423342414412421424441144342
AAAABBAABBBBBACBBBBBBBBBBBBBBBBBBABBBBBBBBCCCCCCCC
22444143442243243234241114442424243441334133312443
AACCCCCBBCAACACBBBBCABBBCCCCACCBBBBBBABBBBBBBBCCCC
44431143144322134124421123121112431441214123433334
BBBBBBCBBBBBBABBCCCCBBBBBBAAAAAAAAACCCBBBBBBBBBBBC
42121144111144244212314133442122124114444414334113
ABBBBCCCBBBBBCCCCBBBBCCCCCCBBAAAABBBABBCCCCCBBBAAA
12231143441411234444411442221422441144424141211121
ACBCCCCCCCBCAAACCCCCCBBBBBBBBBAACBAAACBCCBBBBBBBBB
21111122141444141414213123232344244314443124242444
AABBBBBBBCBBBBBBABAAABBBABBBBBCCACCCCCCCBBBBABACCC
41432241431423424444313223143444331411321412221211
ABCCBBBBBCCCBBBBBBBABAAAAAABBBBBBBABBBBABAAAAAAAAA
21222213222443212121124214214411321212332424231441
AAAAABAAAAACCCAAAAAAAACCBBBCCCCAAAABBBBBAAABCCCCBB
11131141124144442241344443314141311444233444424322
AABBBBBBAAACCCCCCBBCCCCCCBBBBBBBCCCCCCABBCCCCCCAAC
12414422324212234444444413244411334422141432442442
AAAACCCABBBAAABCCCCCCCCCCCCCCCCCCCCAAAABBBBBCCCCCA
21342444244214144324114431241134332311122143211112
AABBBBBBCCCAABBBBBBCACCCBBBBAABBBBBBBBBBBBBBBBAAAA
22314421214442242343224144243442421441444243432441
BBBBBBBBBBCCCBBCBBBBBBBBBBBBBCCBCAACCCBBBBBBBBBBBB
23212441222344131412314331214442321222221332324414
ABBAABCAAAABBBBBBBBBBBBBBBBBCCCCBBBBBBBAAAAABBBBBB
42311244224244411242412131441122112232411344414443
BBBBAAAAAACACCCCBAABBBBBABCCCCAAAAAABBBBBCCBBAACBB
12232111243122212221222344444121443224114212223411
AAAAAAACCCCBBBBBAAAAAAAACCCCCBBBCCAAAAABBBBBBBCCBA
44111212134444321234432243111222121131111213423144
ABAAAAAABBBBBBBBBBBCCBBBBBBBBBBBAAAAAAAAAAABBBBACC
11122124344344443112222112213443314244441111132242
AAACAAACBCCCCCCCBBAAABBBBBBCCCCBCCCCCCCCAAAAAAAAAB
21211211421242114444433411113232432443434431313244
AAABAAAAAAAACBAACCCCCBBBBBABBBBBBBBCCBBBBCCCBBBBBB
42143444442342431344414342113212413334444143312121
BBBBBCCCCCBBCACCBBCCCCCCBBAABBBBBBBBCCCCCCCCAAAAAA
22131334223123424114443132242442323412324124121314
AAAAACCCAAAAABBBBBABBCCCBBBBBCCCCBBBBABBBBBBBBBBAB
11431112441144431112433332111433344221142112144222
ACCAAABCCCAACCCCCABABBBBBAAAABBBBBBAAAAAAAAAACCAAA
24433411324212232242343341234443443222332214133142
BBAAAAAAAAAAABBCBBBBBBBBBABBCCCCCCCBBAAAABBBBBBBBB
34341321311134331123411222312122114434244344442334
BBBBCBABBBBBAAAAAABBBBCABBBAAAAABABBBBBCCCCBBAAABB
22124433443424444444443131242113311442421144224441
AAAABBBBCCCCACCCCCCCCCBBBAACABBBBBBBBAABBBBBBBCCBB
11141242431443232141211323241212322231411444421132
BBABBBBBBBBCBBBBABBAAABBBBBBBCBBBBBBBBBBBBBBBBBBBC
34444142412134122232222113111221322134442144114221
CCCCCBBBBBAAACCBBABAAAAAAAAABBBAAAAACCCCBBBBBBBBBA
31243234441244414443211313441132314443244422421121
AAAABBCCCAAABCCACCCCCAAAACCCCAAAAACCCBBCBBBBCAAAAA
21321132212334432444213121142211221132442112133123
BBBBBBBBBBBBBBBBCCCCBBAABBBBAAAAAABBBBBBBBBBBABAAB
34344411111421111244122122241344321211422241221444
BBBBCBABBBBBBBABBCBBBBBAAACCBBBAABBBBBBBAABBBBBCBB
13421221144434241442444441413321441111214231244214
BBCCAAAAACCCBBCCBCBCCCCCCCBBCCBBBCBBBBBBCCCBBCCAAA
42224434341414212334244121244243123222223114241221
AACCCCCCCCCCCBBBBBBCBBCCAAABBBBBBBBBBBBBBBBCCCBBBA
12211142444424311414233143211221331422244444444342
BAAAAACCCCCCCCBBBBBBBCBBBBAACAAAAAAAAAACCCCCCCCCCB
21314442412232244433413324444441433241123121121411
BBBBCCCBBBAAAAACCCBBBBBBBCCCCCCBBBBABBBBBBAACCBBBA
34144113114444443312144224244343144332434444224112
CCBCCAAAAACCCCCCCAAAAAAACCCCCBBBACCBBCCCCCCBBBBBCB
12213422314244224433444434314331234414134414233421
AAAABBBAAACCCCCBCCCCCCCCCCBBBBBBBBCBBBBBBBBBBBBCCC
11214431441342232221312333412422144422243112342443
AAAACCCCCCCCCAAAAAABBBBBBBBBACAAAAABBBBBBBBBBBBBBB
22312223221312342222323433324121114224442312131312
ABBAAAAAAAAAAAABBABBBBBBBBBBBBAAAABBCCCCCBBBBBBBBB
44414442133243214242444444432113414114441444121141
CACBCCBBBBBBBBBBBBBBCCCCBBBBBBBBBBBAACCCCCCCAAAACB
32234433324242111141243234222443231213443234444144
BBCCCCCCBBBAAAAAAAAAACCCBBBBBBBBAAAAABCCBBBBCCCCCC
21321433423244334321242222134221121224242221144444
AABBBBBBBBCCCCCCCBBAAAAAABBCCAAAAAAAAAABBBAAACCCCC
12144144442141122332232132411121321314412322144442
AAACCCCCCCAAAAAABBBBBBBBBBBAABBBBBBBBCCABABBCAACAB
44434413331241144113131344423112114324431311211141
CCCCCCACBBBBBCBBBAABBBBBCCBBBBBBBBBBBBBAABBBBBBBCA
11213231443341214421321312221324121213342212423421
AAABBBBCCCABBAAACCBBBAAAAAAAAAAAAAAABBBBAAABBBBAAA
12211131212423222224134413442222444414223324211444
AAAAAAAAABBBBBAAAAACBCBBBBBBAAAACCCBBCCBBAAABBBBCC
41232122442444432322144412224444441241244112142422
CAAAAAAACCCCCCCCBAABBCCCAAAACCCCCBBBBBBCCCCBBBBCAA
22243234113323221112131211144142343211121342134311
CABBBBBBBBBBBAAAAAABBBBAAABBBBBBBCAAAABAABCAABCBBB
41411413211444414341221244444311322323443243312442
AABBBBBCAAACCCBBBBBAAAAACCCCCCAAAAAAABCCAABCBBBBBB
41141342121113112112122114221211242324111121231212
AAABBBCCCBBBBBBBBABBBBBAAAAABAAAAAABBBBBBBBBBBBBAA
22221432223232211331423312144432244441212332134131
AAAAABBBBBBBCAAAAABBBBCBAAACCCBBBCCCCBBBCBBBBBBBBB
14142441422122422122122442344444143224141344341223
BCCCCBBBBBBBBBBBBBBBABBBCBBAACCCBAAAACBCCCCBBBBBBB
31312321122434334243214222234123313233312411131244
AAAAAACBBBBBCCBBBBBBBBBBBBBBCAAAAAAAAAAAAAAABBBBBB
32321312234324423112231414441114141111214143121322
BBAAABBAABBBBBBBBBBBBBBBBBBBBBBBBBBBBBBBBBBBBBBBBB
14112221213334222331443322314111224424324414321424
AAAAAABBBBBBBBBBACCBCCBAAAAAAAAAAACBBBBBBBBBBBBBBB
41241212241122413214214321442221234242431233332421
ABBBBAAABBBBBBBBAABBBBBBBBBBBBAAABBBBBAAABACBBBBBB
32444432221234122141124241442342131132144422444111
BBBCCCCCAAABBBBBBBCCCCBBCCCCCCCABBBBAACCCCAACCCCBB
24444112122211214123441422212213424441412132414111
ACCBCAAAAAAAAAAACAABCCCCAAAAAAABBBCCCBBBBBBBBBBBBB
44444441114443241324113112311113421111223322213244
ACCCCCCAAACCCCACBBBBBABBBBBBBBBCCAABBBBBBAAAAABBBB
32311112121111124244112142442414444444413212123342
AAAABBBBAAAAAAABBBBBAAACCBBBCCABBBBBCCCBBAAAAAABBC
23443441243242111444233444244344231322312432231443
BBBBBBCACCBBBBBBBBCCABBCCCCCCCCCBBBBAAAAAAAAABCCBB
21142123243424131314342144434141442332123322311321
AAABBBBBCABBBCAAABBBBBBBCCCCCCBBBCCBAAAABBABBBBBBB
11421242421212222314241444444442144414214444413231
ABBBBBBBBBABBACAAAAAABBCCCCCCCCCBCCCAAAAAACCCCBBBB
22214332343123334442211133434324232412244112144333
AACACBBBBBBBCBBBCCCBBBBBBBBBBBBBBBBBAABBBBAAACCBBB
34444143223321224434142113121221122434444444443234
ACCCCCCCBABBBBAABBBAABBBBBBAAAAAAAAACCCCCCCCCCBBBB
14232421214414441442212122111331441414332244413431
ABABBCCCCBBCCCCCCCCAAAAAAAAAABBCCCCCCCBBCCCCAAAABB
12311221124324112312421121131214424124433444223123
BBBBAAAAAAAAAAAAAAABBBBAAABCCCCCCAABBBBBBBBBBAAABB
24241411244441323323224443131414224241144442444124
ABACCCAAAABBBBBAABBBBBCCCBBBBBBBBBBBBBBCCCCCCBBBBB
11321111334443441312132242134442231212222144143312
AABAAAACCCCCCBCBBBBAABBCCCABCCCBBBBBAAAABBBCAABBBB
14322213424242241144432444444241421134244411241244
ACBBBBBBCCCBBBBBBBCCCCCCCCCCCCCBBCCBCCCCABAAAAABBC
12142444442212141341114224344424143341444433232212
AAABABBCCCAAABBBBBCBBBBBACCCCCBCCCABBCCCCCCBBBBAAA
43333244414142141234331413434213344444124444444432
AAABBAACCCCCBBBBBBBBBCABBBBBBBBBBBCCCCCCCCCCCCCCBB
22242211444244424313213413131444232241244443321121
AAABAAAAABBBBBCBBBBBAABBBBBBCBBCBBBBBBBCCCCBBBBCBB
11211222131332124332212242341332241142344344443131
AAAAAAAABBBBBBBBBBBBAAAAABBBBCAAAAACCCCCBBCCCCCBBA
41214234132422242212221112232443232114114221312442
BBCBBBCCBBBBAABBBBBBBBAAAAABBBBBBBBBBCCAAAABBACCBB
21444114444342133432211222424222423232214432343311
AAABBCCCBBBCCAABBBBBBBBAAAAAAAAAAABBBBABCBBBBBBBCA
22124112422314131122244444441244423214121343444123
AAAAAAACBBBBAAAAAAAAAABBCCCCABBBBBBBBBBBBBBBCCCAAA
21321412244114132212143144331212222244322134122222
AAAAACBBBCCBBBBBBBAACCCCCCAAAAAAAAAACCBBBBBAAAAAAA
24431112442121323111331423222111114242132221343123
BBBBAAAAAAAAAAAAAAAABAAAAAAAAAAAAAABBBBBBBBBBBBBBB
22321424331241233441422231112122344444411123112142
ABBAABBBBBBBBBACCCCACBBBBAAAAAAABCCCCCCCAAAAABBBBA
44412444344312141412434421324432222211444134224124
CCCBBBBBBBCBAAABBBAAABBBCAAABBBBBAAAAACCCCCBBCCCCC
12122441222124124411333311122422214343224214441341
BBBBBBCAAAAAABACCCABBBBBBBBBBBBBCBBCCBAABBBBBBAACA
22434324312144141414444444421232442142311144241222
AAABBBBBCCCBCCCCCCABCCCCCCCAAABBBBBBBBBBBBCCBBBBBB
44114444444443442334344441314342411434112111234313
CCCCCCCCABBBBBCCCCCCCCCCAAAACCCCCBBBBBBBAAAABBBBAA
12141411231112333344431444112233211312334342123221
AAABBBBBBBBBBBAABBCCCBBBCCCAABBBBAAAAABBBBBBAABBBB
22212242443441341212122421324331423311223233133111
AAAAACCBBBBBBBBBAAAAAAACBBBBBBBBABBBBAAABBBBBBBBBB
