23132333114112244422222322121111444111214441121322
AAABBBBBAAAAAAACCBBAAAABBBBBBBBBBBCAAAAACCCAABBBBB
13121423212134113124443322214322134121414111242431
ABBBBBBBBCCBBBBBBBBBBBBAAAABBBBBBBBBAAABCBAAAAAABB
14241221223444444241341424243221111123312244443442
AAAAAAAAAAACCCCCCCCCBCBAACCCCBBAAAAABBBBBBCCCCBBAA
21114123444444413422313111131342111213224322342132
BAACCBBBCCCCCCCCCCBBBBBBBBBABBBBBAACAAABBBBBBBAABB
11224243113422134112121442431413121421411121121121
AAAABBBBBBBBBBBCCAAABBBBBBBBBBBBBBBBBBCBBBAAAAAAAA
42212111121224113334331321412434443423341122141242
AAAAABAAAABAABBBBBBBBBBBBBBBBCBBBCBBBBBCAAAAAAABBB
44244411142112442412312334121314122422444242121222
AACCCCBBACBBBBBBBBBBBBBBBCAAABBBBBBBBBCCBBBBBBAAAA
34224134214323234211341212441424113321233232213212
AAAACBBCBCCBBBBBBBBBBCBAAAAAACCBBBBBAABBBBBBBBBBBC
22243441243443421124443324344444444134431212111123
BBACBBBBABABBCCCCAACCCBBBBBBACCCCCCBBBAAAAAAAAAAAA
22444441444211223322211213433121322114443324213221
AAACCCCCCCCCCAAABAAABBAABBBBBAAABBBBBCCCBBBBBBBBBB
42444123414312444412431343324121412141341331222111
BBCCCAAABBBBBBBBBBBBBBBBCCCBCCCCCCCCCCCCBBBBBBBBBB
22343144214122211221131314222112342414424321333331
AABBBBCCBBBAAAACBBAAABACCCBBAAAABBACCCCBBBBBCBBBBA
44144442144342343324142243442424433221444142342242
CCCCCCCCCCCCCCACBBCCCCABBBCCABACBBAABBBBBBBBBBBBBB
22221343113231113424332114212144144344444422121424
AABABBBBBBBBBBAACCBBBBBBBBAAAACCCCCCCCCCCCBBBBBBBB
44424444144441211222241131322214444411222212144144
CCCBBCCCBBCCCABBAAABCCBBCAAAAAACBBAAAAAAAABBBBBBBB
11344432233241221444343142434333413221223214222412
AAACCCAAAABBCCCCCCCCCCBBBBBCCCCBBABABBBBBBBCBBBBBB
11111112412312244321114444214422434442314112112212
ABBAABBBBBBBBBBBBAABBBCCCCAACCAABBCCBBBBBBAAAAAAAA
12232112313312221111314442442314311131242211224441
AAABAAAABBBBBAAAAAAAACCCCBBBABBBBBBBBBBBAAAABBCCCA
11321212343141144241444421441234222311143143132221
AAAAAAABBBBBBBBCCAACCCCCCCCCCCBBBABBBBBBBBBCBBBAAA
41144442432132244112323322214121242114422212213122
AABCCCCCCCBCAAAACBAAAAAAABAAAABBBBBBCCBBBAAABBBBBB
21241242222441444412114332123132144444312434134144
CBBCBBCAAAABBBBCCCAAAABAAAABBBBBCCCCCBCCCCAAABBBBB
22121231411113111322141111324244443414444444434114
BBBBBBBBBAABAAAAAAAAABBBAABBBBCCCCCCCCCCCCCCCCCAAC
21211411413223131144314221234122432213431132341121
AAAABAAABBBBBBBBBBCCCBCBBBBBBBBBBBBBBBBBBBBBCBBBAA
42432244132213341121314241443444424433441442122311
AAAAAAABBBBBBBBBBAAACCCBBBBCBBBBAACCBBBCCCCAAAAABA
12423231223213142434223122141342311221114434341313
BBBBBBBBBBBBBBBCBBBBBBBBBBAAABBBBBBBBAAACCCCCCAABB
23111132311441211312313214422111333422223112343212
AAAAAABBBABBBBABBBBBBBBACCCBBBBACCCCBBABBBAABBBAAA
12443241132222411123432432132213442221321224413344
ACCCCBBBAAAAAAAAAAAAAAABBBBBBBBBBBBBBCCAABBBBBBCCC
24111422421111221323222211121132224232322232111414
AAABBBBBCAAAAAAAAAAAAAAAAAAAAAAAABBBBBBAAAAAAAAABC
22341232423112131111124134132322112223421424113114
AABBBBBACCBBBCCBBBBBBBBBBABBBBAAAABBBBBBBCCBAAAAAC
11442211223133142241333142123134312142211441113112
AABAAAAAAABBBBBBBBBABBBBBBBBBBBBBBBBABBBABBCBBBBAA
13132112223424123342434414413211344123444422123411
AAAAAAABBBCCCCBBBBCCCCCCCCCBBBBBBBBBBACCCBBBBBBBBA
11421242314444211134444442332432212422442241323421
AACAAABBBBCCCBBBBBBCCCCCBBBBAAAAAAAACCCCBBBBABBCCC
21121132414344144124431442422312341212114443213241
AAAAAABBBBBBBBBCCCCCCCCCCBCBBBBBAAAAAAAACCCCBBAACC
13112222121142121432444334431431442412223431244331
ABAAAAAAAAAAAAAAABBBBBBBBBBBBCCACBABABBBBBBAAAAABB
22243322242134244144441442441211434323111112314442
ABBBBBBBBCBBBCCCCCCCCBBBBBCCAAAABBBBBBABBBBBBBBCCC
21431212241234212144213311111411141121343413142322
AABBBBBBBBAABBAAAACCBBBBBAAAACAAAAAAAAAAAAABBBBBBB
31342234444444341332212321214134244144444333422243
BBBBBBBCCCCCCCCCCBBBBBBBBBBCCCCCCCCCCCCCBBBBBBBBBB
21122114221321214223112444431233144321414441111121
AAABBAAAAAAAAAAACBBBBBCCCBABBBBBBBBBBBCCCBAABBCBBA
34144444144312441444243444331112443413441324444443
BBCCCCCCCCCBBBBBBBBCCBBCCBBBBBBBBBBCBBBBAAACCCBBBB
21411111244344444144444334212121124444244443344113
ABBBAAAAACBBBBCCBCCCCCBCBBAAAAAAAACCCCCCCCCBCCCCBB
