2121342321132322344441111
BBBBBBBBAAAAAAAABBBBBBBBB
4334341341433242143142242
CBBBBBBBABBABAAABCAAAAAAA
4423111341234444413433324
BBBBBBAAABBBBCBBCCBBBBBCC
2414334341111112413221324
ACCCBBCCCBBBACCCCCCCCABBC
3413224141232414444444331
BBBAABBBBBBBBBBBCCCCCBBBB
2224444144441424343441422
AAACCCCAACCCCCBBCCBCBBBBB
2143141123141111112123334
BBBBBBBBBAABBAAAAAAAACAAC
2221441111114314244421323
AAAACCBBBBBAABBBBBCCBBBBB
1423242212334121414121443
BBBBBBAAABBBBBBACBBCCBBCC
1211413221142224442121311
AAAAAAAAAABBBBCCCCABBBAAA
2244444144143332343321141
AACCCCCACBABBBBBBBBBAAACC
2214231123113222334142142
AACCABBAAAAAAAAAAAACCBBBB
4222244122444314244414444
AAABBBBBBBCCCBCCCCCCCCCCC
3322331421122342132214412
AAAAAAAAAAAAABBBBBBBBBCAB
4114444412411332144222141
BAACCCCCBAAAABBBBBBBBBBBC
1221243243214243424444222
AAAAABBBBBAAAABBCCCCCCCCC
1111241243441144123222213
AAAABBBBBBCCCCCCCABAAAAAC
2113144441143443413212233
AAAAACCBABACCCCCCCBBAAAAA
1232112224444431342424244
AAAAAAAAACCCCCBBBBBCCCACC
1121121121234444343423423
AAAAAAAAABBCCCCCCCBBBBBBB
1221442141314214321143413
AAAAAAAAAABBBBBBBAAACCCBB
2343131441444421314414224
ABBBBBBACBBBBAAAAACBBBAAA
2212144414244433132412421
AAAAACCCCCCCCBBBAACCBBBBB
1231431122434212441141421
AABACAAAAABBBBBBBCCABBBAA
2121141244442211322223243
AAAAACACCCCBABBBBCBBBBBBB
1122232444334444422242142
AAAAABBBCCBBBBBCCAABCBBBB
1341323113141322211142341
ABBBBBBBBBBBBBBAAAAABBBBA
1123414334112121241244414
AAAABBBBBBBBBBAACCBACCCCC
2221232441421123442324221
AAAAAAACCCCBAAABCCBBBAABB
2121311233422133241211121
AAAABBABBBBBBBBBACABAAAAA
1114243141444221223144223
ABBBBBBCCBBCCABBBBBBBBBBB
4224441141344322111433312
AAACCCCACCCCBBBBBBBBABBBA
3234224411344313243344213
ABBCBACCBBBBBBBBBCCCCCBBA
1222441331112214424122412
AABACCBBAAAAAAABCBCAAAAAA
2244321411313414442311122
BBCCCACCCBBBBBBBBBBBBBBAA
4124112422311444442331242
BBBBBAACBBBBBCCCCCACBBBBA
2444132423213342241143214
ACCCABBBBBBBBBBBBAAACCAAC
2322211424332424341211242
ABBAAABBBBBBBBBCCCCAAAAAB
1221443411212241133324213
AABCCCCCAAAAABBBBBBBBBBBB
3442214122311144343411243
BBBBBBBBAABABBBBBBBAABBCC
4414424434234311231341122
ACCCCAACBBBBCBBBBBABBBAAA
1214223413144212444334422
AAABBBBCBBBBBBBCCCCCCCBBB
4421212341441111322211323
CCAABAAABBCCCAAAAAAAAABBB
2111124414412342324322134
AAAAAACCCCCCCCAAAAABBAAAB
1111244143342314143231123
AAAACCCABBBBACBBBBBBBBBBB
2244334243144244411414211
ABBBCBBBBBCCCBBBBBBBBCAAB
1234212241322114422321122
ABCCAAAABBBBBBACCAAAAAAAA
1143312142424411313422124
BBBBBBBBBBBBCBBBBBBBAAABB
1122241431124423331112342
ABBBBBAAAAAABBBBBBBBBBBBB
2224311143222444444423423
AAAAAAAAAAAAACCCBBBCBBCCB
2111132132411413444432313
AAAABBBBBACCCCABBCCCBBBBB
2134443233311441243233344
AACCCCBBBBBBCCCBBBBBBBBBB
2314334444241424133121432
BBCCCCCCCCBBBBBBBBBAABBBB
1111221124412324212444123
AAAAAAAAAABBBAAAAABBBBBBB
2134443343213112444324411
CBBBCCBBBBBAAABBCCCCACCAA
2422144424444433234434223
BBAAACCCACCCCCCBBBABBBBBB
3114212114421423444342141
AAABAAAAAACAABBCBBBBBBBBB
1141244111433113244311131
ACCBBBCACCBBBBBBBBBBBAAAA
3422124113112121244142133
BCAAAAAAAAAAAAAABBBBBABBB
2113334441311131444422221
BBBBBBBBBBBBBBBBCCAAAAAAA
2442313434442242442413112
ABBABBBBACCCAABBBBBAAABBB
3442133421313431332321142
ACCBBBBBBBBBBBBBBBBBBBCCC
3443114232231444444143432
BBBBBBBBBBBBBCCCCCCCCBBBA
3234133141342144443232244
AABCABBBCABBCCCCBBBBBBBCC
4234411144442214424332122
BBBBBBBBCCCBAAACABCBBBBBB
4413131234112242441233112
CBBBBBABAAAAACCCCCCCBBBBB
1144323224314444441133232
AABBBAAAABBBCCCCCCBBAAAAA
4411122234434321343434442
AAAAAABBCCCCCBABBBBBBBBCA
1321114322441311412413443
AAAAAAABBCCCCBBCCAAAACCCA
1444222112334321322133444
ACCCBBBBBBBCBBBBBAAAAACCC
1144132344424322224244141
AACCBBCCCCCCCBAAAAAACCCCB
1241144143144122144444442
AAAAACCCCCCCCAAABBBBACCCC
1121211111414444412214213
AAAAAAAAAACCCCCCCABBBBBBB
4224331344243422431422324
AAABBBBBBBBCCCAACBBBBBBBB
1212414441122142342123342
AAAABBCCCAAABBBBBBBBBBBCB
1111424432312214222414222
ABBBCCCCBBBBBBBBBBBBBCBAA
3244411444232331242242433
AACCCBACCCCCACAAACBBCAABB
2432343442114441113123443
ACBCBCBBBBAAAAAAAABBBBBCC
2422133344444231323442124
BBAAABBCCCCCCBCBBCBBBBBBB
4224421241222242213332432
BBBBBBAAAAAAAACBBBBCCCCBB
2221234311214221242442223
AAAAABBBCBBBBAAAACCCCBBCB
2324231113424121344222344
ABBBABBBBBCCCAAABBCAAAACC
4242414322231211411221422
BBCCCCBBBBBBAAAACABAAAABB
4424244444233123434411314
BBBBBBCCCCACBBBBBBBBBBCCC
1443334241132134444113213
ACBBBBBBBAABBBBCCCCABBBBB
4134444233413214123344444
CCCCCCCCCCCBBBBBBBBBBCCCC
1122234142341411112124344
AAABBBBBBBBCCCBBBBABBCCCC
2222414213234341344112124
AAAAAABBBBBBBBBBBBBBBBBCC
2124411214441211224213344
ACCCCBBBBCCCBAAABBCBBBBBA
2342423134424422424443431
ABBBBBBBBBBBCCCCCCCCCCCCA
1322414441421242121221223
BBBBCCCCCABBBBBAAAAAAAABB
2243434324221224241143144
AAACCCBBBBBAAACCCCAACCCCC
1142313122211222411444224
ABBBBBBBAAAAABBBCABCCCCBC
1122223444224144223432221
AAAAABBCCCAABBCCBBBBBBBAA
1442213221132443143441221
ABBBAAAAABBBBBBBBBBBBCBBB
2444421122421231243342114
BBCBBBBBBBBBAAAACBBBBBBBC
3234411234442413144124344
BBBBBAAACCCCCCAABBBBBBBCC
2232124343113212212132242
BBBAAAABBBBBBBBBBBBAAAABB
1133313132414123442412232
AABBBBBABAABBBBCCBBBBAABB
2232334332212411143333442
BBAABBBBBBBBBBBBBBBBBBCCC
4124443221314312442442334
CBBBBBBBBBBBBBBBBCABBBBBB
4112211112112423214222444
AAAAAAAAAABAABBBBBBAAACCB
2243442244144114314444312
AACCBCBBBBBCCCBBBBCCCCCCC
1321332143214111114441232
CBBBBBBACBAAAAAAAACCBBBBB
1332444434344443444144431
ABBCCCCCCCBBBCCCCCCCCCCAB
3444441211342421332112214
BCCCCCAABBBBBBBBBBAAAAAAC
1233112444214444231213211
AAAAAABCCABCCCCCBBAAAAAAA
2211432132144142321324234
AABCCCAAAAABBBBBBAABBBBBB
4434111124411231322111121
BBBCAAABBBBBAAAAAAAAAAAAC
4434412444114342143243112
CCCCBAACCCBBBBBBBBBABBBBB
4442132411142234134234122
CCCBBBBBBBCBAABBBBBBBBBBB
3444422143414444321232311
ACCCCCCACCCCCCCCBBBAAABBA
2242242143112113413331344
ABBBBBBBCBAAAABBBBBBBBCCB
4444441444444243413324443
CCCCCCCCCCCCCCCCCCCCAACCB
4414421112212112144422122
ACACCAAAAAAAAAAAAACCAAAAA
1134234223224442122311211
AABCBBBBBBABBCBBBBBBAAABB
3313122444244444111142211
BBBBBBCCCBBBCCAAAAABCCCCC
2123444442311234234242243
AAAACCCBBAAAAAAAACCBBBBBB
3413322423233231121114111
BBBBBBBBBBBBBBBAAAACBBBBB
3433214334314112244332241
CBBABBBBBBBABBBBBBBBBBBBB
1122242411232323112123132
AAAAAAAAAAAAAAABAAABBBBBA
2212231124211243324242214
AAABAABBBBAAAACCCCCCCCCCC
1441231422443342241331141
ACAAAAABBBAABBBBBBBBBBAAA
3243442114424423134422122
AACCCCCCCCCCCCABBBBBBABBB
4444213441211124211412132
CCBBBBBCBBBAAAABAAAAAAAAA
2334213214323334324444121
ABBAAABBBCCCCBBBBBCCCCBBB
4321123414124121131334442
BBBBAAACCCBBCAAAABAABCCCB
4214444412234233124223231
AABBCCCCCABBBBBBBBBBBBBAA
2221221112134122432441124
AAAAAAAAAAABBBBBBBCCBBBBC
1432112312233311243242132
ABBBAAAAAABBBBBAABBCCCBBB
1411334422431122334124233
ACBBBBBBBBCCBABBBBCACCABB
2212134131132213114234242
AAAAAAAAAAAAABBBBBBBAAAAA
4144341433444444421214231
CACCCCCCBBBCCCCCCAAAABBBB
3222444343314444431432142
BBBBBBBBBBBBBCCCCBBBBBBBB
1234131433311312421141212
AABBBBBBBAAABBBBBBBBBBAAA
3242132444242241444143434
AAAAAACBBBBCCAAACCBBBBBBB
4443312211133112113341211
ABBBBAAAAAAAAAAAAAAAAAAAB
4444343433123113242441434
CAAACCBBBBAABBBBBBCCCBBBB
2311232213144344111414113
AAAAAAAAACCCCCCCAAAABBBAB
2141134334114112211122114
AAABBBBBBBAAAAAAAAAAAAAAC
1431421412442111144343442
AABBBBBCBBBCCAAACCCCCBBBB
1242111122211231424123244
AAAAAAAABBBBBBBAAAAAABBCC
4223144244423324434432432
CBABAACCCCCCCCCCCCCCCABCC
4422221214424444343442111
CCCCCCAABCCCCCCABBBBBBAAA
3411232233142114112211244
BBAAAAAABBBBBBBBBBCBBBBCC
1134244412444314111434233
ABBBACCCBBBCCBBBBBBBBCBBB
2112444444211321341143413
AAAABCCCCCBBAAAABBBBBBBBB
3431323111432234421243222
BBBBBBBBAACCAACCCBABAAAAA
4142414312441114321233242
CCCCCCCCBBBBBBABBAAABBBBB
3212133144433432341431241
AAAAABBCCCCBBBBBBCACCBBBB
3421442132241223221443224
AAAAABBBBAACAAAAAAABBBBCC
1422323244331243313411131
ABBBBCBBBBBBCCCBBBBBBBBBB
2114434343314424343221434
BBBBCBBCCBBBBBBBBBBBBBBBB
1344444341431121122113232
ABBBBBCBBBCAAAAAAAAAAAAAA
2223411413111412111124144
AABCCAAAAABBBAAAAAAAAAACC
1111142442314444214223142
AAAABCBBBBBBCCCCBBBBBBAAB
3442343322442421444423421
ACCACCCCCBBBBBABBBBBBBBBB
2444244444321232224142433
BBBBCCCCCCCBBBBBBBBBBBBBB
1142224442442134334331133
AACCCCCCCCCCCAABABBBBBBBB
4121132213114413242111212
AAABBBAABBBBCCAAAAAAAAAAA
2122231114422413444444442
AAAAAAAAACBBAAAACCCCCCCCA
4442422224214142444411224
CCCCCAAACAAAABCBCCCCAAAAB
4131123443122222113241443
CABBBAAAAAAAAABAAAAACCBBB
2413441224414212124211331
ACCBBBAAABBACAABBBBBBBBBB
4244432444241324314224223
CCCCBBBBBBBCAAABBBBBBCABB
2211144444112122431242144
AAAAACCCBBCBAABBBBBCCCCCC
1123111224111212431442232
AAABBAABBBBBBAAACCCCAACBB
3222221224141314214413211
BAAAAAABBBBCAAABAACCCCCBB
4444434314433114242142122
CCCCCCCCABBBBBBBBBBCBBBBB
1112144244141122441222221
AAAAACCCCCBBBBAACCAAAAAAB
1121134443333421431111141
BAABBBBABBBBBBBBCBBBBBBBB
4343143342444131444442343
CCCCBBBBCCCCCAAACCCCCCBBB
2333144422321124444111212
BBBBBCCBBBBBBBACCCCBAAAAA
2231423134444331341121213
AABBBBBBBCCCCBBBBAAAAAAAB
4324114223312411121341413
CCBBBBBBBBCBBBBBBCBBBABBB
1112224331334122111331441
AAAABBBBBBBBBBBBAABBBBCCC
1444224423122442141214234
CCCCBBCCAAAAAAAAAACAAAACC
1121322131114444444332223
AAAAAAAABBBBBCCCCCCBBBBBB
1334422144344441233111224
BBBBBBBBBBBCCCCACCAAACACC
1121144442212113421442322
AAAABCCCCBBBBBBBCCCCBBAAA
2243233434442424424141111
AAAAAAABBBCCBBBBBBBBBBAAB
1132143344243444444213341
AAAAACCAACCBACCCCCCBBBBCB
1442124443431132414433134
AAAAAACCCBBBBBBCBBCCBBBBB
1112312123241144424142324
AAAAAAAAAAAAAACBBBBBBBBBB
2424443221221444331431121
ACACCCCBBBBBBCCBBBBBBAAAA
4241121123214231234443212
ACCCCCBBBBABBBBBBBCCCBBBB
1444222241444334322214314
BBBBAABBBCCCBBBBBBBBBBBBB
4111422444412114133411312
ABBACCBBCCCAAABCBBBBBBBBB
2441324422244141431411134
ABBBBBCCBBCCCCCBBBBBBBBCC
2141233241432331433412231
ACCCBBBBBBBBAABCCCCCBBBBB
4111442122144422222121211
CBBBBBBAAABBBCAAAAABBABBB
4323314143411431123424131
CBBBBCCBBBBBBBBBBBBCBCBBB
1441311241443332442312433
ACCBBAAAABBBBBBCCBBBBBBBA
1224424444444242133232321
AAAACBACCCCCCCCBBBBAAAAAA
2224223311132212314311221
AAAAABBBABBBBABBCCCBBBAAA
4212212113444412224214111
AAABBBBBBBBCCCBBBBBBBBAAA
2122222422434111322244321
AAAAAAABBBCBBBAAAAAACCCCC
2133343243444434413242422
BBBBBBBBCCCCCCCCBBBAAAAAA
1211412233211113212411133
ABBBBBBABBBBBAAAABBBBBBCC
4122211134444413423212443
AAAAABBBBCCCCCBBBBBBBAAAA
