42432123424341414321344322431142233144134312413311
AAAAAABBBBBBBBCBBBBCBCCBBBBBBBBBBBBBBBAAABBBBBBAAB
44334114212311114344243241412324312424413142114444
CCCBBBACAAACCCCCCCAABBBCCBABBBBCBBBBBBBBBBBAAACCBC
42432333432431444211311123332412322214224421311242
BBCCBBBBBBBCBBCCCAAAABBBBBBBBBBBBBBBBBBBCBBACCAABB
22411342334343342444434124114213112322342343231441
AAAAAABBBBAACCCCCCCCBBCAABBBBBBBBBBBAABBBACAAAAABB
21124221124432234433344444133224441121143334142241
BBBBCBBBBBBBBBBBABBBBBBCCCCBBBBBBBBBBAABBBBBBBBCCB
44412342322132131124212244131111143414444343212322
CCCCCCCBBBBBBBBBBAAAAAAAABBBBBBACBBCCCCCCCCBAAABAA
22141142421444342212142131444444442414444444311112
ABBBBBBACCBCCCCCAAAAABBBBBCCCCCCBBCCCCCCCCBCBAAAAB
41444433121413123241331211443444331334442412144444
CCCCCCBBBBBBBBBBAABBBBBBBBBBCCCCBBBBCCCCCCCCABCCCC
13444413222444441412242444311234222212132443221133
ACCCCCBBAABBCBBBBBBBBAABBBBAAAAAABBBAACABCCBBCBBBB
24441322312234234123114221244212222112323211111432
ACCCBBBBBBBBBBBBBBBBBCCAAAABBAAAAAAAAAAAAAAAAABCCC
23324143413322344434431422343123234442141331224432
BBBBCCCCCCBBBBBCCCCCCCCCBBBAAABBBBCCCCCCBBBBBBBCBB
13144212121234244433111224134241444211242424311432
ACBBBBBBBBBBBBBBBBBBBBBBBBACCCCCCCBBBBAABBBBBABBBB
24444443244444414411224444222121121332444132321212
ACCCCCCCBBCCCCCBBBBBBBBCCCCAAAAAAAAABCCCCCCAAAAAAA
23312343432241132242434331444442442444444112434242
AABBBBBBBBBAAAAAABBBABBBBABBCCCCCCCCCCCBBCCBBBCBCA
13124111421422211341222334244122311131343334144444
AAAAAAAAAAABBBBBBBBBBBBBBBBBBBBBBBBBBBBBBBBBBCCCCC
32121122214211143434324322343312244221441334132424
CBAAAAAAAAAAAAAABCBBBBBBBBBBBBCBBBBBBBCCCCCCCCCCAB
14114412214422314212112342423212444332244324222443
ACAAACABAAAAAACABBBBBBBBCCCBBAAABBBBCBBBBAAAAAACBA
11221224224223222242211313134223242112244112311412
AAAAAAAAABBBBBABBBBAAAABBBBBBBBBBCBAAAACCABCCAAAAA
21144233233431244123414114212134212432111224241422
AAACCBBBBBBBBAAAAABBBBBBBBBAABBCAAACCCAAAAACCCAABB
31224421421222233443433141244444241421131441144433
AAAAABBBBBBBBAABBBBBBBBABBBCCCCCBBBBBBABBBBBBCCCCC
33413323441424442444241221432222234442313441313411
BBBBBCBBBBBCCCCCCCCCCAAAABBBBBABBCCCBBBBBBBBBBBCAA
13422242412124441324124424144434312413144344212444
CCBBBBBBCCBBBBBBBBBCBBBBAAACCCCCBBBBBBBBCCCCBCBCCC
42424322434141311312331341343144422112121242212211
BBACCAAACCBCBBBBBBBBBBBACCCCAABBBBBBAAAAAAAAAAAAAB
34414211142121444444244434414133343213322131214333
ABBBCBAABBBBBCCCCCCCCCCCBBBBBCBBCCCCBBBBBBBBBABBBB
22114443124233211141433434122432122141231111423344
BBBBCCCBBBCAAAAAAABBBBBCBBBBBBBAAAAAAAAAABBBBBABCC
42114424444424422224221233212221432224344331114444
AAAAABBCCCCCAAAAAAAAAAAAABBAAAAABBAAAABBBBBBBACCCB
22223411212121144412343121212114321344424142133124
AABBACCAAAAAAAAACCAABBBAAAAAAAAABBBCCCBBBBCBBBCCCC
13112221442411222223432123144443314223242143133321
BBBAAAACCCABAAAAAAAACBBBBBACCCCBBBBBBACCAABBBBBBBB
44224123142411112233424244142443214244441444311224
BBBBBBBBBBBBAAAABBBBBBBBBBBBBBBBCCCACCCCCCCCBBBBAB
22322311341221412222121124221312112334134312444442
AACAAAAAAAAAAABBBAABBBBBBBBAABBCCBBBCCCCACAAACCCBB
11123121232311321111111343414244311441412143424432
AAABBBAAAAAAABBBBBBBCBBCCBBBBBBBBAABBBBBBCAAABBBBB
44323424231244212113334223131212211232143134411242
CCCBBBBBBBBCCCBBBAABBCCCABBBBBBBAABBBAAABBBCCBBBBB
31231133343441424411122441112434421413112232444241
AABBBBBBABBBCACCCAAAAAABBBBBBBBBBBBBBBBBBBBACCCCCB
14444242334132142233312333311313333423234224432121
AAACCCACCCCBBBBBBBBBBBBBBBBAABABBBBBABBBAAAAAABAAB
24111142112322442212444321323441132121443121141421
ACBAABBAAAABBBBBBBBBBACBBBBBBBBBBBBABBCCAAAABBBBAA
44342113211112142432133241441143244434134441411441
CCBCCCCBAAAAAAAAABBBBBBBBBBBBBBBBCCCABBBCCCACBBBBB
22411243214223414444422411432341222123124313144142
ACCAABBBBBCAABBAACCCBBACBBBBBBBBBBBBABBBBBAAAACCCB
23444114144133222224243444244324241324244141414114
ABBBCCCBBBBBBBBAAAABBBBBBBCCCBBBBCAAAAABBBBBBBAAAB
42214442221244313112111241321122344444324111212442
BBBCCCCAAAAACCBBCBAAAAAABAAAAAAABCCCBBBBAAAAABBCCB
34411444141243144424441112222424444422114443221434
BBAABCCCAAAAAABCBBCCCCCAAAAAABAACCCBBAAABBBBBBBBBB
11131422424433244431444431222432143232111114244444
AAAAAACCCCCCCBBBBBCCCCCCBABBCCBBBBBABBAAAABCBCCCCC
43434144211443221422343321444411444124113133434133
AACBCBBBBBBBBBBAAAABCCCBAACCCCBBCCCCCBAAAACBABBBBB
13414132112424133423311411312321121122431142444314
ABBBCBBAAAACCBBBBAAAABBBAAAABBBBBBBAAABAAACCCCBBBC
22121321122224231122212234424414414121312324424314
AAAAAAAAAAAAABAAAAAAAABBBCCCCCCCCCCAAABBBBBBBCCBBB
41421444443414422334332344444244144344211421133213
AACCCCCCCCCCBCCBBBBBCCACCCCCCCCCBCCCCCAAABBBBBBBBB
11221144444413234444424241234122242123322131441241
AAAAACCCCCCCBBBBBCCCCCCCCAAABAAAAAAAAAAAAAAAAAABBB
21422134124332342212333231122323442222423244423143
BBAAAABBBBBBBBBCCAAABBBBBABAAAABBBAAAACABBCCBBBAAA
12221121431243144234444341242213321243212312123344
BBBBBBBBBBBBBBBCCCCCCCCCCCCCAABBBBAAABBBBBBBBBBBCC
32213334113412221343124241313412112124141222123444
AAABBBAABBBBBAAAAAAAAAAAAAAAACAAAAABBBBBBBBACCCCCC
22213311212312113223422321211114213311323313244444
AAABBBBBBAAAABBBBBBBCCAAAABBBBBBBBBAAAAABBBBBBCCCC
24244343144434244444143434321424334444344132344422
ABCCCBBBACCCCCCCCCCCCCCCCBBBBCBBBBCCBCBCCCCBBCBBBB
12311223434121111123432413231444124121224111323114
AAAABBBBCCAAAAAAAAABBBBBAAAACCCCAAABBBBBBBBBBBBBBC
44444242413344223331114434411212241144414411121221
ACCCBBBBCCBBBBBBBBBBBBBBBBBAABBCCCACCCCCCCBAAAABBB
43244421123221211432124242243443124111122433142331
CCCCCCBBBBAAAAABBBBBBBBBBAAACCCCCBBBAAAABBBBBBBBBB
44333112421341432243332433234423144431221122312213
AABBBBBCCCBBCABBBBCBBBBBBBBBCCACACCCCCCAABBBBBAAAA
13211214133134311413441232424412424422441112224443
BBBBBBBBACAAABAAABABBAAABBBBBBBBBBCCAAAAAAABBBCBBB
42133313223322244214143442424142224442232411441114
AAABBBBBBBBBABBBAABBBBBBAACCCABBBBBBBBBCBBBBBBBBBB
14222421424132424314442344334241221441223421214114
AAAAABBAABAABBBACCCCCCCBCCCCCCCCAAACCAAABCCBAAAAAA
14233434332444441444142314214411223141232231423443
ACBBBBBBBBBBBCCCCCCCBBBCBBBAABAAAABBBAAAAAAAAACCCB
11111211323122444111141114433212232131211443333341
AAAAABBBAAAAABBCCCCABBBBBBBBCBBAAAAABABBCBBBBABBBA
12124434212133113214414442414332112211121142341434
AAAABCCCAAAABBBBBBBCCCCCCAABBBBBAAAAABAAAABABBBCCC
22311112212141114134342414422144123212214442113111
AABBBBAAAAAABACABBBCCCCCCCCAABBBBBBBBBBBCACCAAABBB
12222243121424334111331214143322124144443444441131
AAAABAAAAABBBCCCCCCAACBBBBABBBBBBBCCCCCCBCCCCCAAAA
11422441121221313312212332413324244422122134442344
AABBBBCBBBBBBBBBBBBBBBBBBCCABBBCBBBBBBBBBBBBBBCCCC
44232142222121312433212121231132114223231132332312
ACCBBBBAAAAAAABBBBBBBBBBBBBBBBBBAACBBBBAAACBBBBBBA
44342433334443343344443214331414444443424313343243
CCCCCCBBCCCCCBBBBBBBBBBBBBBBBBBBCCCCCBBBBBBBBBBBBB
12424141121113123412124441443424233223234332224224
AACCCBBAAAAAABBBBBBBAAACCCCCCCBBBBBBBBBBBBCBBBCBBB
41441142111124324334323144341313112212112324412214
AACCBBBAAAABBBBBBACCBAABBBBBAABBBBAAAAAAAAACBBBBBC
12141214311431321222121222132212424411444434414224
AABBBBBBBBACCBBBBAAAAACAAAAAAAAACBBBBBBCCCCCCCCCCC
12441221142131434231224432443334331231242444413143
BCBBAAAAABBAAACBBBBBBBCCCCCCBBBBBBBBBCCCCCCCBBBBBB
44233411242144211444214344244133331344124311441112
CCCAAAAAABBBCCAAABBAAAAACCBBBBBBBBBBBBBBBBBCBBAAAA
21414433444344443442121122434334444444422221334424
AAAABBBBBBBCCCCCCCCAAAAAAAAAABBCBCCCCBCAAAACCBCCBB
13411444331323333221132344134131144112422411121244
AAAAACCCABBBBBBBBBBBBBBBCCBBBABCBCCCBBBBBBBAAAAACC
11434441423141332144431444443144422242413224431141
AACCCCCACCBBCABBBBCCCCCCCCCCBACCCBBBCBBBBCBBBBBBAA
12134214344243213231114123124212112222411243442141
AAABCCCCCCBBCBBBBAAAACCABBBBBAABBAAAABBBBBBBBBAACB
43124333213244414244141213241124224333124432243334
AAAAAABBBBBBCCCCCCCBBCCAAAAAAAABBBBBBBBBBBBAAAABBB
21231131414143322441344144443424223444412212111331
AABBBBBACAAACBBBBBAABCCCCCCABBBBBBBACCCCBAAAAAABBB
21242444432224411122132131123311232233211223433411
ABBCACCCCBBBBACBBBBBBBBBBBBBBBAAABBBBBBBBBBBBBBCCA
12121324141213421241414233421331131221311231113333
CBBBBBBBBBBAABBBBBCBBBBBBBBBBBBAAAAAABBBBBBBBBBBBB
12411342423133322444444423141221243444444412321433
BBBBBBBBBBAAAAAAAACCCCCCBBBCAAABBCCCCCCCCCCABBABBB
12111213242112444413212342422221213124121331114222
AAAAAAABBBBBBBBBBBBBBBBBBBBBBBBCAABBBBBBBBBBBBBAAC
14141414441444424443422214441112441414344243443221
AABBBBCCCCCCCCCCCCCBBBBBBCBBBBABCCABBCBCCBCBBCBBBB
24244221223242444411224444422442413333213213431123
ACCCCCAAAAAABBCCCCAAABBBCCCAABBBBBBBBBAAAABBCCBBBC
12214313322212114442341113212211143331144421224321
AAAABBBBBBAAAAAACBBBABAAAAAAAAAACCBBBBBCCCBBBBCAAA
21123214331342243233241124221422124212444114333432
AAAAAAACCBBBBBBBBBBBBBBAAAAAAAAAABBBBBBBBBBBBBBBBB
13312132144331343123224443314112132211321221344224
ABBBBBBBBBCAAABBBBBBBBBBBAAABAAAAAAAAABAAAABBBBBAB
23114134341111224433142343314134111442124411444424
BBBBBBBBBBAABBBBBBBBCCCCCBBBBBCCAABCCAAACCBBCCCBBB
32114334221231222232434241222221111122211342112423
AAAABBCCBBBBBAAAAACCCCCCBAAAAAAAAAAAAAAAAAAAAAABBB
24122444322221211234111444242122142444421411344433
ABBBACCCCAAAABBBBBBBBBBBBCCCBAABABBBCCCCBBBBBBBABB
32334442223332131414244244221334232432312114421342
CCBBBBCAAAABBACCCCBBBCCCCCBAABBBBBBBBAAAAAACBBBBCC
21121134444442333233324341223412241241414223412124
AAAAABBCCCCCCBBBBBBBBBBBBBBAABAABBBBBBCCAAAAABBBBC
21141431434221123241441342432214242211334214432221
AAACCCCCCCCAAAABBBBBBBBBBCCBAAABBBBBBBBBBBBBBBBBBB
21111221111433442442112212121223342442444442222313
ABBAAAABBBBBCCCCCCAAAAAABBBBBBAACCCCCCBBBBBBBBBBBB
42122212424412243332323112211212112112144224324432
BAABBBAACCCCAABBBBBBBBBBBBBBAAAAABAAABABBBCCCCCCCC
44424414222142122412444442312142214324114233224434
CCCCCBBBBBAACAAAAAAACCCCCBBBBBBBBBBABCABBBBAACCCBB
43133233412242342313124231144434443314244444114144
ABBBBBBBCAACCABBBBBBBBBBBBBCCCCCCCBCCCCCCCCCCCCACC
22224114223423143442423443131241124223414444142242
AAAAAAAAAABBBBCCCCCCCBBBCCAAABBBAABAABBBCCCCCCCCCA
22112442433311244241444133423442434443422233241221
ABBBBBBBBBBAABBBBBBBCCCBBBCAACCACCCCCCCAAABBBCBBBB
41221244412214344343442224211322323441244242342444
BAAAAABBBBBBBBBBBBABBBBBABBBBBBAAABCCBBCCBBBBBBBCC
14222234442342122212412111112411314111244434413432
BCBBBBBBBBBBBBABBBBBBBBBBBBBBBBBBBBBBBAACCCCCCBBAA
