12111424223423443224342441112414234422444413442233
AAAAAAAAAACCBBBBBBBBBBBBBAAAAABBBBCCBBCCCCCCCCCBBB
22131411111212321231124322141412334112111342121314
AAAAAAAABBBBBBBBBBBBBBBBAAACBBBBBBBBBBBBBBBBBBBBBB
21234423331424442411232212411421211131212144414214
BBBBBBBCAABBAACCAAABBBBABCCBBBABBBBBBBAAABCCBBBBCC
12242212111442434323442142142213114111212131424244
ABAAABBBBBABBBBBBBBBBBBBCCBBBBBBBAACCBAAAACBBBBBBB
22443144143232121141214313241121211122143322423444
AACBBBCABCCBAAAAAAAAAAABBBBBBBBBBAAAAAABBBBBBBBCCC
44423241123114321311442413242224141231444221441311
CCCBBBCAABBBBCCBBBBBCCCCAAAAAAAAACABBBBCCAAACBBBBA
21144144434223242144111442114222143443424144141323
AABBCBBBBBBBBBBBBBBBBBBCCCCCABBBABBBBBBBAACCABBBAA
11144342432222144312131132223424222122124232434424
AAACCCCCCBAAAAACBBBAAAAAAABAABBBAAAAAAAABBBBBCCBBB
14213221242124434411111242142223222141243243241424
ACCBBBBAACAAACCBCAABBBAACBBBBBBBBBBBBBCCCBBBBBBAAA
13331421131131221111114414121221443412122412341312
ABBBBBBBBAAABAABAAABBAAAACBBBBBBBBBCAAAAAAAAAAABBA
23444431142442443334344211123121222314111441413343
ACCCCCCCCAAAABBBBBBBBBBBABBBBBCAABBAABBBBBBBBAABBA
44441123312344444231344424222242311222234234113312
CCCBBBABBAAABBCCCCBBCCCCCCCCBBCBBBBAAAAABBBBBABBBB
14444223232232123412332124441312224113213344344214
AAABBBAAABBBBBBBBBBAABBBBBBBBBBBBBCCCCBBBBBCCBBBCC
34111131242443131444432121122444341443224414443311
AAAAAAABBBCCCBCBBBBABBCAAAABBCCCAAACBBBBCCCCCCBBBB
24324424334212411422341212121312441212212232413212
BBBBBBBBBBBBAACBBBAAACAAAAAAABBBCAAAAAAABBBBBAAAAA
24442222124444244433222124244412224444444344132142
ACCCAAAAAACCCBACCBBBBBAABCACCCCAACCCCCCCCCCCCCAACB
22422223111221424213312334312444112323442121244444
AACBBBBCAAABBAAAAABBBBBBBCCBBCCCCBBBBBBBBBBBACCCCC
24443144341444444421143341441211121224141211113211
ACCCCBBBBAAAACCCABBBBBBBBBBBAAAAAABAAAAAAAAAAAAABB
11111344112214434444444412232141424334444433434131
AAAABBBCBBBBBBCCCCCCCCCCAAAAABBBBBCCCCBCCCCCCCAAAA
33232213244443432222121131131212224313214244122214
BBABBBBBBCCCBBBBBBCCAAAAAABBAAAAAACCBBBBBBBAAAAAAB
44224324443444412442144213412112112312312211311121
ACCCCCCBCCCCCCCCCCCAACCCAAAAAAAAAAAAAAAABBBBBBBBAA
11121142242421324213433144212442423232144312241221
BBAAAAAABBBBBBBBBBBCCCBBBBBABCCCCBBBBBBBBBBAAAAAAA
22443234344442243414414221442111111212121214333332
ABBBBBBCCCCCCAABBBBBBBBBBBBBABBAAAABAAAAAABBBBBBBB
22341433244443144422311442414444142112342123322122
AAACCCCCCCCCBBBBCCCAABBBBBBBCCCCCCAAABBBACCBBBBBBA
21441444244243222331444434423434144443232111344233
AACCCCCCBCCBBBBBBBBBCCCCCACCBBBBABBBBBBBABBBBCCCCC
21131232244442233412434411241413443411144244432231
AAAAAABAACCCBBAACCCCCBBBBBBBAABBBBBBBACCCCCCCAABBB
44441414432344122411323244142214444124444434241211
CCCCCCBACCBBBBBBBBBAAABBBBBBBBABBCBBBBBCCCBBBBBBBA
11411242324132211124431314234422411212224444112241
AAAAABBBBBBBAAAAABBBBBBBACABBBBBBAAAAAAACCCCCCBBBB
44134421432124444213423444233424211342334414344412
CCBBBCCBBBAAAACCBAABBBBCCAAABBBBBBBBBBBBBBCCCCCCBA
11441434144123312111344321132142121322412143444244
AABBBCCCBBBBBBBCAAAACCCCCAAAAABBBAAABBAABCCCCCCCCC
41124444224224243324321214211221344431144121414342
AABCCCCBBAAAAAACCCABBBBBBCAAABBBACCCCBBCCBBACCCBBB
24441144331122112134432432343331434123124214211113
BCBBBBBBBBAAAAAAABBBBBCBBBBCBBBBAAABBBBBBBBBBBABBB
44444233432443433341432311444434444332441444112413
CCCCCABBBBBBBBBBBBCCCCCCCCCCCCCCCCCCCBCCCCCCCBBBBC
21122444441111223444112433143144441234342144414122
AAAAAACCCCAAAAAAACCCBBBCCCCCAACCCCBBBBBBBBCCCCCBBB
21414132212231422444223344113111341234222333441112
ABBCCACCCAABBBBBBCCBBBABCCAABBBBBAAAACAABBCCCCCAAA
22122122332323142244444443322422244431444422323442
AAACAAAABBBBBBBBABCCCCCCCBBBBBBBBBCCCCCCCCBABBBCCB
11222214212342412211224344313242443211243424414423
BBBAAAAAAAACCABAAAAAABCBBBBBCCBBBBBBABBCCCCCCCCCBB
12311113324133412411213444224242143122231444441431
BBBBBBBBBAAAACCAABAAABBCCCCAAABBBBBBBBBBBCCCCCBBBC
24132233313412422211231334213431342123434332444322
AAABBBBBBBBBBBBBBBBBBBCBBBAACBBCCCBBBBBBBBBCCCCBBB
43413112142124443423134221344144112424444344221441
CBBBBBBBBBBBBCCCCBBBBBBACABBBCCBBAAAACCCBBBBBBBBBB
22143223312432134444133344422114144444442142124344
AAAABAAAAAAABBABCCCCCCCBBAAAAAAABBBCCCCCBBBBBACCCC
22113443122112214411242444443214244443234142414424
AAAABBAAAAAAAAAACCAAABBCCCCCAAABAABBCCBCCCCCCABCCC
14444142314322333231111242324212211342122434133122
BBBBBBCBCCBBBBBBBBBCAAAABBBBBAAAAABBBBBBBBBBBBBBAA
14411444434211444322334121134442434444444132332133
AAAAACCCCBBBBBCCCCABBBBABBCCCCCACCCCCCCCCBBABBAAAB
22212412241122343121422222112122224334444433424432
AACAAAABBBAAAAACCCAAAAAAAAAAABBBBBBBACCCCCCBBABBBB
22211321121424431131211434411311412314344414131444
AAAAAAAAAAAABBBBBCCABBBBBBBBBBACCCCCABBCCBBBBBBBBB
21133111332411313141421223414421414111222422414242
AABBAAACCBBBBBBBBBBBCBBBBBBBBBBBCACAAAAAABCCCACBCA
12434214134314444431123423242232412414431441122314
AACCCCBBBBBCCCCCCCBBBBBBCABBBBBBBBBBBBBBABABBBBBBB
34113343332131144444444414112132114223444134441424
AAABBBBBBAAABBBCCCCCCCCCBBBBBBBBBBBCCCCCCBCCCCCCBC
21212424311222124244123341324412344422244123434244
ABCBABBBAAAAAABBBBBBBBBBBBBAAABBBCCCABACCCCBCCCACC
11322231112131214112342444444443333134321214442214
ABBAABBAACABBAAABCCCCCCCCCCCCCCBBBBBBBBBBBBCCBBBAB
14422444221121313241133414214441213142243122114231
ACCBCCCCBBBBBBBBAAAAABBBBBBBCCCAAAABAAACCBABBBBBBB
21112334214121133212312224422442113122143111213443
AAAAAAAAAACCAABBBAACCBABBBBBBBBBBBBBBBBBBAAAAABCCC
12441443322421121231414143423414243144134444432343
ABCCCCBCBABCAAABBBBBCCCBBBCCCCCCCBBBCCCCCCCCCCCCCC
21144441334444213444112423333443142224444412231441
AAACABBBBBCCCCCBBCCCCBBBBBBBBBBAABBBCCCCCCBCABCCCA
14121323222142332144141212444412212442133433212123
BBBBBBBBAAABBBBAAACCCBBBBBCCCCAAAAABBAAAABBBBBBBBB
41214241244144411124343141244444444432111114132323
AAABBBAAACCCCCCBBAACCCCBBBBBCCCCCCCBBBBBAAAAABACCC
21212211322434111223121411233342133134343144243411
AAAAAAAAAAAAAAAAAAABBBAAAABBBBBBBBBBCBBCAABBAAACCA
12244312111143121412342112144242144444311112314141
ABBCCBBBBBBBBBBBBBBCCCBBBBBBBBBAACCCCCCBBBBBBBBBCC
24241433112412121142341211233434144424241424322441
ACCCCCBBBBBBBBBBCCBAABBBBBBBBBBAAACCBCCCCCCCCBBBCA
24423124412114233422444444424244443231211114414421
ACCBBBBCCBBBBBBBBACCCCCCCCCCCCCCCCBBBAABAAACCCCCBB
11221244131444444223332412321241142221212344424422
AAAAACCCBBCBBBBBBAABBBBBBBBBCCCBBBBAAAABBBBBCCCCAA
12444423133413122133244444442231221311134342141232
AACCBBBBBBBBBBBBBBBBBCCCCCCCCCCAAAABBBBCCCCBBBAAAA
44112121122214424444441323224242212223323214123444
ABBAAAAAABBBBBBBBBCCCBBBAAAABBBAAAAAABBBBABBBBCCCC
42214222112334233112443323122321131242412141141311
BBBBAAAAAAABBBBBCAACCCBBBBBBBBBBBBBBBBBBBBBBABBBBB
12143222143312342444142413233223331322244444144423
AAABBBBAAABBBBBCCCCCCCCCBBBBBBBBBBBBAABBBCCCCCCCBB
21131234423111313232443123424414431212114233123232
AABBBAAACBAAABBBBBBACCBBBBBBCCCCCCCAABAABBBBBBBBBB
12344122232232214243313322121134144423344424112432
AABAAAAAAAAAAAAACCCCBBBBAAABAABBBCBCBBBCCCCCCCCCCB
33344344144212313444144343232412242221414432242213
BBABBBACCCCAAABBBCCCCCCCCCBBAABBBBAAAAAACCBBBCBBAA
14124411124412221422214124214344442421212423314214
ABBBBCBBBACCBBBBBBBBBABBCCBBACCCCCAAAABBBBBBBBBBBB
22144112421223111412121413414312424311224241143441
AAACCAAAAAAAABAAACABBBBBBBBBBBBBBBBBBBBBCCCAACCCCC
22412344414414344414421414443424144231123243444432
AAABACCCCBCBCCCCCBBCCBBBBBBBBBBBBBBAAABBBBBBBCCCBB
22234131113431312423444444344414144142441332131234
AAABBBABBBBBBBBBBBBCCCCCCCCCCCCCCCCCCCCCABBBBBBBBB
14444441314123134434211412144444241311332114444213
ACCCCCCCCCBBBBBBBBBCCBBBBAACCCBBBCCBBBCAAAACCCCBBB
21211124222412234132414113424211141141414122121243
AAAAAABCAAACAAACAAABCBBABBBBCCCCBBBBBBCCBBBBBAAABA
14432243343443314223312444233221411244423141311121
ACCAACCBBBBCBBBAAABBBAACCCBBBBBBBBBBCCCAAABBBBBAAA
12113444212122112131231443414432231442114142224113
AABACCCCAAAAAAAAAABBBBBCCCCBBBBBBBBBCAAAAAAAAABBBB
24232133144413114434324144422223442124444121143224
AAABABBBBCCCBBAACBBBBBBBCCCBBBBBBBAACCCCCBAAAABBBB
21141112121111211133312444232441344422314113141324
AAABBBBBCABBBABBBBABAABBCCABBBBBCCCCAAAABBBBBBBBBB
43412424412312221314444414442141214444144444211412
CCCAACCCBBBBAAAAABBBCBCCCCCCAAAAACCCCCCCCCCCAAABBB
44444434411234131312334321244444434322341214431242
CCCCCCCCCABBBBBBBBBBBBBBBABCCCCCCBBBAAACAAACCCCCCB
14444344244144243411113241123321231122424424431212
ACCCCCCCCCCCCCCCBCAABBBBBBAABBBBBAAAAACCCCAAABAAAA
24144122143432331233314144424344242122414432321112
BCCBBBBBBCCCABBBBBBBBAAACCCAACCCCCAAAACCCCBBBAAABA
14414221314211142133224211122244434244411444441244
AACCCCCBBCCAAAAAAABAAAAAAAABBACCCCBBCCCCCCCCCCCCCC
41224232244113111442332123442144424443432321314411
CAAAABBBBCCAAAAABBBBBBBBCBBBBCCCCCCCCCBBBBBBBBAAAB
34443211234131313123142212133142223413111242341424
BCBBCCBBBBBBBBBCCBBBBBBBBBBBBBAAAAAAAABAAABBBCBBBC
33112212144343433212344444244444242444232121214441
AAAAAABBBBCCCCCBBBCCCCCCCCCCCCCCCCCCCCAAAAAAAACCCA
32241232441241234343323242423444342444123431114241
ABBCBBBBBBBBBAAACCCBBBBACBBAACCBBBCCCCCABBBAAAAAAA
24134142112444412424441144441312423311211243441413
BBBBBAAAAACCCCCCCCCCCCAABBCCBBBBBBBBBBBBBBBBBBBBBB
12112442414444412214342112413413123113144341414324
AAABBBBBBBBCCCCAAAAABBAAAACABBBBBBBBBCCCCCCBBBCCBB
24211111424232414322121233144431423243144323443242
AAAAAABBBBBBACCBBBBBBBBBBBAACBBBBAAAABBABBBBBAACCA
22111414113431414443443344421223132312423442144221
AABBBBBBBBBBBBBBBBBBBBABCCCCBBBBAAAAAAACCCCCAAAAAA
42213432434311211431113122242411132114414113331212
BBAAABBBBBBBCAABAAAAAAABBBBBBBBBBCCBBBCCCABBBBAAAA
23443121244311242242113442214231334414142122242234
BBCCCAAAACCBAAABBBBAABBBBBBBBBBBBBBBBBBBBBAAAAAACC
12211341414432144332444312214423444134111132442131
ABBBBBCCCBCCABBCCBBBCCBBBAAACCCCCCCBCCAABBBCCCCAAA
22413344324311233224414243442333214214244144423224
ABBBBBBBBBBBBBBBBAABBBBBBBBBBBBBBBAAACBBAACCBBBAAA
33221232113212224211232214444443444134444241424334
ACAAAABBBBBBBBBBBBBAAAAABBCCCCCCCBBBBBBBBBCAAACCCC
31112213221131311141241221112322422333311134444222
BBBBAAAAAAAAAAAAAAAACCAAAACAAAABCCBBBBBBBAACCCCCAA
23332422121443444314314413334421141321234333231211
ACCCCCBBAAABBBCCBBBBBBBBBBBCCCBBBCAAABBBBBBBBBAAAA
34414432213114443444421413432144113114322421213313
BBCAABBBAAAAAACCCCCCBBBBBBBBBBBBABBBBBBAAAAAAAAAAA
