644666666666613422652136566436
LFFLLLLLLLLLLFFFFFFFFFFFFFFFFF
124424615436664655155426326462
FFFFFFFFFFFLLLFFFFFFFFFFFFFFFF
444232465246262266661661363434
FFFFFFFFFFFFFFFFLLLLLLLLFFFFFF
666164544211265111416256362331
FLLFFFFFFFFFFFFFFFFFFFFLFFFFFF
163662663121461666546666666625
FFFFLLLLFFFFLLLLLLLLLLLLLLLLFF
535255112536666666614313666646
FFFFFFFFFFFLLLLLLLLFFFFFLLLLLL
666466466463231514621646664516
LLLLLLLLLFFFFFFFFFFFFFFFFFFFFF
462233253331165551231256245666
FFFFFFFFFFFFFFFFFFFFFFFFFFFLLF
211164666244513134666666614626
FFFFFFFLLFFFFFFFFFLLLLLLLLLLLL
441241626316343532331352525556
FFFFFFFFFFFFFFFFFFFFFFFFFFFFFF
435514354413333613654442434334
FFFFFFFFFFFFFFFFFFLFFFFFFFFFFF
651653356234513635213411231236
FFFFFFFFFFFFFFFFFFFFFFFFFFFFFL
424261666451556426453262364215
FFFFFFLLLFFFFFFFFFFFFFFFFFFFFF
441265162644616232342266636266
FFFFFFFFFFFFFFFFFFFFFFLLLLLLFF
211443142221435362311221313116
FFFFFFFFFFFFFFFFFFFFFFFFFFFFFL
341166165665115415244133421266
FFFFFFLLFFFFFFFFFFFFFFFFFFFFFL
642412411462633646646665412411
LFFFFFFFFFFFFFFLLLLLLLLFFFFFFF
653461425446662364231223515646
FFFFFFFFFFFLLLFFFFFFFFFFFFFFFF
266366165316666666646266126256
FLLLLLLLFFFFLLLLLLLFFFFFFFFFFF
626616666666666566666613516566
LLLLLLLLLLLLLLLLLLLLFFFFFFLLLL
316656666666666665422264463511
FFLLLLLLLLLLLLLLFFFFFFFFFFFFFF
215166666666666366325166646366
FFFFFLLLLLLLLLFFFFFFFFLLLLLLLL
453115635253412134611223222325
FFFFFFFFFFFFFFFFFFFFFFFFFFFFFF
566666666666633666666566614651
FLLLLLLLLLLLLLLLLLLLLLLLLLLLFF
666266626123466352261626131266
LLLLLLLFFFFFFFFFFFFFFFFFFFFFLL
225336263616242346235625313422
FFFFFFFFFFFFFFFFFFFFFFFFFFFFFF
122234332444134355153662416664
FFFFFFFFFFFFFFFFFFFFFFFFFFLLLL
161642536136555255246326313615
FFFFFFFFFFFFFFFFFFFFFFFFFFFFFF
666165213346154345666654561611
LLLFFFFFFFFFFFFFFFLLLLFFFFFFFF
666665462366453554363435636331
LLLLLLLLFFFFFFFFFFFFFFFFFFFFFF
316642464666366566166156656615
FFFFFFFFFLLLLLLLLLLLLLLLLLLLLF
666666656664454666656646366662
FLLLLLLLLLLFFFFFLLLLLLLLLLLLLF
426614113445465561411666566666
FFFFFFFFFFFFFFLFFFFFFFLLLLLLLL
153111151526362252265666666664
FFFFFFFFFFFFFFFFFFFFFLLLLLLLLF
352642656261415243161623126666
FFFLLLLLLLLFFFFFFFFFFFFFFFFLLL
236122346666666666264452455624
FFFFFFFFLLLLLLLLLFFFFFFFFFFFFF
666665266666666431331666626666
LLLLLLLLLLLLLLLLFFFFLLLLLLLLLL
545632666666611652415351323565
FFFFFFLLLLLLLFFFFFFFFFFFFFFFFF
352536566466566666666666666653
FFFFFLLLLLLLLLLLLLLLLLLLLLLLFF
625635225642341122144464533616
FFFLFFFFFFFFFFFFFFFFFFFFFFFFFL
125341666663666666665251631656
FFFFFFLLLLLLLLLLLLLLLLLLLLFLFF
636526353361162465421616551221
FFFFFFFFFFFFFFFFFFFFFFFLFFFFFF
655343465636666661445613636224
FFFFFFFLFFFLLLLLLFFFFFFFFFFFFF
226434565421332511153244553666
FFFFFFFFFFFFFFFFFFFFFFFFFFFLLL
152336233614611164345321366221
FFFFFFFFFFFFFFFLLLFFFFFFFFFFFF
241221155161456625466656666266
FFFLFFFFFFFFFFFFFFFFLLLLLLLLLL
416366631666366315146666636654
FFLLLLLLLLLLLLLFFFFFLFLLFFFFFF
666666666266666666661666666636
LLLLLLLLLLLLLLLLLLLLLLLLLLLLLL
662666364612314222615646666636
LLLLLFFFFFFFFFFFFFFFFLLLLLLLLL
113566525233626662666636664623
FFFFFFFFFFFFFFLLLLLLLLLLFFFFFF
414266263333562664152115554462
FFFFLLLLFFFFFFFFFFFFFFFFFFFFFF
235613336566361666666666643666
FFFFFFFFFFLLLLLLLLLLLLLLLLLLLL
521263165222452543525653451566
FFFFFFFFFFFFFFFFFFFFFFFFFFFFFF
211356264222622441662166621251
FFFFFFFFFFFFFFFFFFFFFFFFFFFFFF
656666666666655353116666666666
LLLLLLLLLLLLLFFFFFFFLLLLLLLLLL
246141441243644541363654445216
FFFFFFFFFFFFFFFFFFFFFFFFFFFFFF
436654425421233264361346553614
FFLLFFFFFFFFFFFFFFFFFFFFFFFFFF
666566613253653134631521126255
LLLLLLLFFFFFFFFFFFFFFFFFFFFFFF
116252334341644436464316434563
FFFFFFFFFFFFFFFFFFFFFFFFFFFFFF
325146362134143225266226315546
FFFFFFFFFFFFFFFFFFFFLLFLFFFFFF
561164562211412624162164416616
FFFFFFFFFFFFFFFFFFFFFFFFFLLLLL
312351156666366131654566334516
LFFFFFFFLLLLLLLFFFFFFFFFFFFFFF
661154136166623635612112416662
FFFFFFFFLLLLFFFFFFFFFFFFFFFFFF
131511442544256666666666663566
FFFFFFFFFFFFFLLLLLLLLLLLLLLLLL
422533316532534466455434613324
FFFFFFFFLFFFFFFFLLFFFFFFFFFFFF
636663426511241161666666616666
LLLFFFFFFFFFFFFFFFFLLLLLLLLLLL
651142252626613543325335366616
LFFFFFFFFFFFFFFFFFFFFFFFFLLLLL
634516433654423226125635636436
FFFFFFFFFFFFFFFFFFFFFFFFFFFFFF
236561645156566544315414115124
FFFFFFFFFFFLLLLFFFFFFFFFFFFFFF
264665124326613446565353223666
FFFFFFFFFFFFFFFFFFFFFFFFFFFFLL
664256615454553445261653312452
FFFFFFFFFFFFFFFFFFFFFFFFFFFFFF
666564514546222335434545525352
FLLLFFFFFFFFFFFFFFFFFFFFFFFFFF
616124152462151253321312664663
FFFFFFFFFFFFFFFFFFFFFFFFLLLLLL
134533255625646211222612131412
FFFFFFFFFFFFFFFFFFFFFFFFFFFFFF
122263466133466464225614412523
FFFFFFFFFFFFFFFFFFFFFFFFFFFFFF
666636422144311213562251641536
LLLLFFFFFFFFFFFFFFFFFFFFFFFFFL
261243436613663356654223451332
FFFFFFFFFFLLLLFFFFFFFFFFFFFFFF
566656666516666314356666211623
LLLLLLLLLLLLLLLFFFFFLLLLFFFFFF
366322546626154666666616666666
FFFFFFFFFLLFFFFLLLLLLLLLLLLLLL
334145266666666666663236564536
FFFFFFFLLLLLLLLLLLLFFFFLFFFFFF
261561416446222646521351155424
FFFFFFFFLLLLFFFFFFFFFFFFFFFFFF
453412612666666666633566466666
FFFFFLLFLLLLLLLLLLLLLLLLLLLLLL
322324164336566661122436663666
FFFFFFFFFFFLLLLLLFFFFFFFLLLLLL
444342615243325145616425624413
FFFFFFFFFFFFFFFFFFFFFFFFFFFFFF
326266311433333246415635356463
FFFFFFFFFFFFFFFFFFFFFFFFFFFFFF
461513441462163231165262666613
FFFFFFFFFFFFFFFFFFFLFFLLLLLLFF
546635332636666662663236666664
FFFFFFFFFFLLLLLLLLLLLLLLLLLLLL
424516466616216164562366651311
FFFFLLLLLLFFFFFFFFFFFFFFFFFFFF
266666666666656666666565541643
FLLLLLLLLLLLLLLLLLLLLFFFFFFFFF
165144345621331246314111263422
FFFFFFFFFFFFFFFFFFFFFFFFFFFFFF
562136666645654145612546522456
FFFFFFLLLFFFFFFFFFFFFFFFFFFFFF
534466642521442653523634656632
FFFFFFFFFFFFFFFFFFFFFFFFLLLLLL
635215614365663616663653631464
FFFFFFFFFFFFFLLLLLLLLLLLLLFFFF
116516626543246661666666666663
FLLLLLLLLFFFFFLLLLLLLLLLLLLLLL
125461344332326666666646645236
FFFFFFFFFFFFFLLLLLLLLLLLLFFFFF
662663651166666666663666666266
LLLLLFFFFFLLLLLLLLLLLLLLLLLLLL
223116125516553666243535665326
FFFFFFFFFFFFFFFLLFFFFFFFFFFFFF
666616664556411115612166661125
LLLLLLLLFFFFFFFFFFFFFFLLLLFFFF
235542316541254252263415126116
FFFFFFFFFFFFFFFFFFFFFFFFFFFFFF
666252666311413523532166141255
LLFFFFFFFFFFFFFFFFFFFFFFFFFFFF
