646666616663666666666666166665
LLLLLLLLLLLLLLLLLLLLLLLLLLLLLL
662614413656212461142113614464
FFFFFFFFFFFFFFFFFFFFFFFFFFFFFF
666666662522652413532435323514
FLLLLLLLFFFFFFFFFFFFFFFFFFFFFF
665311666466366266655666646616
LLLLLLLLLLLLLLLLLLLLLLLLLLLLLL
242434453426562345465523146431
FFFFFFFFFFFFFFFFFFFFFFFFFFFFFF
126152662446434123654535444432
FFFFFFFFFFFFFFFFFFFFFFFFFFFFFF
666666666666666551662463666142
LLLLLLLLLLLLLLLFFFFFFLLLLLLFFF
665531543512351543113521425666
LLFFFFFFFFFFFFFFFFFFFFFFFFLLLL
666241361324111124335246256256
LLLFFFFFFFFFFFFFFFFFFFFFFFFFFF
343145236652556662664666665666
FFFFFFFFFFFFFFLLLLLLLLLLLLLLLL
643316666161261466661243422156
FFFFLLLLLLLLLLLLLLLLLFFFFFFFFF
352531523442246411261546224333
FFFFFFFFFFFFFFFFFFFFFFFFFFFFFF
253313231321264363544466356662
FFFFFFFFFFFFFFFFFFFFFFFFFFLLLF
351152545131235631414151661231
FFFFFFFFFFFFFFFLFFFFFFFFFFFFFF
263646566663646266162664431116
LLLLFLLLLLLLLLLLLLLLLLFFFFFFFF
215666661665666154221122146356
LLLLLLLLLLLLLLLLLFFFFFFFFFFFFF
266646466662141666666234443266
LLLLLLLLLLLLLLLLLLFLLFFFFFFFFF
132546633621336223536666466616
FFFFFFFFFFFFFFFFFFFFLLLLLLLLLL
666666246345666636626166645666
LLLLLFFFFFFFLLLLLLLLLLLLLLLLLL
666666665646365156131456664465
LLLLLLLLFFFFFFFFFFFFFFFLLLLLLL
564143526664666666622613156524
FFFFFFFFLLLLLLLLLLFFFLFFFFFFLL
235626613365415256633631636666
FFFFFFFFFFFFFFFFFFFFFFFFLLLLLL
165512556366666665661562634113
LLFFFFFFLLLLLLLLLFLLLLLFFFFFFF
131253415222562412153663636663
FFFFFFFFFFFFFFFFFFFFFLLLLFFLLL
666656136636666664566666665566
LLLLLLLLLLLLLLLLLLLLLLLLLLLLLL
614662452543341312532632563662
FFFLLFFFFFFFFFFFFFFFFFFFFFFFFF
131225453613214231255315361451
FFFFFFFFFFFFFFFFFFFFFFFFFFFFFF
452324445511441616331233653222
FFFFFFFFFFFFFFFFFFFFFFFFFFFFFF
436565456125464461345666616661
FFFFFFFFFFFFFFFFFFFFFLLLLLLLLL
113632321535231233261666666635
FFFFFFFFFFFFFFFFFFFLLLLLLLLLLL
413535462666525254433621143341
FFFFFLFLLLLLFFFFFFFFFFFFFFFFFF
542432566566665643434415266666
FFFFFFFLLLLLLLFFFFFFFFFFFFFLLL
656262623631134366343223255646
FFFFLFFFFFFFFFFFFFFFFFFFFFFFFF
562366166666666666666662331534
LLLLLLLLLLLLLLLLLLLLLLLFFFFFFF
143123555354615412646226256633
FFFFFFFFFFFFFFFFFFLLLLLLLLLLFF
216124341643125354466521154534
FFFFFFFFFFFFFFFFFFFFFFFFFFFFFF
666666666133446226264133152162
LLLLLLLLLFFFFFFFFFFFFFFFFFFFFF
525556666665666666462136531461
FFFFFLLLLLLLLLLLLLLFFFFFFFFFFF
455365231562543526252445165136
FFFFFFFFFFFFFFFFFFFFFFFFFFFFFF
666334413652412235224112462661
LLLLFFFFFFFFFFFFFFFFFFFFFFFLLL
316524164236666632256256531654
FFFFFFFFFFFFLLLLFFFFFFFFFFFFFF
326666221532136225163666666666
LFLLLLFFFFFFFFFFFFFLLLLLLLLLLL
456651552636666666666666463666
FFFFFFFFLLLLLLLLLLLLLLLLLLLLLL
616616666663166166565466562666
LLLLLLLLLLLFFFFFFFFLLLLLLLLLLL
666666664524541235455241666664
LLLLLLLFFFFFFFFFFFFFFFFFFLLLLL
163563653262423553133644626136
LLLLLLLFFFFFFFFFFFFFFFFFFFFFFF
146666666666655223435661156444
FFFLLLLLLLLLLFFFFFFFFFFFFFFFFF
543443316254531336236366666616
FFFFFFFFFFFFFFFFFFFFFFFLLLLLLL
663666666666616666615511456642
LLLLLLLLLLLLLLLLLLLFFFFFFFLLLL
355244315232533624663426162666
FFFFFFFFFFFFFFFFFFFFFFFFFFFLLL
241615166166665656224242224645
FFFFLLLLLLLLLLLLFFFFFFFFFFFFFF
345166142136625426423611331522
FFFFFFFFFFFFFFFFFFFFFFFFFFFFFF
666616562666336546666666666666
LLLFFLLLLLLLFFFFFLLLLLLLLLLLLL
141556646166164443311656642213
FFFFFFFFFFFFFFFFFFFFFFFFFFFFFF
246433646653365351231655561663
FFFFFFFFFFFFFFFFFFFFFFFFFFFLLL
266632561633463551464266451165
LLLFFFFFFFFFFFFFFFFFFFFFFFFFFF
656361162216266664645252232211
FFFFFFFFFFFLLLLLLFFFFFFFFFFFFF
566666666663616354322262261514
LLLLLLLLLLLLLFFFFFFFFFFFFFFFFF
552544423533463524425461232326
FFFFFFFFFFFFFFFFFFFFFFFFFFFLLL
666666666616666424342145466612
LLLLLLLLLLLLLLLLFFFFFFFFFFFFFF
661642666466526666325535453253
LLLLLLLLLLLLFFLLLLFFFFFFFFFFFF
643524632146122431416326245636
FFFFFFFFFFFFFFFFFFFFFFFFFFFFFF
651566666666666666663616665466
LLFFLLLLLLLLLLLLLLLLLLLLLLFFLL
516323366666666666631266666663
FFFFFFFFLLLLLLLLLLLLLLLLLLFLLF
542445621333531355122126344211
FFFFFFFFFFFFFFFFFFFFFFFFFFFFFF
616656666163566635443366666666
LLLLLLLLLLLLLLLLFFFFFLLLLLLLLL
345426656166663513155535646266
FFFFLLLLLLLLLLFFFFFFFFFFFFFFFF
665266664236633666644156331546
LLLLLLLLFFFLLLLLLLLFFFFFFFFFFF
314424635125366443422654622454
FFFFFFFFFFFFFFFFFFFFFFFFFFFFFF
656646663466664535425364161366
LLLLLLLLLLLLFFFFFFFFFFFFFFFLLL
446663316653666615524153654545
FFFFFFFFFFFFLLLLFFFFFFFFFFFFFF
625462625656616442316666666626
FFFLLFFFFFFFFFFFFFFFLLLLLLLLLL
256661443455412416546266666366
FFLLLFFFFFFFFFFFFFFFFFFLLLLLLL
433422556353554156342532564436
FFFFFFFFFFFFFFFFFFFFFFFFFFFFFF
261126411661426663453514213636
FFFFFFFFFLLLLLLLLFFFFFFFFFFLLL
343162666566666622633261121132
FFFFLLLLLLLLLLLLFFFFFFFFFFFFFF
263452424466153345535633531666
FFFFFFFFFFLLFFFFFFFFFFFFFFFFFF
166616666666664466666113636656
LLLLLLLLLLLLLLLLLLLLLLLLLLLLLL
661664166626665666666666666622
LLLLLLLLLLLLLLLLLLLLLLLLLLLLFF
462463146132645223666642355646
FFFFFFFFFFFFFFFFFFFFLLFFFFFFFF
212365653666656216265425222124
FFFFFFFFLLLLLLLFFLLLFFFFFFFFFF
235555264252653442224345324666
FFFFFFFFFFFFFFFFFFFFFFFFFFFLLL
665666662662663636666666665314
LLLLLLLLLLLFFLLLLLLLLLLLLFFFFF
561464516335232115436666663666
FFFFFFFFFFFFFFFFFFFFLLLLLLFFLL
666666416666666666663123662643
LLLLLLLLLLLLLLLLLLLLFFLLLLLFFF
365621341616513666166644441641
FFFFFFFFFFFLLLLLLLLLLLLLFFFFFF
233531163636514315122266235366
FFFFFFFFFFFFFFFFFFFFFFLLLLFFFF
633253124266263366311426451415
FFFFFFFFFFFFFFFFFFFFFFFFFFFFFF
224142656112154432623653124215
FFFFFFFFLFFFFFFFFFFFFFFFFFFFFF
666642432114144656612345231542
FLLLFFFFFFFFFFFFFFFFFFFFFFFFFF
646662254462654622562266666446
FFFFFFFFFFFFFFFFFFFFFFLLLLLLFF
143451212261112336412424266666
FFFFFFFFFFFFFFFFFFFFFFFFFLLLLL
655111464231266364432631153166
FFFFFFFFFFFFFFFFFLFFFFFFFFFFLL
644656316541226146426335122122
LLLLLLFFFFFFFFFFFFFFFFFFFFFFFF
615545666166166666513214354353
FFFFFFLLLLLLLLLLLLLFFFFFFFFFFF
536114261624521346333526116153
FFFFFFFFFFFFFFFFFFFFFFFFFFFFFF
566666661664561666214666666653
FLLLLLLLLLLLLLLLLLFFFFLLLLLLLL
231666656423664142421636616141
FLLLLLLLLFFFLLLLFFFFLLLLLFFFFF
266552143663555355565314464556
LLLFFFFFFFFFFFFFFFFFFFFFFFFFFL
666656166632666626244465646451
LLLLLLLLLLLLLLLLLLFFFFFFFFFFFF
