656635633163624145354641364444
LLLLLLLFFFFFFFFFFFFFFFFFFFFFFF
456266666536632265326452315214
LLLLLLLLLFFFFFFFFFFFFFFFFFFFFF
221212635535553551644566626552
FFFFFFFFFFFFFFFFFFFFFFLLLLLFFF
144413523532556635265363232643
FFFFFFFFFFFFFFFFFFFFFFFFFFFFFF
453315432252634256666656666663
FFFFFFFFFFFFFFFFFLLLLLLLLLLLLL
446525313642453341452626331426
FFFFFFFFFFFFFFFFFFFFFLLFFFFFFF
666666651335354553145366666666
LLLLLLFFFFFFFFFFFFFFFFFLLLLLLL
666266263362621626241631423362
LLLFLLLLLLLLLLLLFFFFFFFFFFFFFF
665666666666636666666242441362
LLLLLLLLLLLLLLLLLLLLLFFFFFFFLL
632451411256616666621315164334
LLFFFFFFFFFLLLLLLLFFFFFFFFFFFF
666624253162216652665616666666
LLLFFFFFFFFFFFFFFFLLLLLLLLLLLL
514344666652231656344566666622
FFFFFFLLLLFFFFFFLLLLFFLLLLLLLF
556646553121465431336324332144
FFFFFFFFFFFFFFFFFFFFFFFFFFFFFF
223416355265162424411511366311
FFFFFFFFFFFFFFFFFFFFFFFFFFFFFF
164545534244243322256653135163
FFFFFFFFFFFFFFFFFFFFFFFFFFFFFF
653131412116546531661626666666
FFFFFFFFFFFLFFFFFFLLLLLLLLLLLL
232636224256364536645214653455
FFFFFFFFFFFFFFFFFFFFFFFFFFFFFF
552616362262365366666666661664
FFFFFFFFFFFFFFFFLLLLLLLLLLLLLL
366661636666666664566662424526
FFLLLLLLLLLLLLLLLLLLLLLFFFFFLL
524623616515665336616261336555
FFFFFFFFFFFFFFFFFFFFLLLFFFFFFF
666666666266653666666662656656
LLLLLLLLLLLLLLLLLLLLLLLFFFFLFL
345156666513144562242531666666
FFFFFFLLLLFFFFFFLLFFFFFFFLLLLL
532534536436264262266543536514
FFFFFFFFFFFFFFFFFFFFFFFFFFFFFF
663664666666664545666662636451
LLLLLLLLLLLLLLFFFFFFLLLLLLLFFF
666566311564515266666666561661
LLLLLLLLFFFFFFFFLLLLLLLLLLFFFF
665426464122666666366663664636
FFFFFFFFFFFFLLLLLLLLLLLLLLFFFF
424644243145363316262342521242
FFFFFFFFFFFFFFFFFFFFLFFFFFFFFF
222256526116162644453341523541
FFFFFFFFFFFFFFFFFFFFFFFFFFFFFF
144644266422454666656624314666
LFFFFFFFFFFFFFFLLLLLLLLFFFFFFF
666666666643611566444626152556
LLLLLLLLLLLLLFFFFFFFFFFFFFFFFF
623666666666666626265113143534
LLLLLLLLLLLLLLLLLLFFFFFFFFFFFF
646666663654141555352423643116
FFLLLLLLLFFFFFFFFFFFFFFFFFFFFF
466552455161534513133332154364
FFFFFFFFFFFFFFFFFFFFFFFFFFFFLL
533435651634621311552522234126
FFFFFFLLLLFFFFFFFFFFFFFFFFFLLL
625316311621655666666412252454
FFFFFFFFFFFFFFFLLLLLLFFFFFFFFF
616234325354653455355123536163
FFFFFFFFFFFFFFFFFFFFFFFFFFFFFF
336542333622135134661524266563
FFFFFFFFFFFFFFFFFFFFFFFFFFFFFF
134344644221116324666654224333
FFFFFFFFFFFFFFFFFFLLLLFFFFFFFF
664261431226666666663636112361
FFFFFFFFFFFLLLLLLLLLLLLFFFFFFF
666666666555333253645511354612
LLLLLLLLLFFFFFFFLFFFFFFFFFFFFF
636351446666666643666456366666
LLLFFFFFLLLLLLLLLLLLLLLLLLLLLL
466643512646653661455245314631
FFFFFFFFFFFFFFFLLLFFFFFFFFFFFF
652114352242336656231541132213
FFFFFFFFFFFFFFFFFFFFFFFFFFFFFF
635662226533652126453636336613
FFFFFFFFFFFFFFFFFFFFFFFLLLLLLL
316642653122435666666616346666
FFFFFFFFFFFFFFFFLLLLLLLLLLLLLL
526451264156662666666566316623
FFFFFFFFFFFLLLLLLLLLLLLLFFFFFF
666655435121263541366656666424
LLLLFFFFFFFFFFFFFFFFLLLLLLFFFF
661666354562163454364636643433
LLLLLLFFFFFFFFFFFFFLFFFLLFFFFF
211346666345555666666666666546
FFFFFLLLLLLFFFFLLLLLLLLLLLLLLL
362612443632621162526166626524
FFFFFFFFFFFFFFFFFFFFFFLLLLLLFF
322343661131566432162666325352
FFFFFFFFFFFFFFFFFFFFFFFFFFFFFF
636626666656251531613666641634
LLLLLLLLLLFFFFFFFFFFFFFFFFFFFF
356466535122214641434244556166
FFFFFFFFFFFFFFFFFFFFFFFFFLLFLL
666666666646666666366666666626
LLLLLLLLLLLLLLLLLLLLLLLLLLLLLL
144261222533544522236126662226
FFFFFFFFFFFFFFFFFFFFFFFFFFFFLL
633343223424446415556246343146
FFFFFFFFFFFFFLLFFFFFFFFFFFFFFL
651126366146525545331126536232
LFFFFFFFFFFFFFFFFFFFFFFFFFFFFF
234562522551554136551154613364
FFFFFFFFFFFFFFFFFFFFFFFFFFFFFF
653423354625165426666666665666
FFFFFFFFFFFFFFFFFLLLLLLLLLLLLL
535466335612653532325661212413
FFFFLLFFFFFFFFFFFFFFFFFFFFFFFF
466655312362134343156145216136
FFLLFFFFFFFFFFFFFFFFFFFFFFFFFL
115165243222242212546516166666
FFFFFFFFFFFFFFFFFFFFFFFFFLLLLL
542321666162666166666655131423
FFFFFFLLLLLLLLLLLLLLLLFFFFFFFF
566666635636616425341514431556
LLLLLLLLLLLLFFFFFFFFFFFFFFFFFF
666666666361666661446166121363
LLLLLLLFFFFFFFLLLLLLLLLLFFFFFF
424141522166366664625211213515
FFFFFFFFFFLLLLLLLLLFFFFFFFFFFF
416666666214434232166666665516
FFLLLLLLLFFFFFFFFFFLLLLLLLLFFF
466666666666666666636635256432
LLLLLLLLLLLLLLLLLLLLLLFFLFFFFF
612452416666666332313141435666
FFFFFFFFLLLLLLFFFFFFFFFFFFFFFF
241641666664233613666261642214
FFFLLLLLLLLFFFFFFLLLLLLLFFFFFF
546424161366666666666216355565
FFFFFFFFFFLLLLLLLLLLLLLFFFFFFF
663666266521352312616345662452
LLLLLLLLLFFFFFFFFFFFFFFFFFFFFF
344223432236636133264323456166
FFFFFFFFFFFLLLLFFFFFFFFFFLLLLL
256252656266666665634644331426
FFFFFLLLLFFLLLLLLLLFFFFFFFFFFF
663214566616666663666621341125
LLLLFFLLLLLLLLLLLLLLLFFFFFFFFF
336266424315565245244146666661
FFFFFFFFFFFFFFFFFFFFFFFLLLLLFF
665666666666666626664142136656
LLLLLLLLLLLLLLLLLLLLLFFFFLLLLL
666666655543512561132664116642
LLLLLLLLFFFFFFFFFFFFFFFFFFLLFF
512145244212642436161136441355
FFFFFFFFFFFFFFFFFLFFFFFFFFFFFF
642314215663666666266664636656
FFFFFFFFFLLLLLLLLLLLLLLLLLLLLL
265426434124311143611234552416
LLFFFFFFFFFFFFFFFFFFFFFFFFFFFF
125362613555153115154443424465
FFFFFFFFFFFFFFFFFFFFFFFFFFFFFF
232233336442121336543666462441
FFFFFFFFFFFFFFFFFFFFFLLLFFFFFF
642512666633666426266616666366
LLFFFFLLLLLLLLLLLLLLLLLLLLLLLL
366331341455611666641366256543
FFFFFFFFFFLLLLLLLLLFFFFFFFFFFF
156311121554312632663442256666
FFLFFFFFFFFFFFFFFFFFFFFFFFFLLL
512165345666636213515555354116
FFFFFFFFLFFFFFFFFFFFFFFFFFFFFF
645252442236662266666651663435
LFFFFFFFFFFLLLLLLLLLLLFFLLFFFF
142566266666666624431666666635
FFFLLLLLLLLLLLFFFFFFFLLLLLLLLL
642666624562645462325426254346
LLLLLLLLFFFFFFFFFFFFFFFFFFFFFF
136524256361313563445656644131
FFFFFFFFFFFFFFFFFFFFFFFFFFFFFF
664426616666116431636656442644
LLLLLLLLLLLLFFFFFFFFFFFFFFFFFF
666666664326166663665523363616
LLLLLLLLLLLLLLLLLLLFFFFFFFFLLL
666666643353224164436653656311
LLLLLLLFFFFFFFFFFFFFFLFFFFFFFF
443344624656365146333345325314
FFFFFFFFFFFLLLFFFFFFFFFFFFFFFF
626666646666666634313666665633
LLLLLLLLLLLLLLLFFFFFLLLLLLLLFF
646566666666656666666662352553
LLLLLLLLLLLLLLLLLLLLLLLFFFFFFF
545155355145154441622466631626
FFFFFFFFFFFFFFFFFFFFFFFLLFFFFF
333634335531355214331161125514
FFFFFFFFFFFFFFFFFFFFFFFFFFFFFF
612545113642366344135464156632
FFFFFFFFFLLFFFFFFFFFFFFFFFLFFF
