444226426666666666666662364626
FFFFFFFLLLLLLLLLLLLLLLLLLLLLLL
666622342466566666666663436542
LLLLLFFFFFLLLLLLLLLLLLLFFFFFFF
341265425666666466315562415613
FFFFFFFFFLLLLLLLLLLFFFFFFFFFFF
461212254413514654323114432656
FFFFFFFFFFFFFFFFFFFFFFFFFFFFFF
114661563222642424211625214166
FFFFFFFFFFFFFFFFFFFFFFFFFFFFFL
666353555312621621666436666666
LLLFFFFFFFFFFFFFFFLLLLLLLLLLLL
664654323314446151552635434341
LLLLFFFFFFFFFFFFFFFFFFFFFFFFFF
635215412642126145222514365161
FFFFFFFFFFFFFFFFFFFFFFFFFFFFFF
663666616463614434512146555136
LLLLLLLFFFFFFFFFFFFFFFFFFFFFLL
423511556566122644113226262262
FFFFFFFFFFFFFFFFFFFFFFFFFFFFFF
166634534365411666666642534261
FLLLFFFFFFFFFFFLLLLLLLFFFFFFFF
446321445151112621146635525642
FFFFFFFFFFFFFFFFFFFLLLFFFFFFFF
366656666666663666636546313625
LLLLLLLLLLLLLLLLLLLLLLFFFFFFFF
665163654251516166666666326626
LLFFFFLFFFFFFFFLLLLLLLLLFFLLLL
464525661212633356114524656352
FFFFFFFFFFFFFFFFFFFFFFFFLLLFFF
435164566666666366646662431461
FFFFFFFLLLLLLLLLLLLLLLFFFFFFFF
441465223444545666666636666666
FFFFFFFFFFFFFFFFFLLLLLLLLLLLLL
665332444511451515313656544366
LLFFFFFFFFFFFFFFFFFFFFFFFFFFLL
251266665646626666566651151631
FFFFLLLLLLLLLLLLLLLLLLFFFFFFFF
464264423164431531334456646563
FFFFFFFFFFFFFFFFFFFFFFFFFFFFFF
145543666666666625151242413161
FFFFFFLLLLLLLLLLFFFFFFFFFFFFLF
124414322645454153231521444421
FFFFFFFFFFFFFFFFFFFFFFFFFFFFFF
646526552544346214636534655666
FFFFFFFFFFFFFFFFFFFFFFFFFFFLLL
663311135114441124564666661311
LLFFFFFFFFFFFFFFFFFFFLLLLFFFFF
666656666666666414344154462636
LLLLLLLLLLLLLLLFFFFFFFFFFLLLLL
661426656664226662646666666646
FFFFFLLLLLLLLLLLLLLLLLLLLLLLLL
411541163423231462162114413412
FFFFFFFFFFFFFFFFFFFFFFFFFFFFFF
666666556333323214521564365655
LLLLLLFFFFFFFFFFFFFFFFFFFFFFFF
536162662666246624362242266666
FFFFFFLLFLLLLFFFFFFFFFFFFLLLLL
315623132513413644542135266465
FFFFFFFFFFFFFFFFFFFFFFFLLLLLLL
626366666666662263666646621214
LLLLLLLLLLLLLLLLLLLLLLFFFFFFFF
216666663266152334565235212656
FFLLLLLLFFFFFFFFFFFFFFFFFFFFFF
616434532246434426313311156336
LLLFFFFFFFFFFFFFFFFFFFFFFFFFLL
251351322625434125124266666666
FFFFFFFFFLFFFFFFFFFFFFLLLLLLLL
252366366666666666666666564212
FFFFFFFLLLLLLLLLLLLLLLLLLLFFFF
313214412516256664666666646626
FFFFFFFFFFFFFFFLLLLLLLLLLFLFFF
663666634142341146635544632455
LLLLLLLLFFFFFFFFFFFFFFFFFFFFFF
664666666666616666666454442252
LLLLLLLLLLLLLLLLLLLLLLFFFFFFFF
666666216543446451156326666366
LLLLLLFFFFFFFFFFFFFFFFFLLLLLLL
616265555324523442455234256334
FFFFFFFFFFFFFFFFFFFFFFFFFFFFFF
216516434254312561164265352264
FFFFFFFFFFFFFFFFFFFFFFFFFFFFFF
136666432416454326262655314512
FFFFFFFFFFFFFFFFFFFFFFFFFFFFFF
211644632365325614215246421163
FFFFFFFFFFFFFFFFFFFFFFFFFFFFLL
666446356362224321264236545424
LLLFFFFFFFFFFFFFFFFFFFFFFFFFFF
563162361534623536263243142533
FFFFFFFFFFFFFFFFFFLLFFFFFFFFFF
611612366666325261226425126651
FFFFFFFLLLLLFFFFFFFFFFFFFFFFFF
446424266366636644443633132536
FFFFFFFFLLLLLLLLFFFFFFFFFFFFFF
221666666223156366666314253264
FFFLLLLLLFFFFFFFLLLLLFFFFFFFFF
316363124142366112413551336544
FFFFFFFFFFFFFFFFFFFFFFFFFFFFFF
641356231615551446143111224112
FFFFFFFFFFFFFFFFFFFFFFFFFFFFFF
643561455443413364555466646666
LFFFFFFFFFFFFFFFFFFFFFLLLLLLLL
434155653533266566666666656666
FFFFFFFFFFFFFLLLLLLLLLLLLLLLLL
666666663535666163513543312462
LLLLLLLLFFFFLLLLLLFFFFFFFFFFFF
323326411336666656611516644533
FFFFFFFFFFFLLLLLFFFFFFFFFFFFFF
666616666666666666663666666365
LLLLLLLLLLLLLLLLLLLLLLLLLLLLLF
131416666666666666612266656613
FFFFLLLLLLLLLLLLLLLLLLLLLLLLFF
531526311334166666643666623222
FFFFFFFFFFFFFFLLLLLLLLLLLFFFFF
666252663534143556344252341366
LLLLLLLLLFFFFFFFFFFFFFFFFFFFLL
352156615216552666166166666666
FFFFFFFFFFFFFFFLLLLLLLLLLLLLLL
224134511233245563334332455155
FFFFFFFFFFFFFFFFFFFFFFFFFFFFFF
622215355225415426343652251336
FFFFFFFFFFFFFFFFFFFFFFFFFFFFFF
642614133342115556666616336552
FFFFFFFFFFFFFFFFLLLLLLLLFFFFFF
114542465646166636663612131556
FFFFFFFFFFFFFFLLFLLLLFFFFFFFFF
113143522646645516261343366666
FFFFFFFFFFFFFFFFFFFFFFFFLLLLLL
445615411246136222642253512364
FFFFFFFFFFFFFFFFFFFFFFFFFFFFFF
664666612315315332235666666664
LLLLLLLFFFFFFFFFFFFFFFLLLLLLLF
434643663525666666653163664313
FFFFFFFFFFFFLLLLLLLLFFLLLLFFFF
663665362665212321625666661666
LLLLLFFFFFFFFFFFFFFFFLLLLLLLLL
246646636166666665622241562333
FFFFFLLLLLLLLLLLLLLFFFFFFFFFFF
331621235532333465416666666266
FFFFFFFFFFFFFFFFFFFLLLLLLLLLLL
665666466616153462365246443666
LLLLLLLLLLFFFFFFFFFFFFFFFFFFFF
566666154311336356611116426416
FFFLLFFFFFFFFFFFFFFFFFFFFFFFFF
431316436125611445634113534535
FFFFFFFFFFFFFFFFFFFFFFFFFFFFFF
656666666656666156323625241455
FLLLLLLLLLLLLLLLLLFFFLFFFFFFFF
214342546356665666654363566666
FFFFFFFFFFFLLLLLLLFFFFFFFLLLLL
121541564416513213436651254326
FFFFFFFFFFFFFFFFFFFFFFFFFFFFLL
525666366642656666666666666634
FFFLLLLLLLFFFFLLLLLLLLLLLLLLFF
664624542361251152356341126662
LLLFFFFFFFFFFFFFFFFFFFFFFFLLLF
116666666443353612666665666656
FLLLLLLLLLFFFFFLLLLLLLLLLLLLLL
635431226662533445166516634234
FFFFFFFFLLLFFFFFFFFFFFFFFFFFFF
666666666262145315536145321445
LLLLLLLLLLLLFFFFFFFFFFFFFFFFFF
164432153233566454125413444345
FFFFFFFFFFFFFLLFFFFFFFFFFFFFFF
631136666461466652525356666435
FFFFFLLLLLLLLLLLFFFFFFFLLLLFFF
666666643526165466666666656666
LLLLLLLFFFFFFFFFFFFLLLLLLLLLLL
111563622244211566212563413543
FFFLLFFFFFFFFFFFLLFFFFFFFFFFFF
543456331565324445531611351166
FFFFFFFFFFFFFFFFFFFFFFFFFFFFFF
355666661666666666666661211434
FFFFLLLLLLLLLLLLLLLLLLLFFFFFFF
456343113541546551466163316154
FFFFFFFFFFFFFFFFFFFFFFFFFFFFFF
666664666156442666535554333436
LLLLLLLLLFFFFFFFFFFFFFFFFFFFFF
656666666166463356216351343531
FFLLLLLLLLLLLFFFFFFFFFFFFFFFFF
226546666632522252412566436245
FFLFLLLLLLFFFFFFFFFFFFLLLLLLLF
654212254631645631322561144134
FFFFFFFFFFFFFFFFFFFFFFFFFFFFFF
232334213631266636666652426666
FFFFFLLFFFFFFFFLLLLLLLFFLLLLLL
162251643566665666612516431536
FFFFFFFFFFFLLLLLLLFFFFFFFFFFFF
663666666616666666666636563624
LLFLLLLLLLLLLLLLLLLLFFFFFLLLFF
666525166224135442446341111663
LLLLLFFFFFFFFFFFFFFFFFFFFFLLLL
661666666365561213666666666666
LLLLLLLLLLLFFFFFFFLLLLLLLLLLLL
325615456262412131455256613466
FFFFFFFFFFFFFFFFFFFFFFFLLLLLLL
463361166646662364665133214445
FFFFFFFLLLLLLLFFFFFFFFFFFFFFFF
223645331633436262666652232331
FFFFFFFFFFFFFFLLLLLLLLLLFFFFFF
655664446124463325442251265421
FFFFFFFFLFFFFFFFFFFFFFFFFFFFFF
323452341563634656244114154565
FFFFFFFFFFFFFFFFFFFFFFFFFFFFFF
265346466662664452166666636165
FFFFFLLLLLLLLFFFFFFFLLLLLLLLLF
121152534621462134335246566646
FFFFFFFFFFFFFFFFFFFFFFFFLLLLLL
145235652321241366251452123665
FFFFFLLFFFFFFFFFFFFFFFFFFFFFFF
521112555533416465164165666666
FFFFFFFFFFFFFFFFFFFFFFLLLLLLLL
466416666666666616266614666666
FFFFFLLLLLLLLLLLLLLLLLLLLLLLLL
165313541613253231223166664166
FFFFFFFFFFFFFFFFFFFFFFLLLLLLLL
126655232263252355131242154256
FFFFFFFFFFFFFFFFFFFFFFFFFFFFLL
611634513153166666646662161221
FFFFFFFFFFFFLLLLLLLLLLLFFFFFFF
342341241641443626666666666661
FFFFFFFFFFFFFFFFFLLLLLLLLLLLLL
562344261466656163154356336512
FFFFFFFFFFLLLFFFFFFFFFFFFFFFFF
252646266666664261464566666633
FFFLLLLLLLLLLFFFLLLLLLLLLLLLFF
114524325465122546666241334536
FFFFFFFFFFFFFFFLFLLLLLFFFFFFFF
112522616366666423322346512166
FFFFFFFFFFLLLLLFFFFFFFFFFFFFLL
552325344464442666662266666635
FFFFFFFFFFFFFFLLLLLLLLLLLLLLLL
521346465423536136666666442536
FFFFFFFFFFFFFFFLLLLLLLLLFFFFFF
166631345544435234624525236634
FLFFFFFFFFFFFFFFFFFFFFFFFFFFFF
636624116455255313623166666663
LLLLLFFFFFFFFFFFFFFFFFLLLLLLLF
546166663124226132635346411531
FFLLLLLLFFFFFFFFFFLFFFFFFFFFFF
455352362645564463534163223533
FFFFFFFFFFFFFFFFFFFFFFFFFFFFFF
664641466666666566666244542362
FFFFFFFLLLLLLLLLLLLLLFFFFFFFFF
343145552311664636666663666621
FFFFFFFFFFFLLLLLLLLLLLLLLLLLLF
666566666566566666666663432151
LLLLLLLLLLLLLLLLLLLLLLLLFFFFFF
252224445335561126464331611151
FFFFFFFFFFFFFFFFFFFFFFFFFFFFFF
225434556666636625456425246624
FFFFFFFFLLLLLLLLFFFFFFFFFFFFFF
214364466455466126266365423634
FFFFFFFFFFFFFLLLLLLLLLLLFFFFFF
534511233636544635116542321325
FFFFFFFFFFFFFFLLFFFFFFFFFFFFFF
466346621365336416126212666663
LLLLLLLFFFFFFFFFFFFFFFFFLLLLLF
244143255252662516142464145431
FFFFFFFFFFFFLLLFFFFFFFFFFFFFFF
456345615562333343521621313641
FFFFFFFFFFFFFFFFFFFFFFFFFFFFFF
435534661111644222413341154116
FFFFFFFFFFFFFFFFFFFFFFFFFFFFFF
166536212642323664466626213663
LLFFFFFFFFFFFFFFLLLLLLLLFFFFFF
323511443523332226225211253151
LFFFFFFFFFFFFFFFFFFFFFFFFFFFFF
625256655235566454551262511651
FFFFFFFFFFFFFFFFFFFFFFFFFFFFFF
552565662664145614646666236266
FFFFFFLLLLLFFFFLLLLLLLLLFLLLLL
225464351324165331326551354116
FFFFFFFFFFFFFFFFFFFFFFFFFFFFFF
132363254162142111554621334346
LFFFFFFFFFFFFFFFFFFFFFFFFFFFFF
162666666666566666661656666666
FLLLLLLLLLLLLLLLLLLLLLLLLLLLLL
666646335231533325431566535215
LLLLFFFFFFFFFFFFFFFFFFFFFFFFFF
415531424443626656666656666666
FFFFFFFFFFFFFFLLLLLLLLLLLLLLLL
666665566652456152635366312632
LLLLLFLLLLLLLFFFFFFFFFFFFFFFFF
342544631661261331124154265315
FFFFFFFFFFFFFFFFFFFFFFFFFFFFFF
121434553546666666266666166526
FFFFFFFFFFFLLLLLLLLFLLLLFFFFFF
163625355132323144341644124263
FFFFFFFFFFFFFFFFFFFFFFFFFFFFLF
636666642516666364522143465215
LLLLLLLFFFFLLLLFFFFFFFFFFFFFFF
646666636431566666566666511432
LLLLLLLFFFFFLLLLLLLLLLLLFFFFFF
612134646662666666666666645551
FFFFFFFFLLLLLLLLLLLLLLLLFFFFFF
654211643642545616442321362624
FFFFFFFFFFFFFFFFFFFFFFFFFLLLLL
366665661666635665331331556164
FLLLLLLLLLLLLLLLLFFFFFFFFFFFFF
656314614423163133254621153315
LLFFFFFFFFFFFFFFFFFFFFFFFFFFFF
442656662666662661416261346234
FFFFFLLLLLLLLLFFFFFFFFFFFFFFFF
666252642213535165112454264166
LLLLLLLFFFFFFFFFFFFFFFFFFFFFLL
666626151113514666663643266665
LLLFFFFFFFFFFFLLLLLLLLLLLLLLLL
666666366662626661611666566466
LLLLLLLLLLLLLLLLLFLLLLLLLLLFLL
636425646534155536366615511224
LFFFFFFFLFFFFFFFFLLLLLFFFFFFFF
334346426626666646636666626564
FFFFLLFFLLLLLLLLLLLLLLLLLLLLLF
461463155634653562564221525432
FFFFFFFFFFFFFFFFFFFFFFFFFFFFFF
214251165615442664511535552213
FFFFFFFFFFFFFFFFLFFFFFFFFFFFFF
144655341566666662666666361666
FFFFFFFFFFLLLLLLLLLLLLLLLLLLLL
462624545123326661666666632526
FFFFFFFFFFFFFFFLLLLLLLLLFFFFFF
566366666666662336234365321226
FFLLLLLLLLLLLLLFFFFFFFFFFFFFFF
626353243636666666666666566262
FFFFFFLLLLLLLLLLLLLLLLLLLLLFFF
626166666636622342232136355646
LLFFLLLLLLLLLLLFFFFFFFFLFFFFFF
316666426666466666324251416651
FFLLLLLLLLLLLLLLLLFFFFFFFFFFFF
115666366661221454656412312562
FFFFFFFLLLLFFFFFFFFFFFFFFFFFFF
666666666326366666663464416642
LLLLLLLLLLLLLLLLLLLLFFFFFFFFFF
616666666666666646462646324124
FFLLLLLLLLLLLLLLLLLLLLLLFFFFFF
666616656442631566113611326666
LLLLLLLFFFFLFFFLLLFFFFFFFFLLLL
255412354633352645263526425312
FFFFFFFFFFFFFFFFFFFFFFFFFFFFFF
266664666661666665334342113644
LLLLLLLLLLLLLLLLLLLLFFFFFFFFFF
424663241511166666666133262323
FFFFFFFFFFFFFFLLLLLLLFFFFFFFFF
254122666251246512413221326546
FFFFFFLLLFFFFFFFFFFFFFFFFFFFFF
654331266313465421341263256354
FFFFFFFFFFFFFFFFFFFFFFFFFFFFFF
466666635666632426454546415661
LLLLLLLLLLLLLFFFFFFFFFFFFFFLLL
666351455212612265553146666346
LLLFFFFFFFFFFFFFFFFFFFLLLLLLLL
635331461666666666665526516321
FFFFFFFFFLLLLLLLLLLFFFFFFLLFFF
664663152452122145616366525611
LLLLLFFFFFFFFFFFFFFFLLLLFFFLFF
255624236231134426643666566566
FFFFFFFFFFFFFFFFFLLFFLLLLLLLLL
256553454255362236352651234246
FFFFFFFFFFFFFFFFFFFFFFFFFFFFFF
555465632145642656666666626626
FFFFFFFFFFFFFFFFFLLLLLLLLLLLFF
415566461154421335542146522312
FFFFLLFFFFFFFFFFFFFFFFFFFFFFFF
165532663565235445241143411211
FFFFFFFFFFLLFFFFFFFFFFFFFFFFFF
453312614253316166666166666656
FFFFFFFFFFFFFFFFFFLLLLLLLLLLLL
652265556626666663623462124233
FFFFFFLLLLLLLLLLLLLFFFFFFFFFFF
624464544243335625563233421434
FFFFFFFFFFFFFFFFFFFFFFFFFFFFFF
253554562414263425463424625531
FFFFFFFFFFFFFFFFFFFFFFFFFFFFFF
164256114265566556425614311142
LLFFFFFFFFFFFFFFFFFFFFFFFFFFFF
624624126321553464641255565316
FFFFFFFFFFFFFFFLLFFFFFFFFFFFFF
415623336233313152351423666666
FFFFFFFFFFFFFFFFFFFFFFFFLLLLLL
334152666466666651316636222555
FFFFFFFFFFLLLLLFFFFFFFFFFFFFFF
243226666661646466166563126242
FFFFFLLLLLLFFFFFFFFLLLLLFFFFFF
661166631211421651612666666661
FFFFLLLFFFFFFFFFFLLLLLLLLLLLLF
243122444343216341644262145321
FFFFFFFFFFFFFFFFFFFFFFFFFFFFFF
364454514223215223116351366442
FFFFFFFFFFFFFFFFFFFFFFFFFFFFFF
262331154411316255432416551625
FFFFFFFFFFFFFFFFFFFFFFFFFFFFFF
533525623612665135666626232113
FFFFFFFFFFFFFFFFFFLLLLFFFFFFFF
125653415655542255112323525525
FFFFLLLLFFFFFFFFFFFFFFFFFFFFFF
333223432652211235664343143214
FFFFFFFFFFFFFFFFFFLFFFFFFFFFFF
613231566614666664266662443636
FFFFFFFFLLLLLLLLLLLLLLLFFFFLLL
