121623361561421322662624355464
FFFFFFFFFFFLFFFFFFLLLLFFFFFFFF
432345241311453666566266666665
FFFFFFFFFFFFFFFFLLLLLLLLLLLLLL
564624424624625215414351654561
FFFFFFFFFFFFFFFFFFFFFFFFFFFFFF
355545652145214331666666664343
FFFFFFFFFFFFFFFFFFLLLLLLLLLFFF
544361151631651624234651316543
FFFFFFFFFFFFFFFFFFFFFFFFFFFFFF
553542542322151434145511134466
FFFFFFFFFFFFFFFFFFFFFFFFFFFLLL
243525523266345545556553164341
FFFFFFFFFFFFFFFFFFFFFFFFFFFFFF
321144112334166166212652516465
FFFFFFFFFFFFFLLLLLFFFFFFFFFFFF
214451625366131443123442351621
FFFFFFFFFFFFFFFFFFFFFFFFFFFFFF
155633444626423626146454434642
FFFFFFFFFFFFFFFFFFFFFFFFFFFFFF
661666615333464546223563662666
LLLLLLLFFFFFFFFFFFFFFFFLLLLLLL
241256656554456656266666666446
FFFFFFFFFFFFFLLLLLLLLLLLLLLFLL
335645525626666626641563421234
FFFFFFFFFLLLLLLLLLLFFFFFFFFFFF
562661661511426662656666666661
LLLLLLLLLFFFLLLLLLLLLLLLLLLLLL
445443362463324315564124354262
FFFFFFFFFFFFFFFFFFFFFFFFFFFFFF
443312213416363466116623615123
FFFFFFFFFFFFFLLLLLLLLLLLFFFFFF
666631145232242253551253322143
LLLLLFFFFFFFFFFFFFFFFFFFFFFFFF
466366665666466656665111426646
FLLFLLLLLLLLLLLLLLLLFFFFFFFFFF
653364212125212466362616266666
FFFFFFFFFFFFFFFFFFLLLLLLLLLLLL
651655616251431643156164666666
FFFFFFFFFFFFFFFFFFFFFLLFLLLLLL
653126446266666666414635646666
FFFFFLLLLLLLLLLLLLLLLLLLLLLLLL
114316666666666666266666666535
FFFFFLLLLLLLLLLLLLLLLLLLLLLFFF
543162442664664666666664666666
FFFFFFFFLLLLLLLLLLLLLLLLLLLLLL
246643516521554353442265666456
FFFFFFFFFFFFFFFFFFFFFFFFFLLLLL
646666661346666566666534551525
LLLLFLLLFFLLLLLLLLLLLFFFFFFFFF
566666336434624466666662666661
FLLLLLFFFFFFFFFFLLLLLLLLLLLLLL
666626646646666666616154524433
LLLLLLLLLLLLLLLLLLLFFFFFFFFFFF
666616666616665366534651264261
LLLLLLLLLLLLLLFFFFFFFFFFFFFFFF
642162414143532263554666666666
FFFFFFFFFFFFFFFFFFFFFLLFLLLLLL
511341446154532336231363666666
FFFFFFFFFFFFFFFFFFFFFFFLLLLLLL
364643263346666346143111235225
FFFFFFFFFFLLLLLFFFFFFFFFFFFFFF
623542125266516154535514166626
LFFFFFFFFFFFFFFFFFFFFFFFFLLLLL
553164664552213411365632211424
FFFFFFFLLLLFFFFFFFFFFFFFFFFFFF
153526522634542653566332516554
FFFFFFFFFFFFFFFFFFFFFFFFFFFFFF
166636666456666666366661666616
FLLLLLLLLLLLLLLLLLLLLLLLLLLLLL
413245226221256115113463126116
FFFFFFFFFFFFFFFFFFFFFFLFFFFFFF
562244226113665666666666666266
FFFFFFFFFFFFFFFLLLLLLLLLLLLLLL
354163446666154666666616666666
FFFFFFFLLLLLLLLLLLLLLLLLLLLLLL
664646666215462631635666665666
LLLLLLLLLFFFFLFFFFFFFLLLLLLLLL
666161636316636666366653536214
LLLFFFFFFFLLLLLLLLLLLLLLFFFFFF
665626266666462616466666666146
LLLLLLLLLLLLFLLLLLLLLLLLLLLLLL
623442515356553364434454612433
FFFFFFFFFFFFFFFFFFFFFFFFFFFFFF
365455431246635622154666653665
FFFFFFFFFFFFLFFFFFFFFFLLLFFLLL
424462362166342256146313455143
FFFFFFFFFFFFFFFFFFFFFFFFFFFFFF
566666224255316641464534526634
FLLFFFFFFFFFFFFFFFFFFFFFFFFLLL
666626666646666346614622125236
LLLLLLLLLLLLLLLLLLLLLLFFFFFFFF
165456466636266226325625416632
FFFFLLLLLFFFFFFFFFFFFFFFFFFFFF
666366534422221355212134611446
LLLLLLFFFFFFFFFFFFFFFFFFFFFFFF
166666666165116633563246131643
LLLLLLLLLFFFFFLLFFFFFFFFFFFFFF
666263666562116616626616666666
LLLLLFFFFFFFFFFLLLLLLLLLLLLLLL
623342354262442256154115332254
FFFFFFFFFFFFFFFFFFFFFFFFFFFFFF
623446516644246326116665661166
FFFFFLFFFFFFFFFFFFFFLLLLLLLLLL
226663666666666531255113331654
FLLLLLLLLLLLLLFFFFFFFFFFFFFFFF
622256666265533551636624611666
FFFFFLLLLLLLFFFFFFFFFFFFFFFLLL
666666666656666666656666646512
LLLLLLLLLLLLLLLLLLLLLLLLLLLFFF
266666161355346462334131633166
LLLLLFFFFFFFFFFFFFLLLFFFFFFFFF
566623361666616666666662164336
FFFFFFFLLLLLLLLLLLLLLLLFFFFFFF
342312466666666635661666136615
FFFFFFFLLLLLLLLLLLLLLLLLLLLLLL
114646661541551522452563666663
FFFFLLLLFFFFFFFFFFFFFFFLLLLLLL
531115142565156164143652251425
FFFFFFFFFFFFFFFFFFFFFFFFFFFFFF
223414242416641213424466666666
FFFFFFFFFFFFFFFFFFFFFFLLLLLLLL
513614612146525365614666662665
FFFFFFFFFFFFFFFFFFFFFLLLLLLLLL
351616461644355644236663566664
FFFFFFFFFFFFFFFFFFFFLLLLLLLLLF
566526115164262652251142524422
FFFFFFFFFFFFFFFFFFFFFFFFFFFFFF
211223621265426436542325211251
FFFFFFFFFFFFFFFFFFFFFFFFFFFFFF
255446163124454356235215432461
LFFFFFFFFFFFFFFFFFFFFFFFFFFFFF
346535341631536463266221365133
FFFFFFFFFFFFFFFFFFFFFFFFFFFFFF
535216666566666666266366222565
FFFFFLLLLLLLLLLLLLLLLLLLFFFFFF
666264636256666666666626212624
LLLLLLLLLLLLLLLLLLLLLLFFFFFFFF
425626544355155463216431316616
FFFFFFFFFFFFFFFFFFFFFFFFFFFFLL
323555566336666666664566616266
FFFFFLLLLLLLLLLLLLLLLLLLLLLLLL
311163542166661531636264553662
FFFFFFFFFFLLLLFFFFFFFFFFFFFFFF
434344141255121344351161656666
FFFFFFFFFFFFFFFFFFFFFFLLLLLLLL
654113144465466633365466666664
LFFFFFFFFFFFFLLLLLLLLLLLLLLLLL
646661613665664664236663366566
LLLLLLLLLLLLLLLLLLLFLLLFFLLLLL
665264643524132412255264256416
LLFFFFFFFFFFFFFFFFFFFFFFFFFFFF
662136525443251356611246621545
FFFFFFFFFFFFFFFFFFLLFFLLLLFFFF
366216663625212326556114366516
FLLFFFLLLLLFFFFFFFFFFFFFFLLLLL
366665255646666662266513412336
LLLLLFFFFFLLLLLLLFFFFFFFFFFFFF
166666636641126365666666325663
FLLLLLLLLLFFFFFLLLLLLLLLLLFFFF
641564651142564124322261352266
LFFFFFFFFFFFFFFFFFFFFFFFFFFLLL
416123353621531123663345246365
FFFFFFFFFFFFFFFFFFFFFFFFFFFFFL
312245235433254442634642461651
FFFFFFFFFFFFFFFFFFFFFFFFFLFFFF
666666232536134256654666666656
LLLLLLFFFFFFFFFFLLLLLLLLLLLLLL
461652345142233144563512132115
FFFFFFFFFFFFFFFFFFFFFFFFFFFFFF
656666613666666664666466666666
LLLLLLLLLLLLLLLLLLLLLLLLLLLLLL
261645466666214124143534254522
FFFFFFFLLLLLFFFFFFFFFFFFFFFFFF
431516225356166355456164541562
FFLFFLFFFFFLLLFFFFFFFFFFFFFFFF
661664666654412366666563663266
LLLLLFFFFFFFFFFFLLLLLLLLLLLLLL
313656462265524251546666666566
FFFFFFFFFFFFFFFFFFFLLLLLLLLLLL
435356666625336344521445566554
FFFFFLLLLFFFFFFFFFFFFFFFFFFFFF
151265414325143425364566163112
FFFFFFFFFFFFFFFFFFFFFFFFFFFFFF
326234524146422233351142541341
FFFFFFFFFFFFFFFFFFFFFFFFFFFFFF
533123321134644565314663132311
FFFFFFFFFLLFFFFFFFFFFFLLFFFFFF
263341421225554215315614456154
FFFFFFFFFFFFFFFFFFFFFFFFFFFFFF
623236366666666665554154626364
FFFFFFFLLLLLLLLLLFFFFFFFFFLLLF
666653666666124211121422542526
LLLLLFLLLLLFFFFFFFFFFFFFFFFFFF
535363413641214216626666666666
FFFFFFFFFFFFFFFFFFFFFLLLLLLLLL
525346666666266666345152625622
FFFFFLLLLLLLLLLLLLFFFFFFFFFFFF
553532656633626521613624234336
FFFFFFFFFFFFFFFFFFLLLLFFFFFFFF
126646566656666646263626426324
LLLLLLLLLLLLLLLLFFFFFFFFFFFFFF
234625332215663122213242666666
FFFFFFFFFFFFFFFFFFFFFFFLLLLLLL
266666366666666266666626462666
LLLLLLLLLLLLLLLLLLLLLLLFFFFLLL
414335364223256554126613142466
FFFFFFFFFFFFFFFFFFFFFFFFFFFFFL
666656366342543323646651216556
LLLLLLLLLFFFFFFFFFFFFFFFFFFFFF
355642546652124111463445352622
FFFFFFFFLLFFFFFFFFFLFFFFFFFFFF
366666523666666466661564322115
LLLLLLFFFFLLLLLLLLFFFFFFFFFFFF
665666415141534135535651643116
LLLLLLLLFFFFFFFFFFFFFFFFFFFFFF
651666666256366661145634124333
LLLLLLLLLLLLLLLLLLLFFFFFFFFFFF
544551163663512455666663364666
FFFFFFFFFFFLLFFFFLLLLLLFFLLLLL
253364364461435165641162316653
FFFFFFFFFFFFFFFFFFFFFFLFFFFFFF
665664422315666666666641654162
LLLLLFFFFFFLLLLLLLLLLLFFFFFFFF
336246166666663623456111566131
FFFFFFLLLLLLLLLLFFFFFFFFFFFFFF
354411434364532646265226666525
FFFFFFFFFFFFFFFFFFFFFFFLLLLFFF
253414661252434451356664636646
FFFFFFLLFFFFFFFFFFFFLLLLLLLLFF
522263352424652352123515526231
FFFFFFFFFFFFFFFFFFFFFFFFFFLFFF
645242663515622524666163426151
FFFFFFFFFFFFFFFFFLLLLLFFFFFFFF
542453553345434462314211143642
FFFFFFFFFFFFFFFFFFFFFFFFFFFLLL
354153435452553662316466665562
FFFFFFFFFFFFFFFLLFFFLLFLLLLLLF
366666164666566666664563354414
FLLLLLLLLLLLLLLLLLLLLFFFFFFFFF
511253256543631166166164666666
FFFFFFFLFFFFFFFFFLLLLLLLLLLLLL
466666256666616361445216666666
LLLLLFFFFLLLLLFFFFFFFFFFLLLLLL
666654366252561121525166616666
LLLFFFFFFFFFFFFFFFFFFFLLLLLLLL
322626623126251544511453334546
FFFFFLLFFFFFFFFFFFFFFFFFFFFFFF
666626613646665666364566666666
LLLLLLLLLFFLLLLLLLLLLLLLLLLLLL
136344255214221213133354225516
FFFFFFFFFFFFFFFFFFFFFFFFFFFFFF
462443442114412433431564524515
FFFFFFFFFFFFFFFFFFFFFFFFFFLFFF
611625664234253616336166665235
FFFFFFFFFFFFFFFFFFFFFFLLLLFFFF
653236632335666464223233666166
FFFFFFFFFFFFFFFFFFFFFFFFLLFFFF
466525135241352125426343611441
LLLFFFFFFFFFFFFFFFFFFFFFFFFFFF
563353551162624333263335632554
FFFFFFFFFFLLLFFFFFFFFFFFFFFFFF
664666615666266464143156262233
LLLLLLLLLLLLLLLLLFFFFFFFFFFFFF
212532661636424623165563311143
FFFFFFFFFFFFFFFFFFFFFFFFFFFFFF
526666646336646656666665266663
FFFLLLLLLLLLLLLLLLLLLLLLLLLLLL
426232662451241666666662665324
FFFFFFFFFFFFFFFLLLLLLLLLLLFFFF
465433325513435666666662366656
FFFFFFFFFFFFFFFLLLLLLLLLLLLLLL
262465453243663142536666136666
FFFFFFFFFFFFFFFFFFFFLLLLFFLLLL
411312642454414212461423616666
FFFFFFFFFFFFFFFFFFFFFFFFFFLLLL
354512666666666261435346146663
FFFFFFLLLLLLLLLLLFFFFFFFFFLLLL
251264555266666166214515112232
FFFFFFFFFLLLLLLLLLFFFFFFFFFFFF
666616665366561262361635122443
LLLLLLLLLLLLLLFFFFFFFFFFFFFFFF
342612213616462521126333366552
FFFFFFFFFFFLFFFFFFFFFFFFFLLFFL
324441624223623643155355461633
FFFFFFFFFFFFFFFFFFFFFFFFFFFFFF
463666566666616436366666661146
FFLLLLLLLLLLLLLLLLLLLLLLLLFFFF
314423666664666663541333466666
FFFFFFLLLLLFLLLLLLLLFFFFFLLLLL
666664623344563421623364536666
LLLLLLLFFFFFFFFFFFFFFFFFLLLLLL
666663525316616634666663335465
LLLLLFFFFFFLLLLLLLLLLLLFFFFFFF
535633311623145134464123441336
FFFFFFFFFLFFFFFFFFFFFFFFFFFFFF
632542332424534442241352443654
FFFFFFFFFFFFFFFFFFFFFFFFFFFFFF
666662666666666466663261666666
LLLLLLLLLLLLLLLLLLLLLLLLLLLLLL
514366625662642216666626655141
FFFFLLLLLLLLLFFFFLLLLLLLLFFFFF
151243526321356442661346344342
FFFFFFFFFFFFFFFFFFFFFFFFFFFFFF
164146656626661523256344163126
FFFFFFFFFFFFFFFFFFFFFFFFFFFFFF
523143343245554662456116641266
FFFFFFFFFFFFFFFFFFFFLFFFFFFFLL
623525621451464665232463443366
LFFFFFFFFFFFFFFFFFFFFFFFFFFLLL
662366666666624246333525456546
LLLLLLLLLLLLLLFFFFFFFFFFFFFFFF
216416212132561462631241645112
FFFFFFFFFFFFFFFFFFFFFFFFLFFFFF
552642636436233231265415415426
FFFFFFFFFFFFFFFFFFFFFFFFFFFFFF
645164515256666666166636666263
FFFFFFFFFFLLLLLLLLLLLLLLLLLFFF
636545533241534556216355325154
FFFFFFFFFFFFFFFFFFFFFFFFFFFFFF
344413544335615256253626666666
FFFFFFFFFFFFFFFFFFFFFFFFFLLLLL
265266666666663533262445266626
FLLLLLLLLLLLLLFFFFFFFFFFLLLLLL
361565512543551664512161363146
FFFFFFFFFFFFFFFFFFFFFFFFFFFFFF
122223534133661226215651134245
FFFFFFFFFFFFFFFFFFFFFLFFFFFFFF
233652113661621241624235163444
FFFFFFFFFLLLLFFFFFFFFFFFFFFFFF
466664454551532344121541645465
FFLLLFFFFFFFFFFFFFFFFFFFFFFFFF
665166656165456666666615556312
LLLLLLLFFFFFFFLLLLLLLLFFFFFFFF
116225212561265255511454344355
FFFFFFFFFFFFFFFFFFFFFFFFFFFFFF
663645114621145655236435262142
LLLLFFFFFFFFFFFFFFFFFFFFFFFFFF
266646613222646465312415445611
LLLLLLLFFFFFFFFFFFFFFFFFFFFFFF
666166666666665131426666666666
LLLLLLLLLLLLLFFFFFFLLLLLLLLLLL
364656366666665666666666123424
FFFFFLLLLLLLLLLLLLLLLLLLFFFFFF
221352132552361426456526436541
FFFFFFFFFFFFFFFFFFFFFFFFFFFFFF
366666354666666642666613635311
FLLLLLLLLLLLLLLLLLLLLLFFFFFFFF
666266615262266416666641316636
LLLLLLLLFFFFFLLLLLLLLLFFFFFFFL
653631651561226155552546613113
FFFFFFFFFFFFFFFFFFFFFFFFFFFFFF
666461646666663616661426326213
LLLLLLLLLLLLLLLLLLLLFFFFFFFFFF
665666666663666151523332334325
LLLLLLLLLLLFFFLFFFFFFFFFFFFFFF
263613442666635163453352235214
FFFFFFFFFLLLLLFFFFFFFFFFFFFFFF
464652256266666666656335323345
FFFFFFFFLLLLLLLLLLLLFFFFFFFFFF
155155422114214446164416666666
FFFFFFFFFFFFFFFFFFFFFFFLLLLLLL
316532351531366666666561224236
FLLFFFFFFFFFFLLLLLLLLLLLFFFFFF
554233215636666646666162664666
FFFFFFFFFFFLLLLLLLLLLLLLLLLLLL
514145531666666666666666566661
FFFFFFFFFLLLLLLLLLLLLLLLLLLLLL
633126664434641316524663315611
LLFFFLLLLFFFFFFFFFFFFLLFFFFFFF
461133656565126664231145551356
FFFFFFFFFFFFFFLLLFFFFFFFFFFFFL
544122512163235346654244315166
FFFFFFFFFFFFFFFFFFFFFFFFFFFFLL
264515155622661266312616666666
FFFFFFFFFFFFFFFFFFFFFFLLLLLLLL
663662434555255126314251532545
LLLLFFLFFFFFFFFFFFFFFFFFFFFFFF
523362556635251144366421432162
FFFFFFFFLLFFFFFFFFFLFFFFFFFFLF
155644112612656124523152466565
FFFFFFFFFFFFFFFFFFFFFFFFFLLLLF
116543251526664152236252241313
FFFFFFFFFFFFFFFFFFFFFFFFFFFFFF
663636664646265213611662565145
LLLLLLLLFFFFFFFFFFFFFFFFFFFFFF
536666666661131614512236666666
FLLLLLLLLLLFFFFFFFFFFFFLLLLLLL
214635441545166666666263412362
FFFFFFFFFFFFFFLLLLLLLFFFFFFFFF
666666561212541142535156626435
LLLLLLLLFFFFFFFFFFFFFFFFFFFFFF
435221245511342646666351243121
FFFFFFFFFFFFFFFLLLLLLFFFFFFFFF
263434541315446462244635536266
FFFFFFFFFFFFFFFFFFFFFFFFFFLLLL
551333555316666666666545564166
FFFFFFFFFFFLLLLLLLLLLFFFFFFFLL
343544352555514611222365316645
FFFFFFFFFFFFFFFFFFFFFFFFFFFFFF
356152531666221531226661666666
FFFFFFFFFLLLFFFFFFFFLLLLLLLLLL
466366443622463432442551444466
LLLLLLFFFFFFFFFFFFFFFFFFFFFFLL
161533413411331243121345554566
FFFFFFFFFFFFFLFFFFFFFFFFFFFFLL
364146626616412666666566435162
FFFFFFFFFFFFFFFFLLLLLLFFFFFFFF
666666664655325362566633231443
LLLLLLLLFFFFFFFFFFFFFFFFFFFFFF
136611443446362532565434416634
FFFFFFFFFFFFFFFFFFFFFFFFFFFFFF
112215535516135124665132411656
FFFFFFFFFFFFFFFFFFFFFFFFFFFFFF
516412216145661666661246352166
FFFFFFFFFFFFLLLLLLLLLLLLLFFFFF
316116663652316146553666666666
LLLLLLLFFFFFFFFFFFFFFLLLLLLLLL
666654146533154632614255344113
LLLLFFFFFFFFFFFFFFFFFFFFFFFFFF
543453466325646666666636656466
FFFFFFFFFFFFFFFLLLLLLLLLLLLLFF
232341466223444526226631635664
FFFFFFFFFFFFFFFFFFFFFFFFFFFFFF
121545111316642311414415636224
FFFFFFFFFFFFFFFFFFFFFFFFFFFFFF
333336425566566351614131644212
FFFFFFFFFFLLLLLFFFFFFFFFFFFFFF
324564566233422151233665566661
LFFFFFFLLLFFFFFFFFFFFFFFFFLLLL
232543241665466665631644633345
FFFLFFFFFLLLLLLLLLLLFFFFFFFFFF
456326166343125433355152131344
FFFFFFFFFFFFFFFFFFFFFFFFFFFFFF
344241456362536233355544333313
FFFFFFFFFFFFFFFFFFFFFFFFFFFFFF
566644545413632646666666366226
LLLLLLLFFFFFFFFLLLLLLLLLLLLFFF
244546156666662136436664513424
FFFFFFFFFFLLLLFFFLLLLLLFFFFFFF
125654655215616324522522346523
FFFFFFFFFFFFFFFFFFFFFFFFFFFFFF
123255152666636663163666516124
FFFFFFFFFFLLLLLLLFFFFLLLFFFFFF
334164435364324642241342632234
FFFFFFFFFFFFFFFFFFFFFFFFFFFFFF
531312162524513134236512322535
FFFFFFFFFFFFFFFFFFFFFFFFFFFFFF
235561163266666666466665623425
FFFFLLLLLLLLLLLLLLLLLLLLFFFFFF
236665534523626652223643645114
FFFFFFFFFFFFLLLLLFFFFFFFFFFFFF
666122244441266666666356266245
LLLLFFFFFFFFFLLLLLLLLLLLFFFFFF
446666666646641624314165552115
FFLLLLLLLLLLLLLLFFFFFFFFFFFFFF
336426216641626422431235523621
FFFFFFFFFFFFFFFFFFFFFFFFFFFFFF
666366622533414356166665366364
LLLLLLFFFFFFFFFFFLLLLLLLLLLLLL
541263466616334362645625666156
FFFFFFFLLLLLLLLLLFFFFFFLLLLFFF
623211134556411543262254341314
FFFFFFFFFFFFFFFFFFFFFFFFFFFFFF
665466166666616611166652511666
LLLLLLLLLLLLLLLLFFFFFFFFFFFLLL
333565516616626245615266632161
FFFFFFFFFFFLLLFFFFFFFFLLFFFFFF
323433536666666665616666636266
FFFFFFFFLLLLLLLLLLLLLLLLLLLFFF
312455434246163324341552166666
FFFFFFFFFFFFFFFFFFFFFFFFFLLLLL
662166166666513662411445662525
LLLLLLLLLLLLFFFFFFFFFFFFFFFFFF
325313632234333126262252666646
FFFFFFFFFFFFFFFFFFFFFFFFLLLLLL
316125464144155624666666166643
FFFFFFFFFFFFFFFFFFLLLLLLLLLLFF
331544242553646643454553362234
FFFFFFFFFFFFFFLLLLFFFFFFFFFFFF
333653623515211234434664441434
FFFFFFFFFFFFFFFFFFFFFLLFFFFFFF
566645242616516541666663666666
FFFFFFFFFFFFFFFFFFLLLLLFLLLLLL
652226615562164666661656666666
FFFFFFFFFFFFFLLLLLLLFFFLLLLLLL
266563221325611316522644331331
LLLFFFFFFFFFFFFFFFFFFFFFFFFFFF
665362634666543552321661624563
LLFFFFFFLLLFFFFFFFFFFFFFFFFFFL
666665335442525224456443265565
LLLLLFFFFFFFFFFFFFFFFFFFFFFFFF
443332542666343664666636166662
FFFFFFFFLLLLLLLLLLLLLLLLLLLLLL
624641655332614446416244526622
FFFFFFFFFFFFFFFFFFFFFFFFFFFFFF
545246346466213236631555112364
FFFFFFFFFFFFFFFFFFFFFFFFFFFFFF
156442456353524512221462525544
FFLLFFFFFFFFFFFFFFFFFLLFFFFFFF
625566656663666363245125634252
LLLLLLLLLLLLLLLFFFFFFFFFFFFFFF
643446262536264413335465166666
FFFFLLLLLFFFFFFFFFFFFFFFFLLLLL
346666652145456636552453432323
FFLLLLLFFFFFFFFFFFFFFFFFFFFFFF
515446461352166455461316122165
FFFFFFFFFFFFFFFFFFFFFFFFFFFFFF
666646666616662566666666266661
LLLLLLLLLLLLLLFFLLLLLLLLLLLLFF
342542445266666666466366666224
FFFFFFFFFFFLLLLLLLLLLLLLLLLFFF
466666664116512641134651325165
FFLLLLLLFFFFFFFLFFFFFFFFFFFFFF
213311664652355523645131663336
FFFFFFFFFFFFFFFFFFFFFFFFFFFFFF
666216242152563145126522161516
FFFFFFFFFFFFFFFFFFFFFFFFFFFFFL
642343166666661125466666662666
FFFFFFLLLLLLLLFFFFFLLLLLLLLLLL
562213425322615446355611562345
FFFFFFFFFFFFFFFFFFFFFFFFFFFFFF
566511616246251124512352562365
FLLFFFFFFFFFFFFFFFFFFFFFFFFFFF
113613413512543245412264624233
FFFFFFFFFFFFFFFFFFFFFFFFFFFFFF
344646165461213544232155514666
FFFFFFFFFFFFFFFFFFFFFFFFFFFFFF
552612136666522513641165261162
FFFFFFLLLLLLLFFFFFFFFFFFFFFFFF
551622346644353342434526666613
FFFFFFFFFFFFFFFFFFFFFFFLLLLLLL
361254666666566666666215216516
FFFLLLLLLLLLLLLLLLLLFFFFFFFFFF
656666665666666253256666661466
LLLLLLLLLLLLLLLFFFFLLLLLLLLLLL
616434434133362513142264645344
LLFFFFFFFFFFFFFFFFFFFFFFFFFFFF
266665646666352414646615526442
FLLLLLLLLLLFFFFFFFFFFFFFFFFFFF
666666266666666662343255225632
LLLLLLLLLLLLLLLLLLLFFFFFFFFFFF
554531232312331526512443431553
FFFFFFFFFFFFFFFFFFFFFFFFFFFFFF
622266661666156663666236656626
FFFFLLLLLLLLLLLLLLLLLLLLLLLLLL
632625366626666632151555331364
FFFFFFFFLLLLLLLLLFFFFFFFFFFFLL
352265113621636116626662666626
FFFFFFFFFFFFFFLLLLLLLLLLLLLLFF
164666166662666666266126666666
FLLLLLLLLLLLLLLLLLLLLLLLLLLLLL
316332241234253114445223261522
FFFFFFFFFFFFFFFFFFFFFFFFFFFFFF
236666665566623544315625255662
FLLLLLLLLLLLLFFFFFFFFFFFFFFLLF
361444516546464416152341455456
FFFFFFFFFFFFFFFFFFFFFFFFFFFFLL
664463556316243266666626634164
LFFFFFFFFFFFFFFFLLLLLLLLLFFFFF
553363616462556266236666666666
LLLLLLLLLLLLLLLLLLFFLLLLLLLLLL
664636663466666666661152666666
LLLLLLLLLLLLLLLLLLLLFFFFLLLLLL
665631146366366653352114343334
LLLLLFFFLLLLLLLLFFFFFFFFFFFFFF
666666666625346512355542156651
LLLLLLLLLLFFFFFFFFFFFFFFFFFFFF
661666666666666565364525323215
LLLLLLLLLLLLLLLFFFFFFFFFFFFFFF
366616656666666656666564666356
FLLLLLLLLLLLLLLLLLLLLLLLLLLLFF
512111515666662336666665626662
FFFFFFFFFLLLLLLLLLLLLLLLLLLLLF
221445666666624241566366646233
FFFFFFLLLLLLLFFFFFLLLLLLLFFFFF
616564465211336133266666663615
FFFFFFFFFFFFFFFFFFFFFLLLLLFFFF
646366666212416652513216343523
LLLLLLLLLLLFFFFFFFFFFFFFFFFFFF
666665646666666616666636443161
LLLLLLLLLLLLLLLLLLLLLLLLFFFLLF
666643662264222162165664666126
LLLLLLLLLLLFFFFFFFFFLLLFLLLLLL
666616666661146626541414461441
LLLLLLLLLLLFFFLLLFFFFFFFFFFFFF
614426626225442553356554623321
FFFFFLLLLLLLFFFFFFFFFFFFFFFFFF
661566662236653666366666662366
LLLLLLLLFFFFFFFFLLLLLLLLLLLLLL
135624546663166666566666666631
FFFFFFFFLLLLLLLLLLLLLLLLLLLLLF
252142533666234314431156646464
FFFFFFFFFFFFFFFFFFFFFFFFFFFFFF
154561126316664251224222336261
FFFFFFFFFFFFFFFFFFFFFFFFFFFFFF
453542615245441666435346662461
FFFFFFFFFFFFFFFFFFFFFFFFFFFFFF
455262466636662616634215544263
FFFFFFFFLLLLLFFLLLLFFFFFFFFFFF
