414162255142556666666664666666
FFFFFFFFFFFFFFLLLLLLLLLLLLLLLL
515244645216655136554166525564
FFFFFFFFFFFLLFFFFFFFFFFFFFFFFF
455666666666666666636623133415
FFFLLLLLLLLLLLLLLLLLLLFFFFFFFF
646666636666166341236654432556
FFFLLLLLLLLLLLFFFFFFFFFFFFFFFF
236261664124566645546641254662
FFFFFFFFFFFFFFFFFFFFFFFFFFFLLF
644625344616656421352514616325
LFFFFFFFFFFFFFFFFFFFFFFFFFFFFF
343456622411646666666666666666
FFFFFFFFFFFFFFLLLLLLLLLLLLLLLL
253351333232666646666633364352
FFFFFFFFFFFFLLLLLLLLLLFFFFFFFF
622524415441314316551515154611
LFFFFFFFFFFFFFFFFFFFFFFFFFFFFF
436335114616115635645546456666
FFFFFFFFFFFFFFFFFFFFFFFFFFFLLL
563365255116213626666613656661
FFFFFFFFFFFFFFFLLLLLLLLFLLLLLL
452266626666616221626166165246
FFFFLLLLLLLLLFFFFFFFFFFLLLLLLL
666666666166666626121312466666
LLLLLLLLLLLLLLLLLLLFFFFFFLLLLL
664444552411326445515412541234
FFFFFFFFFFFFFFFFFFFFFFFFFFFFFF
366651212426363643243311262642
LLLFFFFFFFFLLLFFFFFFFFFFFLFFFF
416166663224366666626666626266
FFFFLLLLFFFFFLLLLLLLLLLLLLLLLL
163666666266466636666666666626
FFFLLLLLLLLLFLLLLLLLLLLLLLLLLL
133366665656216661666666666666
FFFFLLLLLLLLLLLLLLLLLLLLLLLLLF
431333521132541152544516514141
FFFFFFFFFFFFFFFFFFFFFFFFFFFFFF
333632353126334536243252352354
FFFFFFFFFFFFFFFFFFFFFFFFFFFFFF
131634335636345461313255222636
FFFFFFFFFLFFFFFFFFFFFFFFFFFLLL
325661462621565252513164331632
FFFLLLLLLLLLFFFFFFFFFFFFFFFFFF
666666665666616664666666666266
LLLLLLLLLLLLLLLLLLLLLLLLLLLLLL
264446663666634462666566666666
FFFFFLLLLLLLLLFFLLLLLLLLLLLLLL
566125553521435516466666661646
LLLFFFFFFFFFFFFFFFLLLLLLLLLLLL
442515516656666666666666636666
FFFFFFFFFFFFLLLLLLLLLLLLLLLLLL
365146332121163655555242562666
FFFFFFFFFFFFFFFFFFFFFFFFFLLLLL
666666352112434651133215132516
LLLLLLFFFFFFFFFFFFFFFFFFFFFFFF
564213432162425562224532636331
FFFFFFFFFFFFFFFFFFFFFFFFFFFFFF
242313453612223366661666663666
FFFFFFFFLLLFFFFFLLLLLLLLLLLLLL
445351261163216344166116631242
FFFFFFFFFFFFFFFFFFLLLLLLLLFFFF
664344613136561312356426566436
LLFFFFFFFFFFFFFFFFFFFFFFFFFFFF
364344233566462666666666246665
FFFFFFFFFFFFFFFLLLLLLLLFFFLLLF
116236365646525123153261666165
FFFFFFFFFFFFFFFFFFFFFFFFLLLLLF
435455261564142351423556351634
FFFFFFFFFFFFFFFFFFFFFFFFFFFFFF
666642634666666656664132643363
LLLLLLLLLLLLLLLLLLLLLFFFFFFFFF
465625254564256622554553666626
FFFFFFFFFFFFFFFFFFFLFFFFLLLLLL
561566666666666666662636666666
FLLLLLLLLLLLLLLLLLLLLLLLLLLLLL
431453563641614166663666556344
FFFFFLLLFLFFFFFFLLLLLLLLFFFFFF
113366266366636354666552626563
FFFFLLLLLLLLLLLLLLLLLFFFFFFFLL
126646454365641154643433551266
FFLFFFFFFFFFFFFFFFFFFFFFFFFFLL
313645445623321521666666664652
FFFFFFFFFFFFFFFFFFLLLLLLLLLFFF
666646645263353265636624246642
LLLLLLLLLLLLFFFFFFFFLLLFFFFFFF
243423336466666666561626166366
FFFFFFFLLLLLLLLLLLLLLLLLLLLLLL
613156323414156212131253346412
FFFFFFFFFFFFFFFFFFFFFFFFFFFFFF
133466666612221535553144266666
FFFLLLLLLLFFFFFFFFFFFFFFFLLLLL
442354442666611614164666666666
FFFFFFFFFLLLLFFFFFFLLLLLLLLLLL
436666665666666664661555455545
FFFLLLLLLLLLLLLLLFFFFFFFFFFFFF
366215264266466666663623666662
FFFFFFFFFFFLLLLLLLLLLFFFLLLLLL
666166635413453456365454536561
LLLLLLLFFFFFFFFFFLFFFFFFFFFFFF
166664661566434264615134246215
LLLLLFLLFFFFFFFFFFFFFFFFFFFFFF
614154633664143354435646312156
FFFFFFFFFFFFFFFFFFFFFFFFFFFFFF
666445242531412122626222662666
LLLFFFFFFFFFFFFFFFFFFFFLLLLLLL
222156452332566636661666526666
FFFFFFFFFFFFFLLLLLLLFFLLFLLLLL
451454334611163411546416636215
FFFFFFFFFFFFFFFFFFFFFFFFFFFFFF
656666646165535666646163666666
LLLLLLLFFFFFFFFLLLLLLLLLLLLLLL
634114423135336666135335225234
FFFFFFFFFFFFFFLLLLFFFFFFFFFFFF
362565245216465664534326622226
FFFFFFFFFFLLLLLLLLFFFFFFFFFFFF
636621263115243526145254125163
FFLLLLFFFFFFFFFFFFFFFFFFFFFFFF
643651432311631165153561263415
FFFFFFFFFFFFFFFFFFFFFFFFFFFFFF
432166416666666334231326242663
FFFLLLLLLLLLLLFFFFFFFFFFFFFFFF
511636166666636666651111523225
FFFFFFFFLLLLLLLLLLFFFFFFFFFFFF
611316666211235435663413115515
FFFFLLLLLFFFFFFFFFFFFFFFFFFFFF
133666666632412265344425566662
FFFLLLLLLLLFFFFFFFFFFFFFFFFLLL
666666652165621354565356614466
LLLLLLFFFFFFFFFFFFFFFFFFFFFFFL
364664236124661666666666662666
FLLLLFFFFFFFLLLLLLLLLLLLLLLLLL
432541423626466641425132665566
FFFFFFFFFLLLLLLLFFFFFFFFFFFFFF
666366515661515524326266666366
LLLLLLFFFLLFFFFFFFFFFLLLLLLLLL
641664514666666266642255463513
FFFFFFFFFLLLLLLLLLLFFFFFFFFFFF
564366145661665666366666666666
FFFFLFFFFLLLLLLLLLLLLLLLLLLLLL
266646666662625221112164631436
LLLLLLLLLLLLLLFFFFFFFFFFFFFFFF
455666661616666666616666566123
FFLLLLLLLLLLLLLLLLLLLLLLLLFFFF
353366616663556166666626555421
FFFFLLLLLLLLFFLLLLLLLLFLFFFFFF
413361443513162214665533556455
FFFFFFFFFFFFFFFFFFFFFFFFFFFLFF
256666666666616664346234316414
FFLLLLLLLLLLLLLLLLLLLFFFFFFFFF
662565316566666646131421632455
LLFFFFFFFFFLLLLLLLFFFFFFFFFFFF
464656366666666361224214336653
FFFLLLLLLLLLLLLLLFFFFFFFFLLLFF
311221542462241346341545132321
FFFFFFFFFFLFFFFFFLFFFFFFFFFFFF
246531556636225336256164263414
FFFFFFFFFFFFFFFFFFFFFFFFFFFFFL
533665634555646525321256554132
FFFFFFFFFFFFFFFFFFFFFFFFFFFFFF
563333361465662666666625351456
FFFFFFFFFFLLLLLLLLLLLLFFFFFFFF
122552311352223425114666324252
FFFFFFFFFFFFFFFFFFFFFFFFFFFFFF
425321544341612145441666213534
FFFFFFFFFFFFFFFFFFFFFLLLFFFFFF
366665256666566666616642666666
LLLLLFFFLLLLLLLLLLLLLLLLLLLLLL
354535363454242266666666666666
FFFFFFFFFFFFFFLLLLLLLLLLLLLLLL
224235643432162415565234116161
FFFFFFFFFFFFFFFFFFFFFFFFFFFFFF
266131544316365133612135345422
FFFFFFFFFFFFFFFFFFFFFFFFFFFFFF
666566316666624636345153335426
FFFFFFFFFFFFFFFFFFFFFFFFFFFFFF
414666625462563336655215462354
FFFFLLLFFFFFFFFFLLLLLFFFFFFFFF
245345316665636666666566666644
FFFFFFFFLLLFLLLLLLLLLLLLLLLFFF
162611616166666466662156451451
LLLLLLLLLFFLLLLLLLLLFFFFFFFFFF
146656366666666666352212356666
FFLLLLLLLLLLLLFLLLFFFFFFFFLLLL
525515512352563132252516143161
FFFFFFFFFFFFFFFFLLFFFFFFFFFFFF
366666666666636533351425334266
LLLLLLLLLLLLLFFFFFFFFFFFFFFFLL
526656424354222545532223665461
FFFFFFFFFFFFFFFFFFFFFFFFFFFFFF
646666162654553316536445132256
LLLLLLFFFFFFFFFFFFFFFFFFFFFFFF
666662546666654656646665666642
LLLLLLLLLLLLLFFFFLLLLLLLLLLLFF
315433523363433466153562664136
FFFFFFFFFFLFFFFFFFFFFFFFFFFFFF
552343343513434526662666664664
FFFFFFFFFFFFFFFFFLLLLLLLLLFLLL
642623666666666666423256362426
FFFFFFLLLLLLLLLLLLLFFFFLLLFFFF
662656166142515216625646131511
LLLLLLFFFFFFFFFFFLFFFFFFFFFFFF
645614332151122153526461534234
LFFFFFFFFFFFFFFFFFFFFFFFFFFFFF
661666652626666266626646666615
LLLLLLLLLLLLLLLLLLLLLLLLLLLLLL
262465621666664564535612534545
FFFFFFFFFLLLLLLFFFFFFFFFFFFFFF
621423416262224243233226123265
FFFFFFFFFFFFFFFFFFFFFFFLFFFFFF
341111622616666666666666666666
FFFFFFFFFLLLLLLLLLLLLLLLLLLLLL
255423466666666666666666666662
FFFFFLLLLLLLLLLLLLLLLLLLLLLLFF
366466621266666666366626222364
LLLLLLLLLLLLLLLLLLLLLLLLFFFFFF
164133511363213261562426666666
FFFFFFFFFFFFFFFFFFFFFFFLLLLLLL
415434221163416426522412636265
FFFFFFFFFFFFFFFFFFFFFFFFFFFFFF
562166414126565114466543433556
FFFFFFFFFFFFFFFFFFFFFFFFFFFFFL
666164123162331111255261646625
LLLLLFFFFFFFFFFFFFFFFFFFFFFFFF
665156164124611566666666666666
LLFFFFFFFFFFFFFFLLLLLLLLLLLLLL
551345345213533666412536165153
FFFFFFFFFFFFFFFFFFFFFFFFFFFFFF
241521544144445416424412111252
FFFFFFFFFFFFFFFFFFFFFFFFFFFFFF
133356442632542421125416511624
FFFFFFFFFFFFFFFFFFFFFFFFFFFFFF
666666666653516331456661454442
LLLLLLLLLFFFFFFFFFFFLLLFFFFFFF
421666664666666652664666666614
FFFLLLLLLLLLLLLLFLLLLLLLLLLLLL
666536566166446112422132256562
LLLLLLLLLLLLFFFFFFFFFFFFFFFFFF
465246666623236616646626666613
FFFFFLLLLFFFLLLLLLLLLLLLLLLLFF
335456254511262532522651521466
FFFFFFFFFFFFFFFFFFFFFFFFFLLLLL
321233341354614435123454361456
FFFFFFFFFFFFFFFFFFFFFFFFFFFFFF
223466444216236244245355642144
FFFFFFFFFFFFFFFFFFFFFFFFFFFFFF
662666663116332115256353521566
LLLLLLLLFFFFFFFFFFFFFFFFFFFFLL
424366322242611334344216533434
FFFFLLLLLLLFFFFFFFFFFFFFFFFFFF
224521245262425543655556532152
FFFFFFFFFFFFFFFFFFFFFFFFFFFFFF
266515521436663646664121264342
FFFFFFFFFFLLLLLLLLLLFFFFFFFFFF
523133122542156246465631121526
FFFFFFFFFFFFFFFFFFFFFFFFFFFFFF
242661134663266555552511531326
FFFLLLLLLLLFFFFFFFFFFFFFFFFFLL
361515512116351666662166662123
FFFFFFFFFFFFFFFLLLLLLLLLLFFFFF
436555343661246455552246666662
FFFFFFFFFFFFLFFFFFFFFFFLLLLFFF
213542666623363316422162163115
FFFFFFFFFFFFFFFFFFFFFFFFFFFFFF
423241663661616263666662565636
FFFFFFLLLLLFLLLLLLLLLLLLLLFFLL
636666666666666666141551332461
LLLLLLLLLLLLLLLLLFFFFFFFFFFFFF
666612366461142226661316616255
LLLLLFFLLLLFFFFFFLLLFFFLLLLFFF
461321665331654445123156352433
FFFFFFLLFFFFFFFFFFFFFFFFFFFFFF
565624635556145466334423413432
LLLLFFFFFFFFFFFFLLFFFFFFFFFFFF
466666636663135462614156261254
LLLLLLLFFFFFFLLFFFFFFFFFFFFFFF
462665656666616666666665526612
FLLLLLLLLLLLLLLLLLLLLLLFFFFFFF
224362664666662651636616666666
FFFFFFLLLLLLLLLLLLLLLLLLLLLLLL
662261131452255352311165556421
LLFFFFFFFFFFFFFFFFFFFFFFFFFFFF
255366366136651622363633662442
FFFFLLLLLFFFFFFFFFFFFFFFFFFFFF
443513322243266331245315452541
FFFFFFFFFFFFFFFFFFFFFFFFFFFFFF
216156532466666542521652333216
FFFFFFFFFFLLLLLLFFFFFFFFFFFFFF
255441543144651456211666666264
FFFFFFFFFFFFFFFFFFFFFLLLLLLLLL
444163665661131163566166666666
FFFFFFLLLLLFFFFFFFFLLLLLLLLLLL
666666666666666666626361442421
LLLLLLLLLLLLLLLLLLLFFFFFFFFFFF
462535414133565214154423466346
LLFFFFFFFFFFFFFFFFFFFFFFFFFFFF
224213326161611543364144253142
FFFFFFFFFFFFFFFFFFFLFFFFFFFFFF
564425666266666665666666635426
FFFFFFLLLLLLLLLLLLLLLLLLLFFFFF
636166166666666666566546614454
LLLLLLLLLLLLLLLLLLLLLFFFFFFFFF
665662646321454441526263214411
LLLLLLLLLFFFFFFFFFFFFFFFFFFFFF
665662646663666553213623216131
LLLLLLLLLLLLLLFFFFFFFFFFFFFFFF
666666631346445364364642332352
LLLLLLLFFFFFFFFFFFFFFFFFFFFFFF
662334364315166336446556664656
FFFFFFFFFFFFFFFFFFFFFFFLLLLLLL
666626666666656666613552356566
LLLLLLLLLLLLLLLLLLLFFFFFLLLLLL
666666354614466621614233445453
LLLLLFFFFFFFFLLLFFFFFFFFFLFFFF
541443346536641561233554356221
FFFFFFFFFFFFFFFFFFFFFFFFFFFFFF
556531164424441225661366666666
FFFFFFFFFFFFFFFFFLLLFFLLLLLLLL
644351345153563466126666666666
FFFFFFFFFFFFFFLLLLLLLLLLLLLLLL
634111435111566146314625146566
FFFFFFFFFFFFFLLLFFFFFFFFFFFFFF
244553663423235666635144443146
FFFFFFFFFFFFFFFFLLLLFFFFFFFFFL
264236662425131646633553654256
FFFFFFFFFFFFFFFFFFFFFFFFFFFFFF
643615541434114564416242456525
FFFFFFFFFFFFFFFFFFFFFFFFFFFFFF
366353613355222463266631166266
FFFFFFFFFFFFFFFFFFFFLLFFFFFFLL
116316253315123463336266365421
FFFFFFFFFFFFFFFFFFFFLFFFFFFFFF
622665615226353664564613366324
FFFFFFFFFFFFFFFFFFFFFFFFFFFFFF
164564514163254241463666654464
FFFFFFFFFFFFFFFFFFFFFFFFFFFFLL
464156543366152616666666666166
FFFFFFFFFFFFFFLLLLLLLFLLLLLLLL
644325642225263636224366661656
FFFFFFFFFFFFFFFFFFFFFFLLLLLLLL
666643554466515433155162416563
LLLLFFFFFFLLFFFFFFFFFFLFFFFFFF
243642666661536666666646251116
FFFFFFLLLLFFFFLLLLLLLLLLFFFFFF
666666666131324341435512353326
FFFLLLLLLFFFFFFFFFFFFFFFFFFFFF
333425566666666666643442214341
FFFFFFFLLLLLLLLLLLFFFFFFFFFFFF
666666666661666635142666666546
LLLLLLLLLLLLLLFFFFFFFFLLLLLLLL
341655236435665463523266646412
FFFFFFFFFFFFFFFFLFFFFFFLLLLFFF
666666525666666666166656666654
LLLLLFFFFLLLLLLLLLLLLLLLLLLFFF
666312154216661246666616633666
LLLFFFFFFFFLLLFFFLLLLLLLLLLLLL
632626656252663441616533525564
LLLLLLLFFFFFFFFFFFFFFFFFFFFFFF
125666661653612536412556662662
FFFLLLLLFFFFFFFFFFFFFFLLLLLLLL
333315166666324341622213445146
FFFFFFFLLLLLFFFFFFFFFFFFFFFFFL
323123366666666665666666154165
FFFFFFFLLLLLLLLLLLLLLLLLFFFFFF
656466666322565323465624532223
LLLLLLLLLFFFFFFFFFFFFFFFFFFFFF
411226666641413622553154111321
FFFFFLLLLLFFFFFFFFFFFFFFFFFFFF
626163454531424141244133425556
LFLFFFFFFFFFFFFFFFFFFFFFFFFFFF
666666666666622455353463624666
LLLLLLLLLLLLLFFFFFFFFFFFFFFLLL
143662462461164131333436556235
FFFLLFFLFFFFFFFFFFFFFFFFFFFFFF
131212111113356524544524666666
FFFFFFFFFFFFFFFFFFFFFFFFFFFFFF
366652343666226221253641421651
FLLLLFFFFFFFFFFFFFFFFFFFFFFFFF
632666624666666662232662232353
FFFLLLLLLLLLLLLLLFFFFLLFFFFFFF
166666661444625321535453551161
FLLLLLLLLFFFFFFFFFFFFFFFFFFFFF
433665611252146164361544151634
FFFFFFFFFFFFFFFFFFFFFFFFFFFFFF
266564666663666626553336512561
LLLLLLLLLLLLLLLLFFFFFFLLFFFFFF
363621666166523523224331645244
FFFFFFFLLLLLFFFFFFFFFFFFFFFFFF
326634215632226166645642616666
FFFFFFFFFFFFFFFLLLLLLLLLLLLLLL
421651551361611136621236254666
FFFFFFFFFFFFFFFFFLLLLLLLLLLLLL
335446326666466666561623111226
FFFFFFFFLLLLLLLLLLFFFFFFFFFFLL
666666356341346661666646135236
LLLLLLFFFFFFFFLLLLLLLLLLFFFFFF
452264665343115551335231414622
FFFFFFFFFFFFFFFFFFFFFFFFFFFFFF
533614166312426553135431313566
FFFLFFFFFFFFFFFFFFFFFFFFFFFFFF
666666665426662666666656666556
LLLLLLLLLLLLLLLLLLLLLLLLLLLLLL
152151554116266423416342234546
FFFFFLFFFFFFFFFFFFFFFFFFFFFFFF
626566666646352132363226322535
LLLLLLLLLFFFFFFFFFFFFFFFFFFFFF
535551115554166666166166666336
FFFFFFFFFFFFLLLLLLLLLLLLLLLFFL
543221363411533553415321644566
FFFFFFFFFFFFFFFFFFFFFFFFFFFFLL
615255346656212321662555544441
LFFFFFFFFFFFFFFFFFFFFFFFFFFFFF
666663265664666666666664315565
LLLLLFFFFLLLLLLLLLLLLLFFFFFFFF
253614522351661445564662434121
FFFFFFFFFFFFFFFFFFFFFLLFFFFFFF
666666615224546434662665666666
LLLLLLLFFFFFFFFFLLLLLLLLLLLLLL
656436462252435654335621312551
LFFFFFFFFFFFFFFFFFFFFFFFFFFFFF
666662121536626663644266661261
LLLLLFFFFFFLLLLLFFFFFFLLLLLFFF
663666653666666354556642151534
LLLLLLLFFLLLLLLFFFFFFFFFFFFFFF
244121366153233264212444665266
FFFFFFFFFFFFFFFFLFFFFFFFLFFFLL
543522666626666566662663663666
FFFFFLLLLLLLLLLLLLLLLLLLLLLLLL
666566636522556325652451554244
LLLLLLLLLLFFFFLLFFFFFFFFFFFFFF
516434423362626666451311233635
FFFFFFFFFFFFLLLLLLLLFFFFFFFFFF
666666336666636622334311524415
LLLLLLLLLLLLLLFFFFFFFFFFFFFFFF
245446666246666252112531153342
FFFFFLLLFFLLLLLLFFFFFFFFFFFFFF
245421112134232552431416623246
FFFFFFFFFFFFFFFFFFFFFFFLLLLLLL
132332252232664236443263266153
FFFFFFFFFFFFFFFFFFFFFFFFFFFFFF
666562313146212151241533325414
LLLLLFFFFFFFFFFFFFFFFFFFFFFFFF
366666666666164545232445166515
LLLLLLLLLLLFFFFFFFFFFFFFFFFFFF
644412443626465625615325565512
FFFFFFFFFLLLFFFFFFFFFFFFFFFFFF
545243516666666666646664266661
FFFFFFFFLLLLLLLLLLLLLLLLLLLLLF
213516541436241236662636662666
FFFFFFFFFFFFFFFFFLLLLLLLLLLLLF
211225166665266436663666365366
FFFFFFFFFLLLLLLLLLLLLLLLFFFFLL
666166665666363555361512452325
LLLLLLLLLLLLFFFFFFFFFFFFFFFFFF
645665156351543463666666666666
LFFFFFFFFFFFFFFFLFLLLLLLLLLLLL
611554641452164552553155516666
FFFFFFFFFFFFFFFFFFFFFFFFFLLLLL
445113234353644652331255522521
FFFFFFFFFFFFFFFFFFFFFFFFFFFFFF
154235353645122135216446142523
FFFFFFFFFFFFFFFFFFFFFFFFFFFFFF
663352661563645552216156135556
FFFFFFFFFFFFFFFFFFFFFFFFFFFFFF
346615165115442535663366155356
FFFFFFFFFFFFFFFFFFFFFFFFFFFFFF
366326666666666661446145152625
LLLLLLLLLLLLLLLLLFFFFFFFFFFFFF
566554343546315333166266666666
FFFFFFFFFFFFFFFFFFFLLLLLLLLLLL
612435315411652244666666662156
FFFFFFFFFFFFFFFFFFFLLLLLLLFFFF
433125344523331612146131453522
FFFFFFFFFFFFFFFFFFFFLFFFFFFFFF
164214666666563546466666666666
FFFFFLLLLLLLFFFFFLLLLLLLLLLLLL
532516241325236615232553661616
FFFFFFFFFFFFFFFFFFFFFFFFFFFFFF
642611114664666636512123333164
LLFFFFFFFFLLLLLLFFFFFFFFFFFFFF
443521444552566266636666563666
FFFFFFFFFFFFFFFLLLLLLLLLLLLLLL
241416666666656133566666646666
FFFFFLLLLLLLLLLLLLLLLLLLLLLLLL
636266112556636423666616666666
FFFFFFFFFFFFFFFFFFLLLLLLLLLLLL
663661665614413636613233341666
FFFFFFFFFFFFFFFFFFLLFFFFFFFLLL
334133522526626363366665666641
FFFFFFFFFFFLLLLLLLLLLLLLLLLLFF
446666656426331143325524644363
FLLLLLLLLFFFFFFFFFFFFFFFFFFFLL
152522126246531665326436152664
FFFFFFFFFFFFFFFFFFFFFFFFFFFFFF
622231366245553164165216235262
FFFFFFFFFFFFFFFFFFFFFFFFFFFFFF
414546656666666666341224424314
FFFFFLLLLLLLLLLLLLFFFFFFFFFFFF
146416163224213262656216634641
FFLFLLFFFFFFFFFFFFFFFFFLFFFFFF
326461666631433163345254241666
FLLLLLLLLLLFFFFFFFFFFFFFFFFLLL
543462633262345666666266666666
FFFFFFFFFFFFFFLLLLLLLLLLLLLLLL
666666336434521242632626261521
LLLLLLLLLFFFFFFFFFFFFFFLLLLFFF
666266445136655652452162566366
LLLLLLFFFFFFFFFFFFFFFFLLLLLFFF
636236312522312336466566613555
FFFFFFFFFFFFFFFFFFFFLLLLLFFFFL
635655226366663634266666216665
LFFFFFFFFFLLLLLLFFFLLLLLLLLLLL
334241221363321446451564123144
FFFFFFFFFFFFFFFFFFFFFFFFFFFFFF
562424256335133462631233411144
FFFFFFFFFFFFFFFFFFFFFFFFFFFFFF
545126366266666666661646466623
FFFFFFFLLLLLLLLLLLLLLLLLLLLFFF
665153566321434543143552146464
LLFFFFFFFFFFFFFFFFFFFFFFFFFFLL
434446225144254234336121535666
FFFFFFFFFFFFFFFFFFFFFFFFFFLLLL
451162442514213236233464542615
FFFFFFFFFFFFFFFFFFFFFFFFFFFFFF
566666266323111633131534212621
LLLLLLLLLFFFFFFFFFFFFFFFFFFFFF
666566131413114655621215323654
LLLLLLFFFFFFFFFFFFFFFFFFFFFFFF
141264163666666666641236642314
FFFFFFFFFLLLLLLLLLLLLLFFFFFFFF
666653456463366661466635316355
LLLLFFFFLLLLLLLLLLLLLLFFFFFFFF
443321664566613426522115415424
FFFFFFLLLFFFFFFFFFFFFFFFFFFFLF
561236213662313563236156245166
LLFFFLFFFLLLFFFFFFFFFFFFFFFFLL
415163423634435351141253666345
FFFFFFFFFFFFFFFFFFFFFFFFLLLLFF
661661525666466664656666666616
LLFFFFFFFLLLLLLLLLLLLLLLLLLLLL
653625621554234532656422512264
FFFFFFFFFFFFFFFFFFFFFFFFFFFFFF
666666666254246553223664121551
LLLLLLLLLFFFFFFFFFFFFFFFFFFFFF
444322344314153343164144516145
FFFFFFFFFFFFFFFFLLLLFFFFFFFFFF
464511541251351266624231664344
FFFFFFFFFFFFFFFFFFFFFFFFFFFFFF
636656666563666666666666515421
LLLLLLLLLLLLLLLLLLLLLLLLFFFFFF
126666646661225342455333541666
FFLLLLLLLLFFFFFFFFFFFFFFFFFFFL
416664666666662616416266163445
FFLLLLLLLLLLLLLLLLFFFFLLFFFFFF
621644356463242565266626644652
LFFFFFFFFFFFFFFFFFFFFFFFFFFFFF
646162142554664666636266166666
LLFFFFFFFFFFLLLLLLLLLFLLLLLLLL
666666666121255311216626635324
LLLLLLLLLLFFFFFFFFFFLLLLLFFFFF
232126364423124224156522543336
FFFFFFFFFFFFFFFFFFFFFFFFFFFFFF
664616661665325266663623626666
LLLLLLLLLLFFFFFFLLLLLLFFFFLLLL
341651145666163563346365466265
FFFFFFFFFLLLLLLLLFFFFFFFFFFFFF
162333442432314131551336162266
FFFFFFFFFFFFFFFFFFFFFFFFFFFFFF
626656636665351413336413345615
LLLLLLLLLLFFFFFFFFFFFFFFFFFFFF
211466646666166566614641222443
FFFFFLLLLLLLLLLLLLLFFFFFFFFFFF
336666666566466616666266461261
FFLLLLLLLLLLLLLLLLLLLFFFFFFFFF
625324666366666666666433231166
FFFFFFLLLLLLLLLLLLLLLFFFFFFFFF
542244625522266666666662626666
FFFFFFFFFFFFFLLLLLLLLLLLLLLLLL
366666646656123216435246513515
FLLLLLLLLLLLFFFFFFFFFFFFFFFFFF
156452515466246666615312141423
FFFFFFFFFLLLFFLLLLLFFFFFFFFFFF
565666666666666612515561152565
LLLLLLLLLLLLLLLLFFFLFFFFFFFFFF
563216666616614264616266536661
FFFFFLLLLLLLFFFFFFFFFFLLFFLLLF
516253326643656245165322536666
FFFFFFFFLLLLLFFFFFFFFFFFFLLLLL
454164214215461633246612214265
FFFFFFFFFFFFFFFFFFFFFFFFFFFFLL
123123145434336622236641663514
FFFFFFFFFFFFFFFFFFFFFFFFFFFFFF
666666626144666666141366453666
LLLLLLLLLLFFLLLLLLFFFFLLLLLLLL
666513526212531454362245564141
LLLFFFFFLLFFFFFFFFFFFFFFFFFFFF
162631633634335431252121562116
FFFFFFFFFFFFFFFFFFFFFFFFFFFFLL
561643536641314654611125266442
FFFFFFFFFFFFFFFFFFFFFFFFFFFFFF
