262464636532555444256231413335
LLFFFFFFFFFFFFFFFFFFFFFFFFFFFF
441543213155265144663666636663
FFFFFFFFFFFFFFFFFFFFFLLLLLLLLL
666666315513331126563446365632
LLLLLLFFFFFFFFFFFFFFFFFLFFFFFF
262446122154441462344125666566
FFFFFFFFFFFFFFFFFFFFFFFFLLLLLL
255656641514366136214126555666
FFFFFFFFFFFFFLLLFFFFFFFFFFFFFF
546666626626312664253336655252
FFFLLLLLLLFFFFLLLFFFFFFFFFFFFF
213564551323122366611545124141
FFFFFFFFFFFFFFFFFFFFFFFFFFFFFF
555116421134361543454344433613
FFFFFFFFFFFFLLLFFFFFFFFFFFFFFF
232551365353343415461524316536
FFFFFFFFFFFFFFFFFFFFFFFFFFFFFL
112641314563246535666666663466
FFFFFFFFFFFFFFFFFLLLLLLLLLFFFF
564226411365542366122262433466
LFFFFFFFFFFFFFFFFFFFFFFFFFFFLL
666661366336666666666663666361
LLLLLLLLLLLLLLLLLLLLLLLLLLLLFF
214346651253346443466516651633
FFFFFFFFFFFFFFLFFFFFFFFFFFFFFF
555663166151156665122663665556
FFFLLFFFFFFFFFLLLFFFFLLLLLFFFF
646662512131415526431664243515
LLLLLLFFFFFFFFFFFFFFFFFFFFFFFF
666661224462365514631462366354
LLLLLFFFFFFFFFFFFFFFFFFFFFFFFF
664666665664666356335666666666
LLLLLLLLLLFFFFFFFFFLLLLLLLLLLL
221123666526162634366122656145
FFFFFFLLLFFFFFFFFFFFFFFFFFFFFF
334311164162666666666466316144
FFFFFFFLLLLLLLLLLLLLLLLFFFFFFF
464633334432436212415335422641
FFFFFFFFFFFFFFFFFFFFFFFFFFFFFF
626666632513451116513656322266
LLLLLLLLFFFFFFFFFFFFFFFFFFFFLL
122562324626365666355564526462
FFFFFFFFFFFLLLLLLLLFFFFFFFFFFF
144136235666666666666316665656
FFFFFLFFFLLLLLLLLLLLLLLLLLLLLL
142236136665666462665654136631
FFFFFFFFFLLLLLLLLLLLFFFFFFFFFF
531262642232261463132445523641
FFFFFFFFFFFFFFFFFFFFFFFFFFLLFF
415614315655451436662666562666
FFFFFFFFFFFFFFFFLLLLLLLLLLLLLL
443252113266566513336231266665
FFFFFFFFFFFLFFFFFFFFFFFFFLLLLL
666356544426633366266666666666
FFLFFFFFFFFLFFFFLLLLLLLLLLLLLL
666616361666656166666644666666
LLLLFFFFFFLLLLLLLLLLLLLLLLLLLL
661546613666666666646666331521
LLFFFFFFFLLLLLLLLLLLLLLLFFFFFF
434616421545634435426666666666
FFFFFFFFFFFFFFFFFFFFLLLLLLLLLL
233653555652443645431623161142
LFFFFFFFFFFFFFFFFFFFFFFFFFFFFF
266121143412216414111656666666
FFFFFFFFFFFFFFFFFFFFFFFLLLLLLL
661241133666123522413326364446
LLFFFFFFFLLLFFFFFFFFFFFFFFFFFF
663256355524422551111365146541
LFFFFFFFFFFFFFFFFFFFFFFFFFFFFF
342626656666655644563155243624
FFFFFFFFFFFFFFFFFFFFFFFFFFFFFF
666666166426423446424516215136
LLLLLLLLLFFFFFFFFFFFFFFFFFFFFL
515636643265366666255534121212
FFFFFLLLLFFFFFFFFFFFFFFFFFFFFF
453544535114536354656532216146
FFFFFFFFFFFFFFFFFFFFFFFFFFFFFF
656465364666266636666666525554
LFFFFLLLLLLLLLLLFLLLLLLFFFFFFF
216666666666626666666664632234
FFLLLLLLLLLLLLLLLLLLLLLFFFFFFF
465421615341345316522311543166
FFFFFFFFFFFFFFFFFLFFFFFFFFLLLL
644463251434656645362462611256
FFFFFFFFFFFFLLLLLLLLLLLFFFFFFF
145636666562666666666666666166
FLLLLLLLLLLLLLLLLLLLLLLLLLLLLL
566666666664666266366234243556
FLLLLLLLLLLLLLLLLLLLLFFFFFFFFF
246221253353123131216333462321
FFFFFFFFFFFFFFFFFFFFFFFFFFFFFF
641525412352641244646225565432
LLFFFFFFFFFFFFFFFFFFFFFFFFFFFF
665665666242633154536561656513
LLLLLLLLLFFFFFFFFFFFFFLLLLLLLF
226141253663664234354445446665
FFFFFFFFFFFFFFFFFFFFFFFFFFLLLL
166636666212466661666464666666
FLLLLLLLLFFFFLLLLLLLLLLLLLLLLL
631632522634466623615666664223
FFFLFFFFFFFFFFFFFFFFFLLLLLFFFF
666566666666623543526235565134
LLLLLLLLLLLLLFFFFFFFFFFFFFFFFF
666666665666646235543521556253
LLLLLLLLLLLLLFFFFFFFFFFFFLLFFF
143615124226665253265541213666
FFFFFFFFFFFLLLLLFFFFFFFFFFFLLL
136145114153335462331225416454
FFFFFFFFFFFFFFFFFFFFFFFFFFFFFF
125462663345151413666666666663
FFFFFFFFFFFFFFFFFFLLLLLLLLLLLL
545112454563666666661532342131
FFFFFFFFFFFFLLLLLLLLFFFFFFFFFF
666666564661266666666643352232
LLLLLLLLLLLLLLLLLLLLLFFFFFFFFF
526436615331115221425645355166
FFFFFFFFFFFFFFFFFFFFFFFFFFFFLL
656531626346666665143333251265
LFFFFFFFLFFLLLLLLFFFFFFFFFFFFF
535624345245144141426553256666
FFFFFFFFFFFFFFFFFFFFFFFFFFFLLL
662666636666621663666666666666
LLLLLLLLLLLLLLLLLLLLLLLLLLLLLL
664666661626654666561661616651
LLLLLLLLLLFFFFFFFFFFFFFFFFFFFF
666666555522416456241455666525
LLLLLLLFFFFFFFFFFFFFFFFFFFFFFF
662166612443146666666666666662
LLLLLLLFFFFFFFLLLLLLLLLLLLLLLL
216436656666666666666652525422
FFFFFFFFLLLLLLLLLLLLLLFFFFFFFF
526623512624163565616123365114
FFFFFFFFFFFFFFFFFFFFFFFFFFFFFF
222131443125115666666666365466
FFFFFFFFFFFFFFFLLLLLLLLLFFFFLL
252162664454151423566665262413
FFFFFLLLFFFFFFFFFFFFFFFFFFFFFF
666666666365466666666666666643
LLLLLLLLLLLLLLLLLLLLLLLLLLLLFF
666666215445355621626666636661
LLLLLFFFFFFFFFFFFFFFLLLLLLLLLF
656165426366666152316124141216
LFFFLLFFFLLLLLLFFFFFFFFFFFFFFF
623665616666636666466166466666
FFFFFFLLLLLLLLLLLLLLLFFFFLLLLL
154532523336141632431236461665
FFFFFFFFFFFLLFFFFFFFFFFFFFFLLL
266232363563323512164465642666
LLLFFFFFFFFFFFFFFFFFFFFFFFFFLL
636341653444426666666661666666
LLFFFFFFFFFFFFLLLLLLLLLLLLLLLL
131161242115363546566466636566
FFFFFFFFFFFFFFFFFLLLLLLLLLLLLL
666666666536246213453366664155
LLLLLLLLLFFFFFFFFFFFFFFLLLLFFF
666625342433252524541633416246
LLLLFFFFFFFFFFFFFFFFFFFFFFFFFF
121616554366661511255453163632
FFFFFFFFFFLLLFFFFFFFFFFFFFFFFF
332251232422413215364351112552
FFFFFFFFFFFFFFFFFFFFFFFFFFFFFF
646331446553222556666666654666
FFFFFFFFFFFFFFFFFFLLLLLLLLLLLL
166121352655341344344552534625
FFFFFFFFFFFFFFFFFFFFFFFFFFFFFF
356366611423553664324626666456
FFLLLLFFFFFFFFFFFFFFFLLLLLFFFF
142222534662124622546621355546
FFFFFFFFFFFFFFFFFFFFFFFFFFFFFF
666666666636666666466315162454
LLLLLLLLLLLLLLLLLLFLLFFFFFFFFF
666666666241311436632622626631
LLLLLLLLLFFFFFFFFFFFFFFFFFFFFF
616624446251664666656666663662
LLLLFFFFFFFFFFFFLLLLLLLLLLLLLF
261452344666656446246244556316
LLLLFFFFFLLLLLLLLLLLLLFFFFFFFF
666366652661255253612365126626
LLLLLLLLLLLFFFFFFFFLLLLFFFLLLL
524125441255254466666666646666
FFFFFFFFFFFFFFFFLLLLLLLLLLLLLL
652246466666666666214214623622
LFFFLLLLLLLLLLLLLFFFFFFFFFFFFF
455254461153555636634546455426
FFFFFFFLFFFFFFFFFFFFFFFFFFFFFL
626661666464626624425466512332
FFLLLLLLLLLFFFFFFFFFFFFFFFFFFF
424363563666613666666666666666
FFFFLLLLLLLLLLLLLLLLLLLLLLLLLL
466665666664441211456225434666
LLLLLLLLLLFFFFFFFFFFFFFFFFFLLL
623466536361514626661663616666
FFFFFFFFFFFFFFFFFLLLLLLLLLLLLL
166666462643625353226663665442
FFFFLLLLFFFFFFFFFLLLLLLLLLFFFF
421535312666666666663314322666
FFFFFFFFFLLLLLLLLLLLFFFFFFFFLL
212643142262366361611452366666
FFFFFFFFFFFFFFFFFFFFFFFFFFLLLL
465654366463652512263654566666
FFFFFFFFFFFFFFFFFFFFFFFFFLLLLL
666463666636262616416666666663
LLLLLLLLLLFFFFFFFFFFLLLLLLLLLL
311534121212654322434232355666
FFFFFFFFFFFFFFFFFFFFFFFFFFFLLL
631456126123666646132464345434
FFFFFFFFFFFFLLLLLLLFFFFFFFFFFF
534462155411552244144661212124
FFFFFFFFFFFFFFFFFFFFFFFFFFFFFF
666115361216666656646364355113
LLLLFFFFFFFLLLLLFLLLLLLFFFFFFF
632362422514564612132535513554
FFFFFFFFFFFFFFFFFFFFFFFFFFFFFF
216541156643162555341521426666
FFFFFFFFFFFFFLLFFFFFFFFFFFFFLL
626664215223632133555435656432
LLLLFFFFFFFFFFFFFFFFFFFFFFFFFF
321153446616655425462352366666
FFFFFFFFLLLLFFFFFFFFFFFFFLLLLL
412136663666666663341264546133
FFFFFFLLLLLLLLLFFFFFFFFFFFFFFF
332336616653361422325426316666
FFFFFLLFLLFFFFFFFFFFFFFFFFLLLL
622666566636136666616616646536
LLLLLLLLLLLLLLLLLLLLLLLLLLLFFL
223236516136333124453265133456
FFFFFFFFFFFFFFFFFFFFFFFFFFFFFL
516263654632356245115366254336
FFLLLFFFFFFFFFFFFFFFFLLLFFFFFF
156666666636666661666666666666
LLLLLLLLLLLLLLLLLLLLLLLLLLLLLL
662335366366666636441552144641
LLFFFFFLLLLLLLLLLLFFFFFFFFFFFF
453635243364524661621214242326
FFFFFFFFFFFFFFFLLLLFFFFFFFFFFL
661616435262166412254125462635
FFFFFFFFFFFFFFFFFFFFFFFFFFFFFF
531453165142241332211451642446
FFFFFFFFFFFFFFFFFFFFFFFFFFFFFL
666666551654416554542341633153
LLLLLLFFFFFFFFFFFFFFFFFFFFFFFL
354666242323666623666661331162
FFFFFFFFFFFFFLLLLLLLLLLFFFFFLF
443246431414266153243565333664
FFFFFFFFFFFFFLLFFFFFFFFFFFFFFF
156121561666444546666566226666
FFFFFFFFFFFFFFFFFFFFFFFFFFLLLL
666646646665666661466366666662
LLLLLLLLLLLLLLLLLLLLLLLLLLLLLL
646453624652424332255166666666
LLLLLLLLFFFFFFFFFFFFFFLLLLLLLL
565524141356146311631314516641
FFFFFFFFFFFFFFFFFFFFFFFFFFFFFF
624142642145666666465166662664
FFFFFFFFFFFLLLLLLFFFFFLLLLFLLL
333656661642262164234652522261
FFFLLLLLLLFFFFFFFFFFFFFFFFFFFF
122263326163662666664623654151
FFFFFFFFFFFFLLLLLLLLLLFFFFFFFF
166665666266663666626366626516
FFLLLLLLLLLLLLLLLLLLLLLLLLLLLL
424326225466443333266646662666
FFFFFFFFFFFFFFFFFFFFLLLLLLLLLL
364442645422311624363243666666
FFFFFFFFFFFFFFFFFFFFFFFFLLLLLL
666336432211246116666343463666
LFFFFFFFFFFFFFFFLLLLLFFFFFFLLL
665614153235665344561426625663
LFFFFFFFFFFFFFFFFFFFFFFFFFFFLL
235145451114114464455166166662
FFFFFFFFFFFFFFFFFFFFFFLLLLLLLF
214264151551556512214326524444
FFFFFFFFFFFFFFFFFFFFFFFFFFFFFF
256142622263154154244423646322
FFFFFFFFFFFFFFFFFFFFFFFFLFFFFF
452636433224666663614352536666
FFFFFFFFFFFFLLLLLLLFFFFFFFLLLL
652422125425213666523663543662
LFFFFFFFFFFFFFFFFFFFFFFFFFFLLF
342245536216623415254411165516
FFFFFFFFFFFFFFFFFFFFFFFFFFFFLL
552431136341166366662422224166
FFFFFFFFFFFFFLLLLLLLFFFFFFFFLL
666616562125236666662464423163
LLLLLLLLFFFFFFLLLLLLFFFFFFFFFF
425652421643533116152533465146
FFFFFFFFFFFFFFFFFFFFFFFFFFFFFF
334621513225666666123131265132
FFFFFFFFFFFFLLLLLFFFFFFFFFFFFF
352241461335634415426435565126
FFFFFFFFFFFFFFFFFFFFFFFFFFFFFF
662434415332255254144135126142
FFFFFFFFFFFFFFFFFFFFFFFFFFFFFF
115422116665516151652365421634
FFFFFFFFFFFFFFFFFFFFFFFFFFFFFF
553535436125413161243424563242
FFFFFFFFFFFFFFFFFFFFFFFFFFFFFF
543331334646466636315663366231
FFFFFFFFFFFFFLLLLLFFFLLFLLLFFF
625451355162431126666621666666
FFFFFFFFFFFFFFFFFLLFFFFFLLLLLL
646525311264156626661666666416
FFFFFFFFFFFFLLLLLLLLLLLLLLLLLL
566666626621215611566666631532
FLLLLLLFFFFFFFFFFFFLLLLLLFFFFF
666665566665626125544416313235
LLLLLLLLLLLLLLFFFFFFFFFFFFFFFF
666666646666163663322522133363
LLLLLLLLLLLLLLLLFFFFFFFFFFFFFF
666666632161226435666135221245
LLLLLLLLLFFFFFFFFFLLLFFFFFFFFF
451245536511526223514446232254
FFFFFFFFFFFFFFFFFFFFFFFFFFFFFF
616666666366663666426665626621
LLLLLLLLLLLLLLLLLLFFFLLLLLLLFF
162646224616641352666666666666
FFFFFFFFFFFFFFFFFFLLLLLLLLLLLL
236666666656351151666666666424
FFLLLLLLFFFFFFFFFFLLLLLLLLFFFF
111132411363536666266651656313
FFFFFFFFFFFFFFLLLFFFFFFFFFFFFF
614216664411316162225563666663
FFFFFFLLLLFFFFFFFFFFFFLLLLLLLL
524262666661136652311431664153
FFFFLLLLLLLFFFFFFFFFFFFFFFFFFF
666666566666166666666661662656
LLLLLLLLLLLLLLLLLLLLLLLLLLLLLL
256134312222133526645436121346
FFFFFFFFFFFFFFFFFFFFFFFFFFFFFL
613152616626624466666666666666
LLFFFFFFFFFLLLLLLLLLLLLLLLLLLL
666666446666666666666661626364
LLLLLLLLLLLLLLLLLLLLLLLLLLLFFL
264531164332526136365152115613
FFFFFFFFFFFFFFFFFFFFFFFFFFFFFF
244664231442136612144466666662
FFFFFFFFFFFFFFFFFFFFFFLLLLLLLF
134546154612562443652143433255
FFFFFFFFFFFFFFFFFFFFFFFFFFFFFF
466262312211254342223352555345
FFFFFFFFFFFFFFFFFFFFFFFFFFFFFF
635655122325262232546624623361
LFFFFFFFFFFFFFFFFFFFFFFFFFFFFF
566666665313461621666454514523
FFFFFLLFFFFFLLLLLLLLLFFFFFFFFF
333153265555344362363166336366
FFFFFFFFFFFFFFFFFFFFFFFFFLLLLL
411125666262132342451666663466
FFFFFFFFLLLFFFFFFFFFFLLLLLLLLL
344564665665242146554334666666
FFLLLLLFFFFFFFFFFFFFFFFFLLLLLF
666111252634663215562641666145
LLLFFFFFFFFFFFFFFFFFFFFFFFLFFF
266136343453666115361626656666
FFFFFFFFFFFFLLLFFFFLLLLLLLLLLL
466664633141164362624366321355
LLLLLLLLFFFFFFFFFFFFFFFFFFFFFF
626161365466466164261666616666
LLLLLFFFFLLLFFFFFFFFFLLLLLLLLL
335166351114564233463232642552
LFFFLLFFFFFFFLFFFFFFFFFFFFFFFF
563243246236616543625162666665
FFFFFFFFFFFLLFFFFFFFFFLLLLLLLF
632146416314244562514544665625
FFFFFFFFFFFFFFLLFFFFFFFFFFFFFF
621366566523526165226362414664
FFFFLLLLLFFFFFFFFFFFFFFFFFFLLL
314554661561314364133133424324
FFFFFFFFFFFFFFFFFFFFFFFFFFFFFF
625225113656626216543122254445
LFFFFFFFFFFFFFFFFFFFFFFFFFFFFF
366325414443223135142626146441
LLLFFFFFFFFFFFFFFFFFFFFFFFFFFF
132543115241442645466666563466
FFFFFFFFFFFFFFFFFFFLLLLLFFFFLL
516223215111553444256445622614
FFFFFFFFFFFFFFFFFFFFFFFFFFFFFF
653362216324634545661443266666
LFFFFFFFFFFFFFFFFFFFFFFFFLLLLL
324543362666666626666642615521
FFFFFFFFFLLLLLLLLLLLLLFFFFFFFF
132533226666666666336666666656
FFFFFFFFLLLLLLLLLLLLLLLLLLLLLL
666666662556215136611461666666
LLLLLLLLFFFFFFFFFFFFFFFFLLLLLL
236534144152454562164662566666
FFFFFFFFFFFFFFFFFFFFFFLLLLLLLL
542366523125244311311366466666
FFFFFFFFFFFFFFFFFFFFFLLLLLLLLL
412532215622621565616466616336
FFFFFFFFFFFFFFFFFFFFLLLLLLLLLL
216664622366661351325113116631
FFFFFFFFFFFLLLFFFFFFFFFFFFFLFF
363666665666661644243456362636
FFFLLLLLLLLLLLFFFFFFFFFLLLLLLL
314235511514523441426235336146
FFFFFFFFFFFFFFFFFFFFFFFFFFFLFF
156225252342556351345335214266
FFFFFFFFFFFFFFFFFFFFFFFFFFFLLL
366166663643666631266562165336
LLLLLLLLLLLLLLLLFFLLLFFFFFFFFF
625664666641166663252344345143
LLLLLLLLLLLLLLLLLLLFFFFFFFFFFF
153625515126221462523114455664
FFFFFFFFFFFLLFFFFFFFFFFFFFFFFF
666136532346566531654524351666
LFFFFFFFFFFLLLLFFFFFFFFFFFFLLL
646511265435434462336342116666
FFFFFFFFFFFFFFFFFFFFFFFFFFLLLL
665666626664666666666634164166
LLLLLLLLLLLLLLLLLLLLLLLLLLLLLL
133332646634252531525525135366
FFFFFFFFFFFFFFFFFFFFFFFFFFFLLF
435631663411153316643564666226
FFFFFFFFFFFFFFFFFFFFFFFFFFFFFF
356464211465416255215532143433
FFFFFFFFFFFFFFFFFFFFFFFFFFFFFF
666424552461666666563563665365
LLLFFFFFFFLLLLLLLLFFFFFFLLFFFF
653346526624611316146666266136
LFFFFFFFFFFFFFFFFFFFLLLLFFFLLL
626466531145454123415166666121
LLLLLLFFFFFFFFFFFFFFFFLLLLLFFF
522356161332221123336256123645
FFFFFFFFFFFFFFFFFFFFFFFFFFFFFF
261324616666666666666666613536
FFFFFFLLLLLLLLLLLLLLLLLLLFFFFF
664566622145456341436666666366
LLLLLLLFFFFFFFFFFFFFFLLLLLLLLL
555324311126566665666616666656
FFFFFFFFFFFFFLLLLLLLLLLLLLLLLL
224633521466246616666662661666
FFFFFFFFFLLLLLLLLLLLLLLLLLLLLL
115565216654412415246666663356
FFFFLFFFFFFFFFFFFFFFLLLLLLFFFF
125243243646625555366333212516
FFFFFFFFFFFFFFFFFFFFFFFFFFFFFF
516316333626566563265424256663
FFLFFFFFFFFFFFFFFFFFFFFFFLLLLF
414542215266564666666266224466
FFFFFFFFFFLLLLLLLLLLLLLLLLFFLL
542146416666662263424662416656
FFFFFLLLLLLLLLLLLFFFFFFFFFFFFF
336142166666664666624666534133
FFFFFFFLLLLLLLLLLLLLLLLFFFFFFF
426243623624666651666666616156
FFFFFFFFFFFLLLLLFFLLLLLLLLLLLL
666622566644631221332262551153
LLLLLFFLLLLLLFFFFFFFFFFFFFFFFF
446621131362435136615532225365
FFFFFFFFFFFFFFFFFLLFFFFFFFFFFF
244516665642636666666666636512
FFFFFLLLLLLLLLLLLLLLLLLLLLLFFF
633455366666261666412665261366
FFFFFFFLLLLLLLLLLLFFFFFFFFFFLL
334316141532163364511663336632
FFFFFFFFFFFFFFFFFFFFFLLLLLLLFF
442221342123313253233263646562
FFFFFFFFFFFFFFFFFFFFFFFFFFFFFF
453646134166535115442142426621
FFFFFFFFFFFFFFFFFFFFFFFFFFFFFF
342623316324523425325363461456
FFFFFFFFFFFFFFFFFFFFFFFFFFFFFF
114363626166636666664666666666
FFFFLLLLLLLLLLLLLLLLLLLLLLLLLF
316566666615553515543253261426
FLLLLLLLLLFFFFFFFFFFFFFFFFFFFF
656661114511522314266624216143
LLLLLFFFFFFFFFFFFFFFFFFFFFFFFF
666626116626666342246433553323
LLLLLLLLLLLLLLLFFFFFFFFFFFFFFF
531261426266226666664666666666
FFFFFFFFFFLLLLLLLLLLLLLLLLLLLL
534341555452316164345233644663
FFFFFFFFFFFFFFFFLLFFFFFFFFFFFF
624664666666425643326616366666
LLLLLLLLLLLLFFFFFFFFLLLLLLLLLL
143225566666666666666663544255
FFFFFFFLLLLLLLLLLLLLLLLLFFFFFF
354336666666666366613266466666
FFFFFLLLLLLLLLLLLLLFFFLLLLLLLL
622532121151666666636666652556
FFFFFFFFFFFFLLLLLLLLLLLLLFFFFF
455212656342253512266666566666
FFFFFFFFFFFFFFFFFFFLLLLLLLLLLL
313544222224464253412266166131
FFFFFFFFFFFFFLLLFFFFFFLLLLLFFF
663632343631115544446623614314
FFFFFFFFFFFFFFFFFFFFFFFFFFFFFF
434441666521666616626626466621
FFFFFFFLLLLLLLLLLLLLLLLLLLLLFF
114466314622656126263211336666
FFFFFFFFFFFFFFFFFFFFFFFFFLLLLL
553661166666666662466452152241
FFFLLFFFLLLLLLLLLLLLLFFFFFFFFF
245441141465141342541626335241
FFFFFFFFFFFFFFFFFFFFFFFFFFFFFF
252522553456554622241466113513
FFFFFFFFFFFFFFFFFFFFFFFFFFFFFF
222356522223112456145364323621
FFFFFFFFFFFFFFFFFFFFFFFFFFFFFF
656266235664443255246133125425
LFFFFFFFFFFFFFFFFFFFFFFFFFFFFF
464111413566454266632213636652
FFFFFFFFFFLLFFFFFFFFFFFFLLLLLL
163414115643256125125356663651
FLFFFFFFFFFFFFFFFFFFFFFLLLFFFF
433655662441641656214142642511
FFFFLFFFFFFFFFFFFFFFFFFFFFFFFF
641643355166666326654553461166
FFFLLLFFFFLLLLLFFFFFFFFFFFFFLL
666663346661136546432635653132
LLLLLLLFFFFFFFFFLLLLLLFFLLFFFF
364515552523666566666636222311
FFFFFFFFFFFFLLLLLLLLLLFFFFFFFF
356666666666623543233365543626
FFLLLLLLLLLLLFFFFFFFFFFFFFFLLL
636626666631141425664266624164
LLLLLLLLFFFFFFFFFFLLLLLLLFFFFF
666622456666366666666646663516
LLLFFFFFLLLLLLLLLLLLLLLLLLFFFF
565145641651233442113662152416
FFFFFFFFFFFFFFFFFFFFFFFFFFFFLL
341444223361442423466661661514
FFFFFFFFFFFFFFFFFFFLLLLLLLFFFF
666412366166256332261116141232
LLLFFFFFFFFFFFFFFFFFFFFFFFFFFF
325123161465246236212454516253
FFFFFFFFFFFFFFFFLFFFFFFFFFFFFF
365366516666666664332566466666
FFLLLLLLLLLLLLLLLFFFFFFLLLLLLL
646154663443323531266666666556
LFFFFFLFFFFFFFFFFFLLLLLLLLLLLL
246666664666666666645315611256
FFFLLLLLLLLLLLLLLFFFFFFFFFFFFL
641651416654441131466452412422
LLLLFFFFFFFFFFFFFFFFFFFFFFFFFF
316133545134461136141236243514
FFFFFFFFFFFFFFFFFFFFFFFFFFFFFF
314124432254416621353256666663
FFFFFFFFFFFFFFFFFFFFFFLLLLLLLF
165661546264636666466412165342
FFFLLFFFFFFFLLLLLLFFFFFFFFFFFF
426214421123532646566666654663
FFFFFFFFFFFFFFFFLLLLLLLLLLLLFF
266666666161245166666636666666
LLLLLLLLFFFFFFFFFLLLLLLLLLLLLL
446466666666664666646636666666
FFLLLLLLLLLLLLLLLLLLLLLLLLLLLL
434132545656324253166636221164
FFFFFFFFFFFFFFFFFFFLLFFFFFFFFF
156642565445226466566546621534
FFFFFFFFFFFFFFFFLLLLLLLLLFFFFF
526152561435136666666666516656
FFFFFFFFFFFFFFLLLLLLLLLLLLLLLL
324556524515114362632615156143
FFFFFFFFFFFFFFFFFFFFFFFFFFFFFF
141243246412116433431622452534
FFFFFFFFFFFFFFLFFFFFFFFFFFFFFF
251551323253511441151232556545
FFFFFFFFFFFFFFFFFFFFFFFFFFFFFF
322223443334236236551632344124
FFFFFFFFFFFFFFFFFFFFFFFFFFFFFF
325146331141312524224416261633
FFFFFFFFFFFFFFFFFFFFFFFFFFFFFF
642455231521355462666156662662
FFFFFFFFFFFFFFFLLLLLLLLLLLLLLL
541634665346662412366326514434
FFFLLLLLLLLLLLFFFFFFFFFFFFFFFF
642666646665141666666664542111
LLLLLLLFFFFFFFFLLLLLLLFFFFFFFF
311435411111163435366242366656
FFFFFFFFFFFFFFFFFFFLLLFFFLLLLL
654224622314124522515554535144
FFFFFFFFFFFFFFFFFFFFFFFFFFFFFF
344546661655166213422513266432
FFFFFFFLLLFFFFFFFFFFFFFFFFFFFF
646632545116623336212351524343
FFFFFFFFFFFFFFFFFFFFFFFFFFFFFF
656124532661524243644646164144
FFFFFFFFFFFFFFFFFFFFFFFFFFFFFF
636465663565153246664316636252
FFFFLLLLLFFFFFFFFLLLLFFLLFFFFF
256634313435243644164666663616
FFFFFFFFFFFFFFFFFFFLLLLLLLLLFL
541621435554533236353623541631
FFFLFFFFFFFFFFFFFFFFFFFFFFFLFF
326623666534113435466165266166
FFFFFFFLLFFFFFFFFFFLLLLLLLLLLL
234245566213152636263225252262
FFFFFFFFFFFFFFFFFFFFFFFFFFFFFF
646666666666666621666666662346
FFLLLLLLLLLLLLLLFFLLLLLLLLLLLL
643356662666616666163635511423
FFFFFLLLLLFFFFFLLLLLFFFFFFFFFF
132142252331464256535515354612
FFFFFFFFFFFFFLLFFFFFFFFFFFFFFF
623165242362666634666366666555
LFFFFFFFFFLLLLLLFFLLLLLLLLLFFF
