22153426555264141156
FFFFFFFFFFFFFFFFFFFL
54644314332362444431
FFFFFFFFFFFFFFFFFFFF
33666661415641666252
FFLLLLLLFFFFFFFFFFFF
53563226345313533265
FFFFFFFFFFFFFFFFFFFF
15356623113521366113
FFFFLLFFFFFFFFLLLFFF
14234125165531666666
FFFFFFFFFFFFFLLLLLLL
23464513235246553215
FFFFFFFFFFFFFFFFFFFF
66666661666666646666
LLLLLLLLLLLLLLLLLLLL
41435413125122556441
FFFFFFFFFFFFFFFFFFFF
66656666666232565562
LLLLLLLLLLLFFFFFFFFF
42322534534556511326
FFFFFFFFFFFFFFFFFFFF
26661666666623221441
LLLLLLLLLLLLFFFFFFFF
54651422534226666433
FFFFFFFFFFFFFLLFFFFF
64666636453523531463
LLLLLLLLFFFFFFFFFFFF
66665161653635625166
LLLFFFFFFFFFFFFFFFLL
25552435342652265311
FFFFFFFFFFFFFFLLLFFF
16666523612234264265
LLLLLFFFFFFFFFFFFFFF
35441266563616666666
FFFFFFFFFFFLLLLLLLLF
34544166642363336232
FFFFFFFFFFFFFFFFFFFF
12533666666663166662
FFFFFLLLLLLLLLLLLLLL
31143524545514666663
FFFFFFFFFFFFFLLLLLLL
55423166666666666666
FFFFFLLLLLLLLLLLLLLL
51426415333354145362
FFFFFFFFFFFFFFFFFFFF
66622126266643263131
LLLFFFFFFFFFFFFFFFFF
66466664651114343146
LLLLLLLLLFFFFFFFFFFF
66656666663666312214
LLLLLLLLLLLLLLFFFFFF
62666666666625563242
LLLLLLLLLLLLFFFFFFFF
51465436666666461656
LLLLLLLLLLLLLLLLLLLL
52526535635441632311
FFFFFFFFLFFFFFFFFFFF
22544253456541466661
FFFFFFFFFFLFFFFLLLLF
25214251635326141624
FFFFFFFFFFFFFFFFFFFF
14626426663322255151
FFLFFFFFFFFFFFFFFFFF
41353366513433216246
FFFFFFFFFFFFFFFFFFFF
66456663666665344535
LLLLLLLLLLLLLFFFFFFF
66666645345412345534
LLLLLLFFFFFFFFFFFFFF
66516666666664666666
LFFFLLLLLLLLLLLLLLLL
16445245565666666225
FFFFFFFFFFLLLLLLLLFF
44533423331115656142
FFFFFFFFFFFFFFFFFFFF
64466322226666666126
FFFFFFFFFLLLLLLLLLLL
61446666326666665432
FFFFLLLLLLLLLLLLFFFF
56663336666666166666
FFFFFFFLLLLLLLLLLLLL
44643564414143524234
FFFFFFFFFFFFFFFFFFFF
25261666343416345461
FFFLLLLLFFFFFFFFFFFF
35641456461254443312
FFFFFFFFFFFFFFFFFFFF
66266165156635223242
FLLFFFFFFFLLFFFFFFFF
13235522666666666665
FFFFFFFLLLLLLLLLLLLL
62321122431541661635
LFFFFFFFFFFFFFLLLLFF
12453114125466666666
FFFFFFFFFFFLLLLLLLLL
63331461644652443663
FFFFFFFFFFFFFFFFFFFF
13231214334225442453
FFFFFFFFFFFFFFFFFFFF
51656144634412466466
FFFFFFFFFFFFFFFFFFLL
53264266364562416533
FFFFFLLLLLFFFFFFFFFF
11543666546466666664
FFFFFLLLLLLLLLLLLLLF
36411551151364352266
FFFFFFFFFFFFFFFFFFFF
31321263326365445166
FFFFFFFFFFFFFFFFFFLL
63514414541123234513
FFFFFFFFFFFFFFFFFFFF
56161662656264365361
FLLLLLLFFFFFFFFFFFFF
12226666656324166122
FFLLLLLLLLLFFFFFFFFF
66666666666264552366
LLLLLLLLLLLFFFFFFFLL
61365246125462656414
LFFFFFFFFFFFFFFFFFFF
52325533236424524655
FFFFFFFFFFFFFFFFFFFF
66666666662666626666
LLLLLLLLLLLLLLLLLLLL
41236665663116145561
FFFFLLLLLLFFLLLLFFFF
42263461251165444156
FFLLFFFFFFFFFFFFFFFF
13525151241141563451
FFFFFFFFFFFFFFFFFFFF
65421545646125165556
LLFFFFFFFFFFFFFFFFFF
34521413566155532312
FFFFFFFFFFFFFFFFFFFF
42145223666455122536
FFFFFFFFFFFFFFFFFFFF
14666646666214445646
FFLLLLLLLLLFFFFFFFFF
65146255625313632535
FFFFFFFFFFFFFFFFFFFF
66661666166666666666
LLLLLLLLLLLLLLLLLLLL
53423334421243616232
FFFFFFFFFFFFFFFFFFFF
56653413155412151345
FFFFFFFFFFFFFFFFFFFF
15363666666666233666
FFFFLLLLLLLLLLLLLLLL
54345615233265663166
FFFFFFFFFFFFFFFFFFLL
22666636666666654226
FFLLLLLLLLLLLLFFFFLL
11562522122333111136
FFFFFFFFFFFFFFFFFFFF
36243646564512331661
FFFFFFFFFFFFFFFFFFFF
14432316332333522312
FFFFFFFFFFFFFFFFFFFF
35554364221115214143
FFFFFFFFFFFFFFFFFFFF
13421145431564466264
FFFFFFFFFFFFFFFFFFFF
46666666666666666664
LLLLLLLLLLLLLLLLLLLF
36666666566666666656
LLLLLLLLLLLLLLLLLLLL
33266636626646666666
FLLLLFLLLLLLLLLLLLLL
66666666666666666663
LLLLLLLLLLLLLLLLLLLL
61662666666466356362
FFLLLLLLLLLLLLLLLLLF
45116446415235413232
FFFFFFFLFFFFFFFFFFFF
25615146151564125225
FFFFFFFFFFFFFFFFFFFF
61661636616666325133
FFFFFLLLLLLLLLFFFFFF
61213111543452436666
LLFFFFFFFFFFFFFLLLLL
32462563631366466665
FFFLFFFFFFFFLLLLLLLL
32315243252266544453
LFFFFFFFFFFFFFFFFFFF
56532523316216666666
FFFFFFFFFFFFFLLLLLLL
66666666434261252231
LLLLLLLFFFFFFFFFFFFF
62462663366666664652
LFFFFLLLLLLLLLLLLLFF
25344125154566116616
FFFFFFFFFFFFFFFFLLLL
66364666316626634531
LLLLLLLLLLLLLLFFFFFF
15325335215123451446
FFFFFFFFFFFFFFFFFFFF
43351545251556611636
FFFFFFFFFFFFFFFFFFFF
54653154212324554366
FFFFFFFFFFFFFFFFFFFL
