66666646666656666466
LLLLLLLLLLLLLLLLLLLL
36445521531244612223
FFFFFFFFFFFFFFFFFFFF
34142356566666666666
FFFFFFFFFLLLLLLLLLLL
56646666666664534112
FFFFLLLLLLLLLLFFFFFF
66126466661566666656
FFFFLLLLLLFFLLLLLLLL
36142253311531666666
FFFFFFFFLFFFFLLLLLLF
33262361261534143666
FFFFFFLFFFFFFFFFFLLL
23144136666346241632
FFFFFFFLLLLFFFFFFFFF
46665414534224311435
LLLLLFFFFFFFFFFFFFFF
64666666666666365666
LLLLLLLLLLLLLLLLFFLL
32356424115234112416
FFFFFFFFFFFFFFFFFFFF
41522521262546562552
FFFFFFFFFFFFFFFFFFFF
66335226545434243451
FFFFFFFFFFFFFFFFFFFF
51116143453655625464
FFFFFFFFFFFFFFFFFFFF
56241665451134163611
FFFFFFFFFFFFFFFFFFFF
63215246664412264533
FFFFFFFFFFFFFFFFFFFF
62556443642115143666
FFFFFFFFFFFFFFFFLLLL
56663632413523164443
FFFFFFFFFFFFFFFFFFFF
23661411621151545466
FFFFFFFFFFFFFFFFFFFF
66666256636663556361
LLLLLLLLLLLLLLLLLLLF
52211153236326666626
FFFFFFFFFFFFFLLLLLLL
64221356321663343256
FFFFFFFLLLLLFFFFFFFF
31412134426426666666
FFFFFFFFFFLLLLLLLLLL
52642454463544255244
FFFFFFFFFFFFFFFFFFFF
66466445363113515531
LLFFFFFFFFFFFFFFFFFL
66616666644462564335
LLLLLLLLLFFFFFFFFFFF
44152133144441214645
FFFFFFFFFFFFFFFFFFFF
56434433646414122511
FFFFFFFFFFFFFFFFFFFF
13346626312166655431
FFFFLLFFFFFFFFFFFFFF
16443224613142666663
FFFFFFFFFFFFFFLLLLLL
36455243614154532651
LLFFFFFFFFFFFFFFFFFF
16664655564546542663
FLLLLLLFFFFFFFFFFLLF
15664515366412242666
FFFFFFFFFFFFFFFFFFFF
23525264515342361335
FFFFFFFFFFFFFFFLFFFF
61666566661214254215
LLLLLLLLLLFFFFFFFFFF
35344316416666666666
FFFFFFFFFFLLLLLLLLLL
66666661243124521415
LLLLLLLFFFFFFFFFFFFF
63655666666616644236
LLLLLLLLLLLLLLLLFFFF
66662266616664244251
LLLLFLLLLFFFFFFFFFFF
11666666664326151635
FFLLLLLLLLLFFFFFFFFF
11555426323453412453
FFFFFFFLFFFFFFFFFFFF
63566666214666616664
LLLLLLLFFFFLLLLLLLLL
66256666666366643231
LLLLLLLLLLLLLLLFFFFF
53152345135666655234
FFFFFFFFFLLLLLLFFFFF
61266666661426664536
LLLLLLLLLLFLLLLLFFFF
66666641666254341332
LLLLLLLLLLLFFLFFFFFF
35531111216661233325
FFFFFFFFFFLLFFFFFFFF
25566264251621613541
FFFFFFFFFFFFFFFFFFFF
34556326162536456225
FFFFFFFFFFFFFFFFFFFF
46666622641266666666
LLLLLLFFFFFFLLLLLLLL
33542545665516326666
FFFFFFFFFFFFFFFLLLLL
41661563316666666662
FFLLLLLFFFLLLLLLLLLL
26366166163666666666
FFFLLLLLLLLLLLLLLLLL
36666666662433312241
LLLLLLLLLLFFFFFFFFFF
66642566666662666362
LLLLLLLLLLLLLLLLLFFF
66666666663256536661
LLLLLLLLLLLLLLLLLLLL
36366666666462212545
LLLLLLLLLLLLLLFFFFFF
16666666611666466666
FLLLLLLLLLLLLLFLLLLL
35336666666666666166
FFFFLLLLLLLLLLLLLLLL
51311552621244142246
FFFFFFFFFFFFFFFFFFFL
66666411234326466635
LLLLLFFFFFFFFFFLLLFF
26156445115263331653
FFFFFFFFFFFFFFFFFFFF
23333616626661466666
FFFFLLLLLLLLLLLLLLLL
54512366362566141252
FFFFFFFFFLFFFFFFFFFF
15115166661666166666
FFFFFFLLLLLLLLLLLLLL
62666266262666666254
FFLLLLLLLLLLLLFFFFFF
66656636665324666662
LLLLLLLLLLFFFLLLLLLL
63162644165166216324
FFFFFFFFFFFFFFFFFFFF
61241452664242342536
FFFFFFFFLLFFFFFFFFFF
43656666666666661623
FFLLLLLLLLLLLLLLFFFF
42214362421252215234
FFFFFFFFFFFFFFFFFFFF
52546232153312362326
FFFFFFFFFFFFFFFFFFFF
43255256533334566661
FFFFFFFFFFFFFFFFLLLL
25666666456226316226
FFLLLLLLFFFFFFFFFFFF
26646665451153331431
FLLFFFFFFFFFFFFFFFFF
54321266616464636222
FFFFFFFFFFFFFFFFFFFF
34566666666633234565
FFFLLLLLLLFFFFFFFFLF
66665342666662332536
LLLLFFFFFLLLLFFFFFFF
33121624352213233666
FFFFFFFFFFFFFFFFFLLL
65125521455262211662
LFFFFFFFFFFFFFFFLLLF
63646666566666646665
FFFFLLLLLLLLLLLLLLLL
21314143165365124162
FFFFFFFFFFFFFFFFFFFF
14352636243331616665
FFFFFFFFFFFFFFFFFFFF
24422166563666333542
FFFFFFLLLLLLLLLLFFFF
32131114244426234353
FFLLFFFFFFFFFFFFFFFF
63666526515236664116
FFLLLLLLFFFFFFFFFFFF
55666666661654154144
LLLLLLLLLLLLFFFFFFFF
66552626312536245465
LLFFFFFFFFFFFFFFFFFF
26416163242163123455
FFFFFFFFFFFFFFFFFFFF
14233113141536666665
FFFFFFFFFFFFFLLLLLLF
35441133655132642141
FFFFFFFFFFFFFFFFFFFF
46161233644454631263
FFFFFFFFFFFFFFFFFFLL
36666666155564442556
FFLLLLLLFFFFFFFFFFFL
11441344324456636636
FFFFFFFFFFFFFFFFLLLL
66666115166615442551
LLLLLFFFFLLLFFFFFFFF
55445226266666661165
FFFFFFFFFLLLLLLLFFFF
12131412524263613246
FFFFFFFFFFFFFFFFFLLL
66666666235312643254
LLLLLLLLLLLLFFFFFFFF
32452624421135461425
FFFFFFFFFFFFFFFFFFFF
61365615226354352355
FFFFFFFFFFFFFFFFFFFF
62566666666666666665
FFFLLLLLLLLLLLLLLLLF
66656335246236144261
LLLLLLFFFFLLFFFFFFLL
56456515146526434115
LLLLLFFFFFFFFFFFFFFF
45361566662612456624
FFFFFFLLLLFFFFFFFFFF
43611614466411154221
FFFFFFFFFFFFFFFFFFFF
33613613164326442666
FFFFFFFFFFFFFFFFLLLL
66666666145546411121
LLLLLLLLFFFFFFFFFFFF
43362344564611224134
FFFFFFFFFFFFFFFFFFFF
61666666621662666663
LLLLLLLLLFFLLLLLLLFF
61666135143111562321
FFLLLFFFFFFFFFFFFFFF
21143635534625216335
FFFFFFFFFFFFFFFFFFFF
23666666651466662166
LLLLLLLLLFFFLLLLFLLL
66366351642534323234
LLLLLFFFFFFFFFFFFFFF
41261615436355114642
FFFFFFFFFFFFFFFFFFFF
23244445621354641666
FFFFFFFFFFFFFFFFFFFF
66666661466563642111
LLLLLLLLLLLLLLLFFFFF
66431346666656666666
LLFFFFFFLLLLLLLLLLLF
66666664666666365162
LLLLLLLLLLLLLLLLFFFF
26133466663266266662
FFFFFFLLLLLLLLFLLLFF
14614152526663542642
FFFFFFFFFFLLFFFFFFFF
14266466152362156246
FFFLLLLLFFFFLFFFFFFF
42515644266451126454
FFFFFFFFFLLLFFFFFFFF
12234666666334255263
FFFFFLLLLLLFFFFFFFFF
63453422312124643433
FFFFFFFFFFFFFFFFFFFF
66232336665222364656
LLFFFFFFFFFFFFFFFFFF
66666666335166666653
LLLLLLLFFFFFLLLLLLFF
42551135215454444666
FFFFFFFFFFFFFFFFFLLL
35546365364665135622
FFFFFFFFFFFFFFFFFFFF
56566666556226666666
LLLLLLLLLLLLFFFLLLLL
66451311146421565411
LLFFFFFFFFFFFFFFFFFF
36254246651411445525
FFFFFFFFFFFFFFFFFFFF
66666662561314662311
LLLLLLLLLFFFFFFFFFFF
11523654362352644666
FFFFFFFFFLFFFFFFFLLL
66415122645633464625
LLLLFFFFFFFFFFFFFFFF
66322212626664266656
FFFFFFFFFFFLLLLLLLLL
61665665645433452233
LLLLLLLFFFFFFFFFFFFF
23251532541563342445
FFFFFFFFFFFFFFFFFFFF
66264616652625235546
LLLLLLLLLFFFFFFFFFFF
46155312666666666666
FFFFFFFFLLLLLLLLLLLL
24546541665235512232
FFFFFFFFFFFFFLFFFFFF
22262626516341533662
FFFFFFFFFFFFFFFFFFFF
31222626666166666466
FFFFFFFLLLLLLLLLLLLL
62566231445336454625
FFFLLLFFFFFFFFFFFFFF
23536466666666646155
FFFFFLLLLLLLLLLLLFFF
43154461343554554156
FFFFFFFFFFFFFFFFFFFF
66636511561623655666
LLLFFFFFFFFFFFFFFFLL
34655632161466442511
FFFFFFFFFFFFFFFFFFFF
64666623324434261413
LLLLLLFFFFFFFFFFFFFF
22654545666656566166
FFFFFFFFFFFFFFFLLLLL
36666166561642254121
LLLLLLLLFFFFFFFFFFFF
25133613166666664224
FFFFFFFFFLLLLLLLLFFF
64536144513164142232
FFFFFFFFFFFFFFFFFFFF
66631666466266666653
LLLFLLFLLLLLLLLLLLFF
45562661661616535566
FFFFFLLLLLLLLLFFFFFF
66661666665333155445
LLLLLLLLLLLFFFFFFFFF
21366666666111666666
FFFLLLLLLFFFFFLLLLLL
12255113142555126553
FFFFFFFFFFFFFFFFFFFF
66666642224432534543
LLLLLFFFFFFFFFFFFFFF
13351632162133114136
FFFFFFFFFFFFFFFFFFFF
66635236666665544415
LLLLLLLLLLLLLFFFFFFL
64152336636666664636
FFFFFLLLLLLLLLLLLLLL
54334564422312224461
FFFFFFFFFFFFFFFFFFFF
41666666666163666666
FFLLLLLLLLLLLLLLLLLL
45566561655212243321
LLLLLFFFFFFFFFFFFFFF
15425435535243664656
FFFFFFFFFFFFFFLLLLLL
12322566466666644251
FFFFFFFLLLLLLLLFFFFF
31511343124224626631
FFFFFFFFFFFFFFFFFFFF
25636656156666422334
FFFFLLLLLLLLLFFFFFFF
66166564324116541334
LLLLLLLFFFFFFFFFFFFF
44533632621315632532
FFFFFFFFFFFFFFFFFFFL
33342365235612416526
FFFFFFFFFFFFFFFFFFFF
46656666652416114433
LLLLLLLLLFFFFFFFFFFF
32236666121313621113
FFFLLLLLFFFFFFFFFFFF
26366523666433635354
FLFFLFFFFFFFFFLLLFFF
51444246661366661464
FFFFFFLLLLFFLLLLFFFF
44146636512452533456
FFFFFFFFFFFFFFFFFFFL
66164661666666666663
FLLLLLLLLLLLLLLLLLLL
31522146235555624352
FFFFFFFFFFFFFFFFFFFF
11644241546666626654
FFFFFFFFFFLLLLLLLLLF
66663666614562246214
LLLLLLLLLLLLLFFFFFFF
55523351564163253516
FFFFFFFFFFFFFFFFFFLL
15624663151564666644
FFFFFFFFFFFLLLLLLLLF
51161336266616666644
FFFFFFFLLLLLLLLLLLFF
66516115246351615144
FFFFFFLFFFFFFFFFFFFF
66166261464326666636
LLLLLFFFFFFFFLLLLLLL
36151365554365666666
FFFFFFFFFFFFLLLLLLLL
13466666666666665611
FFFLLLLLLLLLLLLLLLFF
43352636212564533334
FFFFFFFFFFFFFFFFFFFF
16635665653313523334
FFFFFLLFFFFFFFFFFFFF
35643523666666666631
FFFFFFFFFFFFLLLLLLFF
23222614445432653416
FFFFFFFFFFFFFFFFFFFL
36421315213356656336
FFFFFFFFFFFFFLLLLLLL
56564445642565352341
FFFFFFFFLLFFFFFFFFFF
15153235342664552561
FFFFFFFFFFFFFFFFFFFF
66612666662665662666
LLLLLLLLLLLLFFLLLLLL
45311256534234311423
FFFFFFFFFFFFFFFFFFFF
66252226553666666636
LLFFFFFFFFFLLLLLLLLL
31412624436145264351
FFFFFFFFFFFFFFLLFFFF
46656613421545423314
FFFFFFFFFFFFFFFFFFFF
51224253625332354365
FFFFFFFFFFFFFFFFFFFF
