422534345361326222234356662613
FFFFFFFFFFFFFFFFFFFFFFFFFFFFFF
666543234666166144566366653122
LLLFFFFFLLLLFFFFFFFLLLLLFFFFFF
666666666666515631115353651265
LLLLLLLLLFFFFFFFFFFFFFFFFFFFLF
236161266262234556262311615322
FFFFFFFFFFFFFFFFFFFFFFFFFFFFFF
525365614222244511614534115662
FFFFFFFFFFFFFFFFFFFFFFFFFFFFFF
566612432466246512366666632232
FLLFFFFFFFFFFFFFFFFLLLLLLFFFFF
661644253631366636332221516636
FFFFFFFFFFFFLLLLLFFFFFFFFLLLFF
421234661146666315466666645652
FFFFFFLLFFFLLLLLLLLLLLLLLLLLLF
446526343223146366654535633433
FFFFFFFFFFFFFFLLLLLFFFFFFFFFFF
533326434316344425431215215366
FFFFFFFFFFFFFFFFFFFFFFFFFFFFFF
242166532114243363655643323146
FFFFFFFFFFFFFFFFFFFFFLFFFFFFFF
226114353256666555334246542532
FFFFFFFFFFFLLFFFFFFFFFFFFFFFFF
254266556423611411641661555266
FFFLLLLFFFFFFFFFFFFFFFFFFFFFLF
651511431263242135452652231336
FFFFFFFFFFFFFFFFFFFFFFFFFFLLLL
631666426152233636631663122124
FFFFFFFFFFFFFFFFFFFFFFFFFFFFFF
232236132213535135524212153131
FFFFFFFFFFFFFFFFFFFFFFFFFFFFFF
454151142323122113322126353544
FFFFFFFFFFFFFFFFFFFFFFFFFFFFFF
145563142566661426512235561411
FFFFFFFFFFLLLFFFFFFFFFFFFFFFFF
413125553533332555366636662462
FFFFFFFFFFFFFFFFFFFLLLLLLLFFFF
533231664332266666166152666166
FFFFFFFFFFFFFLLLLLLLFFFFFLLLLL
566566665615264626141464516432
FFLLLLLLLLLLFFFFFFFFFFFFFFFFFF
666666665256236633466262653322
LLLLLLLLFFFFFFFFFFFFFFFFFFFFFF
616534162254656556136661666666
FFFFFFFFFFFFFFFFFFFLLLLLLLLLLL
663132516243611425613414665666
FFFFFFFFFFFFFFFFFFLFFFFFFFFLLL
661555232226355136261336615656
LFFFFFFFFFFLFFFFFFFFFFFFFFFFFF
461352245215365266365233533542
FFFFFFFFFFFFFLLLLLFLLFFFFFFFFF
146566563366554446643666661315
FFFFLLLLLFFFFFFFFFFFFLLLLLFFFF
423442311413315243434562135553
FFFFFFFFFFFFFFFFFFFFFFFFFFFFFF
466666666662616115355623525166
FLLLLLLLLLLLLFFFFFFFFFFFFFFFLL
665663666666166666615251616423
LLLLLLLLLLLLLLLLLLLFFFFFFFFFFF
623216623316366561343566456656
FFFFFFFFFFFFFFFFFFFFFFFLFFLLLL
344622554623645113415423455345
FFFFFFFFFFFFFFFFFFFFFFFFFFFFFF
164364223453123462526666616661
FFFFFFFFFFFFFFFFFFFFLLLLLLLLLL
536626356666666566666661662666
FLLLLLLLLLLLLLLLLLLLLLLLLLLLLL
544513513153164546545466664666
FFFFFFFFFFFFFFFFFFFFFLLLLLLLLL
215525256566431636636634213363
FFFFFFFFLLLLLLLLLLLLLLLFFFFFFF
666666663325636614643435221213
LLLLLLLLFFFFFFFFFFFFFFFFFFFFFF
166666656661554221266666666666
FLLLLLLLLLLFFFFFFLLLLLLLLLLLLL
546666266366662636666666664336
FFFLLLLLLLLLLLLLFLLLLLLLFLFFFF
143133614341315436521632646246
FFFFFFFFFFFFFFFFFFFFFFFFFFFFFF
656166666666231536666266662666
LLLLLLLLLLLLFFFFFLLLLLLLLLLLLL
666666666666666166614616266661
LLLLLLLLLLLLLLLLLLLFFLLLLLLLLF
333346646341461211146266526253
FFFFFFLFFFFFFFFFFFFFFFFFFFFFFF
452433131453262235226656526315
FFFFFFFFFFFFFFFFFFFFFFFFFFFFFF
666664662364666626666666654612
LLLLLLLLLLLLLLLLLLLLLLLLLFFLLL
435256244666644151166113132136
FFFFFFFFFLLLLFFFFFFFFFFFFFFFFL
412254266666356636666566664666
LFFFFFFLLLLLLLLLFLLLLFLLLLLLLL
625633413263363222464523155446
FFFFFFFFFFFFFFFFFFFFFFFFFFFFFL
512226414451525446322345115111
FFFFFFFFFFFFFFFFFFFFFFFFFFFFFF
543525466135241515664226166661
FFFFFFFFFFFFFFFFFFLLLLLLLLLLLL
521331342426352231666622423533
FFFFFFFFFFFFFFFFFFLLLLFFFFFFFF
611262143135424453224216126142
FFFFFFFFFFFFFFFFFFFFFFFFFFFFFF
423231351116522341553265611246
FFFFFFFFFFFFFFFFFFFFFFFFFFFFFF
665665666666612324216522345564
LLFLLLLLLLLLLFFFFFFFFFFFFFFFFF
166646224112256146666663622465
FLLLLLFFFFFFFFFFLLLLLLLFFFFFFF
266626666666664536632356413666
FLLLLLLLLLLLLLLFFFFFFFFFFFLLLL
661664636214555355431316134363
LLLLLFFFFFFFFFFFFFFFFFFFFFFFFF
634666636366666656666666544363
LLLLLLLLLLLLLLLLLLLLLLLLFFFFFF
526614232236142346665266513163
FFFFFFFFFFFFFFFFFLLLLLLLFFFFFF
324616253545544123561211665551
FFFFFFFFFFFFFFFFFFFFFFFFFFFFFF
666436611666666661452641142366
LLLLLLFFFLLLLLLLFFFFFFFFFFFLLL
642442212335366666666656636522
FFFFFFFFFFFFFFLLLLLLLLLLLFFFFF
314225666661226651466411526332
FFFFFLLLLLLLLLLLFFFFFFFFFFFFFF
244651146666265363246666656666
FFFFFFFFFLLLFFFFFFFFLLLLLLLLLL
214524365441341153666666331533
FFFFFFFLFFFFFFFFFFLLLLLLFFFFFF
344526552461441115522641142565
FFFFFFFFFFFFFFFFFFFFFFFFFFFFFF
361162254254213643255151445612
FFFFFFFFFFFFFFFFFFFFFFFFFFFFFF
555343266361344664212233252215
FFFFFFFLLLLFFFFFFFFFFFFFFFFFFF
616312624324444242323534122332
FFFFFFFFFFFFFFFFFFFFFFFFFFFFFF
535151524362352222143513662556
FFFFFFFFFFFFFFFFFFFFFFFFLLLLLL
665335114553165611126552315533
FFFFFFFFFFFFFFFFFFFFFFFFFFFFFF
235216562212441631662423231313
FFFFFLFFFFFFFFFFFFFFFFFFFFFFFF
663666636335412565365161511343
LLLLLLLLFFFFFFFFFFFFFFFFFFFFFF
566223121266646543432155151346
FFFFFFFFFFLLLFFFFFFFFFFFFFFFFF
346432661613432562662445652613
FFFFFFFFFFFFFFFFFFFFFFFFFFFFFF
666665633422655363425561533552
LLLLLLLFFFFFFFFFFFFFFFFFFFFFFF
636664666256664314261456536454
LLLLLLLLLLLLLLFFFFFFFFFFFFFFFL
616633616641122426526666666666
LLLLFFFFFFFFFFFFFFFLLLLLLLLLLL
254445311634124456341546445356
FFFFFFFFFFFFFFFFFFFFFFFFFFFFFF
613313335141153356456365134566
FFFFFFFFFFFFFFFFFFFFFFFFFFFFFF
535661666666653364666166656562
FFFFFFFFLLLLLFFFLLLLLLLLLLLFFF
536611365143316213236344532153
FFFFFFFFFFFFFFFFFFFFFFFFFFFFFF
261343316663555415225215636115
FFLFFFFFFFFFFFFFFFFFFFFFFFFFFF
113621453663331352252662663266
LLFFFFFFFLLFFFFFFFFFLLLLLLLLLL
624663166641621656664232411644
FFFFFFFLLLLLLFFFLLLFFFFFFFFFFF
362662662663663646415424262246
LLLLLFLLLLLLLLLLFFFFFFFFFFFFFF
456653434124355664352155462516
FFFFFFFFFFFFFFFFFFFFFFFFFFFFFF
332452236516561256661321546666
FFFFFFFFFFFFFFFFFFFFFFFFFFLLLL
666666111665656666663514625214
LLLLLLFFFFFFFLLLLLLLFFFFFFFFFF
615465443466666666625666666622
LFFFFFFFFFLLLLLLLLLLLLLLLLLLLF
165312636425342451141223434316
FFFFFFFFFFFFFFFFFFFFFFFFFFFFFF
546613252365152245346663342234
FFLFFFFFFFFFFFFFFFFFFLLFFFFFFF
314133225222453145532413434525
FFFFFFFFFFFFFFFFFFFFFFFFFFFFFF
634663135361213566666663665366
FFFFFFFFFFFFLFFFFLLLLLLLLLLLLL
565441646523242432366514563224
FFFFFFFFFFFFFFFFFFFFFFFFFFFFFF
236566665662115425633414214314
FFLLLLLLFLFFFFFFFFFFFFFFFFFFFF
515354222446614346666666224536
FFFFFFFFFFFFFFFFLLLLLLLLLLLFFF
666666663166325243521255136636
LLLLLLLLFFFFFFFFFFFFFFFFFFLLLL
561643454612465535535344546365
FFFFFFFFFFFFFFFFFFFFFFFFFFFFFF
333266666662621462456166666663
FFFFLLLLLLLLLFFFFFFFLLLLLLLLLL
