666666666531111553556341311346
LLLLLLLLLFFFFFFFFFFFFFFFFFFFFL
156562366664666663555364155641
FFFFFFFLLLLLLLLLLFFFFFFFFFFFFF
665224621166522516654262136221
LLFFFFFFFFFFFFFFLLFFFFFFFFFFFF
336666666666236216643142425635
FFLLLLLLLLFFFFFLLLLFFFFFFFFFFF
324346334545313251656466636666
FFFFFFFFFFFFFFFFFFFFFFLLLLLLLL
656666664666566636666236114441
LLLLLLLLLLLLLLLLLLLLLFFFFFFFFF
536656546423325313634651326364
FLLLLLFFFFFFFFFFFFFFFFFFFFFFFF
142562454251566661313231165541
FFFFFFFFFFFFFLLLLFFFFFFFFFFFFF
614153353663661426456531661666
LFFFFFFFFFFFFFFFFFFFFFFFFFFLLL
424413362464465451141351314266
FFFFFFFFFFFFFFFFFFFFFFFFFFFFFF
665632666366666654622464532413
LLLLLFLLLLLLLLLLFFFFFFFFFFFFFF
666616666635343241114331361346
LLLLLLLLLFFFFFFFFFFFFFFFFFFFFF
346244521212513265643244241224
FFFFFFFFFFFFFFFFFFFFFFFFFFFFFF
416324364353323133144666666651
FFFFFFFFFFFFFFFFFFFFFLLLLLLLFF
332666645261351555662353511622
FFFFLLLFFFFFFFFFFFFFFFFFFFFFFF
611162313632626665666165646215
FFFFFFFFFFFFLLLLLLLLLFFFFFFFFF
232262566436542643522453321133
FFFFFFFFFFFFFFFFFFFFFFFFFFFFFF
441452216111461146621145563131
FFFFFFFFFFFFFFFFFFFFFFFFFFFFFF
646464534466543426663636666666
FFFFFFFFFFFFFFFFFLLLLLLLLLLLLL
421466666366662666666646665323
FFFFLLLLLFFLLLLLLLLLLLLLLFFFFF
255556216346163535546163362113
FFFFFFFFFFFFFFFFFFFFFFFFFFFFFF
545651144564112231155126125324
FFFFFFFFFFFFFFFFFFFFFFFFFFFFFF
616521125166153165566566656666
LFFFFFFFFFFFFFFFLLLLLLLLLLLLLL
444313323644236666665626232226
FFFFFFFFFFFFFFFLLLLLLFFFFFFFFF
312552332325632366431353112263
FFFFFFFFFFFFFFFFFFFFFFFLFFFFFF
144613646164264645213565352166
FFFFFFFFFFFFFFFFFFFFFFFFFFFFLL
311362124264111335311463335646
FFFFFFFFFFFFFFFFFFFFFFFFFFFFFF
113253564661323356666566636656
FFFFFFFFFFFFFFFFFLLLLLLLLLLLLL
663666156666665666616366666642
FFFLFLLLLLLLLLLLLLLLLLLLLLLLFF
626464343231522115255233616366
LFFFFFFFFFFFFFFFFFFFFFFFFFLLLL
534344636651322446644525622231
FFFFFFFLLLFFFFFFFLLFFFFFFFFFFF
651461665333616136665666666625
FFFFFFFFFFFFFFFFFLLLLLLLLLLLLL
666266266626666266266211322266
LLLLLLLLLLLLLLLLLLLLLFFFFFFFFF
666446344555232121623111155213
LLLFFFFFFFFFFFFFFFFFFFFFFFFFFF
443216346666666666236661146131
FFFFFFFFLLLLLLLLLLLLLLLFFFFFFF
536666666121266646666666616666
FFLLLLLLLLLLLLLLLLLLLLLLLLLLLL
314625145426511525325651624223
FFFFFFFFFFFFFFFFFFFFFFFFFFFFFF
544241352324661442654525616666
FFFFFFFFFFFFLLFFFFFFFFFFFLLLLL
244136566242666666435626666666
FFFFFFFLLLLLLLLLLLFFFLLLLLLLLL
522431422211562253614464666622
FFFFFFFFFFFFFFFFFFFFFFFFFLLLFF
355224256143431625446656566666
FFFFFFFFFFFFFFFFFFLLLLLLLLLLLL
264514633626641315464235666564
FFFFFFFFFFFLLFFFFFFFFFFFFFFFFF
544265344432666416564645265263
FFFFFFFFFFFFLLLFFFFFFFFFFFFFFF
445322465366666412353454234532
FFFFFFFFFFLLLLLLFFFFFFFFFFFFFF
535436235452661636661452464651
FFFFFFFFFFFFFFFLLLLLFFFFFFFLFF
365361664652665134166153314462
LLLLLLLLLLLLLLFFFFFLLLLFFFFFFF
143532456666666666666666666666
FFFFFFFFLLLLLLLLLLLLLLLLLLLLLL
666666226542132114635222266366
LLLLLLFFFFFFFFFFFFFFFFLLLLLLLL
163551416241635346114362333564
FFFFFFFFFFFFFFFFFFFFFFFFFFFFFF
123544414342544566243465641326
FFFFFFFFFFFFFFFFFFFFFFFFFFFFFF
666666624666644141333535533146
LLLLLLLLLLLLLFFFFFFFFFFFFFFFFL
662663666311664264556253463412
LLLLLLLLLLFFFFFFFFFFFFFFFFFFFF
566664656666565451424452263365
LLLLLLLLLLLFFFFFFFFFFFFFFFFFFF
616666635131646546625115126531
LLLLLLLLLLFFFFLLLLFFFFFFFFFFFF
266622646264411135621642354665
FLLLFFFFFFFFFFFFFFFFFFFFFFFFFF
236666621323422116431215146666
FFFLLLLFFFFFFFFFFFFFFFFFFLLLLL
262622416213125213515236664661
FFFFFFFFFFFFFFFFFFFFFFLLLLLLLL
666145262363111266251544151516
LLLLFFFFFFFFFLLLLLFFFFFFFFFFFF
322643666552614135223136113266
FFFFFFLLLFFFFFFFFFFFFFFFFFFFLL
144335313331565522165666666662
FFFFFFFFFFFFFLFFFFFLLLLLLLLLLL
666666262545234415444351644123
FLLLLLLLFFFFFFFFFFFFFFFFFFFFFF
444253164566346425433411366664
FFFFFFFFFFFFFFFFFFFFFFFFLLLLLL
436625435616665132655626543362
FFFFFFFFFFFFFFFFFFFFFFFFFFFFFF
452252524533336255422515515363
FFFFFFFFFFFFFFFFFFFFFFFFFFFFFF
414132243245412243555451153315
FFFFFFFFFFFFFFFFFFFFFFFFFFFFFF
666662666124666666626666623366
LLLLLLLLFFFLLLLLLLLLLLLLFFFFLL
665644626256666666666626666663
FLLFFFFFFFFLLLLLLLLLLLLLLLLLLL
334533551251635432566531314444
FFFFFFFFFFFFFFFFFFFLLFFFFFFFFF
146355612635466616644666643545
FFFFFFFFFFFFFLLLLLLLLLLLLFFFFF
666416465662662666626663215546
LLLLLLLLFLLLLLLLLLLLLLLFFFFFFF
124123351426252616663621133135
FFFFFFFFFFFFFFLLLLLLLLFFFFFFFF
564256132611165154243162446243
FFFFFLFLLLFFFFFFFFFFFFFFFFFFFF
254131441311414241611561366516
FFFFFFFFFFFFFFFFLLLFFFFFFFFFFF
666666116352166464412461325165
LLLLLLFFFFFFFFFFFFFFFFFFFFFFFF
114414166324641412255256513464
FFFFFFFFFFFFFFFFFFFFFFFLFFFLLF
366466263662662462366666562351
LLLLLLLLLLLLLLLLLLLLLLLLLLFFFF
464632356526252312362364425136
FFFFFFFFFFFFFFFFFFFFFFFFFFFFFF
554221152612563155256621166666
FFFFFFFFFFFFFFFFFFFFFFFFFLLLLL
326211464361426314444135532341
FFFFFFFFFFFFFFFFFFFFFFFFFFFFFF
526225144666626666466664666243
FFFFFFFFFLLLLLLLLLLLLLLLLLLLFF
315326566266643464464121561625
FFFFFLLLLLLLLFFFFFFFFFFFFFFFFF
336225122364213261242336665341
FFFFFFFFFFFFFFFFFFFFFLLLLLFFFF
352531565322465422566666632363
FFFFFFFFFFFFFFFFFFLLLLLLLFFLLL
266666666666656666364522444636
FLLLLLLLLLLLLLLLLLFFFFFFFFFFFF
666666445544666661542243162123
FLLLLLFFFFFFLLFFFFFFFFFFFFFFFF
436661314654266624443666652254
LLLLLFFFFFFFFLLLLLFFFLLLLFFFFF
343466566646665431614525253521
FFFFFLLLLLLLLLFFFFFFFFFFFFFFFF
263553324622632622354225534424
FFFFFFFFFFFFFFFFFFFFFFFFFFFFFF
434535222666662445262335425545
FFFFFFFFFLLLLLFFFFFFFFFFFFFFFF
666343216434416666613666463666
LLLFFFFFFFFFFFLLLLLLLLLLLLLLLL
624352466425324426365661562356
FFFFFFFFFFFFFFFFFFFFFFFFFFFFFF
433552112124523656461616651665
FFFFFFFFFFFFFFFFFFFLLLLLLFFFFF
333643636611651436336231453415
FFFFFFFFFFFFFFFFLLLFFFFFFFFFFF
345322111244356666666666554625
FFFFFFFFFFFFFFLLLLLLLLLLFFFFFF
355115354366624624144544433136
FFFFFFFFFFLLLLLLFFFFFFFFFFFFFF
666616261324614162163331332551
LLLLFFFFFFFFFFFFFFFFFFFFFFFFFF
513554666443665111242116465113
FFFFFFFFLFFFFFFFFFFFFFFFFFFFFF
464646166366146511342125231343
FFFLLLLLFFFFFFLFFFFFFFFFFFFFFF
246241411344514235351636466666
FFFFFFFFFFFFFFFFFFFFFLLLLLLLLL
544154342166643131434166541125
FFFFFFFFFFFFFFFFFFFFFFLLLFFFFF
643666646616662266632313665643
FFFFLLLLLLLLLFFFFFFFFFFFLLLLLL
516325361565446662666653121454
FFFFFFFFFFFFFLLLLLLLLLLLFFFFFF
246664565435136312636556666456
FFLLLLLFFFFFFFFFFFFFLLLLLLLLLL
412346265362645123514522633121
FFFFFFFFFFFFLFFFFFFFFFFFFFFFFF
522456164566665662661236661666
FFFFFLLLLLLLLLLLLLLFFFFLLLLLLL
253261263646216666652615464666
FFFFFFFFFFFFFFLLLLLFFFFFFFFLLL
243652551554421616615254655356
FFFFFFFFFFFFFFFFFLLLFFFFFFFFFF
322554354545654334222162616121
FFFFFFFFFFFFFFFFFFFFFFLLLLLLLL
645242114321111614345543332653
LLLFFFFFFFFFFFFFFFFFFFFFFFFFFF
356366556311416665315522421436
FFFFLLFFFFFFFFFLFFFFFFFFFFFFFF
111123356652162335666666542141
FFFFFFFFFFFFFFFFFFLLLLLLFFFFFF
666136666221535421242346663253
LLLLLLLLFFFFFFFFFFFFFFFLLLFFFF
251621552266231466526666646266
FFFFFFFFFFFFFFFFFFFFFLLLLLLLLL
661462661616226214623413266666
LLLLLLLLLLFFFFFFFFFFFFFFFLLLLF
252321562316244266556622466266
FFFFFFFFFFFFFFFFLLLLLLLLLLLLLL
153435452233555433643154666666
FFFFFFFFFFFFFFFFFFFFFFFFLLLLLL
533515353332644326521215554123
FFFFFFFFFFFFFFFFFFFFFFFFFFFFFF
266661325112214166551436256666
FFFLFFFFFFFFFFFFLLLLLFFFFLLLLL
546262161664115324162611233612
FFFFFFFFFLFFFFFFFFFFFFFFFFFFFF
126642165666566646446666121211
FFFFFFFFFLLLLLLLFFFFLLFFFFFFFF
511545566666652666643266133114
FFFFFFFLLLLLLLLLLLLFFFFFFFFFFF
266665643666666666666666566261
FLLLLLLLLLLLLLLLLLLLLLLLLLFFLL
126524351112124116356621224226
FFFFFFFFFFFFFFFFFFFFFFFFFFFFFF
126666625666666665665666646335
FLLLLLLLLLLLLLLLLLLLLLLLLFFFFF
356542662416355534146542556442
FFFFFFFFFFFFFFFFFFFFFFFFFFFFFL
136646664656231531521422313624
FFLLLLLLLLFFFFFFFFFFFFFFFFFFFF
454425261626224546666666666664
FFFFFFFFFLLLFFFFLLLLLLLLLLLLLF
351254164366265616666616266666
FFFFFFFFFFLLLLLLLLLLLLLLLLLLLL
611645345223134632246663526332
LLFFFFFFFFFFFFFFFFFFLLLFFFFFFF
156426646666625644644413631156
FFFLLLLLLLLLLFFFFFFFFFFFFFFFFF
663563636662666166156222221615
LLLLLLLFLLLLLLLLLLFFFFFFFFFFFF
326623412445641166666666363133
FFFFFFFFFFFFLLLLLLLLLLLLLLFFFF
666666662623641446461626525115
LLLLLLLLLLLLFFFFFFFFFFFFFFFFFF
316161166666153632412224656634
LLLFFFFLLLLLFFFFFFFFFFFFFFFFFF
624532215256564436126164213643
FFFFFFFFFFFFFFFFFFFFFFFFFFFFFF
656663636131332536554414212464
LLLLLFFFFFFFFFFFFFFFFFFFFFFFFF
314336112126121612265342315252
FFFFFFFFFFFFFFFFFFFFFFFFFFFFFF
626666666455143516234445351416
LLLLLLLLLFFFFFFFFFFFFFFFFFFFFF
361215654365524443353235535213
FFFFFFFFFFFFFFFFFFFFFFFFFFFFFF
542262444421625322426555465642
FFFFFFFFFFFFFFFFFFFFFFFFFFFFFF
455144465666636666666613666661
FFFFFFFLLLLLLLLLLLLLLLLLLLLLLL
662663253146663166666666124216
LLLLLFFFFFLLLLLLLLLLLLLLLFFFFF
314421512443616314244513256646
FFFFFFFFFFFFFFFFFFFFFFFFFLLLLL
624656121561324161621352154456
FFFFFFFFFFFFFFFFFFFFFFFFFFFFFL
616666666666666262564533334334
LLLLLLLLLLLLLLLFFFFFFFFFFFFFFF
553552151264466665252533662666
FFFFFFFFFFFFFLLLLFFFFFFLLLLLLL
566665666666661616666166164266
FFLLLLLLLLLLLLLLLLLLLLLLLLLLLL
663651123154635466243666666231
LLFFFFFFFFFFFFFFLLLLLLLLLLLFFL
146666666666666666666662666623
FFLLLLLLLLLLLLLLLLLLLLLLLLLLFF
113264345651436211666343416215
FFFFFFFFFFFFFFFFFFFFFFFFFFFFFF
665341346126625423666341336512
FFFFFFFFFFFFFFFFFLLLLFFFFFFFFF
416551146554666665616636666366
FFFFFFFFFFFFLLLLLLLLLLLLLLLLLL
615131666566544622254555153646
FFFFFFLLLLLLFFFFFFFFFFFFFFFFFF
436115643555115211346116566156
FFFFFFFFFFFFFFFFFFFFFFFFFLLLLL
251224236521323556332365143152
FFFFFFFFFFFFFFFFFFFFFFLFFFFFFF
656456666336613245264563424244
FFFFFLLLLLLLLFFFFFFFFFFFFFFFFF
666566661666111666166666666666
FFFLLLLLLLLLLLLLLLLLLLLLLLLLLL
653641666642314355163126215456
FFFFFLLLLLFFFFFFFFFFFFFFFFFFFF
546665666466626231343131463434
LLLLLLLLLLLFFFFFFFFFFFFFFFFFFF
646661665642516126466663666633
LLLLLLLLLLFFFFLLLLLLLLLLLLLLLL
455611551226354624663145162462
FFFFFFFFFFFFFFFFFFFFFFFFFFFFFF
611464626536362552422166666666
FFFFFFFFFFFFFFFFFFFFFFLLLLLLLF
453166311516242131626641141524
FFFFFFFFFFFFFFFFFFFFLLFFFFFFFF
663644366666362113254624314453
LLLLLLLLLLLLFFFFFFFFFFFFFFFFFF
343416666155533241533514344165
FFFFFLLLLFFFFFFFFFFFFFFFFFFFFF
341616666666566256432551435355
FFFLLLLLLLLLLLLFFFFFFFFFFFFFFF
352433456244464641116442365331
FFFFFFFFFFFFFFFFFFFFFFFFFFFFFF
655122152312323666245145625145
LLFFFFFFFFFFFFFLLLFFFFFFFFFFFF
166666636616666166666666466664
LLLLLLLLLLLLLLLLLLLLLLLLLLLLLL
445545624215636366623134513516
FFFFFFFFFFFFLLLLLLFFFFFFFFFFFF
153161526153613415165354513423
FFFFFFFFFFFFFFFFFFFFFFFFFFFFFF
343666666314144151325662461313
FFFLLLLLLFFFFFFFFFFFFFFFFFFFFF
244611234515266666666666242655
FFFFFFFFFFFFFLLLLLLLLLLLFFFFFF
415413344626355365112344531163
FFFFFFFFFFFFFFFFFFFFFFFFFFFFFF
366666566666636666366666666663
LLLLLLLLLLLLLLLLLLLLLLLLLLLLLF
241362152131361335636166666366
FFFFFFFFFFFFFFFFFFFFLLLLLLLLLL
634143133543123441266164554253
FFFFFFFFFFFFFFFFFFFFFFFFFFFFFF
366666366444334665536263156666
LLLLLLLLLFFFFFFFFFFFFFFFFFLLLL
631666261234235543121363521215
LFFLLLFFFFFFFFFFFFFFFFFFFFFFFF
651132256666661636636666344666
LLFFFFFFFLLLLLLLLLLLLLLLLFFLLL
566634625661154355232415226651
LLLLFFFFFFFFFFFFFFFFFFFFFFFFFF
635414621624254513155215336362
FFFFFFFFFLLLFFFFFFFFFFFFFFFFFF
326313234515423234112112414251
FFFFFFFFFFFFFFFFFFFFFFFFFFFFFF
664636211264165463534131634565
LLLLFFFFFFFFFFFFFFFFFFFFFFFFFF
246311315666663666666665666616
FFFFFFFFFFLLLLLLLLLLLLLLLLLLLL
666666545515445413621654256414
LLLLLLFFFFFFFFFFFFFFFFFFFFFFFF
666656334246616165521323435325
LLLLFFFFFFFFFFFFFFFFFFFFFFFFFF
266666666666646564161434113353
FLLLLLLLLLLLLFFFLLLLFFFFFFFFFF
541466666566564666666666253436
FFFFLLLLLLLLLLLLLLLLLLLLFFFFFF
664666666622255266662431636215
FFFFFFLLLLFFFFFFLLLLFFFFFFFFFF
622366635666321233426621652424
FFFFFFFFFFFFFFFFFFFFFFFFFFFFFF
665352261213333555614666636666
FFFFFFFFFFFFFFFFFFFFFLLLLLLLLF
256423614626636664266122636431
FFFFFFFFFLLLLLLLLLLLLFFFFFFFFF
216331154344466662662666636265
FFFFFFFFFFFFFLLLLLLLLLLLLLLLLL
435611342616566636666234651522
FFFFFFFFFLLLLLLLLLLLLFFFLFFFFF
255464414364631211511132441453
FFFFFFFFFFFFFFFFFFFFFFFFFFFFFF
626666266566661663666666662666
LLLLLLLLLFLLLLLLLLLLLLLLLLLLLL
666425556254243162625123662526
FLLFFFFFFFFFFFFLLLLFFFFFFFFFFL
342226666666666634666664636636
FFFFFLLLLLLLLLLLFFLLLLLLLLLLLL
625124114166661666616446236544
FFFFFFFFFFLLLLLLLLLFFFFFFFFFFF
161166615363551615644126221262
FFFFLLLFFFFFFFFFFFFFFFFFFLLLLF
313462453365666525426446536236
FFFFFFFFFFFFFFFFFFFFLFFFFFFFFF
666666666366656242426666666665
LLLLLLLLLLLLLFFFFFFFLLLLLLLLLL
344514436526254345134313326635
FFFFFFFFFFFFFFFFFFFFFFFFFFFFFF
664656616513642556442452121146
LLLLLLLLLFFFFFFFFFFFFFFFFFFFFL
421461334242116666453244525242
FFFFFFFFFFFFFFFLLLLLFFFFFFFFFF
666656666666665666646664651632
LLLLLLLLLLLLLLLLLLLLLLLLLFFFFF
313536666666666666666662662664
FFFFFFLLLLLLLLLLLLLLLLLLLLLLLL
544251526645443456232654451356
LFFFFFFFFFFFFFFFFFFFFFFFFFFFFF
663616666566666631534244266112
LLFFFLLLLLLLLLLLFFFFFFFFFFFFFF
665664456616243666666265634163
FFFFFFFFFFFFFFLLLLLLLLLLLFFFFF
116636665431365465411531634341
FFFFFLLLFFFFFFFFFFFFFFFFFFFFFF
215326662221655652255621511132
FFFFFLLFFFFFLFFFFFFFFFFFFFFFFF
141446416524336555355542456345
FFFFFFFFFFFFFFFFFFFFFFFFFFFFFF
166663646666261666666664463164
LLLLLLLLLLLLLLLLLLLLLFFFFFFFFF
655313122365615365145435341144
FFFFFFFFFFFFFFFFFFFFFFFFFFFFFF
433543666656666113215642464225
FFFFFFFLLLLLLLFFFFFFFFFFFFFFFF
324534342545452352146661334645
FFFFFFFFFFFFFFFFFFFFLLLFFFFFFF
665362623226531636666661345153
LFFFFFFFFFFFFFFLLLLLLLLLLFFFFF
245233115221241135214366656666
FFFFFFFFFFFFFFFFFFFFFFLLLLLLLL
566666666361322565422642455234
FLLLLLLLLLLFFFFFFFFFFFFFFFFFFF
266526666451663666656666666666
LLLLLLLLLLLLLLLLLLLLLLLLLLLLLL
666564235513555146666666666266
FLLLLFFFFFFFFFFFFLLLLLLLLLLLLL
634366666163232156532135524344
LFFLLLLLLFFFFFFFFFFFFFFFFFFFFF
625156463513666614415662115125
FFFFFLLFFFFFFLLLFFFFFLFFFFFFFF
322322644213613126634146563226
FFFFFFFFFFFFFFFFFFFFFFFFFFFFFL
615635215515221656324134152346
FFFFFFFFFFFFFFFFFFFFFFFFFFFFFF
114215445265614224546666666664
FFFFFFFFFFFFFFFFFFFFFFLLLLLLLF
326616524644646642515216521512
FFLLLLLLFFFFFLLLFFFFFFFFFFFFFF
412666662666666345365653515563
FFFFFLLLLLLLLLFFFFFFFFFFFFFFFF
666166626166666666656244536253
LLLLLLLLLLLLLLLLLLLFFFFFFFFFFF
456666256615644416246643313443
FFLLLLFFLLFFFFFFFFFFFFFFFFFFFF
565336621666211416333615525453
FFFFFLLFFFFFFFFFFFFFFFFFFFFFFF
561666666666661666646663223621
LLLLLLLLLLLLLLLLLLLLLLLFFFFFFF
245511666464666666663315526664
FFLLLLLLLLLLLLLLLLLLLLLLLLLLLF
666664166626663665166666651515
LLLLLLLLLLLLLLLFFFFLLLLLFFFFFF
353316613261446166352466626241
FFFFFFFFFFFFFFLFLLLLFFFLLLLFFF
112251521116565226243525113121
FFFFFFFFFFFFFFFFFFFFFFFFFFFFFF
125265356614466661666666636265
FFFFFFFFLLFFFLLLLLLLLLLLLLLLLL
266666662666644666666666143462
LLLLLLLLLLLLLLLLLLLLLLLLLFFFFF
166436666666563266666614162133
LLLLLLLLLLLLLLLLLLLLLLFFFFFFFF
254534161343343616466243263511
FFFFFFFFFFFFFFFLLLLLLLFFFFFFFF
334253341615646316666666666663
FFFFFFFLLLFFFFFFFFLLLLLLLLLLLL
253656661233154241526544412213
FFFLLLLLFFFFFFFFFFFFFFFFFFFFFF
663263341663664566661156224411
FFFFFFFFFLLLLLLLLLLLFFFFFFFFFF
661165344463456146441163512146
LLLLLFFFFFFFFFFFFFFFFFFFFFFFFF
125212435364626165445266333366
FFFFFFFFFFFFFFFFFFFFFFFFFFFFFF
665666155314314265623426662262
LLLLLLFFFFFFFFFFFFFFFFFFFFFFFF
525261311516666542216415666656
FFFFFFFFFFFLLLFFFFFFFFFFFLLLLL
244264342466565125135456461263
FFFFFFFFFFFFFFFFFFFFFFFFFFFFFF
612136666664635666266666666666
FFFFFLLLLLLLLLLLLLLLLLLLLLLLLL
356446245165353564664662666666
FFFFFFFFFFFFFFFLLLLLLLLLLLLLLL
344245215361666666664151666666
FFFFFFFFFFFFLLLLLLLFFFFFLLLLLL
116666166666664666666634423133
FFLLLLLLLLLLLLLLLLLLLLFFFFFFFF
534244655263361451561611246426
FFFFFFFFFFFFFFFFFFFFFFFFFFFFFF
666666613666666666645241645463
LLLLLLLLLLLLLLLLLLFFFFFFFFFFFF
645626222341346552154254314345
FFFFFFFFFFFFFFFFFFFFFFFFFFFFFF
523315135535165666666266656656
FFFFFFFFFFFFFFFLLLLLLLLLLLLLLL
616636666566666246462155415622
LLLLLLLLLLLLLLLFFFFFFFFFFFFFFF
122125565445324666166665246566
FFFFFFFFFFFFFFLLLLLLLLLLLLLLLL
614222253451611513643525153555
FFFFFFFFFFFFFFFFFFFFFFFFFFFFFF
253523553335112212545513413143
FFFFFFFFFFFFFFFFFFFFFFFFFFFFFF
663362531632511316666666666466
FFFFFFFFFFFFFFFFFFFFFLLLLLLLLL
451313541162666666644415162135
FFFFFFFFFFFFLLLLLLLFFFFFFFFFFF
664666666666263265336623363666
LLLLLLLLLLFFFFFFFFFFLFFFFFFFLL
464612645366651662666662666466
FFFFFFFFFFLLLLLLLLLLLLLLLLLLLL
511421523525143533566663565444
FFFFFFFFFFFFFFFFFFFLLLLLLLLFFF
666666231516666662666565621636
LLLLLFFFFFFLLLLLLLLLLLLLLLLLLL
445661612666634326552514542335
FFFLLLLLLLLLLFFFFFFFFFFFFFFFFF
146134335454554652326666666153
FFFFFFFFFFFFFFFFFFFFLLLLLLLFFF
441262164625312543613364512365
FFFFFFFFFFFFFFFFFFFFFFFFFFFFFF
555465243563331143315666643624
FFFFFFFFFFFFFFFFFFFFLLLLLFFFFF
226626334525643166224466662555
FLLLLLFFFFFFFFFFFFFFFFLLLLFFFF
666666666666641113216363453336
LLLLLLLLLLLLLFFFFFFFFFFFFFFFFL
451342165363221161652516666666
FFFFFFFFFFFFFFFFFFFFFFFLLLLLLL
666263251246266666666662214216
LLLLLFFFFFFLLLLLLLLLLLLFFFFFFF
666665612223416633666666645163
LLLLLLFFFFFFFFLLLLLLLLLLLFFFFF
553365646664545454353316633234
FFFFFFFFFFFFFFFFFFFFFFFFFFFFFF
223456423363612465632666664666
FFFFFFFFFFFFFFFFFFLLLLLLLLLLLL
666666463366613212456664625666
LLLLLLFFFLLLLLFFFFFFFLLLLFFLLL
414236563541662626666551335321
FFFFFFFLFFFFFFFLLLLLLFFFFFFFFF
666414463622261462121622653563
LLLLFFFFFFFFFFFFFFFFFFFFFFFFFF
614666622626666466661666666666
FFFLLLLLLLFLLLLLLLLLLLLLLLLLLL
545216532326463434416636646664
FFFFFFFFFFFFFFFFFFFFFLLLLLLLLL
641444452641456254363165664632
FFFFFFFFFFFFFFFFFFFFFFFFLLFFFF
615663435162463313625522411546
FFFFFFFFFFFFFFFFFFFFFFFFFFFFFF
136114315461515115365154116666
FFFFFFFFFFFFFFFFFFFFFFFFFFLLLL
134444662666665666616666662666
FFFFFFLLLLLLLLLLLLLFLLLLLLLLLL
641124156526666666666316666266
LFFFFFFFLLLLLLLLLLLLLLLLLLLLLL
245114545353316364223146215246
FFFFFFFFFFFFFFFFLFFFFFFFFFFFFF
156266666565532111115253215261
FFLLLLLLLFFFFFFFFFFFFFFFFFFFFF
656366362615665654514553245541
LLLLLLLLLLLLLLLLFFFFFFFFFFFFFF
664662613253251255562514563163
LLFFFFFFFFFFFFFFFFFFFFFFFFFFFF
665542335413414262653455414666
FFFFFFFFFFFFFFFFFFFFFFFFFFFLLL
263636624362236544356432455666
FLFFFFFFFFFFFFFFFFFFFFFFFFLLLL
143366263644235622436563233231
FFFFFFFFFFFFLLFFFFFFFFFFFFFFFF
616226643626664666366666666611
LLLLFFFFFFFLLLLLLLFLLLLLLLLLLF
652246366666666643165666666655
FFFFFFFLLLLLLLLLFFFLFLLLLLLFFF
666666663664543265645611622665
FLLLLLLLLLLFFFFFFLLFFFFFFFFFFF
115665616666666666666566411333
FFFLLLLLLLLLLLLLLLLLLFFFFFFFFF
