461422463266466666221452324465
FFFFFFFFFLLLLLLLLLFFFFFFFFFFFF
156464656312626543526441665423
FFFFLFFFFFFFFFFFFFFFFFFFFFFFFF
224345616666666666663666626322
FFFFFFLLLLLLLLLLLLLLLLLLFFFFFF
613365666666114162146254466664
FFFFFFLLLLLLFFFFFFFFFFFFFLLLLL
616215422126422256624423143213
LFFFFFFFFFFFFFFFFFFFFFFFFFFFFF
636662666553645413561255462636
LLLLLLLLLFFFFFFFFFFFFFFFFFFFFL
243111112356366666264645345165
FFFFFFFFFFFLLLLLLLFFFFFFFFLLLL
122566666664666664666325143346
FFFFLLLLLLLLLLLLLLLLLLFFFFFLLL
412113231324543643513163522463
FFFFFFFFFFFFFFFFFFFFFFFFFFFFFF
223156666526646666626666462666
FFFFFLLLLLLLLLLLLLLLLLLLLLLLLL
152631265512341646623112244445
FFFFFFFFFFFFFFFFFLLFFFFFFFFFFF
554246624616245115166666636133
FFLLLLLLLFFFFFFFFFFLLLLLLLLLLL
126532263112463136444612645432
FFFFFFFFFFFFFFFFFFFFFFFFFFFFFF
424534233114424635266641562415
FFFFFFFFFFFFFFFFFFFFFFFFFFFFFF
363512656661522133313156666662
FFFFFFFFFFFFFFFFFFFFFFFLLLLLLL
223122614331545146545663665455
FFFFFFFFFFFFFFFFFFFFFFFFLFFFFF
622231644531426126315635556313
FFFFFFFFFFFFFFFFFFFFFFFFFFFFFF
666461354446633256666666544562
LLLLLFFFFFFFFFFFFLLLLLLLLFFFFF
226266636663663666616666513332
FFFLLLLLLLLLLLLLLLLLLLLLFFFFFF
265344651112666664566662666666
FFFFFFFFFFFFLLLLLLLLLLLLLLLLLL
435654451412365136663255133666
FFFFFFFFFFFFFFFFFFFFFFFFFFFLLL
362615234144525441266666635112
FFFFFFFFFFFFFFFFFFFFLLLLLFFFFF
626666666566664236663461154462
LLLLLLLLLLLLLLFFLLLLFFFFFFFFFF
455115342116664655232134462533
FFFFFFFFFFFFLLFFFFFFFFFFFFFFFF
461365133444435251521366436415
FFFFFFFFFFFFFFFFFFFFFFFFFFFFFF
151254432646666666531625143456
FFFFFFFFFLLLLFFLLLFFFFFFFFFFFF
125133354254661141651346661366
FFFFFFFFFFFFLLFFFFFFFFLLLLFFLL
642434643313653521351666666526
LFFFFFFFFFFFFFFFFFFFLLLLLLLLLL
661666666265646666663136664636
LLLLLLLLLLLLLLLLLLLLLLLLLLLLLL
566144266666666665455323525162
FFFFFLLLLLLLLLLLLLFFFFFFFFFFLL
336351521411255626321142666666
FFFFFFFFFFFFFFFFFFFFFFFFLLLLLL
666654453245322663666646441166
LLLLFFFFFFFFFFFFLLLLLLLLLLFFFF
423151612523551565113544535536
FFFFFFFFFFFFFFFFFFFFFFFFFFFFFL
333335162542166666665662656366
FFFFFFFFFFFFFFLLLLLLLLLFFFFFFF
666666662366611121246514355116
LLLLLLLLLLLLLLFFFFFFFFFFFFFFFF
211255143631123655426116562554
FFFFFFFFFFFFFFFFFFFFFFFFFFFFFF
141353263123434661666666666666
FFFFFFFFFFFFFFFFFFLLLLLLLLLLLL
443161626666656662663161124111
FFFFFFFLLLLLLLLLLLLLLFFFFFFFFF
126616124445115422425464365332
FFFFFFFFFFFFFFFFFFFFFFFFFLLFFF
666522414112334351121344461221
LLLFFFFFFFFFFFFFFFFFFFFFFFFFFF
343433466663666426242421666666
LFFFFFFLLLLLLLLFFFFFFFFFLLLLLL
255654152655256666363322662244
FFFFFFFFFFFFFFLLLLLLFFFFFFFFFF
666662666666663226666666626366
LLLLLLLLLLLLLLFFLLLLLLLLLLLLLL
466662246265245125356236666664
FLLLLLFFFFFFFFFFFFFFFFFLLLLLLL
464466663661253563125633366263
FFFFLLLLFFFFFFFFFFFFFFFFFFFFFF
351661123136662561524656311161
FFFFFFFFFFFLLLFFFFFFFFFFFFFLLL
551551651626666666666666666666
FFFFFFFFFLLLLLLLLLLLLLLLLLLLLL
615122546661566636661666666666
FFFFFFFFLLLLLLLLLLLLLLLLLLLLLL
151162646665236365162234662252
FFFFFFFLLLLLLLLLLFFFFFFFFFFFFF
322451324533335666666666614414
FFFFFFFFFFFFFFFLLLLLLLLLLLFFFF
312141216655626663666666341532
FFFFFFFFLLLLLLLLLLLLLLLLFFFFFF
361565666666366152656514364366
FFFFFFLLLLLLFFFFFFFFFFFFFFFFFF
266242644541555536664666266666
FFFFFFFFFFFFFFFFLLLLLLLLLLLLLL
322466361652325334653652422321
FFFLLLLLFFFFFFFFFFFFFFFFFFFFFF
661135166666566144653215412215
LFFFFFFLLLLLLLLFFFLFFFFFFFFFFF
666666666566616655454422416616
LLLLLLLLLLLLLFFFFFFFFFFFFFLLLL
145425552426511346666636326666
FFFFFFFFFFFFFFFFFLLLLLLLLLLLLL
416662666665156143365345456646
FFLLLLLLLLLFFFFFFFFFFFFFFFFLLL
636636234223632632666666666663
LLLLLLFFFFFFFFFFFLLLLLLLLLLLFF
332523144543344545361223151633
FFFFFFFFFFFFFFFFFFFFFFFFFFFFFF
225666266666366465312414525222
FFFLLLLLLLLLFFLFFFFFFFFFFFFFFF
566132566666166663616114166562
FFFFFFFLLLLLLLLLLLLLLFFFFFFFLL
151552614325336531361666666645
FFFFFFFFFFFFFFFFFFFFFFLLLLLLLL
615155516626423233342346666656
FFFFFFFLLLLLFFFFFFFFFFFLLLLLFF
646626666666644353661222344612
LLLLLLLLLLLLLFFFFFFFFFFFFFFFFF
656626353261666566566666366666
LLLLLLFFFFFFLLLLLLLLLLLLLLLLLL
613452245651525666566666666566
LLFFFFFFFFFFFFLLLLLLLLLLLLLLLL
532555422416646236523643425145
FFFFFFFFFFFFFFFFFFFFFFFFFFFFFF
666266666656516666666613452526
LLLLLLLLLLLLLFLLLLLLLLFFFFFFFF
366566226666663361113261416266
LLLLLLLLLLLLLLFFFFFFFFFFFFFFLL
664455316361124421545664613566
LLFFFFFFFFFFFFFFFFFFFFLFLLLLLL
423341433614541166666216166626
FFFFFFFFFFFFFFFFLLLLLLLLLLLLLL
665644612666466665653144225121
LLLLFFLLLLLLLLLLLLLLFFFFFFFFFF
623143324142662433623644343222
FFFFFFFFFFFFFFFFFFFFFFFFFFFFFF
151564135446544166221636666566
FFFFFFFFFFFFFFFFLLFFFFLLLLLLLL
631525446356666663634511365532
FFFFFFFFFFLLLLLLLLLLFFFFFFFFFF
632266646666644643664541636626
FFFFLLLLLLLLFFFFFFLLFFFFLLLLLL
664152262256433331526523122552
LLFFFFFFFFFFFFFFFFLFFFFFFFFFFF
466664466232245655252315641634
LLLLLLLLLFFFFFFFFFFFFFFFFFFFFF
331554615613236422655235211123
FFFFFFFFFFFFFFFFFFFFFFFFFFFFFF
161665256663515654112262512366
FLLLLLLFFFFFFFFFFFFFFFFFFFFFLL
331533233525446644226646351266
FFFFFFFFFFFFFFFFFFFLLLFFFFFFFF
223656666566666666666666666666
FFFFFLLLLLLLLLLLLLLLLLLLLLLLLL
465111336623664633666666235643
FFFFFFFFLLLLLLLLLLLLLLLFFFFFFF
366666636635366666636666663636
LLLLLLLLLLLLLLLLLLLLLLLLLLLLLL
144235133221132156134155566564
FFFFFFFFFFFFFFFFFFFLFFFFFLFFLL
261633665132444354445534143631
LLLLFFFFFFFFFFFFFFFFFFFFFFFFFF
344343342641615636464135656544
FFFFFFFFFFFFFFFFFFFFFFFFFFFFFL
625663166665556366666666666661
FFFFFFFLLLLLLLLLLLLLLLLLLLLLLL
412643456666566616662323413665
FFFFFFFFLLLLLLLLLLLLFFFFFFFFFF
552641351521616263341642125221
FFFFFFFFFFFFLLLLLLFFFFFFFFLLLF
253525132623451344431266366142
FFFFFFFFFFFFFFFFFFFFFFFFLLLLLL
566666661666554643266666656666
FLLLLLLLLLLLFFFFFFFLLLLLLLLLLL
114156642626464166231262253132
FFFFFFFFFFFFFFFLLLFFFFFFFFFFFF
666661364666666263163236666646
LLLLLLLLLLLLLLLFFFFFFFFLLLLFFF
446522521251253411556666466361
FFFFFFFFFFFFFFFFFFFFLLLLLLFFFF
245621612233646666664652512346
FFFFFFFFFFFFLLLLLLLLLFFFFFFFFL
325265223344236642252554612244
FFFFFFFFFFFFFFFFFFFFFFFFFFFFFF
116666626326232245313166542332
LLLLLLLLLLLLFFFFFFFFFFFFFFFFFF
631315566666666366666666664661
FFFFFFFFFLLLLLLLLLLLLLLLLLFLLF
642654351666611166656666666414
FFFFFFFFFLLLLLLLLLLLLLLLLLLLLL
513646354261665445314155162154
FFFFFLFFFFFFFFFFFFFFFFFFFFFFFF
666666166666663565562626252564
LLLLLLLLLLLLLFFFFFFFFFFFFFFFFF
366626352361651533526641166135
LLLLLLFFFFFFFFFFFFFFFFFFFFFFFF
153365655213644516546561556361
FFFFFLFFFFFFFFFFFFFFFFFFFFFFFF
666566665361263625662666666666
LLLFFLLLFFFFFFFFFFLLLLLLLLLLLL
161662246355355145121441665411
LLLLLFFFFFFFFFFFFFFFFFFFFFFFFF
665666662662235342246333165161
LLLLLLLLLLLFFFFFFFFFFFFFFFFFFF
666664116366661666242622264636
LLLLLFFFLLLLLLLLLLFFFFFFFFFFFL
622253111666666663666666666661
FFFFFFFFFLLLLLLLLLLLLLLLLFFFFF
223655544366622562463434351366
FFFFFFFFFFFFFFFFFFFFFFFFFFFFLL
165525563666666666661666664661
FFFFFFFFFLLLLLLLLLLLLLLLLLLLLL
541644112615656261626423545522
FFFFFFFFFFFFLLLLLFFFFFFFFFFFFF
536444315463615546666666644152
FFLFFFFFFFFFFFFFLLLLFFLLLLFFFF
641321243552556125614226662161
FFFFFFFFFFFFFLLLFLLFFFFFFFFFFF
616666335654131122155423244266
FFLLLLFFFFFFFFFFFFFFFFFFFFFFLL
626116232661216652553111144543
FFFFFFFFFLLFFFFFFFFFFFFFFFFFFF
666521146266442366223136524556
LLLFFFFFFFFFFFFLLLFFFFFFFFFFFF
642312441336516614626666666666
FFFFFFFFFFFFFFFFFFLLLLLLLLLLLL
565456133631224533566556666633
FFFFFFFFFFFFFFFFFFFFFFFLLLLLFF
453422535144666666655331666612
FFFFFFFFFFFFLLLLLLLLFFFFLLLLLL
344651362566235122651554246532
FFFFFFFFFFFFFFFFFFFFFFFFFFFFFF
666661666666321524166333116636
LLLLLLLLLLLLFFFFFFFFFFFFFFFFFF
421116232662236462445365322124
FFFFFFFFFFFFFFLLLLFFFFFFFFFFFF
626624144653621234246146666666
LLLLFFFFFFFFFFFFFFFFFFFFLLLLLF
646534336322654124264123621666
LFFFFFFFFFFFFFFFFFFFFFFFFFFLLL
356666666666266156666646666262
FLLLLLLLLLLLLLLLLLLLLLLLLLLLLF
436366311233646655335566344346
FFFFFFFFFFFFLLLFFFFFFFFFFFFFFF
355254466662666335651414644544
FFFFFFLLLLLLLLLFFFFFFFFFFFFFFF
644366666663661636611426666666
LLLLLLLLLLLLLLFLLLLLLLLLLLLLLL
561561265655666432666664666645
FFFFFFFFFFFFFFFFFFLLLLLLLLLLLL
616616662666666666664456654531
FFLLLLLLLLLLLLLLLLLLLLLLLFFFFF
666362614665145242552666666665
LLLLLLLFFFFFFFFFFFFFFLLLLLLLLL
666646262512351466666653221111
LLLLLLFFFFFFFFFFLLLLLLLFFFFFFF
656666666666656136524626541142
LLLLLLLLLLLLFFFFFFFFFFFFFFFFFF
445661132621463445223663466151
FFFFFFFFFFFFFFFFFFFFFFFFFFFFFF
616664426561653256665132261636
LLLLLFFFFFLLLLFFFFFFFFFFFLLLFF
664136156364665234635356666636
LLLFFFFFFFLLLLFFFFFFFFFLLLLLLL
662246611333644655124253521344
LLLFFFFFFFFFFFFFFFFFFFFFFFFFFF
524546665421462245354232652143
FFFFFLLLFFFFFFFFFFFFFFFFFFFFFF
436523666666662444363434531126
FFFFFFFLLLLLLLFFFFFFFFFFFFFFFF
514464612166656462461633422666
FFFFFFFFFFFLLLLLLFFFFFFFFFLLLL
563534233344665663416666564666
FFFFFFFFFFFFLLLLLFFFLLLLLLLLLL
331146141421434364435455666662
FFFFFFFFFFFFFFFFFFFFFFFFLLLLFF
666666662462135312312641361666
LLLLLLLLFFFFFFFFFFFFFFFFFLLLLL
666666531245424663164666666366
LLLLLLFFFFFFFFFLLLLLLLLLLLLLLL
411235111141662641166666465626
FFFFFFFFFFFFFFFFFFFLLLLLLLLLLL
566523136163413451642155136456
FFFFFFFFFFFFFFFFFFFFFFFFFFFFFF
666666563666666666526435661335
LLLLLLFFFFLLLLLLLLFFFFFFFFFFFF
666666666666664636156646662665
LLLLLLLLLLLLLLLLLLLLLLLLLLLLLF
316325444612466663631636633335
FFFFFFFFFFFFLLLLLLLLLLLLFFFFFF
666666665444123552653263324666
LLLLLLLFFFFFFFFFFFFFFFFFFFFLLL
636442232356533166666666666666
LLFFFFFFFFFFFFLLLLLLLLLLLLLLLL
565566651312664332443333146666
FFFFLLLLFFFFFFFFFFFFFFFFFFFFFL
664666326666666665636466314426
LLLLLLLLLLLLLLLLLLLLLLLLLLLFFF
662663566666666224251141631252
LLLLLLLLLLLLLLLFFFFFFFFFFFFFFF
666666666666666666162666636666
LLLLLLLLLLLLLLLLLLLLLLLLLLLLLL
366666566562421262616666422553
FLLLLLLLLLLLLFFFFFLLLLLLFFFFFF
225314236166615655155331466566
FFFFFFFFFFFFFFFFFFFFFFFFFLLLLL
625465662346466666655616666421
LFFFFFFFFFFFFLLLLLLLLLLLLLLFFF
526612142266363655545253666166
FFFFFFFFFFLLLLFFFFFFFFFLLLLLLL
344663145662666666666166466666
FFFFFFFFFFFFFLLLLLLLLLLLLLLLLL
166662563664666166121243122541
LLLLLFFFFFFFLLLLLLFFFFFFFLFFFF
625662466666661666666666666666
LLLLLLLLLLLLLLLLLLLLLLLLLLLLLL
666646422612626661666646636666
LLFFFFFFFFFFFLLLLLLLLLLLLLLLLL
251133415556665565632326142644
FFFFFFFFFFFFFFFFFFFFFFFLLFFFFF
622326136626664315452626466661
FFFFFFFFFFFFFFFFFFFFFFFFFFLLLF
666666666661566666113351546155
LLLLLLLLLLLLLLLLLLFFFFFFFFLFFF
324225215135525523244466666666
FFFFFFFFFFFFFFFFFFFFFFLLLLLLLL
243221454551122132665233464561
FFFFFFFFFFFFFFFFFFFFFFFFFFFFFF
231665264132146232542642235413
FFFFFFFFFFFFFFFFFFFFFFFFFFFFFF
332161252142526244621321436666
FFFFFFFFFFFFFFFFFFFFFFFFFFLLLL
666466616435126566666666156454
LLLLLLLFFFFFFFLLLLLLLLLLFFFFFF
666666666461531466612246212351
LLLLLLLLLLLFFFFFFLLFFFFFFFFFFF
113332636166166635243663354566
FFFFFFFFLLLFFFFFFFFFFFFFFFFFFL
156662662656366666621636225622
FFFFLLLLLLLLFLLLLLLFFFFFFFFLFF
266136666612522652244112643223
FFFFFFLLLLFFFFFFFFFFFFFFFFFFFF
523461311656665636332231466661
FFFFFFFFFLLLLLLLLLFFFFFFFLLLFF
666566366666666366666165162125
LLLLLLLLLLLLLLLLLLLLFFFFFFFFFF
664135465566665236656666666663
LLLFFFFFFFFLLLLLLLLLLLLLLLLLLL
656361322312334153266664666666
LFFFFFFFFFFFFFFFFFFLLLLLLLLLLL
436666656646366666146654512614
FLLLLLLLLLLLLLLLLLLLLLLFFFFFFF
566666666666222652354663116416
LLLLLLLLLLLLFFFFFFFFFFFFFFLLLL
162346666626133155426616666436
FFFFFLLLLLFLFFFFFFFFLLLLLLLFFF
311461135654214466466666566563
FFFFFFFFFFFFFFFFLLLLLLLLLLLLLL
616666636453216364623551526621
LLLLLLLFFFFFFFFFFFFFFFFFFFFFFF
461535546516143415412336666651
FFFFFFFFFFFFFFFFFFFFFFFFFLLLLF
536332465663166546653524516212
FFFFFFFFFFFFFFFFFFFFFFFFFFFFFF
161615111516313342454145341416
FFFFFFFFFFFFFFFFFFFFFFFFFFFFFF
522223161256416365633234316263
FFFFFFFFFFFFFFFFFFFFFFFFFFFFFF
666626663535544362115636611551
LLLLLLLFFFFFFFFFLLLFFFFFFFFFFF
613164165146616662666453114311
FFFFFFFFFFFFFFLLLLLLLLFFFFFFFF
166666166266666666666666361663
LLLLLLLLLLLLLLLLLLLLLLLLLLLLLF
431112645366666666666166123666
FFFFFFFFFFLLLLLLLLLLLLLLLLLLLL
521226266626366436625133264166
FFFFFFLLLLFFFFFFFFFFFFFFFFFFFF
242512315234462222666666666661
FFFFFFFFFFFFFFFFFFLLLLLLLLLLLL
441452111223165366661666666366
FFFFFFFFFFFFFFFFLLLLLLLLLLLLLL
164632455363221444312515152316
LLLLFFFFFFLLFFFFFFFFFFFFFFFFFL
626666664526413166233536565353
LLLLLLLLFFFFFFFFFFFFFFFFFFFFFF
656666666666666666666664211411
LLLLLLLLLLLLLLLLLLLLLLLFFFFFFF
666436263346254123315565143212
LLLLLFFFFFFFFFFFFFFFFFFFFFFFFF
632232362523636666456626666666
FFFFFFFFFFFFLLLLLLLLLLLLLLLLLL
546161431256524442565464411161
FFLLLFFFFFFFFFFFFFFFFFFFFFFFFF
462666663636332654536661166361
FFFLLLLLLLLLFFFFFFFLLLLLLLLLLF
442262666666656166322213121466
FFFFFFLLLLLLLLLFFFFFFFFFFFFFLL
255515112636624123126635555411
FFFFFFFFFFLLLFFFFFFFFFFFFFFFFF
466665212134545646211346311326
FLLLLLFLFFFFFFFFFFFFFFFFFFFFFF
146455335121566456461551214226
FFFLLFFFFFFLLLLFFFFFFFFFFFFFFF
264621613366666666166664656554
FFFFFFFFFFFLLLLLLLLLLLLFFFFFFF
265352536661646666132335544544
FFFFFFFFLLLLLLLLLLFFFFFFFFFFFF
341133316512662433264655521466
FFFFFFFFFFFFLFFFFFFFFFFFFFFFLF
665543662653661531343666566626
FFFFFLLLFFLLLLFFFFFFFLLLLLLLLL
666666666666666556626662645313
LLLLLLLLLLLLLLLFFLLLLLLFFFFFFF
652243166636666666662626666631
FFFFFFFLLLLLLLLLLLLLLLLLLLLLFF
245214533666325662165664666266
FFFFFFFFFFFFFFFFFFFFFLLLLLLLLL
412245662522453661623242466522
FFFFFFFFFFFFFFFFFFFFFFFFFFFFFF
662616662631366366551313446314
LLLLLLLLLLLLLLLLLLFFFFFFFFFFFF
134655361116366666666616261636
FFFFFFFFFFFLLLLLLLLLLLLLLLFFFF
666666666666354524646662666151
LLLLLLLLLLLLFFLLLLLLLLLLLLLLLL
133514262566145435431144424563
FFFFFFFFFFFFFFFFFFFFFFFFFFFFFF
232416561252542542542645533641
FFFFFFFFFFFFFFFFFFFFFFFFFFFFFF
134545145626452644325646223466
FFFFFFFFFFFFFFFFFFFFFFFFFFFLLL
533612526353155626561543224214
FFFFFFFFFFFFFFFFFLLLFFFFFFFFFF
666331626264465561452223164656
LLLLLFFFFFFFFFFFFFFFFFFFLLLLLL
421512536523441451356313126634
FFFFFFFFFFFFFFFFFFFFFFFFFFFFFF
414623244556466666663666666364
FFFFFFFFFFFFLLLLLLLLLLLLLLLLLF
665566611234163626232421366626
LLFFLLLFFFFFFFFFFFFFFFFFFLLLLL
666164361335444646136626146666
LLLFFFFFFFFFFFFFFFFFFLLLLLLLLL
166666666666666346656666666566
LLLLLLLLLLLLLLFFFLLFLLLLLLLLLL
216132623145132425612454265341
FFFFFFFFFFFFFFFFFFFFFFFFFFFFFF
666666666566666656351431334224
LLLLLLLLLLLLLLLFFFFFFFFFFFFFFF
666413316515632236166666666664
LLLFFFFFFFFFFFFFFFFLLLLLLLLLLL
212221355163326666666661615146
FFFFFFFFFFFFFFLLLLLLLLLLLFFFFF
166511146366661666262564342315
FFFFFFFFFFLLLLLLLLLLFFFFFFFFFF
311366666666666666612526164156
FFFFLLLLLLLLLLLLLLLFFFFFFFFFFF
666621113531614366666666666666
LLFFFFFFFFFFFFFFLLLLLLLLLLLLLL
656666666666665446552245142635
LLLLLLLLLLLLLLFFFFFFFFFFFFFFFF
445644263444523433616666662243
FFFFFFFFFFFFFFFFFFFFLLLLLLFFFF
256456526534444621432462214334
FFFFFFFFLFFFFFFFFFFFFFFFFFFFFF
544526652151211646155544566566
FFFFFFFFFFFFFFFFFFFFFFFFFLLFLL
666661662141233223552466666166
LLLLLLLLLFFFFFFFFFFFFFLLLLLFFF
521312623614366441331144633144
FFFFFFFFFFFFFFFFFFFFFFFFFFFFFF
242261312423266636666641566213
FFFFFFFFFFFFFLLLLLLLLLFFFFFFFF
343466522366454162112222653154
FFFFLLLFFFFFFFFFFFFFFFFFFFFFFF
664334436165366546113564544422
LFFFFFFFFFFFFLLFFFFFFFFFFFFFFF
646415455456145162236114366661
FFFFFFFFFFFFFFFFFFFFFFFFFFLLLL
251212454255666666455465563241
FFFFFFFFFFFFLLLLLLFFFFFFFFFFFF
252523416515116666231366663666
FFFFFFFFFFFFFFFFLLLLLLLLLLFLLL
463662432263532121441652116552
FFFLLFFFFFFFFFFFFFFFFFFFFFFFFF
615642621246665225666632461356
FFFFFFFFFFFFFFFFFFLLLLFFFFFFFF
556524456266666666364611666666
FFFFFFFFLLLLLLLLLLLLLLLLLLLLLL
632124666635126166626666624553
LFFFFFLLLLFFLLLLLLLLLLLLLFFFFF
266426551666666466666666666266
LLLLLLFFFLLLLLLLLLLLLLLLLLLLLL
355443233622352313233532261144
FFFFFFFFFLFFFFFFFFFFFFFFFFFFFF
643112661656365635631246535612
FFFFFFFFFFFFFFFFFFFFFFFFFFFFFF
646636334131655356121165633226
LFFFFFFFFFFFFFFFFFFFFFFFFFFFFF
335356353511534355621133451262
FFFFFFFFFFFFFFFFFFFFFFFFFFFFFF
564213424126336666656366666666
FFFFFFFFFFFLLLLLLLLLLLLLLLLLLL
161425415322313513126256343642
FFFFFFFFFFFFFFFFFFFFFFFFFFFFFF
613112226631164622121434411543
FFFFFFFFFFFFFFFFFFFFFFFFFFFFFF
636645666636324665354644416331
LLLLLLLLLLLLFFFFFFFFFFFFFFFFFF
653543213666656666662666166666
FFFFFFFFFLLLLLLLLLLLLLLLLLLLLL
546666656466461642666666253666
LLLLLLLFFFLLLLFFFFLLLLLFFFFLLL
656161215622254166666624613266
FFFFFFFFFFFFFFFLLLLLLFFFFFFFLL
666666146661315566666636666666
LLLLLLFFFFFFFFFFLLLLLLLLLLLLLL
223264546666466666636626465266
FFFFFFFFLLLLLLLLLLLLLLFFFFFFLL
436112446636666166626652264224
FFFFFFFFLLLLLLLLLLLLLLLLLFFFFF
266126162245144141666646566666
LLLLFFFFFFFFFFFFFLLLLLLLLLLLLL
126145514154322543624512155552
FFFFFFFFFFFFFFFFFFFFFFFFFFFFFF
353126656466666466223426261666
FFFFFLLLLLLLLLLLLLFFFFFLLLLLLL
166666614545151245156211466336
LLLLLLLLFFFFFFFFFFFFFFFFFFFFFF
656313323441362632252421556153
FFFFFFFFFFFFFFLFFFFFFFFFFFFFFF
522321164311216223126566566665
FFFFFFFFFFFFFFFFFFFFFFFFFLLLLL
631313454323221366114565236666
FFFFFFFFFFFFFFFFFFFFFFFLFFLLLL
434632541441325253236566444413
FFFFFFFFFFFFFFFFFFFFFFFFFFFFLL
141562262265323113641625666663
FFFFFFFFFFFFFFFFFFFFFFFFLLLLLF
312663213612354326662666666333
FFFFFFFFFFFFFFFFFFLLLLLLLLLFFF
666666666614666666666662666661
LLLLLLLLLLFFLLLLLLLLLLLFLLLLLF
162656132152114544143456435636
FFFFFFFFFFFFFFFFFFFFFFFFFFFFFF
156523462254514646324651541426
FFFFFFFFFFFFFFFFFFFFFFFFFFFFFF
135343532213226666661666646666
FFFFFFFFFFFFFFLLLLLLLLLLLLLLLL
134626666666666241446544666416
FFLLLLLLLLLLLLLFFFFFFFFFFFFFFF
656125513412612135523536523146
FFFFFFFFFFFFFFFFFFFFFFFFFFFFFL
121666662453416636666266666666
FFFLLLLLFFFFFFFLLLLLLLLLLLLLLL
154214354243213335216623563565
FFFFFFFFLFFFFFFFFFFFFFFFFFFFFF
345134465314416666623135323366
FFFFFFFFFFFFFFFLLLLFFFFFFFFFFF
635331661262332136136446424462
FFFFFFFFFFFFFFFFFFFFFFFFFFFFFF
633266464466666666636462566613
FFFFLLLLLLLLLLLLLLLLLLLLLLLLLF
154626336653243516666135166362
FFFFFFFFLLFFFFFFFFLLLLLFFFFFFF
266346636666614112122142346633
FLLLLLLLLLLLFFFFFFFFFFFFFFFFFF
223323565565326322331133536221
FFFFFFFFFFFFFFFFFFFFFFFFFFFFFF
312562114242515332321133216325
FFFFFFFFFFFFFFFFFFFFFFFFFFFFFF
152466666463531153336362611513
FFFFLLLLLLLFFFFFFFFFFFFFFFFFFF
335363144345252336216666616666
FFFFFFFFFFFFFFFFFFFFFLLLLLLLLL
462556244666566666666666646166
FFFFFFFFFLLLLLLLLLLLLLLLLLLLLL
214432154662236134116556222661
FFFFFFFFFFFFFFFFFFFFFFFFFFFFFF
343244366443636666626656666644
FFFFFFFFFFFFLLLLLLLLLLLLLLLLFF
666654636466666666524232151335
LLLLLLLLLLLLLLLLLLFFFFFFFFFFFF
241133466613566666466563133321
FFFFFFLLLLLLLLLLLLLFFFFFFFFFFF
455535666666216142456566661666
FFFFFFLLLLLFFFFFFFFFFFLLLLLLLL
