414444163141465636312546331623
FFFFFFFFFFFFFFFFFFFFFFFFFFFFFF
514263115212666666666662666666
FFFFFFFFFFFLLLLLLLLLLLLLLLLLLL
313561324522336366145265351441
FFFFFFFFFFFFFFLLLLLFFFLFFFFFFF
226355423354566661326141333466
FFFFFFFFFFFFFLLLLFFFFFFFFFFFFF
664263122414133462542414122266
LLLFFFFFFFFFFFFFFFFFFFFFFFFFLL
661626421124454523666561364323
LLLLLLFFFFFFFFFFFFFFFFFFFFFFFF
643415326661324411452311351336
FFFFFFFFFLFFFFFFFFFFFFFFFFFFFF
233636566266666646156666666662
FFFFFLLLLLLLLLLLLLFLLLLLLLLLLL
434346335251515166661343442246
LFFFFFFFFFFFFFFFLFFFFFFFFFFFFL
466651555536665666666666311216
FFFFFFFFFFFLLLLLLLLLLLLLLFFFFL
334666654552656666221513312521
FFFLLLLFFFFFLLLLLLFFFFFFFFFFFF
244312423565416262535121355612
FFFFFFFFFFFFFFFFFFFFFFFFFFFFFF
553446666621231666663666666545
FFFFFLLLLFFFFFFLLLLLLLLLLLLFFF
315323233411621136666566666662
FFFFFFFFFFFFFFFFFFLLLLLLLLLLLL
454252434226134556624566664431
FFFFFFFFFFFFFFFFFFFFFFLLFFFFFF
612621536253666646665466666661
FFFFFFFFFFLLLLLLLLLLLLLLLLLLLL
661163125535464646155562466614
FFFFFFFFFFFFFLLLFFFFFLLLLLLLFF
455641545263163646661464611665
FFFFFFFFFFFFFFFFFLLLFFFFFFFFFF
265412314423143351166666561666
FFFFFFFFFFFFFFFFFFFLLLLLLLLLLL
515121614462434651266666414254
FFFFFFFFFFFFFFFFFLLLLLLLFFFFFF
655266636666666616666121223666
FFFFFLLFFLLLLLLLLLLLLLFFLLLLLL
656465262213653466331433333516
LFFFFFFFFFFFFFFFFFFFFFFFFFFFFF
261135316665536123565634564463
FFFFFFLLLLLFFFFFFFFFFFFFFFFFLL
665626466666663666222361626623
LLLLLLLLLLLLLLLLLLFFFFFFFFLLFF
666666666656466666626653145134
LLLLLLLLLLLLLLLLLLLLLFFFFFFFFF
666646622431626566613616111321
LLLLLLLFFFFFLLLLLLLLLLLLFFFFFF
653632323662466664433622163666
LFFFFFFFLLLLLLLLFFFFFFFFFFFLLL
166666364664664663132344213626
FLLLLLLLLLLLLLLLLFFFFFFFFFFLLL
364653666666666635214232666666
FFFLLLLLLLLLLLLLFFFFFFFLLLLLLL
545523222553254666626666646463
FFFFFFFFFFFFFFFFLLLLLLLLLLLFFF
564554242211366155554364461521
LLFFFFFFFFFFFFFFFFFFFFFFLLFFFF
121254351612462151466466363312
FFFFFFFFFFFFFFFFFFFLLLLFFFFFFF
445625664666323661643226662244
FFFLLLLLLLLLFFFFFFFFFFFFFFFFFF
466565664534262666143241224622
FLFFFFFFFFFFFFLLLLLFFFFFFFFFFF
666666666616656665666566661626
LLLLLLLLLLLLLLLLLLLLLLLLLLLLLL
662361652266553624511663656641
LLLLLLFFFFLLFFFFFFFFFLLLLLLLFF
364565365352113251462446434542
FFFFFFFFFFFFFFFFFFFFFFFFFFFFFF
364513135661665646534356614316
FFFFFFFFLLLLLLLLLFFFFFFFFFFFFF
666565221436632163516615663466
FFFFFFFFFFFFFFFFFFFFLLLLLLLLLL
345635432256261522662142614145
FFFFFFFFFFFFFFFFFFFFFFFFFFFFFF
266666662666356615666552656356
FLLLLLLLFLLLLLLLFFLLLFFFFFFFFL
625265126441651126566565666666
FFFFFFFFFFFFFFFFFLLLLLLLLLLLLL
636631564416552222542233562362
LLLLLFFFFFFFFFFFFFFFFFFFFFFFFF
614632411434365544362664253665
FFFFFFFFFFFFFFFFFFFFFFFFFFFFFF
643545154143121453421233453531
LFFFFFFFFFFFFFFFFFFFFFFFFFFFFF
363161245512263566445266663625
LLFFFFFFFFFFFFFFFFFFFLLLLLFFFF
111111661234641644615263333416
FFFFFFFFFFFFFFFFFFFFFFFFFFFFFF
156646616666661666666555363156
LLLLLLLLLLLLLLLLLLLLLFFFFFFFFL
143661246666663666626666666666
FFFFFFFFLLLLLLLLLLLLLLLLLLLLLL
264141322442264666466666666666
FLFFFFFFFFFFFLLLLLLLLLLLLLLLLL
626665661641611666161662556263
LLLLLLLLLLLLLFLLLLLLLLLFFFFFFF
411533245435521155246642331541
FFFFFFFFFFFFFFFFFFFFFFFFFFFFFF
414624366656564566643321616666
FFFLLLLLLLFFFFFLLFFFFFFFFFLLLL
666656166666666666461122661536
LLLLLLFFLLLLLLLLLLFFFFFFLLLLLL
433344212331236524665323513156
FFFFFFFFFFFFFFFFFFFFFFFFLFFFFL
254453435455446615313434162323
FFFFFFFFFFFFFFFFFFFFFFFFFFFFFF
521634124453261346456241536656
FFFFFFFFFFFFFFFFFFFFFFFFFFLLLL
164535124135363625662144431653
FLFFFFFFFFFFFFFFFFFFFFFFFFFFFF
445553512642364166646566666166
FFFFFFFFFFFFFLLLLLLLLLLLLLLLLL
266266366336666666666144136326
FLLLLLLLLLLLLLLLLLLLLFFFFFFLLL
111361661163331532526463433311
FFFFFFFFFFFFFFFFFFFFLFFFFFFFFF
666666652641153666241346622233
LLLLLLLFFFFFFFFFFFFFFFFFFFFFFF
633355421635566666666266666666
FFFFFFFFFFFFFLLLLLLLLLLLLLLLLL
666316664326666666666611355566
LLLFFLLLFFFLLLLLLLLLLLLFFFFFFF
616666666266661636425666661165
LLLLLLLLLLLLLLLLLLLLFLLLLLFFFF
666656112335213253166666666666
LLLLFFFFFFFFFFFFFFFLLLLLLLLLLL
221432334665265111365366666362
FFFFFFFFFFFFFLFFFFFLFLLLLLLLLL
216524361565462436666666665624
FFFFFFFFFFFFFFFFFFLLLLLLLLLLLF
666313161226415336344166223161
LLLFFFFFFFFFFFFFFFFFLLLLLLLFLL
225243455123466666665666666662
FFFFFFFFFFFFFFLLLLLLLLLLLLLLLL
666666666666366666652145336351
LLLLLLLLLLLLLLLLLLFFFFFFFFFFFF
335323362626233541665666656666
FFFFFFFFFFFFFFFFFFLLLLLLLLLLLL
122342646235112262554165232565
FFFFFFFFFFFFFFFFFFFFFFFFFFFFFF
366666666666666666666166566612
FFFFFFLLLLLLLLLLLLLLLLLLLLLLFF
651413411135643316265364433123
FFFFFFFFFFFFFFFFFFFFFFFFFFFFFF
556413354255141331442342341163
FFFFFFFFFFFFFFFFFFFFFFFFFFFFFF
564241623165565135161141252561
FFFFFFFFFFFFFFFFFFFFFFFFFFFFFF
444156342656543464653216553636
FFFFFFFFFFFFFFFFFFFFFFFFFFFLLL
623242324344433253343666666112
LFFFFFFFFFFFFFFFFFFFFLLLLLLLLL
633315413431363565356264241123
FFFFFFFFFFFFFFFFFFFFFFFFFFFFFF
666666266666666666663663536653
LLLLLLLLLLLLLLLLLLLLLLFFFFLLFF
666666664513333266642213231235
LLLLLLLLLLFFFFFFLLLFFFFFFFFFFF
321126255654166366651456161646
FFFFFFFFFLFFFFLLLLLFFFFFFFFLLL
653266361414453224255552262666
LFFFFLFFFFFFFFFFFFFFFFFFFLLLLL
215536262214266666666165422441
FFFFFFFFFFFLLLLLLLLLLLLFFFFFFF
466644626166666122641224552423
FFLLLLLLLLLLLLLFFFFFFFFFFFFFFF
556261153511142626622663566565
FFFFLFFFFFFFFFFLLLLLLLLLLLLLFF
465666356653455354351461612135
FFFFLLLLLLFFFFFFFFFFFFFFFFFFFF
364266666561666664666656144441
FFFFLLLLLLLLLLLLLLLLLLFFFFFFFF
133165316566662566666666666666
FFFFFFFFLLLLLLLLLLLLLLLLLLLLLL
265114444365666666665163562145
FFFFFFFFFFFLLLLLLLLFFFFFFFFFFF
666513243134442142146612143321
LLLLFFFFFFFFFFFFFFFFFFFFFFFFFF
426146454365331456225516323465
FFFFFFFFFFFFFFFFFFFFFFFFFFFFFF
546665266232356266666662666662
FFLLLLFFFFFFFFFFLLLLLLLLLLLLFF
342266662646466516461535323534
FFFLLLFFFFFFFFFFFFFFFFFFFFFFFF
565154234456442126234131113654
FFFFFFFFFFFFFFFFFFFFFFFFFFFFFF
153616166666636526666463566643
FFLLLLLLLLLLLLLLLLLLLLLLLLLLFF
153211643525115432444254224226
FFFFFFFFFFFFFFFFFFFFFFFFFFFFFL
162455315666666566666266666646
FFFFFFFFFLLLLLLLLLLLLLLLLLLLLL
162466343134561466566166666415
FFFFLLFFFFFFFLLLLLLLLLLLLLFFFF
525364124452431445352153141442
FFFFFFFFFFFFFFFFFFFFFFFFFFFFFF
362516164251655164322453614466
FFFFFFFFFFFFFFFFFFFFFFFFFFFFLL
666645325263234352361166216164
LLLFFFFFFFLFFFFFFFFFFFFFFFFFFF
515542651366631613134215366523
FFFFFFFLLLLLLFFFFFFFFFFFFFFFFF
223426521465112462432564163661
FFFFFFFFFFFFFFFLFFFFFFFFFFFFFF
666611245656613355422244256421
LLFFFFFFFLLLLFFFFFFFFFFFFFFFFF
261436154155121116124152114551
FFFFFFFFFFFFFFFFFFFFFFFFFFFFFF
311364241466661616536366364666
FFFFFFFFFFFLLLLLLLLLLLLLLLLLLL
314362236654633162622436364115
FFFFFFLLLLFFFFFFFFFFFFFFFFFFFF
121426453444126166456656143221
FFFFFFFFFFFFFFFFFFFFFFFFFFFFFF
456514653134432514666666666466
FFFFFFFFFFFFFFFFFFFLLLLLLLLLLF
211353626623624614412556242313
FFFFFFFFLFFFFFFFFFFFFFFFFFFFFF
341251252454532132513366243564
FFFFFFFFFFFFFFFFFFFFFFLLFFFFFF
412244456631451425514236223113
FFFFFFFFFFFFFFFFFFFFFFFFFFFFFF
634634213123146235323331331263
FFFFFFFFFFFFFFFFFFFFFFFFFFFLLL
464555325136616141535554655666
FFFFFFFFFFFFFFFFFFFFFFFFFLLLLL
425131666666666666664633663111
FFFFFFLLLLLLLLLLLLLLFFFFFFFFFF
346623344435411121651666241632
FFFFFFFFFFFFFFFFFFFFFFFFFFFFFF
646664411121363315654534213466
LLLLLFFFFFFFFFFFFFFFFFFFFFFFLL
356366366653335261435363325566
FFFFLLLLLLFFFFFFFFFFFFFFFFFFLL
612264334625214352464156124466
FFFFFFFFFFFFFFFFFFFFFFFFFFFFFF
515635643356653162426664666666
FFFLLLLFFFFLLFFFFFFFLLLLLLLLLL
265366666513625333253224556352
FFFFLLLLLFFLLFFFFFFFFFFFFFFFFF
626656666655443416666546666243
LLLLLLLLLLFFFFFFFFFLLFFLLLLFFF
246666616666663666364316512516
FFLLLLLLLLLLLLLLLFFFFFFFFFFFFF
526633425512656113164314412542
FFFFFFFFFFFFFFFFFFFFFFFFFFFFFF
561136654336433244464554616543
FFFFFFFFFFFFFFFFFFFFFFFFFFFFFF
235643326111122522133122256626
FFFFFFFFFFFFFFFFFFFFFFFFFFLLLL
533666626366666656663616666645
LLLLLLLFFFLLLLLLLLLLLLLLLLLLFF
121445326243424335231412263512
FFFFFFFFFFFFFFFFFFFFFFFFFFFFFF
521414632544616663221624142164
FFFFFFFFFFFFFFFFFFFFFFFFFFFFFF
363661162534414562646366666222
LLLLLLLLLFFFFFFFFFLLLLLLLLLLLL
436626313136636666666666466666
LLLLLLLLFFFLLLLLLLLLLLLLLLLLLL
662421565434211415323564625145
FFFFFFFFFFFFFFFFFFFFFFFFFFFFFF
656666652266621666666656666616
LLLLLLLLLLLLLLLLLLLLLLLLLLLLLL
666666636633516414654363621231
LLLLLLLFFFFFFFFFFFFFFFFFFFFFFF
242536354154215612215463662611
FFFFFFFFFFFFFFFFFFFFFFFFFFFFFF
666541666566666666615416624232
LLLLFFLLLLLLLLLLLLLLFFFFFFFFFF
333442615666666613634636424242
FFFFFFLLLLLLLLLLFFFFFFFFFFFFFF
241465165352425662266145365411
FFFFFFFFFFFFFFFFFFFFFFFFFFFFFF
356516141164423333134636666161
FFFFFFFFFFFFFFFFFFFFLLLLLLLLLF
646266663433222356236422466466
LLLLLLLLFFFFFFFFFFFFFFFFFFLLLL
666332653655524323132466665553
LLLFFFFFFLFFFFFFFFFFFFLLLLLFFF
662266462665665665664243344653
LFFFFFFLLLLLLLLLLFLLLLFFFFFFFF
666626666566631366626633626523
LLLLLLLLLLLLLLLLLLLFFFFFFFFFFF
641326136513135664264663114666
FFFFFLLFFFFFFFFLLFFFFFFFFFFFLL
665464465336666661236615212665
LLFFFFFFFFFFLLLLLLLLLLLFFFFLLF
616352123454541134643245662542
FFFFFFFFFFFFFFFFFFFFFFFFFFFFFF
343314116336666666664631432553
FFFFFFFFFFFLLLLLLLLLLLFFFFFFFF
626553311166636666645666211542
FFFFFFFFFFLLLLLLLLLLLLLFFFFFFF
624646566561514464666666266666
FFFFFFFFFFFFFFFFFLLLLLLLLLLLLL
666424664126312654561255654343
LLLLLLLFFFFFFFFLLFFFFFFFFFFFFF
134444156522466666661646566616
FFFFFFFFFFFFFLLLLLLLLLLLLLLLLL
452512616153162666234123351536
FFFFFFFFFFFFFFFLLLFFFFFFFFFFFF
223666644214223442466662266666
FFFFFFFFFFFFFFFFFFFLLLLLLLLLLL
666666666666666666121633323423
LLLLLLLLLLLLLLLLLLFFFFFFFFFFFF
666666666666646666311566662666
LLLLLLLLLLLLLLLLLLFFFFLLLLLLLF
631666166666661666666666266666
LLLLLLLLLLLLLLLLLLLLLLLLLLLLLL
664114561655525446534435142431
FFFFFFFFFFFFFFFFFFFFFFFFFFFFFF
464641656661663666166666631646
LLLLLLLLLLLLLLLLLLLLLLLLLLLLLL
425541351666643415531416621666
FFFFFFFFFFFFFFFFFFFFFFFLLLLLLL
165323663414536644123311643426
FFFFFFLLLLFFFFFFFFFFFFFFFFFFFF
623113552364635515154635563342
LFFFFFFFFFFFFFFFFFFFFFFFFFFFFF
661155522152554334345162162512
LFFFFFFFFFFFFFFFFFFFFFFFFFFFFF
366613666666311224646226666366
LLLLLLLLLLLLLFFFLLLLLFFLFFFFFL
642643136566616616666666422345
FFFFFFFFLLLLLLLLLLLLLLLLLFFFFF
166666665656666666666666666666
LLLLLLLLLLLLLLLLLLLLLLLLLLLLLL
635421432664214313555512541531
LFFFFFFFFFFFFFFFFFFFFFFFFFFFFF
314112213634311553146421666563
FFFFFFFFFFFFFFFFFFFFFFFLLLLLFF
622623653314635532166521325623
LLFFFFFFFFFFFFFFFFFFFFFFFFFFFF
665351353643545111262666141625
LLFFFFFFFFFFFFFFFFFFFFLLLFFFFF
655326342446665464441216125352
LLFFFFFFFFFFFFFFFFFFFFFFFFFFFF
663545336665314542612311212136
FFFFFFFFLLLFFFFFFFFFFFFFFFFFFF
656654466646666614156124233666
FFLLLFFFFFFLLLLFFFFFFFFFFFFFFF
636636622246666666625665362666
LLLLFFFFFFFLLLLLLLLLFFFFFFFLLL
513643443424321426351221266266
LLLLFFFFFFFFFFFFFLFFFFFFFLLLLL
666322411256466444231335456534
LLLLFFFFFFFLLLFFFFFFFFFFFFFFFF
145631114613163636664666666666
FFFFFFFFFFFFFFFFLLLLLLLLLLLLLL
163614444515666265435562511561
LLFFFFFFFFLLLLLFFFFFFFFFFFFFFF
111344411636116455222421556236
FFFFFFFFFFFFFFFFFFFFFFFFFFFFFF
165331223514112424534136326666
FFFFFFFFFFFFFFFFFFFFFFFFFFLLLL
526366366456666665255466666666
FFLLLLLLLLLLLLLLLFFFFFLLLLLLLL
133436213164611623366242536332
FFFFFFFFFFFFFFFFFFFFFFFFFFFFFF
425611414144312163443453241225
FFFFFFFFFFFFFFFFFFFFFFFFFFFFFF
446665666666616666546666666521
FFLLLLLLLLLLLLLLLLFFLLLLLLLFFF
356643344556432226556162666266
FFFFFFFFFFFFFFFFFFFLLLLLLLLLLL
631353532241612143223134126624
FFFFFFFFFFFFFFFFFFFFFFFFFFFFFF
544364245415426353335444242655
FFFFFFFFFFFFFFFFFFFFFFFFFFFFFF
656666662664156411255562161122
LLLLLLLLLLLFFFFFFFFFFFFFFFFFFF
653632346264221151652136132224
FFFFFFFFFFFFFFFFFFFFFFFFFFFFFF
416511423223451212314542115664
FFFFFFFFFFFFFFFFFFFFFFFFFFFFFF
442455414366655635666611451666
FFFFFFFFFLLLLLFFFFLLLLFFFFLLLL
466666566666666655666666466661
LLLLLLLLLLLLLLLLLLLLLLLLLLLLLF
643131331425153666666624633422
FFFFFFFFFFFFFFFLLLLLLLFFFFFFFF
622564641444366633614612534112
FFFFFFFFFFFFLLLFFFFFFFFFFFFFFF
613266336231114143545646561664
LFFFLLLFFFFFFFFFFFFFFFFFFFFFFF
434344653451513464233355262626
FFFFFFFFFFFFFFFFFFFFFFFFFFFFFF
164241516666655661135151536264
FFFFFFFFLLLLLLLFFFFFFFFFFFFFFF
666666661253462415542133256666
LLLLLLLLFFFFFFFFFFFFFFLFFFFLLL
563456666646166616466666636612
FFFFLLLLLLLLLLLLLLLLLLLLLLLLLL
423122663666356666262241143542
FFFFLLLLLLLLLLLLLLFFFFFFFFFFFF
441144154626661463345666466616
FFFFFFFFFFFFFFFFFFFFLLLLLLLLLL
666666665561655465666565536666
LLLLLLLLFFLLLFFFFFFFFFFFLLLLLL
461666114143666666626646665624
FLFFFFFFFFFFLLLLLLLLLLLLLLFFFF
561663666664335565413364145666
LLLLLLLLLLLFFFFFFFFFFFFFFFLLLL
115535611644526231424124161645
FFFFFFFFFFFFFFFFFFFFFFFFFFFFFF
536466466662622441316264661433
FFFLLLLLLLLLLFFFFFFFFFFFFFFFFF
656116413162566666112255344324
LFFFFFFFFFFFLLLLLLFFFFFFFFFFFF
466666366411436656666466666566
LLLLLLLFFFFFFFLLLLLLLLLLLLLLLL
152666646666631266666561341211
FFFFFLLLLLLLLLLLLLLLLLFFFFFFFF
164666611566661666566666661646
FFLLLLLFLLLLLLLLLLLLLLLLLLLLLL
235233243263263666666116656661
FFFFFFFFFFFFLLLFFFLLLFFLLLLLLL
253666143315254462433661132323
FFFFLLFFFFFFFFFFFFFFFFFFFFFFFF
161465661642266466666243351164
FFFFFFFFFFFFFFLLLLLLLFFFFFFFFF
666266566566231364352664665665
LLLLLLLLLLLLFFFFFFFFFLLLLLLLLL
416164344666664626616166454615
FFFFFFFFFLLLLLLLLLLLLLLLFFFFFF
315613212355326115244456566316
FFFFFFFFFFFFFFFFFFFFFFFFFLLLLL
326342616362663665262666666566
FFFFFFLFFFFFFFFFFFFLLLLLLLLLLL
124432553566212226536245336336
FFFFFFFFFFFFFFFLFFFFFFFFFFLLLL
363243513246344215466553231152
FFFFFFFFFFFLFFFFFFFLLFFFFFFFFF
264136666664364166166666642662
FLFFFLLLLLLLLLLLLLLLLLLLLLLLLF
336522631616661666666666662462
FFFFFLFFFFLLLLLLLLLLLLLLLLLLLL
462564323662161535666256646666
FFFFFFFFFFFFFFFFFFLLLLLLLLLLLL
663666666666666646466234653536
LLLLLLLLLLLLLLLLLLLLLFFFFFFFFL
616354256662162623621531466324
LFFFFFFFLLLFLFFFFFFFFFFFFFFFFF
123665356642126611134134116433
FFFLLLLLLLFFFFFFFFFFFFFFFFFFFF
663666666645244622114554356256
LLLLLLLLLLFFFFFFFFFFFFFFFFFFFF
551664163624115426561626666646
FFFFFFFFFFFFFFFFFFFFFFFLLLLLLL
516632366311665166635636124153
FFFFFLLLLFFFFFFFLLLFFFFFFFFFFF
543136352115155666666431656625
FFFFFFFFFFFFFFFLLLLLLLFFFFFFFF
226443256334113432346626652461
FFFFFFFFFFFFFFFFFFFFFFFFFFFFFF
323553322643425364656536132225
FFFFFFFFFFFFFFFFFFFFFFFFFFFFFF
511614331444154113162466115625
FFLLFFFFFFFFFFFFFFFFFFFFFFFFFF
423656462666466562566666636665
FFFFFFFFFFLLLLLLLLLLLLLLLLLLLL
363121212115246426666666665256
FFFFFFFFFFFFFFFFFLLLLLLLLLFFFL
512245452342254466135366564636
FFFFFFFFFFFFFFFFFLFFFFLLLLLLLL
213256661666566666666661533155
FFFFLLLLLLLLLLLLLLLLLLLFFFFFFF
123552453333632545543631631325
FFFFFFFFFFFFFFFFFFFFFFFFFFFFFF
531513156334421443653513633423
FFFFFFFFFFFFFFFFFFFFFFFFFFFFFF
362643431566666661322653315555
FFFFFFFFFFLLLLLLLFFFFFFFFFFFFF
616666526443255231116461116344
LLLLLLFFFFFFFFFFFFFFFFFFFFFFFF
326352452616625642164255513466
FFFFFFFFFLLLLLLLFFFFFFFFFFFFLL
126156612612665615236231663231
FFFFFFFFFFFFLLLLFFFFFFFFFFFFFF
511654352113643136646121324154
FFFFFFFFFFFFFFFFFFFFFFFFFFFFFF
666666666666322562466633613145
LLLLLLLLLLLLFFFFFFFFFFFFFFFFFF
162642514632325431162134426536
FFFFFFFFFFFFFFFFFFFFFFFFFFFFFL
666656662131233553431516262444
LLLLLLLFFFFFFFFFFFFFFFFFFFFFFF
662516553232133612216265665666
FFFFFFFFFFFFFFFLLLLFFFFFFFFLLL
115166666432426422425356665661
FFFFLLLLLFFFFFFFFFFFFFFLLLLLLL
666646663153645426212446354311
LLLLLLLLFFFFFFFFFFFFFFFFFFFLLL
142145666662666666662665166662
FFFFFFLLLLLLLLLLLLLLLLLLLLLLLF
223641425322635156144666666666
FFFFFFFFFFFFFFFFFFFFFFLLLLLLLL
416426666666666616125336422361
LFFFFLLLLLLLLLLLFFFFFFFFFFFFFF
664161411312364451125346564262
FFFFFFFFFFFFFFFFFFFFFFFFFFFFFF
645166246132316364234214645364
FFFFFFFFFFFFFFFFFFFFFFFFFFFFFF
124346253561364542542256534666
FFFFFFFFFFFFFFFFFFFFFFFFFFFFLL
626663154435455141425253524614
FFFFFFFFFFFFFFFFFFFFFFFFFFFFFF
435566666636663664215263222434
LFFFLLLLLLLLLLLLLFFFFFFFFFFFFF
134351534625356522463635332113
FFFFFFFFFFFFFFLLLFFFFFFFFFFFFF
665666156666646462241564123644
LLLLLLLLLLLLLLLLLFFFFFFFFFFFFF
666663666666655656236326156666
LLLLLLLLLLLLLLLLLFFFLFFFFFLLLL
626623153625446134554432443462
LLFFFFLLLLLFFFFFFFFFFFFFFFFFFF
644533114661262666666663666262
FFFFFFFFFLLFFFFFLLLLLLLLLLLLLL
451416126416415253426634615116
FFFFFFFFFFFFFFFFFFFFFFFFFFFFFF
243166466355114421532352533254
FFFFFFFLFFFFFFFFFFFFFFFFFFFFFF
144162126224324225145662666661
FFFFFFFFFFFFFFFFFFFFLLLLLLLLLL
664324631132136663466634562166
FFFFFFFFFFFFFFFFFFLLLLLFFFFFLL
626664663336436334655541625122
LFLLLLLLFFFFFFFFFFFFFFFFFFFFFF
214242566454346366655644565162
FFFFFFFFFFFFFFFFLLLFFFFFFFFFFF
636143416535126453251144362431
LLLFFFFFFFFFFFFFFFFFFFFFFFFFFF
666463636623354666566666631423
LLLLLLLLLLLFFFFLLLLLLLLLLLFFFF
253522615363411313364356366624
FFFFFFFFFFFFFFFFFFFFFFFLLLLLFF
662424122433566666426666516415
LLFFFFFFFFFFFLLLLLLLLLLLLFFLLF
666363655666666666656342245451
LLLLLLLLLLLLLLLLLLLLLFFFFFFFFF
666635552124621243422522114344
LLLFFFFFFFFFFFFFFFFFFFFFFFFFFF
622661461622636216446552316513
FFFFFFFFFFFFFFFFFFFFFFFFFFFFFF
615235613666245613535524453554
FFFFFFFFFLLLFFFFFFFFFFFFFFFFFF
146631411522512251521422214342
LFFFFFFFFFFFFFFFFFFFFFFFFFFFFF
666535424364423313251333211643
LLLFFFFFFFFFFFFFFFFFFFFFFFFFFF
265423241666666666424343221146
FFFFFFFFFLLLLLLLLLFFFFFFFFFFFF
156311621232515355235313244234
FFFFFFFFFFFFFFFFFFFFFFFFFFFFFF
666666235515413162266662515665
LLLLLFFFFFFFFFFFFFFLLLLFFFFLLL
421666642666666666666445423565
FFFLLLLLLLLLLLLLLLLLLFFFFFFFLL
111245646453463546242116151313
FFFFFFFFFFFFFFFFFFFFFFFFFFFFFF
353363421254214335556466335135
FFFFFFFFFFFFFFFFFFFFFFFFFFFFFF
244342621143163666666666666335
FFFFFFFFFFFFFLLLLLLLLLLLLLLFFF
666226536244463261245433245566
LLLFFFFFLFFFFFFFFFFFFFFFFFFFFF
165264212214456662161666666636
FFFFFFFFFFFFFLLLLLLLLLLLLLLLLL
616164326545646545433432153652
FFFFFFFFFFFFFFFFFFFFFFFFFFFFFF
424651254626621455216421552242
FFFFFFFFFFFFFFFFFFFFFFFFFFFFFF
356134454214516136133325356262
FFFFFFFFFFFFFFFFFFFFFFFFFFLLLL
226165646664633266666666664551
FFFFLLLLLLLLLLLLLLLLLLLLLLFFFF
652666566166666666666666626666
LLLLLLLLLLLLLLLLLLLLLLLLLLLLLL
666666616235242426622566646466
LLLLLLLFFFFFFFFFFFFFFFFLLLLLLL
666216666123411666666666666164
LLLLLLLLLLFFFFLLLLLLLLLLLLLFFF
356234135666664666264366612646
FFFFFFFFFLLLLLLLLLLLLLLLLFFFFF
424546526312653623144643454423
FFFFFFFFFFFFFFFFFFFFFFFFFFFFFF
465532642651661452215542146666
FFFFFFFFFFFFFFFFFFFFFFFFFFLLLF
616666666462631331666666653536
LLLLLLLLLLLFFFFFFLLLLLLLLFFFFF
265152516232363132511321341255
FFFFFFFFFFFFFFFFFFFFFFFFFFFFFF
