,Correctness:,0.3400,0.3400,0,, ,Correctness:,0.3000,0.3000,0,, ,Correctness:,0.2900,0.2900,0,, ,Correctness:,0.2200,0.2200,0,, ,Correctness:,0.2600,0.2600,0,, 
,Correctness:,0.3400,0.3400,0,, ,Correctness:,0.3200,0.3200,0,, ,Correctness:,0.2700,0.2700,0,, ,Correctness:,0.2400,0.2400,0,, ,Correctness:,0.2400,0.2400,0,, 
,Correctness:,0.3800,0.3800,0,, ,Correctness:,0.3500,0.3500,0,, ,Correctness:,0.1300,0.1300,0,, ,Correctness:,0.3700,0.3700,0,, ,Correctness:,0.4100,0.4100,0,, 
,Correctness:,0.4700,0.4700,0,, ,Correctness:,0.2800,0.2800,0,, ,Correctness:,0.1900,0.1900,0,, ,Correctness:,0.2200,0.2200,0,, ,Correctness:,0.3800,0.3800,0,, 
,Correctness:,0.4500,0.4500,0,, ,Correctness:,0.3200,0.3200,0,, ,Correctness:,0.2200,0.2200,0,, ,Correctness:,0.3100,0.3100,0,, ,Correctness:,0.3600,0.3600,0,, 
,Correctness:,0.5400,0.5400,0,, ,Correctness:,0.3800,0.3800,0,, ,Correctness:,0.1800,0.1800,0,, ,Correctness:,0.1300,0.1300,0,, ,Correctness:,0.3600,0.3600,0,, 
,Correctness:,0.4200,0.4200,0,, ,Correctness:,0.2900,0.2900,0,, ,Correctness:,0.1700,0.1700,0,, ,Correctness:,0.2100,0.2100,0,, ,Correctness:,0.3900,0.3900,0,, 
,Correctness:,0.3800,0.3800,0,, ,Correctness:,0.3100,0.3100,0,, ,Correctness:,0.2700,0.2700,0,, ,Correctness:,0.2400,0.2400,0,, ,Correctness:,0.2600,0.2600,0,, 
,Correctness:,0.5400,0.5400,0,, ,Correctness:,0.3000,0.3000,0,, ,Correctness:,0.2200,0.2200,0,, ,Correctness:,0.1800,0.1800,0,, ,Correctness:,0.3300,0.3300,0,, 
,Correctness:,0.3900,0.3900,0,, ,Correctness:,0.2900,0.2900,0,, ,Correctness:,0.2400,0.2400,0,, ,Correctness:,0.1400,0.1400,0,, ,Correctness:,0.3600,0.3600,0,, 
,Correctness:,0.4600,0.4600,0,, ,Correctness:,0.3000,0.3000,0,, ,Correctness:,0.2950,0.2950,0,, ,Correctness:,0.1700,0.1700,0,, ,Correctness:,0.3300,0.3300,0,, 
,Correctness:,0.4600,0.4600,0,, ,Correctness:,0.3300,0.3300,0,, ,Correctness:,0.2100,0.2100,0,, ,Correctness:,0.2200,0.2200,0,, ,Correctness:,0.3100,0.3100,0,, 
,Correctness:,0.5350,0.5350,0,, ,Correctness:,0.3050,0.3050,0,, ,Correctness:,0.1850,0.1850,0,, ,Correctness:,0.2100,0.2100,0,, ,Correctness:,0.4150,0.4150,0,, 
,Correctness:,0.4150,0.4150,0,, ,Correctness:,0.3300,0.3300,0,, ,Correctness:,0.2300,0.2300,0,, ,Correctness:,0.2300,0.2300,0,, ,Correctness:,0.3150,0.3150,0,, 
,Correctness:,0.3650,0.3650,0,, ,Correctness:,0.3300,0.3300,0,, ,Correctness:,0.2850,0.2850,0,, ,Correctness:,0.1700,0.1700,0,, ,Correctness:,0.2250,0.2250,0,, 
,Correctness:,0.4550,0.4550,0,, ,Correctness:,0.3050,0.3050,0,, ,Correctness:,0.3050,0.3050,0,, ,Correctness:,0.1250,0.1250,0,, ,Correctness:,0.2900,0.2900,0,, 
,Correctness:,0.4500,0.4500,0,, ,Correctness:,0.3500,0.3500,0,, ,Correctness:,0.1750,0.1750,0,, ,Correctness:,0.2150,0.2150,0,, ,Correctness:,0.4150,0.4150,0,, 
,Correctness:,0.4100,0.4100,0,, ,Correctness:,0.3450,0.3450,0,, ,Correctness:,0.2900,0.2900,0,, ,Correctness:,0.1150,0.1150,0,, ,Correctness:,0.2850,0.2850,0,, 
,Correctness:,0.4350,0.4350,0,, ,Correctness:,0.3350,0.3350,0,, ,Correctness:,0.1950,0.1950,0,, ,Correctness:,0.2500,0.2500,0,, ,Correctness:,0.3000,0.3000,0,, 
,Correctness:,0.4500,0.4500,0,, ,Correctness:,0.2850,0.2850,0,, ,Correctness:,0.3200,0.3200,0,, ,Correctness:,0.1500,0.1500,0,, ,Correctness:,0.3400,0.3400,0,, 
,Correctness:,0.4625,0.4625,0,, ,Correctness:,0.3275,0.3275,0,, ,Correctness:,0.2350,0.2350,0,, ,Correctness:,0.1725,0.1725,0,, ,Correctness:,0.2525,0.2525,0,, 
,Correctness:,0.3800,0.3800,0,, ,Correctness:,0.2825,0.2825,0,, ,Correctness:,0.3150,0.3150,0,, ,Correctness:,0.1925,0.1925,0,, ,Correctness:,0.2525,0.2525,0,, 
,Correctness:,0.4125,0.4125,0,, ,Correctness:,0.3300,0.3300,0,, ,Correctness:,0.2575,0.2575,0,, ,Correctness:,0.2275,0.2275,0,, ,Correctness:,0.3300,0.3300,0,, 
,Correctness:,0.4400,0.4400,0,, ,Correctness:,0.3350,0.3350,0,, ,Correctness:,0.2550,0.2550,0,, ,Correctness:,0.1575,0.1575,0,, ,Correctness:,0.3150,0.3150,0,, 
,Correctness:,0.3800,0.3800,0,, ,Correctness:,0.3125,0.3125,0,, ,Correctness:,0.3225,0.3225,0,, ,Correctness:,0.1575,0.1575,0,, ,Correctness:,0.2950,0.2950,0,, 
,Correctness:,0.5050,0.5050,0,, ,Correctness:,0.3200,0.3200,0,, ,Correctness:,0.2825,0.2825,0,, ,Correctness:,0.1075,0.1075,0,, ,Correctness:,0.3075,0.3075,0,, 
,Correctness:,0.3375,0.3375,0,, ,Correctness:,0.3450,0.3450,0,, ,Correctness:,0.1875,0.1875,0,, ,Correctness:,0.2475,0.2475,0,, ,Correctness:,0.2775,0.2775,0,, 
,Correctness:,0.5000,0.5000,0,, ,Correctness:,0.3000,0.3000,0,, ,Correctness:,0.2725,0.2725,0,, ,Correctness:,0.0950,0.0950,0,, ,Correctness:,0.3275,0.3275,0,, 
,Correctness:,0.5050,0.5050,0,, ,Correctness:,0.2775,0.2775,0,, ,Correctness:,0.2450,0.2450,0,, ,Correctness:,0.1550,0.1550,0,, ,Correctness:,0.3675,0.3675,0,, 
,Correctness:,0.4050,0.4050,0,, ,Correctness:,0.3400,0.3400,0,, ,Correctness:,0.2650,0.2650,0,, ,Correctness:,0.2000,0.2000,0,, ,Correctness:,0.2975,0.2975,0,, 
,Correctness:,0.4938,0.4938,0,, ,Correctness:,0.3113,0.3113,0,, ,Correctness:,0.2525,0.2525,0,, ,Correctness:,0.1588,0.1588,0,, ,Correctness:,0.3675,0.3675,0,, 
,Correctness:,0.4450,0.4450,0,, ,Correctness:,0.3187,0.3187,0,, ,Correctness:,0.1963,0.1963,0,, ,Correctness:,0.2338,0.2338,0,, ,Correctness:,0.3688,0.3688,0,, 
,Correctness:,0.4350,0.4350,0,, ,Correctness:,0.3113,0.3113,0,, ,Correctness:,0.2325,0.2325,0,, ,Correctness:,0.2137,0.2137,0,, ,Correctness:,0.3125,0.3125,0,, 
,Correctness:,0.4487,0.4487,0,, ,Correctness:,0.3463,0.3463,0,, ,Correctness:,0.2238,0.2238,0,, ,Correctness:,0.2100,0.2100,0,, ,Correctness:,0.3525,0.3525,0,, 
,Correctness:,0.4800,0.4800,0,, ,Correctness:,0.3187,0.3187,0,, ,Correctness:,0.2338,0.2338,0,, ,Correctness:,0.1800,0.1800,0,, ,Correctness:,0.3488,0.3488,0,, 
,Correctness:,0.4675,0.4675,0,, ,Correctness:,0.3187,0.3187,0,, ,Correctness:,0.2087,0.2087,0,, ,Correctness:,0.2288,0.2288,0,, ,Correctness:,0.3312,0.3312,0,, 
,Correctness:,0.4313,0.4313,0,, ,Correctness:,0.2938,0.2938,0,, ,Correctness:,0.2888,0.2888,0,, ,Correctness:,0.1737,0.1737,0,, ,Correctness:,0.3387,0.3387,0,, 
,Correctness:,0.4263,0.4263,0,, ,Correctness:,0.2938,0.2938,0,, ,Correctness:,0.3137,0.3137,0,, ,Correctness:,0.1688,0.1688,0,, ,Correctness:,0.3150,0.3150,0,, 
,Correctness:,0.4125,0.4125,0,, ,Correctness:,0.3075,0.3075,0,, ,Correctness:,0.2900,0.2900,0,, ,Correctness:,0.2112,0.2112,0,, ,Correctness:,0.3000,0.3000,0,, 
,Correctness:,0.4763,0.4763,0,, ,Correctness:,0.3200,0.3200,0,, ,Correctness:,0.2362,0.2362,0,, ,Correctness:,0.1775,0.1775,0,, ,Correctness:,0.3050,0.3050,0,, 
,Correctness:,0.4356,0.4356,0,, ,Correctness:,0.3369,0.3369,0,, ,Correctness:,0.2325,0.2325,0,, ,Correctness:,0.2081,0.2081,0,, ,Correctness:,0.3456,0.3456,0,, 
,Correctness:,0.4275,0.4275,0,, ,Correctness:,0.3156,0.3156,0,, ,Correctness:,0.2162,0.2162,0,, ,Correctness:,0.2269,0.2269,0,, ,Correctness:,0.3362,0.3362,0,, 
,Correctness:,0.4125,0.4125,0,, ,Correctness:,0.3056,0.3056,0,, ,Correctness:,0.2731,0.2731,0,, ,Correctness:,0.1894,0.1894,0,, ,Correctness:,0.3137,0.3137,0,, 
,Correctness:,0.4662,0.4662,0,, ,Correctness:,0.3269,0.3269,0,, ,Correctness:,0.2056,0.2056,0,, ,Correctness:,0.1969,0.1969,0,, ,Correctness:,0.3394,0.3394,0,, 
,Correctness:,0.4500,0.4500,0,, ,Correctness:,0.3200,0.3200,0,, ,Correctness:,0.2406,0.2406,0,, ,Correctness:,0.1994,0.1994,0,, ,Correctness:,0.3231,0.3231,0,, 
,Correctness:,0.4269,0.4269,0,, ,Correctness:,0.3219,0.3219,0,, ,Correctness:,0.2156,0.2156,0,, ,Correctness:,0.2225,0.2225,0,, ,Correctness:,0.3438,0.3438,0,, 
,Correctness:,0.4494,0.4494,0,, ,Correctness:,0.3212,0.3212,0,, ,Correctness:,0.2313,0.2313,0,, ,Correctness:,0.1856,0.1856,0,, ,Correctness:,0.3513,0.3513,0,, 
,Correctness:,0.4506,0.4506,0,, ,Correctness:,0.3212,0.3212,0,, ,Correctness:,0.2131,0.2131,0,, ,Correctness:,0.2094,0.2094,0,, ,Correctness:,0.3119,0.3119,0,, 
,Correctness:,0.4206,0.4206,0,, ,Correctness:,0.3225,0.3225,0,, ,Correctness:,0.2531,0.2531,0,, ,Correctness:,0.2225,0.2225,0,, ,Correctness:,0.3312,0.3312,0,, 
,Correctness:,0.4494,0.4494,0,, ,Correctness:,0.3406,0.3406,0,, ,Correctness:,0.2094,0.2094,0,, ,Correctness:,0.2081,0.2081,0,, ,Correctness:,0.3450,0.3450,0,, 
Average:,0.4384,,,,, Average:,0.3179,,,,, Average:,0.2415,,,,, Average:,0.1971,,,,, Average:,0.3256,,,,, 
,Correctness:,0.3900,0.3900,0,, ,Correctness:,0.2000,0.2000,0,, ,Correctness:,0.3700,0.3700,0,, ,Correctness:,0.4000,0.4000,0,, ,Correctness:,0.3000,0.3000,0,, 
,Correctness:,0.4500,0.4500,0,, ,Correctness:,0.1600,0.1600,0,, ,Correctness:,0.3400,0.3400,0,, ,Correctness:,0.4600,0.4600,0,, ,Correctness:,0.3400,0.3400,0,, 
,Correctness:,0.4300,0.4300,0,, ,Correctness:,0.2900,0.2900,0,, ,Correctness:,0.3600,0.3600,0,, ,Correctness:,0.3700,0.3700,0,, ,Correctness:,0.3600,0.3600,0,, 
,Correctness:,0.4000,0.4000,0,, ,Correctness:,0.3100,0.3100,0,, ,Correctness:,0.3400,0.3400,0,, ,Correctness:,0.3600,0.3600,0,, ,Correctness:,0.3300,0.3300,0,, 
,Correctness:,0.3900,0.3900,0,, ,Correctness:,0.3100,0.3100,0,, ,Correctness:,0.4100,0.4100,0,, ,Correctness:,0.3700,0.3700,0,, ,Correctness:,0.3400,0.3400,0,, 
,Correctness:,0.4300,0.4300,0,, ,Correctness:,0.3100,0.3100,0,, ,Correctness:,0.3700,0.3700,0,, ,Correctness:,0.3700,0.3700,0,, ,Correctness:,0.3800,0.3800,0,, 
,Correctness:,0.3700,0.3700,0,, ,Correctness:,0.3600,0.3600,0,, ,Correctness:,0.3000,0.3000,0,, ,Correctness:,0.3400,0.3400,0,, ,Correctness:,0.4100,0.4100,0,, 
,Correctness:,0.4700,0.4700,0,, ,Correctness:,0.1500,0.1500,0,, ,Correctness:,0.2800,0.2800,0,, ,Correctness:,0.4600,0.4600,0,, ,Correctness:,0.3400,0.3400,0,, 
,Correctness:,0.4500,0.4500,0,, ,Correctness:,0.2500,0.2500,0,, ,Correctness:,0.2900,0.2900,0,, ,Correctness:,0.4300,0.4300,0,, ,Correctness:,0.3800,0.3800,0,, 
,Correctness:,0.4600,0.4600,0,, ,Correctness:,0.2600,0.2600,0,, ,Correctness:,0.3700,0.3700,0,, ,Correctness:,0.3900,0.3900,0,, ,Correctness:,0.3400,0.3400,0,, 
,Correctness:,0.4450,0.4450,0,, ,Correctness:,0.2550,0.2550,0,, ,Correctness:,0.3450,0.3450,0,, ,Correctness:,0.3900,0.3900,0,, ,Correctness:,0.3200,0.3200,0,, 
,Correctness:,0.4500,0.4500,0,, ,Correctness:,0.2550,0.2550,0,, ,Correctness:,0.3400,0.3400,0,, ,Correctness:,0.3900,0.3900,0,, ,Correctness:,0.3250,0.3250,0,, 
,Correctness:,0.4550,0.4550,0,, ,Correctness:,0.3350,0.3350,0,, ,Correctness:,0.3500,0.3500,0,, ,Correctness:,0.3250,0.3250,0,, ,Correctness:,0.3650,0.3650,0,, 
,Correctness:,0.4400,0.4400,0,, ,Correctness:,0.2350,0.2350,0,, ,Correctness:,0.3350,0.3350,0,, ,Correctness:,0.4150,0.4150,0,, ,Correctness:,0.3650,0.3650,0,, 
,Correctness:,0.4550,0.4550,0,, ,Correctness:,0.1550,0.1550,0,, ,Correctness:,0.3400,0.3400,0,, ,Correctness:,0.4450,0.4450,0,, ,Correctness:,0.3000,0.3000,0,, 
,Correctness:,0.4500,0.4500,0,, ,Correctness:,0.2450,0.2450,0,, ,Correctness:,0.3100,0.3100,0,, ,Correctness:,0.3700,0.3700,0,, ,Correctness:,0.3100,0.3100,0,, 
,Correctness:,0.4750,0.4750,0,, ,Correctness:,0.2900,0.2900,0,, ,Correctness:,0.3450,0.3450,0,, ,Correctness:,0.3750,0.3750,0,, ,Correctness:,0.3400,0.3400,0,, 
,Correctness:,0.5050,0.5050,0,, ,Correctness:,0.2000,0.2000,0,, ,Correctness:,0.3800,0.3800,0,, ,Correctness:,0.4100,0.4100,0,, ,Correctness:,0.2950,0.2950,0,, 
,Correctness:,0.4800,0.4800,0,, ,Correctness:,0.2450,0.2450,0,, ,Correctness:,0.3600,0.3600,0,, ,Correctness:,0.3750,0.3750,0,, ,Correctness:,0.3700,0.3700,0,, 
,Correctness:,0.3950,0.3950,0,, ,Correctness:,0.3050,0.3050,0,, ,Correctness:,0.3650,0.3650,0,, ,Correctness:,0.3450,0.3450,0,, ,Correctness:,0.3300,0.3300,0,, 
,Correctness:,0.5075,0.5075,0,, ,Correctness:,0.1850,0.1850,0,, ,Correctness:,0.3475,0.3475,0,, ,Correctness:,0.4225,0.4225,0,, ,Correctness:,0.3650,0.3650,0,, 
,Correctness:,0.4350,0.4350,0,, ,Correctness:,0.1850,0.1850,0,, ,Correctness:,0.3500,0.3500,0,, ,Correctness:,0.4050,0.4050,0,, ,Correctness:,0.3100,0.3100,0,, 
,Correctness:,0.3875,0.3875,0,, ,Correctness:,0.2775,0.2775,0,, ,Correctness:,0.3725,0.3725,0,, ,Correctness:,0.3825,0.3825,0,, ,Correctness:,0.3050,0.3050,0,, 
,Correctness:,0.4400,0.4400,0,, ,Correctness:,0.2500,0.2500,0,, ,Correctness:,0.3375,0.3375,0,, ,Correctness:,0.3800,0.3800,0,, ,Correctness:,0.3300,0.3300,0,, 
,Correctness:,0.4350,0.4350,0,, ,Correctness:,0.2075,0.2075,0,, ,Correctness:,0.3800,0.3800,0,, ,Correctness:,0.4225,0.4225,0,, ,Correctness:,0.2950,0.2950,0,, 
,Correctness:,0.4625,0.4625,0,, ,Correctness:,0.2475,0.2475,0,, ,Correctness:,0.2900,0.2900,0,, ,Correctness:,0.3825,0.3825,0,, ,Correctness:,0.2950,0.2950,0,, 
,Correctness:,0.5025,0.5025,0,, ,Correctness:,0.1875,0.1875,0,, ,Correctness:,0.3450,0.3450,0,, ,Correctness:,0.4150,0.4150,0,, ,Correctness:,0.3625,0.3625,0,, 
,Correctness:,0.4600,0.4600,0,, ,Correctness:,0.2550,0.2550,0,, ,Correctness:,0.3000,0.3000,0,, ,Correctness:,0.3925,0.3925,0,, ,Correctness:,0.3225,0.3225,0,, 
,Correctness:,0.4125,0.4125,0,, ,Correctness:,0.3250,0.3250,0,, ,Correctness:,0.3200,0.3200,0,, ,Correctness:,0.3400,0.3400,0,, ,Correctness:,0.3250,0.3250,0,, 
,Correctness:,0.4875,0.4875,0,, ,Correctness:,0.1800,0.1800,0,, ,Correctness:,0.3575,0.3575,0,, ,Correctness:,0.4400,0.4400,0,, ,Correctness:,0.3225,0.3225,0,, 
,Correctness:,0.4088,0.4088,0,, ,Correctness:,0.3250,0.3250,0,, ,Correctness:,0.3212,0.3212,0,, ,Correctness:,0.3425,0.3425,0,, ,Correctness:,0.3287,0.3287,0,, 
,Correctness:,0.4387,0.4387,0,, ,Correctness:,0.3075,0.3075,0,, ,Correctness:,0.3387,0.3387,0,, ,Correctness:,0.3550,0.3550,0,, ,Correctness:,0.3438,0.3438,0,, 
,Correctness:,0.4562,0.4562,0,, ,Correctness:,0.2275,0.2275,0,, ,Correctness:,0.3513,0.3513,0,, ,Correctness:,0.3912,0.3912,0,, ,Correctness:,0.3387,0.3387,0,, 
,Correctness:,0.4550,0.4550,0,, ,Correctness:,0.2662,0.2662,0,, ,Correctness:,0.3550,0.3550,0,, ,Correctness:,0.3775,0.3775,0,, ,Correctness:,0.3312,0.3312,0,, 
,Correctness:,0.4288,0.4288,0,, ,Correctness:,0.2775,0.2775,0,, ,Correctness:,0.3275,0.3275,0,, ,Correctness:,0.3663,0.3663,0,, ,Correctness:,0.3387,0.3387,0,, 
,Correctness:,0.4550,0.4550,0,, ,Correctness:,0.2637,0.2637,0,, ,Correctness:,0.3237,0.3237,0,, ,Correctness:,0.3725,0.3725,0,, ,Correctness:,0.3425,0.3425,0,, 
,Correctness:,0.4000,0.4000,0,, ,Correctness:,0.2750,0.2750,0,, ,Correctness:,0.3175,0.3175,0,, ,Correctness:,0.3538,0.3538,0,, ,Correctness:,0.3100,0.3100,0,, 
,Correctness:,0.4037,0.4037,0,, ,Correctness:,0.2375,0.2375,0,, ,Correctness:,0.3400,0.3400,0,, ,Correctness:,0.4088,0.4088,0,, ,Correctness:,0.2900,0.2900,0,, 
,Correctness:,0.4188,0.4188,0,, ,Correctness:,0.2275,0.2275,0,, ,Correctness:,0.3538,0.3538,0,, ,Correctness:,0.4000,0.4000,0,, ,Correctness:,0.2900,0.2900,0,, 
,Correctness:,0.4612,0.4612,0,, ,Correctness:,0.2338,0.2338,0,, ,Correctness:,0.3375,0.3375,0,, ,Correctness:,0.3912,0.3912,0,, ,Correctness:,0.3488,0.3488,0,, 
,Correctness:,0.4537,0.4537,0,, ,Correctness:,0.2556,0.2556,0,, ,Correctness:,0.3306,0.3306,0,, ,Correctness:,0.3775,0.3775,0,, ,Correctness:,0.3325,0.3325,0,, 
,Correctness:,0.4325,0.4325,0,, ,Correctness:,0.2606,0.2606,0,, ,Correctness:,0.3444,0.3444,0,, ,Correctness:,0.3831,0.3831,0,, ,Correctness:,0.3369,0.3369,0,, 
,Correctness:,0.4325,0.4325,0,, ,Correctness:,0.2313,0.2313,0,, ,Correctness:,0.3394,0.3394,0,, ,Correctness:,0.3937,0.3937,0,, ,Correctness:,0.3219,0.3219,0,, 
,Correctness:,0.4700,0.4700,0,, ,Correctness:,0.2550,0.2550,0,, ,Correctness:,0.3281,0.3281,0,, ,Correctness:,0.3812,0.3812,0,, ,Correctness:,0.3506,0.3506,0,, 
,Correctness:,0.4462,0.4462,0,, ,Correctness:,0.2462,0.2462,0,, ,Correctness:,0.3362,0.3362,0,, ,Correctness:,0.3937,0.3937,0,, ,Correctness:,0.3300,0.3300,0,, 
,Correctness:,0.4394,0.4394,0,, ,Correctness:,0.2756,0.2756,0,, ,Correctness:,0.3387,0.3387,0,, ,Correctness:,0.3844,0.3844,0,, ,Correctness:,0.3475,0.3475,0,, 
,Correctness:,0.4481,0.4481,0,, ,Correctness:,0.2700,0.2700,0,, ,Correctness:,0.3394,0.3394,0,, ,Correctness:,0.3881,0.3881,0,, ,Correctness:,0.3438,0.3438,0,, 
,Correctness:,0.4763,0.4763,0,, ,Correctness:,0.2231,0.2231,0,, ,Correctness:,0.3237,0.3237,0,, ,Correctness:,0.4012,0.4012,0,, ,Correctness:,0.3469,0.3469,0,, 
,Correctness:,0.4387,0.4387,0,, ,Correctness:,0.2419,0.2419,0,, ,Correctness:,0.3387,0.3387,0,, ,Correctness:,0.3931,0.3931,0,, ,Correctness:,0.3262,0.3262,0,, 
,Correctness:,0.4800,0.4800,0,, ,Correctness:,0.2506,0.2506,0,, ,Correctness:,0.3269,0.3269,0,, ,Correctness:,0.3856,0.3856,0,, ,Correctness:,0.3425,0.3425,0,, 
Average:,0.4433,,,,, Average:,0.2514,,,,, Average:,0.3402,,,,, Average:,0.3883,,,,, Average:,0.3343,,,,, 
,Correctness:,0.4300,0.4300,0,, ,Correctness:,0.4200,0.4200,0,, ,Correctness:,0.3000,0.3000,0,, ,Correctness:,0.5000,0.5000,0,, ,Correctness:,0.2800,0.2800,0,, 
,Correctness:,0.3200,0.3200,0,, ,Correctness:,0.4100,0.4100,0,, ,Correctness:,0.2500,0.2500,0,, ,Correctness:,0.5700,0.5700,0,, ,Correctness:,0.2100,0.2100,0,, 
,Correctness:,0.4100,0.4100,0,, ,Correctness:,0.3300,0.3300,0,, ,Correctness:,0.1700,0.1700,0,, ,Correctness:,0.5600,0.5600,0,, ,Correctness:,0.3000,0.3000,0,, 
,Correctness:,0.4100,0.4100,0,, ,Correctness:,0.3500,0.3500,0,, ,Correctness:,0.1800,0.1800,0,, ,Correctness:,0.4800,0.4800,0,, ,Correctness:,0.2400,0.2400,0,, 
,Correctness:,0.4000,0.4000,0,, ,Correctness:,0.3600,0.3600,0,, ,Correctness:,0.2100,0.2100,0,, ,Correctness:,0.4900,0.4900,0,, ,Correctness:,0.2100,0.2100,0,, 
,Correctness:,0.5000,0.5000,0,, ,Correctness:,0.3700,0.3700,0,, ,Correctness:,0.1900,0.1900,0,, ,Correctness:,0.5000,0.5000,0,, ,Correctness:,0.1200,0.1200,0,, 
,Correctness:,0.5100,0.5100,0,, ,Correctness:,0.3300,0.3300,0,, ,Correctness:,0.1900,0.1900,0,, ,Correctness:,0.4300,0.4300,0,, ,Correctness:,0.2800,0.2800,0,, 
,Correctness:,0.4200,0.4200,0,, ,Correctness:,0.4800,0.4800,0,, ,Correctness:,0.2700,0.2700,0,, ,Correctness:,0.5700,0.5700,0,, ,Correctness:,0.2700,0.2700,0,, 
,Correctness:,0.4600,0.4600,0,, ,Correctness:,0.3900,0.3900,0,, ,Correctness:,0.2400,0.2400,0,, ,Correctness:,0.4900,0.4900,0,, ,Correctness:,0.1800,0.1800,0,, 
,Correctness:,0.4600,0.4600,0,, ,Correctness:,0.4300,0.4300,0,, ,Correctness:,0.2200,0.2200,0,, ,Correctness:,0.4800,0.4800,0,, ,Correctness:,0.1400,0.1400,0,, 
,Correctness:,0.4200,0.4200,0,, ,Correctness:,0.3950,0.3950,0,, ,Correctness:,0.3000,0.3000,0,, ,Correctness:,0.4450,0.4450,0,, ,Correctness:,0.1650,0.1650,0,, 
,Correctness:,0.4400,0.4400,0,, ,Correctness:,0.3750,0.3750,0,, ,Correctness:,0.2150,0.2150,0,, ,Correctness:,0.5300,0.5300,0,, ,Correctness:,0.1900,0.1900,0,, 
,Correctness:,0.4900,0.4900,0,, ,Correctness:,0.3050,0.3050,0,, ,Correctness:,0.1700,0.1700,0,, ,Correctness:,0.4700,0.4700,0,, ,Correctness:,0.1650,0.1650,0,, 
,Correctness:,0.4500,0.4500,0,, ,Correctness:,0.4100,0.4100,0,, ,Correctness:,0.1950,0.1950,0,, ,Correctness:,0.5500,0.5500,0,, ,Correctness:,0.2500,0.2500,0,, 
,Correctness:,0.3950,0.3950,0,, ,Correctness:,0.4550,0.4550,0,, ,Correctness:,0.2800,0.2800,0,, ,Correctness:,0.5550,0.5550,0,, ,Correctness:,0.1750,0.1750,0,, 
,Correctness:,0.4900,0.4900,0,, ,Correctness:,0.4150,0.4150,0,, ,Correctness:,0.3000,0.3000,0,, ,Correctness:,0.4450,0.4450,0,, ,Correctness:,0.1200,0.1200,0,, 
,Correctness:,0.4700,0.4700,0,, ,Correctness:,0.3700,0.3700,0,, ,Correctness:,0.1600,0.1600,0,, ,Correctness:,0.5300,0.5300,0,, ,Correctness:,0.1350,0.1350,0,, 
,Correctness:,0.3850,0.3850,0,, ,Correctness:,0.4350,0.4350,0,, ,Correctness:,0.2900,0.2900,0,, ,Correctness:,0.5150,0.5150,0,, ,Correctness:,0.0900,0.0900,0,, 
,Correctness:,0.4300,0.4300,0,, ,Correctness:,0.3600,0.3600,0,, ,Correctness:,0.2000,0.2000,0,, ,Correctness:,0.5550,0.5550,0,, ,Correctness:,0.1900,0.1900,0,, 
,Correctness:,0.4600,0.4600,0,, ,Correctness:,0.3900,0.3900,0,, ,Correctness:,0.2900,0.2900,0,, ,Correctness:,0.3700,0.3700,0,, ,Correctness:,0.1600,0.1600,0,, 
,Correctness:,0.4150,0.4150,0,, ,Correctness:,0.3925,0.3925,0,, ,Correctness:,0.2225,0.2225,0,, ,Correctness:,0.5775,0.5775,0,, ,Correctness:,0.1725,0.1725,0,, 
,Correctness:,0.3875,0.3875,0,, ,Correctness:,0.4150,0.4150,0,, ,Correctness:,0.3175,0.3175,0,, ,Correctness:,0.4975,0.4975,0,, ,Correctness:,0.1925,0.1925,0,, 
,Correctness:,0.4375,0.4375,0,, ,Correctness:,0.3750,0.3750,0,, ,Correctness:,0.2400,0.2400,0,, ,Correctness:,0.4700,0.4700,0,, ,Correctness:,0.2050,0.2050,0,, 
,Correctness:,0.4400,0.4400,0,, ,Correctness:,0.3825,0.3825,0,, ,Correctness:,0.2500,0.2500,0,, ,Correctness:,0.5100,0.5100,0,, ,Correctness:,0.2000,0.2000,0,, 
,Correctness:,0.4225,0.4225,0,, ,Correctness:,0.4275,0.4275,0,, ,Correctness:,0.3250,0.3250,0,, ,Correctness:,0.4650,0.4650,0,, ,Correctness:,0.1175,0.1175,0,, 
,Correctness:,0.5025,0.5025,0,, ,Correctness:,0.4025,0.4025,0,, ,Correctness:,0.3075,0.3075,0,, ,Correctness:,0.4675,0.4675,0,, ,Correctness:,0.1175,0.1175,0,, 
,Correctness:,0.3875,0.3875,0,, ,Correctness:,0.3725,0.3725,0,, ,Correctness:,0.1850,0.1850,0,, ,Correctness:,0.6200,0.6200,0,, ,Correctness:,0.2325,0.2325,0,, 
,Correctness:,0.5050,0.5050,0,, ,Correctness:,0.4000,0.4000,0,, ,Correctness:,0.2325,0.2325,0,, ,Correctness:,0.4675,0.4675,0,, ,Correctness:,0.1025,0.1025,0,, 
,Correctness:,0.5150,0.5150,0,, ,Correctness:,0.3550,0.3550,0,, ,Correctness:,0.2475,0.2475,0,, ,Correctness:,0.4275,0.4275,0,, ,Correctness:,0.1825,0.1825,0,, 
,Correctness:,0.3950,0.3950,0,, ,Correctness:,0.4250,0.4250,0,, ,Correctness:,0.2450,0.2450,0,, ,Correctness:,0.5600,0.5600,0,, ,Correctness:,0.1875,0.1875,0,, 
,Correctness:,0.4988,0.4988,0,, ,Correctness:,0.3650,0.3650,0,, ,Correctness:,0.2462,0.2462,0,, ,Correctness:,0.4213,0.4213,0,, ,Correctness:,0.1675,0.1675,0,, 
,Correctness:,0.4500,0.4500,0,, ,Correctness:,0.3513,0.3513,0,, ,Correctness:,0.1888,0.1888,0,, ,Correctness:,0.4988,0.4988,0,, ,Correctness:,0.2188,0.2188,0,, 
,Correctness:,0.4275,0.4275,0,, ,Correctness:,0.3675,0.3675,0,, ,Correctness:,0.2313,0.2313,0,, ,Correctness:,0.5387,0.5387,0,, ,Correctness:,0.1888,0.1888,0,, 
,Correctness:,0.4350,0.4350,0,, ,Correctness:,0.3800,0.3800,0,, ,Correctness:,0.2288,0.2288,0,, ,Correctness:,0.5075,0.5075,0,, ,Correctness:,0.2025,0.2025,0,, 
,Correctness:,0.4562,0.4562,0,, ,Correctness:,0.3750,0.3750,0,, ,Correctness:,0.2238,0.2238,0,, ,Correctness:,0.4875,0.4875,0,, ,Correctness:,0.1925,0.1925,0,, 
,Correctness:,0.4387,0.4387,0,, ,Correctness:,0.3575,0.3575,0,, ,Correctness:,0.2087,0.2087,0,, ,Correctness:,0.5275,0.5275,0,, ,Correctness:,0.1925,0.1925,0,, 
,Correctness:,0.4612,0.4612,0,, ,Correctness:,0.3713,0.3713,0,, ,Correctness:,0.2587,0.2587,0,, ,Correctness:,0.4338,0.4338,0,, ,Correctness:,0.1800,0.1800,0,, 
,Correctness:,0.4400,0.4400,0,, ,Correctness:,0.4150,0.4150,0,, ,Correctness:,0.2975,0.2975,0,, ,Correctness:,0.4500,0.4500,0,, ,Correctness:,0.1675,0.1675,0,, 
,Correctness:,0.4238,0.4238,0,, ,Correctness:,0.4150,0.4150,0,, ,Correctness:,0.2750,0.2750,0,, ,Correctness:,0.4813,0.4813,0,, ,Correctness:,0.1787,0.1787,0,, 
,Correctness:,0.4688,0.4688,0,, ,Correctness:,0.3925,0.3925,0,, ,Correctness:,0.2387,0.2387,0,, ,Correctness:,0.5300,0.5300,0,, ,Correctness:,0.1825,0.1825,0,, 
,Correctness:,0.4431,0.4431,0,, ,Correctness:,0.3819,0.3819,0,, ,Correctness:,0.2288,0.2288,0,, ,Correctness:,0.5138,0.5138,0,, ,Correctness:,0.1969,0.1969,0,, 
,Correctness:,0.4188,0.4188,0,, ,Correctness:,0.3775,0.3775,0,, ,Correctness:,0.2087,0.2087,0,, ,Correctness:,0.5225,0.5225,0,, ,Correctness:,0.2131,0.2131,0,, 
,Correctness:,0.4231,0.4231,0,, ,Correctness:,0.3912,0.3912,0,, ,Correctness:,0.2569,0.2569,0,, ,Correctness:,0.4963,0.4963,0,, ,Correctness:,0.1900,0.1900,0,, 
,Correctness:,0.4500,0.4500,0,, ,Correctness:,0.3762,0.3762,0,, ,Correctness:,0.2094,0.2094,0,, ,Correctness:,0.5387,0.5387,0,, ,Correctness:,0.2075,0.2075,0,, 
,Correctness:,0.4437,0.4437,0,, ,Correctness:,0.3894,0.3894,0,, ,Correctness:,0.2325,0.2325,0,, ,Correctness:,0.5125,0.5125,0,, ,Correctness:,0.1837,0.1837,0,, 
,Correctness:,0.4412,0.4412,0,, ,Correctness:,0.3794,0.3794,0,, ,Correctness:,0.1994,0.1994,0,, ,Correctness:,0.5094,0.5094,0,, ,Correctness:,0.2019,0.2019,0,, 
,Correctness:,0.4519,0.4519,0,, ,Correctness:,0.3925,0.3925,0,, ,Correctness:,0.2219,0.2219,0,, ,Correctness:,0.4981,0.4981,0,, ,Correctness:,0.1969,0.1969,0,, 
,Correctness:,0.4325,0.4325,0,, ,Correctness:,0.3837,0.3837,0,, ,Correctness:,0.2100,0.2100,0,, ,Correctness:,0.5625,0.5625,0,, ,Correctness:,0.2119,0.2119,0,, 
,Correctness:,0.4381,0.4381,0,, ,Correctness:,0.3844,0.3844,0,, ,Correctness:,0.2487,0.2487,0,, ,Correctness:,0.5038,0.5038,0,, ,Correctness:,0.1956,0.1956,0,, 
,Correctness:,0.4387,0.4387,0,, ,Correctness:,0.3762,0.3762,0,, ,Correctness:,0.2013,0.2013,0,, ,Correctness:,0.5394,0.5394,0,, ,Correctness:,0.1819,0.1819,0,, 
Average:,0.4408,,,,, Average:,0.3870,,,,, Average:,0.2362,,,,, Average:,0.5034,,,,, Average:,0.1886,,,,, 
,Correctness:,0.5800,0.5800,0,, ,Correctness:,0.3700,0.3700,0,, ,Correctness:,0.3900,0.3900,0,, ,Correctness:,0.3300,0.3300,0,, ,Correctness:,0.4900,0.4900,0,, 
,Correctness:,0.6000,0.6000,0,, ,Correctness:,0.4200,0.4200,0,, ,Correctness:,0.3800,0.3800,0,, ,Correctness:,0.3200,0.3200,0,, ,Correctness:,0.5700,0.5700,0,, 
,Correctness:,0.5800,0.5800,0,, ,Correctness:,0.3800,0.3800,0,, ,Correctness:,0.3400,0.3400,0,, ,Correctness:,0.4000,0.4000,0,, ,Correctness:,0.5600,0.5600,0,, 
,Correctness:,0.5700,0.5700,0,, ,Correctness:,0.4500,0.4500,0,, ,Correctness:,0.3800,0.3800,0,, ,Correctness:,0.3600,0.3600,0,, ,Correctness:,0.4800,0.4800,0,, 
,Correctness:,0.4300,0.4300,0,, ,Correctness:,0.3300,0.3300,0,, ,Correctness:,0.4200,0.4200,0,, ,Correctness:,0.3400,0.3400,0,, ,Correctness:,0.4900,0.4900,0,, 
,Correctness:,0.3200,0.3200,0,, ,Correctness:,0.3700,0.3700,0,, ,Correctness:,0.4400,0.4400,0,, ,Correctness:,0.3800,0.3800,0,, ,Correctness:,0.5100,0.5100,0,, 
,Correctness:,0.4700,0.4700,0,, ,Correctness:,0.2600,0.2600,0,, ,Correctness:,0.4200,0.4200,0,, ,Correctness:,0.3700,0.3700,0,, ,Correctness:,0.4500,0.4500,0,, 
,Correctness:,0.5900,0.5900,0,, ,Correctness:,0.4200,0.4200,0,, ,Correctness:,0.4600,0.4600,0,, ,Correctness:,0.3800,0.3800,0,, ,Correctness:,0.5900,0.5900,0,, 
,Correctness:,0.5200,0.5200,0,, ,Correctness:,0.3600,0.3600,0,, ,Correctness:,0.4400,0.4400,0,, ,Correctness:,0.3300,0.3300,0,, ,Correctness:,0.5100,0.5100,0,, 
,Correctness:,0.5500,0.5500,0,, ,Correctness:,0.3300,0.3300,0,, ,Correctness:,0.5200,0.5200,0,, ,Correctness:,0.3800,0.3800,0,, ,Correctness:,0.4800,0.4800,0,, 
,Correctness:,0.3750,0.3750,0,, ,Correctness:,0.3500,0.3500,0,, ,Correctness:,0.4750,0.4750,0,, ,Correctness:,0.3150,0.3150,0,, ,Correctness:,0.4400,0.4400,0,, 
,Correctness:,0.5050,0.5050,0,, ,Correctness:,0.3750,0.3750,0,, ,Correctness:,0.3900,0.3900,0,, ,Correctness:,0.3450,0.3450,0,, ,Correctness:,0.5350,0.5350,0,, 
,Correctness:,0.4000,0.4000,0,, ,Correctness:,0.3550,0.3550,0,, ,Correctness:,0.4550,0.4550,0,, ,Correctness:,0.3700,0.3700,0,, ,Correctness:,0.4700,0.4700,0,, 
,Correctness:,0.5450,0.5450,0,, ,Correctness:,0.3800,0.3800,0,, ,Correctness:,0.4900,0.4900,0,, ,Correctness:,0.3550,0.3550,0,, ,Correctness:,0.5500,0.5500,0,, 
,Correctness:,0.6450,0.6450,0,, ,Correctness:,0.3950,0.3950,0,, ,Correctness:,0.3950,0.3950,0,, ,Correctness:,0.3350,0.3350,0,, ,Correctness:,0.5500,0.5500,0,, 
,Correctness:,0.4700,0.4700,0,, ,Correctness:,0.3750,0.3750,0,, ,Correctness:,0.4750,0.4750,0,, ,Correctness:,0.3250,0.3250,0,, ,Correctness:,0.4400,0.4400,0,, 
,Correctness:,0.5050,0.5050,0,, ,Correctness:,0.3550,0.3550,0,, ,Correctness:,0.3750,0.3750,0,, ,Correctness:,0.3900,0.3900,0,, ,Correctness:,0.5350,0.5350,0,, 
,Correctness:,0.5900,0.5900,0,, ,Correctness:,0.4100,0.4100,0,, ,Correctness:,0.4650,0.4650,0,, ,Correctness:,0.3300,0.3300,0,, ,Correctness:,0.5150,0.5150,0,, 
,Correctness:,0.5250,0.5250,0,, ,Correctness:,0.3800,0.3800,0,, ,Correctness:,0.3450,0.3450,0,, ,Correctness:,0.3950,0.3950,0,, ,Correctness:,0.5500,0.5500,0,, 
,Correctness:,0.4450,0.4450,0,, ,Correctness:,0.3200,0.3200,0,, ,Correctness:,0.4700,0.4700,0,, ,Correctness:,0.3000,0.3000,0,, ,Correctness:,0.3750,0.3750,0,, 
,Correctness:,0.5000,0.5000,0,, ,Correctness:,0.4175,0.4175,0,, ,Correctness:,0.4425,0.4425,0,, ,Correctness:,0.3700,0.3700,0,, ,Correctness:,0.5775,0.5775,0,, 
,Correctness:,0.4750,0.4750,0,, ,Correctness:,0.3875,0.3875,0,, ,Correctness:,0.4100,0.4100,0,, ,Correctness:,0.3150,0.3150,0,, ,Correctness:,0.4950,0.4950,0,, 
,Correctness:,0.5500,0.5500,0,, ,Correctness:,0.3275,0.3275,0,, ,Correctness:,0.3825,0.3825,0,, ,Correctness:,0.3300,0.3300,0,, ,Correctness:,0.4700,0.4700,0,, 
,Correctness:,0.5275,0.5275,0,, ,Correctness:,0.3500,0.3500,0,, ,Correctness:,0.4375,0.4375,0,, ,Correctness:,0.3425,0.3425,0,, ,Correctness:,0.5000,0.5000,0,, 
,Correctness:,0.5925,0.5925,0,, ,Correctness:,0.3575,0.3575,0,, ,Correctness:,0.4500,0.4500,0,, ,Correctness:,0.3175,0.3175,0,, ,Correctness:,0.4650,0.4650,0,, 
,Correctness:,0.3900,0.3900,0,, ,Correctness:,0.3700,0.3700,0,, ,Correctness:,0.4475,0.4475,0,, ,Correctness:,0.3175,0.3175,0,, ,Correctness:,0.4650,0.4650,0,, 
,Correctness:,0.5650,0.5650,0,, ,Correctness:,0.4300,0.4300,0,, ,Correctness:,0.4000,0.4000,0,, ,Correctness:,0.3625,0.3625,0,, ,Correctness:,0.6200,0.6200,0,, 
,Correctness:,0.5100,0.5100,0,, ,Correctness:,0.3600,0.3600,0,, ,Correctness:,0.4525,0.4525,0,, ,Correctness:,0.3300,0.3300,0,, ,Correctness:,0.4675,0.4675,0,, 
,Correctness:,0.4225,0.4225,0,, ,Correctness:,0.3225,0.3225,0,, ,Correctness:,0.4650,0.4650,0,, ,Correctness:,0.3550,0.3550,0,, ,Correctness:,0.4250,0.4250,0,, 
,Correctness:,0.5375,0.5375,0,, ,Correctness:,0.4025,0.4025,0,, ,Correctness:,0.4500,0.4500,0,, ,Correctness:,0.3275,0.3275,0,, ,Correctness:,0.5600,0.5600,0,, 
,Correctness:,0.4113,0.4113,0,, ,Correctness:,0.3287,0.3287,0,, ,Correctness:,0.4225,0.4225,0,, ,Correctness:,0.3425,0.3425,0,, ,Correctness:,0.4200,0.4200,0,, 
,Correctness:,0.4575,0.4575,0,, ,Correctness:,0.3563,0.3563,0,, ,Correctness:,0.4062,0.4062,0,, ,Correctness:,0.3613,0.3613,0,, ,Correctness:,0.4988,0.4988,0,, 
,Correctness:,0.4900,0.4900,0,, ,Correctness:,0.3900,0.3900,0,, ,Correctness:,0.4325,0.4325,0,, ,Correctness:,0.3538,0.3538,0,, ,Correctness:,0.5375,0.5375,0,, 
,Correctness:,0.4675,0.4675,0,, ,Correctness:,0.3650,0.3650,0,, ,Correctness:,0.4025,0.4025,0,, ,Correctness:,0.3663,0.3663,0,, ,Correctness:,0.5075,0.5075,0,, 
,Correctness:,0.4738,0.4738,0,, ,Correctness:,0.3625,0.3625,0,, ,Correctness:,0.4313,0.4313,0,, ,Correctness:,0.3450,0.3450,0,, ,Correctness:,0.4888,0.4888,0,, 
,Correctness:,0.5050,0.5050,0,, ,Correctness:,0.3800,0.3800,0,, ,Correctness:,0.4075,0.4075,0,, ,Correctness:,0.3550,0.3550,0,, ,Correctness:,0.5275,0.5275,0,, 
,Correctness:,0.4900,0.4900,0,, ,Correctness:,0.3275,0.3275,0,, ,Correctness:,0.4175,0.4175,0,, ,Correctness:,0.3325,0.3325,0,, ,Correctness:,0.4338,0.4338,0,, 
,Correctness:,0.5250,0.5250,0,, ,Correctness:,0.3400,0.3400,0,, ,Correctness:,0.4163,0.4163,0,, ,Correctness:,0.3162,0.3162,0,, ,Correctness:,0.4500,0.4500,0,, 
,Correctness:,0.5375,0.5375,0,, ,Correctness:,0.3588,0.3588,0,, ,Correctness:,0.4113,0.4113,0,, ,Correctness:,0.3137,0.3137,0,, ,Correctness:,0.4800,0.4800,0,, 
,Correctness:,0.4575,0.4575,0,, ,Correctness:,0.3800,0.3800,0,, ,Correctness:,0.4325,0.4325,0,, ,Correctness:,0.3525,0.3525,0,, ,Correctness:,0.5300,0.5300,0,, 
,Correctness:,0.4950,0.4950,0,, ,Correctness:,0.3756,0.3756,0,, ,Correctness:,0.4069,0.4069,0,, ,Correctness:,0.3469,0.3469,0,, ,Correctness:,0.5131,0.5131,0,, 
,Correctness:,0.5112,0.5112,0,, ,Correctness:,0.3619,0.3619,0,, ,Correctness:,0.4031,0.4031,0,, ,Correctness:,0.3625,0.3625,0,, ,Correctness:,0.5231,0.5231,0,, 
,Correctness:,0.5119,0.5119,0,, ,Correctness:,0.3669,0.3669,0,, ,Correctness:,0.4131,0.4131,0,, ,Correctness:,0.3262,0.3262,0,, ,Correctness:,0.4956,0.4956,0,, 
,Correctness:,0.5119,0.5119,0,, ,Correctness:,0.3837,0.3837,0,, ,Correctness:,0.4325,0.4325,0,, ,Correctness:,0.3706,0.3706,0,, ,Correctness:,0.5381,0.5381,0,, 
,Correctness:,0.4831,0.4831,0,, ,Correctness:,0.3663,0.3663,0,, ,Correctness:,0.4269,0.4269,0,, ,Correctness:,0.3469,0.3469,0,, ,Correctness:,0.5131,0.5131,0,, 
,Correctness:,0.5444,0.5444,0,, ,Correctness:,0.3531,0.3531,0,, ,Correctness:,0.4025,0.4025,0,, ,Correctness:,0.3550,0.3550,0,, ,Correctness:,0.5094,0.5094,0,, 
,Correctness:,0.4713,0.4713,0,, ,Correctness:,0.3594,0.3594,0,, ,Correctness:,0.4269,0.4269,0,, ,Correctness:,0.3600,0.3600,0,, ,Correctness:,0.4975,0.4975,0,, 
,Correctness:,0.5375,0.5375,0,, ,Correctness:,0.3950,0.3950,0,, ,Correctness:,0.4037,0.4037,0,, ,Correctness:,0.3569,0.3569,0,, ,Correctness:,0.5625,0.5625,0,, 
,Correctness:,0.5581,0.5581,0,, ,Correctness:,0.3681,0.3681,0,, ,Correctness:,0.3950,0.3950,0,, ,Correctness:,0.3381,0.3381,0,, ,Correctness:,0.5038,0.5038,0,, 
,Correctness:,0.5169,0.5169,0,, ,Correctness:,0.3837,0.3837,0,, ,Correctness:,0.4125,0.4125,0,, ,Correctness:,0.3575,0.3575,0,, ,Correctness:,0.5387,0.5387,0,, 
Average:,0.5048,,,,, Average:,0.3682,,,,, Average:,0.4233,,,,, Average:,0.3475,,,,, Average:,0.5041,,,,, 
,Correctness:,0.3800,0.3800,0,, ,Correctness:,0.1700,0.1700,0,, ,Correctness:,0.2000,0.2000,0,, ,Correctness:,0.3700,0.3700,0,, ,Correctness:,0.4400,0.4400,0,, 
,Correctness:,0.4400,0.4400,0,, ,Correctness:,0.1900,0.1900,0,, ,Correctness:,0.1600,0.1600,0,, ,Correctness:,0.3900,0.3900,0,, ,Correctness:,0.5000,0.5000,0,, 
,Correctness:,0.4700,0.4700,0,, ,Correctness:,0.2400,0.2400,0,, ,Correctness:,0.2900,0.2900,0,, ,Correctness:,0.3300,0.3300,0,, ,Correctness:,0.5300,0.5300,0,, 
,Correctness:,0.3900,0.3900,0,, ,Correctness:,0.1900,0.1900,0,, ,Correctness:,0.3100,0.3100,0,, ,Correctness:,0.3500,0.3500,0,, ,Correctness:,0.4700,0.4700,0,, 
,Correctness:,0.3800,0.3800,0,, ,Correctness:,0.1800,0.1800,0,, ,Correctness:,0.3100,0.3100,0,, ,Correctness:,0.3500,0.3500,0,, ,Correctness:,0.5000,0.5000,0,, 
,Correctness:,0.3000,0.3000,0,, ,Correctness:,0.1300,0.1300,0,, ,Correctness:,0.3100,0.3100,0,, ,Correctness:,0.4000,0.4000,0,, ,Correctness:,0.5200,0.5200,0,, 
,Correctness:,0.2900,0.2900,0,, ,Correctness:,0.1800,0.1800,0,, ,Correctness:,0.3600,0.3600,0,, ,Correctness:,0.3500,0.3500,0,, ,Correctness:,0.4700,0.4700,0,, 
,Correctness:,0.3100,0.3100,0,, ,Correctness:,0.1600,0.1600,0,, ,Correctness:,0.1500,0.1500,0,, ,Correctness:,0.4300,0.4300,0,, ,Correctness:,0.5200,0.5200,0,, 
,Correctness:,0.3200,0.3200,0,, ,Correctness:,0.1800,0.1800,0,, ,Correctness:,0.2500,0.2500,0,, ,Correctness:,0.3900,0.3900,0,, ,Correctness:,0.5400,0.5400,0,, 
,Correctness:,0.3300,0.3300,0,, ,Correctness:,0.1600,0.1600,0,, ,Correctness:,0.2600,0.2600,0,, ,Correctness:,0.4100,0.4100,0,, ,Correctness:,0.5100,0.5100,0,, 
,Correctness:,0.3650,0.3650,0,, ,Correctness:,0.1800,0.1800,0,, ,Correctness:,0.2550,0.2550,0,, ,Correctness:,0.3800,0.3800,0,, ,Correctness:,0.4950,0.4950,0,, 
,Correctness:,0.3550,0.3550,0,, ,Correctness:,0.1800,0.1800,0,, ,Correctness:,0.2550,0.2550,0,, ,Correctness:,0.3800,0.3800,0,, ,Correctness:,0.5400,0.5400,0,, 
,Correctness:,0.3100,0.3100,0,, ,Correctness:,0.1400,0.1400,0,, ,Correctness:,0.3350,0.3350,0,, ,Correctness:,0.3000,0.3000,0,, ,Correctness:,0.5550,0.5550,0,, 
,Correctness:,0.3700,0.3700,0,, ,Correctness:,0.1700,0.1700,0,, ,Correctness:,0.2350,0.2350,0,, ,Correctness:,0.4000,0.4000,0,, ,Correctness:,0.4900,0.4900,0,, 
,Correctness:,0.3700,0.3700,0,, ,Correctness:,0.1700,0.1700,0,, ,Correctness:,0.1550,0.1550,0,, ,Correctness:,0.4250,0.4250,0,, ,Correctness:,0.5050,0.5050,0,, 
,Correctness:,0.2700,0.2700,0,, ,Correctness:,0.1600,0.1600,0,, ,Correctness:,0.2450,0.2450,0,, ,Correctness:,0.3650,0.3650,0,, ,Correctness:,0.4800,0.4800,0,, 
,Correctness:,0.4000,0.4000,0,, ,Correctness:,0.2000,0.2000,0,, ,Correctness:,0.2900,0.2900,0,, ,Correctness:,0.3650,0.3650,0,, ,Correctness:,0.5500,0.5500,0,, 
,Correctness:,0.3500,0.3500,0,, ,Correctness:,0.1250,0.1250,0,, ,Correctness:,0.2000,0.2000,0,, ,Correctness:,0.4150,0.4150,0,, ,Correctness:,0.5300,0.5300,0,, 
,Correctness:,0.3800,0.3800,0,, ,Correctness:,0.1900,0.1900,0,, ,Correctness:,0.2450,0.2450,0,, ,Correctness:,0.3350,0.3350,0,, ,Correctness:,0.5150,0.5150,0,, 
,Correctness:,0.2950,0.2950,0,, ,Correctness:,0.1900,0.1900,0,, ,Correctness:,0.3050,0.3050,0,, ,Correctness:,0.3550,0.3550,0,, ,Correctness:,0.4600,0.4600,0,, 
,Correctness:,0.3900,0.3900,0,, ,Correctness:,0.1700,0.1700,0,, ,Correctness:,0.1850,0.1850,0,, ,Correctness:,0.4100,0.4100,0,, ,Correctness:,0.5500,0.5500,0,, 
,Correctness:,0.3975,0.3975,0,, ,Correctness:,0.1575,0.1575,0,, ,Correctness:,0.1850,0.1850,0,, ,Correctness:,0.4025,0.4025,0,, ,Correctness:,0.4725,0.4725,0,, 
,Correctness:,0.3850,0.3850,0,, ,Correctness:,0.1675,0.1675,0,, ,Correctness:,0.2775,0.2775,0,, ,Correctness:,0.3650,0.3650,0,, ,Correctness:,0.4650,0.4650,0,, 
,Correctness:,0.3875,0.3875,0,, ,Correctness:,0.1575,0.1575,0,, ,Correctness:,0.2500,0.2500,0,, ,Correctness:,0.3625,0.3625,0,, ,Correctness:,0.5050,0.5050,0,, 
,Correctness:,0.3900,0.3900,0,, ,Correctness:,0.1775,0.1775,0,, ,Correctness:,0.2075,0.2075,0,, ,Correctness:,0.4000,0.4000,0,, ,Correctness:,0.4600,0.4600,0,, 
,Correctness:,0.2475,0.2475,0,, ,Correctness:,0.1425,0.1425,0,, ,Correctness:,0.2475,0.2475,0,, ,Correctness:,0.3750,0.3750,0,, ,Correctness:,0.5000,0.5000,0,, 
,Correctness:,0.4175,0.4175,0,, ,Correctness:,0.2100,0.2100,0,, ,Correctness:,0.1875,0.1875,0,, ,Correctness:,0.3800,0.3800,0,, ,Correctness:,0.5750,0.5750,0,, 
,Correctness:,0.2925,0.2925,0,, ,Correctness:,0.1425,0.1425,0,, ,Correctness:,0.2550,0.2550,0,, ,Correctness:,0.3725,0.3725,0,, ,Correctness:,0.5200,0.5200,0,, 
,Correctness:,0.2800,0.2800,0,, ,Correctness:,0.1450,0.1450,0,, ,Correctness:,0.3250,0.3250,0,, ,Correctness:,0.3425,0.3425,0,, ,Correctness:,0.4900,0.4900,0,, 
,Correctness:,0.4000,0.4000,0,, ,Correctness:,0.1800,0.1800,0,, ,Correctness:,0.1800,0.1800,0,, ,Correctness:,0.3950,0.3950,0,, ,Correctness:,0.5250,0.5250,0,, 
,Correctness:,0.3063,0.3063,0,, ,Correctness:,0.1575,0.1575,0,, ,Correctness:,0.3250,0.3250,0,, ,Correctness:,0.3538,0.3538,0,, ,Correctness:,0.4813,0.4813,0,, 
,Correctness:,0.3650,0.3650,0,, ,Correctness:,0.1675,0.1675,0,, ,Correctness:,0.3075,0.3075,0,, ,Correctness:,0.3362,0.3362,0,, ,Correctness:,0.5413,0.5413,0,, 
,Correctness:,0.3713,0.3713,0,, ,Correctness:,0.1588,0.1588,0,, ,Correctness:,0.2275,0.2275,0,, ,Correctness:,0.3925,0.3925,0,, ,Correctness:,0.5437,0.5437,0,, 
,Correctness:,0.3862,0.3862,0,, ,Correctness:,0.1950,0.1950,0,, ,Correctness:,0.2662,0.2662,0,, ,Correctness:,0.3613,0.3613,0,, ,Correctness:,0.5150,0.5150,0,, 
,Correctness:,0.3262,0.3262,0,, ,Correctness:,0.1650,0.1650,0,, ,Correctness:,0.2775,0.2775,0,, ,Correctness:,0.3638,0.3638,0,, ,Correctness:,0.5188,0.5188,0,, 
,Correctness:,0.4012,0.4012,0,, ,Correctness:,0.1650,0.1650,0,, ,Correctness:,0.2637,0.2637,0,, ,Correctness:,0.3550,0.3550,0,, ,Correctness:,0.5337,0.5337,0,, 
,Correctness:,0.3250,0.3250,0,, ,Correctness:,0.1625,0.1625,0,, ,Correctness:,0.2750,0.2750,0,, ,Correctness:,0.3463,0.3463,0,, ,Correctness:,0.4700,0.4700,0,, 
,Correctness:,0.3325,0.3325,0,, ,Correctness:,0.1737,0.1737,0,, ,Correctness:,0.2375,0.2375,0,, ,Correctness:,0.3900,0.3900,0,, ,Correctness:,0.4662,0.4662,0,, 
,Correctness:,0.3700,0.3700,0,, ,Correctness:,0.1713,0.1713,0,, ,Correctness:,0.2275,0.2275,0,, ,Correctness:,0.3875,0.3875,0,, ,Correctness:,0.4763,0.4763,0,, 
,Correctness:,0.2975,0.2975,0,, ,Correctness:,0.1575,0.1575,0,, ,Correctness:,0.2338,0.2338,0,, ,Correctness:,0.3675,0.3675,0,, ,Correctness:,0.5288,0.5288,0,, 
,Correctness:,0.3531,0.3531,0,, ,Correctness:,0.1875,0.1875,0,, ,Correctness:,0.2556,0.2556,0,, ,Correctness:,0.3619,0.3619,0,, ,Correctness:,0.5181,0.5181,0,, 
,Correctness:,0.3756,0.3756,0,, ,Correctness:,0.1744,0.1744,0,, ,Correctness:,0.2606,0.2606,0,, ,Correctness:,0.3669,0.3669,0,, ,Correctness:,0.5188,0.5188,0,, 
,Correctness:,0.3706,0.3706,0,, ,Correctness:,0.1669,0.1669,0,, ,Correctness:,0.2313,0.2313,0,, ,Correctness:,0.3725,0.3725,0,, ,Correctness:,0.5038,0.5038,0,, 
,Correctness:,0.3575,0.3575,0,, ,Correctness:,0.1644,0.1644,0,, ,Correctness:,0.2550,0.2550,0,, ,Correctness:,0.3550,0.3550,0,, ,Correctness:,0.5450,0.5450,0,, 
,Correctness:,0.3400,0.3400,0,, ,Correctness:,0.1562,0.1562,0,, ,Correctness:,0.2462,0.2462,0,, ,Correctness:,0.3719,0.3719,0,, ,Correctness:,0.5169,0.5169,0,, 
,Correctness:,0.3750,0.3750,0,, ,Correctness:,0.1694,0.1694,0,, ,Correctness:,0.2756,0.2756,0,, ,Correctness:,0.3638,0.3638,0,, ,Correctness:,0.5144,0.5144,0,, 
,Correctness:,0.3375,0.3375,0,, ,Correctness:,0.1638,0.1638,0,, ,Correctness:,0.2700,0.2700,0,, ,Correctness:,0.3644,0.3644,0,, ,Correctness:,0.5112,0.5112,0,, 
,Correctness:,0.3588,0.3588,0,, ,Correctness:,0.1737,0.1737,0,, ,Correctness:,0.2231,0.2231,0,, ,Correctness:,0.3875,0.3875,0,, ,Correctness:,0.5444,0.5444,0,, 
,Correctness:,0.3825,0.3825,0,, ,Correctness:,0.1744,0.1744,0,, ,Correctness:,0.2419,0.2419,0,, ,Correctness:,0.3600,0.3600,0,, ,Correctness:,0.5094,0.5094,0,, 
,Correctness:,0.3644,0.3644,0,, ,Correctness:,0.1638,0.1638,0,, ,Correctness:,0.2506,0.2506,0,, ,Correctness:,0.3663,0.3663,0,, ,Correctness:,0.5463,0.5463,0,, 
Average:,0.3552,,,,, Average:,0.1701,,,,, Average:,0.2514,,,,, Average:,0.3724,,,,, Average:,0.5097,,,,, 
,Correctness:,0.1500,0.1500,0,, ,Correctness:,0.1100,0.1100,0,, ,Correctness:,0.2800,0.2800,0,, ,Correctness:,0.3900,0.3900,0,, ,Correctness:,0.3200,0.3200,0,, 
,Correctness:,0.1000,0.1000,0,, ,Correctness:,0.0800,0.0800,0,, ,Correctness:,0.2400,0.2400,0,, ,Correctness:,0.4100,0.4100,0,, ,Correctness:,0.2800,0.2800,0,, 
,Correctness:,0.1500,0.1500,0,, ,Correctness:,0.1000,0.1000,0,, ,Correctness:,0.3500,0.3500,0,, ,Correctness:,0.3200,0.3200,0,, ,Correctness:,0.3400,0.3400,0,, 
,Correctness:,0.1500,0.1500,0,, ,Correctness:,0.0900,0.0900,0,, ,Correctness:,0.3400,0.3400,0,, ,Correctness:,0.2700,0.2700,0,, ,Correctness:,0.3200,0.3200,0,, 
,Correctness:,0.1800,0.1800,0,, ,Correctness:,0.1300,0.1300,0,, ,Correctness:,0.3300,0.3300,0,, ,Correctness:,0.3500,0.3500,0,, ,Correctness:,0.3700,0.3700,0,, 
,Correctness:,0.1200,0.1200,0,, ,Correctness:,0.1100,0.1100,0,, ,Correctness:,0.3500,0.3500,0,, ,Correctness:,0.2700,0.2700,0,, ,Correctness:,0.3300,0.3300,0,, 
,Correctness:,0.2100,0.2100,0,, ,Correctness:,0.1400,0.1400,0,, ,Correctness:,0.2900,0.2900,0,, ,Correctness:,0.3600,0.3600,0,, ,Correctness:,0.3100,0.3100,0,, 
,Correctness:,0.1100,0.1100,0,, ,Correctness:,0.0800,0.0800,0,, ,Correctness:,0.2900,0.2900,0,, ,Correctness:,0.3500,0.3500,0,, ,Correctness:,0.3000,0.3000,0,, 
,Correctness:,0.1400,0.1400,0,, ,Correctness:,0.1100,0.1100,0,, ,Correctness:,0.2800,0.2800,0,, ,Correctness:,0.3400,0.3400,0,, ,Correctness:,0.3300,0.3300,0,, 
,Correctness:,0.1000,0.1000,0,, ,Correctness:,0.0700,0.0700,0,, ,Correctness:,0.3200,0.3200,0,, ,Correctness:,0.1700,0.1700,0,, ,Correctness:,0.3600,0.3600,0,, 
,Correctness:,0.1600,0.1600,0,, ,Correctness:,0.1350,0.1350,0,, ,Correctness:,0.3000,0.3000,0,, ,Correctness:,0.2400,0.2400,0,, ,Correctness:,0.3200,0.3200,0,, 
,Correctness:,0.1400,0.1400,0,, ,Correctness:,0.1150,0.1150,0,, ,Correctness:,0.2900,0.2900,0,, ,Correctness:,0.2550,0.2550,0,, ,Correctness:,0.3000,0.3000,0,, 
,Correctness:,0.1550,0.1550,0,, ,Correctness:,0.1350,0.1350,0,, ,Correctness:,0.3200,0.3200,0,, ,Correctness:,0.2300,0.2300,0,, ,Correctness:,0.3450,0.3450,0,, 
,Correctness:,0.1600,0.1600,0,, ,Correctness:,0.1300,0.1300,0,, ,Correctness:,0.3150,0.3150,0,, ,Correctness:,0.3600,0.3600,0,, ,Correctness:,0.3450,0.3450,0,, 
,Correctness:,0.1050,0.1050,0,, ,Correctness:,0.0900,0.0900,0,, ,Correctness:,0.2300,0.2300,0,, ,Correctness:,0.4250,0.4250,0,, ,Correctness:,0.3150,0.3150,0,, 
,Correctness:,0.1050,0.1050,0,, ,Correctness:,0.1050,0.1050,0,, ,Correctness:,0.3050,0.3050,0,, ,Correctness:,0.2550,0.2550,0,, ,Correctness:,0.3150,0.3150,0,, 
,Correctness:,0.1250,0.1250,0,, ,Correctness:,0.1100,0.1100,0,, ,Correctness:,0.3200,0.3200,0,, ,Correctness:,0.2550,0.2550,0,, ,Correctness:,0.3300,0.3300,0,, 
,Correctness:,0.0750,0.0750,0,, ,Correctness:,0.0950,0.0950,0,, ,Correctness:,0.2950,0.2950,0,, ,Correctness:,0.2350,0.2350,0,, ,Correctness:,0.2950,0.2950,0,, 
,Correctness:,0.1450,0.1450,0,, ,Correctness:,0.0850,0.0850,0,, ,Correctness:,0.2700,0.2700,0,, ,Correctness:,0.3300,0.3300,0,, ,Correctness:,0.3550,0.3550,0,, 
,Correctness:,0.1550,0.1550,0,, ,Correctness:,0.1350,0.1350,0,, ,Correctness:,0.2950,0.2950,0,, ,Correctness:,0.2550,0.2550,0,, ,Correctness:,0.2900,0.2900,0,, 
,Correctness:,0.1325,0.1325,0,, ,Correctness:,0.0975,0.0975,0,, ,Correctness:,0.2450,0.2450,0,, ,Correctness:,0.2900,0.2900,0,, ,Correctness:,0.3125,0.3125,0,, 
,Correctness:,0.1150,0.1150,0,, ,Correctness:,0.1100,0.1100,0,, ,Correctness:,0.3200,0.3200,0,, ,Correctness:,0.3075,0.3075,0,, ,Correctness:,0.3250,0.3250,0,, 
,Correctness:,0.1525,0.1525,0,, ,Correctness:,0.1025,0.1025,0,, ,Correctness:,0.3000,0.3000,0,, ,Correctness:,0.3300,0.3300,0,, ,Correctness:,0.3025,0.3025,0,, 
,Correctness:,0.1350,0.1350,0,, ,Correctness:,0.1200,0.1200,0,, ,Correctness:,0.2950,0.2950,0,, ,Correctness:,0.2700,0.2700,0,, ,Correctness:,0.3125,0.3125,0,, 
,Correctness:,0.1025,0.1025,0,, ,Correctness:,0.1025,0.1025,0,, ,Correctness:,0.2675,0.2675,0,, ,Correctness:,0.2225,0.2225,0,, ,Correctness:,0.3125,0.3125,0,, 
,Correctness:,0.1175,0.1175,0,, ,Correctness:,0.1175,0.1175,0,, ,Correctness:,0.2825,0.2825,0,, ,Correctness:,0.2350,0.2350,0,, ,Correctness:,0.3100,0.3100,0,, 
,Correctness:,0.0975,0.0975,0,, ,Correctness:,0.0675,0.0675,0,, ,Correctness:,0.2575,0.2575,0,, ,Correctness:,0.3400,0.3400,0,, ,Correctness:,0.3425,0.3425,0,, 
,Correctness:,0.0950,0.0950,0,, ,Correctness:,0.0925,0.0925,0,, ,Correctness:,0.2875,0.2875,0,, ,Correctness:,0.2425,0.2425,0,, ,Correctness:,0.3175,0.3175,0,, 
,Correctness:,0.1475,0.1475,0,, ,Correctness:,0.1300,0.1300,0,, ,Correctness:,0.3200,0.3200,0,, ,Correctness:,0.2250,0.2250,0,, ,Correctness:,0.3050,0.3050,0,, 
,Correctness:,0.1100,0.1100,0,, ,Correctness:,0.0825,0.0825,0,, ,Correctness:,0.2850,0.2850,0,, ,Correctness:,0.3200,0.3200,0,, ,Correctness:,0.2975,0.2975,0,, 
,Correctness:,0.1375,0.1375,0,, ,Correctness:,0.1288,0.1288,0,, ,Correctness:,0.3412,0.3412,0,, ,Correctness:,0.2775,0.2775,0,, ,Correctness:,0.3125,0.3125,0,, 
,Correctness:,0.1537,0.1537,0,, ,Correctness:,0.1263,0.1263,0,, ,Correctness:,0.3175,0.3175,0,, ,Correctness:,0.3125,0.3125,0,, ,Correctness:,0.3175,0.3175,0,, 
,Correctness:,0.1275,0.1275,0,, ,Correctness:,0.0938,0.0938,0,, ,Correctness:,0.2812,0.2812,0,, ,Correctness:,0.3125,0.3125,0,, ,Correctness:,0.3088,0.3088,0,, 
,Correctness:,0.1325,0.1325,0,, ,Correctness:,0.1150,0.1150,0,, ,Correctness:,0.3137,0.3137,0,, ,Correctness:,0.2900,0.2900,0,, ,Correctness:,0.3200,0.3200,0,, 
,Correctness:,0.1313,0.1313,0,, ,Correctness:,0.1212,0.1212,0,, ,Correctness:,0.3287,0.3287,0,, ,Correctness:,0.2775,0.2775,0,, ,Correctness:,0.3250,0.3250,0,, 
,Correctness:,0.1338,0.1338,0,, ,Correctness:,0.1037,0.1037,0,, ,Correctness:,0.2863,0.2863,0,, ,Correctness:,0.2988,0.2988,0,, ,Correctness:,0.3113,0.3113,0,, 
,Correctness:,0.1237,0.1237,0,, ,Correctness:,0.1075,0.1075,0,, ,Correctness:,0.3125,0.3125,0,, ,Correctness:,0.2800,0.2800,0,, ,Correctness:,0.3050,0.3050,0,, 
,Correctness:,0.1225,0.1225,0,, ,Correctness:,0.1163,0.1163,0,, ,Correctness:,0.2950,0.2950,0,, ,Correctness:,0.2975,0.2975,0,, ,Correctness:,0.3063,0.3063,0,, 
,Correctness:,0.1275,0.1275,0,, ,Correctness:,0.1163,0.1163,0,, ,Correctness:,0.2863,0.2863,0,, ,Correctness:,0.2988,0.2988,0,, ,Correctness:,0.3075,0.3075,0,, 
,Correctness:,0.1288,0.1288,0,, ,Correctness:,0.0950,0.0950,0,, ,Correctness:,0.2925,0.2925,0,, ,Correctness:,0.3075,0.3075,0,, ,Correctness:,0.3187,0.3187,0,, 
,Correctness:,0.1294,0.1294,0,, ,Correctness:,0.1225,0.1225,0,, ,Correctness:,0.3044,0.3044,0,, ,Correctness:,0.3119,0.3119,0,, ,Correctness:,0.3256,0.3256,0,, 
,Correctness:,0.1419,0.1419,0,, ,Correctness:,0.1094,0.1094,0,, ,Correctness:,0.3131,0.3131,0,, ,Correctness:,0.3019,0.3019,0,, ,Correctness:,0.3081,0.3081,0,, 
,Correctness:,0.1231,0.1231,0,, ,Correctness:,0.1119,0.1119,0,, ,Correctness:,0.2731,0.2731,0,, ,Correctness:,0.3150,0.3150,0,, ,Correctness:,0.3075,0.3075,0,, 
,Correctness:,0.1281,0.1281,0,, ,Correctness:,0.1094,0.1094,0,, ,Correctness:,0.3069,0.3069,0,, ,Correctness:,0.2875,0.2875,0,, ,Correctness:,0.3169,0.3169,0,, 
,Correctness:,0.1331,0.1331,0,, ,Correctness:,0.1094,0.1094,0,, ,Correctness:,0.3081,0.3081,0,, ,Correctness:,0.3106,0.3106,0,, ,Correctness:,0.3181,0.3181,0,, 
,Correctness:,0.1356,0.1356,0,, ,Correctness:,0.1100,0.1100,0,, ,Correctness:,0.3125,0.3125,0,, ,Correctness:,0.3081,0.3081,0,, ,Correctness:,0.3125,0.3125,0,, 
,Correctness:,0.1381,0.1381,0,, ,Correctness:,0.1206,0.1206,0,, ,Correctness:,0.3081,0.3081,0,, ,Correctness:,0.2631,0.2631,0,, ,Correctness:,0.3162,0.3162,0,, 
,Correctness:,0.1125,0.1125,0,, ,Correctness:,0.0900,0.0900,0,, ,Correctness:,0.2850,0.2850,0,, ,Correctness:,0.3150,0.3150,0,, ,Correctness:,0.3206,0.3206,0,, 
,Correctness:,0.1138,0.1138,0,, ,Correctness:,0.1019,0.1019,0,, ,Correctness:,0.2863,0.2863,0,, ,Correctness:,0.3000,0.3000,0,, ,Correctness:,0.3050,0.3050,0,, 
,Correctness:,0.1175,0.1175,0,, ,Correctness:,0.0988,0.0988,0,, ,Correctness:,0.2856,0.2856,0,, ,Correctness:,0.2944,0.2944,0,, ,Correctness:,0.3219,0.3219,0,, 
Average:,0.1306,,,,, Average:,0.1077,,,,, Average:,0.2982,,,,, Average:,0.2963,,,,, Average:,0.3178,,,,, 
,Correctness:,0.3000,0.3000,0,, ,Correctness:,0.2100,0.2100,0,, ,Correctness:,0.5100,0.5100,0,, ,Correctness:,0.2000,0.2000,0,, ,Correctness:,0.2100,0.2100,0,, 
,Correctness:,0.3200,0.3200,0,, ,Correctness:,0.1700,0.1700,0,, ,Correctness:,0.5700,0.5700,0,, ,Correctness:,0.1600,0.1600,0,, ,Correctness:,0.1600,0.1600,0,, 
,Correctness:,0.3000,0.3000,0,, ,Correctness:,0.3000,0.3000,0,, ,Correctness:,0.5600,0.5600,0,, ,Correctness:,0.2900,0.2900,0,, ,Correctness:,0.2900,0.2900,0,, 
,Correctness:,0.2300,0.2300,0,, ,Correctness:,0.3200,0.3200,0,, ,Correctness:,0.5000,0.5000,0,, ,Correctness:,0.3100,0.3100,0,, ,Correctness:,0.2200,0.2200,0,, 
,Correctness:,0.2200,0.2200,0,, ,Correctness:,0.3000,0.3000,0,, ,Correctness:,0.4900,0.4900,0,, ,Correctness:,0.3100,0.3100,0,, ,Correctness:,0.3100,0.3100,0,, 
,Correctness:,0.2700,0.2700,0,, ,Correctness:,0.3200,0.3200,0,, ,Correctness:,0.4900,0.4900,0,, ,Correctness:,0.3100,0.3100,0,, ,Correctness:,0.3100,0.3100,0,, 
,Correctness:,0.2000,0.2000,0,, ,Correctness:,0.3700,0.3700,0,, ,Correctness:,0.4500,0.4500,0,, ,Correctness:,0.3600,0.3600,0,, ,Correctness:,0.3700,0.3700,0,, 
,Correctness:,0.2600,0.2600,0,, ,Correctness:,0.1500,0.1500,0,, ,Correctness:,0.5900,0.5900,0,, ,Correctness:,0.1500,0.1500,0,, ,Correctness:,0.1400,0.1400,0,, 
,Correctness:,0.3000,0.3000,0,, ,Correctness:,0.2600,0.2600,0,, ,Correctness:,0.5200,0.5200,0,, ,Correctness:,0.2500,0.2500,0,, ,Correctness:,0.2600,0.2600,0,, 
,Correctness:,0.2900,0.2900,0,, ,Correctness:,0.2700,0.2700,0,, ,Correctness:,0.4800,0.4800,0,, ,Correctness:,0.2600,0.2600,0,, ,Correctness:,0.2700,0.2700,0,, 
,Correctness:,0.2950,0.2950,0,, ,Correctness:,0.2600,0.2600,0,, ,Correctness:,0.4450,0.4450,0,, ,Correctness:,0.2550,0.2550,0,, ,Correctness:,0.2600,0.2600,0,, 
,Correctness:,0.3000,0.3000,0,, ,Correctness:,0.2600,0.2600,0,, ,Correctness:,0.5250,0.5250,0,, ,Correctness:,0.2550,0.2550,0,, ,Correctness:,0.2550,0.2550,0,, 
,Correctness:,0.2550,0.2550,0,, ,Correctness:,0.3400,0.3400,0,, ,Correctness:,0.4750,0.4750,0,, ,Correctness:,0.3350,0.3350,0,, ,Correctness:,0.3400,0.3400,0,, 
,Correctness:,0.2850,0.2850,0,, ,Correctness:,0.2300,0.2300,0,, ,Correctness:,0.5400,0.5400,0,, ,Correctness:,0.2350,0.2350,0,, ,Correctness:,0.2350,0.2350,0,, 
,Correctness:,0.3150,0.3150,0,, ,Correctness:,0.1600,0.1600,0,, ,Correctness:,0.5550,0.5550,0,, ,Correctness:,0.1550,0.1550,0,, ,Correctness:,0.1600,0.1600,0,, 
,Correctness:,0.3100,0.3100,0,, ,Correctness:,0.2450,0.2450,0,, ,Correctness:,0.4450,0.4450,0,, ,Correctness:,0.2450,0.2450,0,, ,Correctness:,0.2500,0.2500,0,, 
,Correctness:,0.3000,0.3000,0,, ,Correctness:,0.2950,0.2950,0,, ,Correctness:,0.5350,0.5350,0,, ,Correctness:,0.2900,0.2900,0,, ,Correctness:,0.2950,0.2950,0,, 
,Correctness:,0.3000,0.3000,0,, ,Correctness:,0.1950,0.1950,0,, ,Correctness:,0.5250,0.5250,0,, ,Correctness:,0.2000,0.2000,0,, ,Correctness:,0.1950,0.1950,0,, 
,Correctness:,0.2850,0.2850,0,, ,Correctness:,0.2500,0.2500,0,, ,Correctness:,0.5600,0.5600,0,, ,Correctness:,0.2450,0.2450,0,, ,Correctness:,0.2500,0.2500,0,, 
,Correctness:,0.2850,0.2850,0,, ,Correctness:,0.3050,0.3050,0,, ,Correctness:,0.3700,0.3700,0,, ,Correctness:,0.3050,0.3050,0,, ,Correctness:,0.3050,0.3050,0,, 
,Correctness:,0.2975,0.2975,0,, ,Correctness:,0.1850,0.1850,0,, ,Correctness:,0.5775,0.5775,0,, ,Correctness:,0.1850,0.1850,0,, ,Correctness:,0.1850,0.1850,0,, 
,Correctness:,0.3025,0.3025,0,, ,Correctness:,0.1875,0.1875,0,, ,Correctness:,0.5000,0.5000,0,, ,Correctness:,0.1850,0.1850,0,, ,Correctness:,0.1875,0.1875,0,, 
,Correctness:,0.2800,0.2800,0,, ,Correctness:,0.2750,0.2750,0,, ,Correctness:,0.4700,0.4700,0,, ,Correctness:,0.2775,0.2775,0,, ,Correctness:,0.2750,0.2750,0,, 
,Correctness:,0.2925,0.2925,0,, ,Correctness:,0.2475,0.2475,0,, ,Correctness:,0.5025,0.5025,0,, ,Correctness:,0.2500,0.2500,0,, ,Correctness:,0.2475,0.2475,0,, 
,Correctness:,0.3200,0.3200,0,, ,Correctness:,0.2100,0.2100,0,, ,Correctness:,0.4700,0.4700,0,, ,Correctness:,0.2075,0.2075,0,, ,Correctness:,0.2100,0.2100,0,, 
,Correctness:,0.2800,0.2800,0,, ,Correctness:,0.2500,0.2500,0,, ,Correctness:,0.4675,0.4675,0,, ,Correctness:,0.2475,0.2475,0,, ,Correctness:,0.2500,0.2500,0,, 
,Correctness:,0.3175,0.3175,0,, ,Correctness:,0.1900,0.1900,0,, ,Correctness:,0.6250,0.6250,0,, ,Correctness:,0.1875,0.1875,0,, ,Correctness:,0.1900,0.1900,0,, 
,Correctness:,0.2900,0.2900,0,, ,Correctness:,0.2550,0.2550,0,, ,Correctness:,0.4700,0.4700,0,, ,Correctness:,0.2550,0.2550,0,, ,Correctness:,0.2550,0.2550,0,, 
,Correctness:,0.2475,0.2475,0,, ,Correctness:,0.3250,0.3250,0,, ,Correctness:,0.4275,0.4275,0,, ,Correctness:,0.3250,0.3250,0,, ,Correctness:,0.3275,0.3275,0,, 
,Correctness:,0.3050,0.3050,0,, ,Correctness:,0.1775,0.1775,0,, ,Correctness:,0.5625,0.5625,0,, ,Correctness:,0.1800,0.1800,0,, ,Correctness:,0.1775,0.1775,0,, 
,Correctness:,0.2637,0.2637,0,, ,Correctness:,0.3262,0.3262,0,, ,Correctness:,0.4213,0.4213,0,, ,Correctness:,0.3250,0.3250,0,, ,Correctness:,0.3262,0.3262,0,, 
,Correctness:,0.2812,0.2812,0,, ,Correctness:,0.3063,0.3063,0,, ,Correctness:,0.4988,0.4988,0,, ,Correctness:,0.3075,0.3075,0,, ,Correctness:,0.3063,0.3063,0,, 
,Correctness:,0.3000,0.3000,0,, ,Correctness:,0.2288,0.2288,0,, ,Correctness:,0.5400,0.5400,0,, ,Correctness:,0.2275,0.2275,0,, ,Correctness:,0.2288,0.2288,0,, 
,Correctness:,0.2950,0.2950,0,, ,Correctness:,0.2675,0.2675,0,, ,Correctness:,0.5075,0.5075,0,, ,Correctness:,0.2662,0.2662,0,, ,Correctness:,0.2662,0.2662,0,, 
,Correctness:,0.2812,0.2812,0,, ,Correctness:,0.2775,0.2775,0,, ,Correctness:,0.4888,0.4888,0,, ,Correctness:,0.2775,0.2775,0,, ,Correctness:,0.2775,0.2775,0,, 
,Correctness:,0.2963,0.2963,0,, ,Correctness:,0.2650,0.2650,0,, ,Correctness:,0.5275,0.5275,0,, ,Correctness:,0.2637,0.2637,0,, ,Correctness:,0.2637,0.2637,0,, 
,Correctness:,0.2913,0.2913,0,, ,Correctness:,0.2762,0.2762,0,, ,Correctness:,0.4363,0.4363,0,, ,Correctness:,0.2750,0.2750,0,, ,Correctness:,0.2750,0.2750,0,, 
,Correctness:,0.3025,0.3025,0,, ,Correctness:,0.2362,0.2362,0,, ,Correctness:,0.4525,0.4525,0,, ,Correctness:,0.2375,0.2375,0,, ,Correctness:,0.2362,0.2362,0,, 
,Correctness:,0.2975,0.2975,0,, ,Correctness:,0.2275,0.2275,0,, ,Correctness:,0.4813,0.4813,0,, ,Correctness:,0.2275,0.2275,0,, ,Correctness:,0.2288,0.2288,0,, 
,Correctness:,0.2900,0.2900,0,, ,Correctness:,0.2325,0.2325,0,, ,Correctness:,0.5288,0.5288,0,, ,Correctness:,0.2338,0.2338,0,, ,Correctness:,0.2338,0.2338,0,, 
,Correctness:,0.3025,0.3025,0,, ,Correctness:,0.2556,0.2556,0,, ,Correctness:,0.5125,0.5125,0,, ,Correctness:,0.2556,0.2556,0,, ,Correctness:,0.2556,0.2556,0,, 
,Correctness:,0.2731,0.2731,0,, ,Correctness:,0.2612,0.2612,0,, ,Correctness:,0.5225,0.5225,0,, ,Correctness:,0.2606,0.2606,0,, ,Correctness:,0.2506,0.2506,0,, 
,Correctness:,0.2944,0.2944,0,, ,Correctness:,0.2313,0.2313,0,, ,Correctness:,0.4956,0.4956,0,, ,Correctness:,0.2313,0.2313,0,, ,Correctness:,0.2313,0.2313,0,, 
,Correctness:,0.2812,0.2812,0,, ,Correctness:,0.2556,0.2556,0,, ,Correctness:,0.5387,0.5387,0,, ,Correctness:,0.2550,0.2550,0,, ,Correctness:,0.2556,0.2556,0,, 
,Correctness:,0.2794,0.2794,0,, ,Correctness:,0.2462,0.2462,0,, ,Correctness:,0.5131,0.5131,0,, ,Correctness:,0.2462,0.2462,0,, ,Correctness:,0.2462,0.2462,0,, 
,Correctness:,0.2750,0.2750,0,, ,Correctness:,0.2750,0.2750,0,, ,Correctness:,0.5100,0.5100,0,, ,Correctness:,0.2756,0.2756,0,, ,Correctness:,0.2750,0.2750,0,, 
,Correctness:,0.2888,0.2888,0,, ,Correctness:,0.2706,0.2706,0,, ,Correctness:,0.4988,0.4988,0,, ,Correctness:,0.2700,0.2700,0,, ,Correctness:,0.2706,0.2706,0,, 
,Correctness:,0.3050,0.3050,0,, ,Correctness:,0.2238,0.2238,0,, ,Correctness:,0.5631,0.5631,0,, ,Correctness:,0.2231,0.2231,0,, ,Correctness:,0.2238,0.2238,0,, 
,Correctness:,0.3006,0.3006,0,, ,Correctness:,0.2419,0.2419,0,, ,Correctness:,0.5038,0.5038,0,, ,Correctness:,0.2419,0.2419,0,, ,Correctness:,0.2419,0.2419,0,, 
,Correctness:,0.2881,0.2881,0,, ,Correctness:,0.2512,0.2512,0,, ,Correctness:,0.5400,0.5400,0,, ,Correctness:,0.2506,0.2506,0,, ,Correctness:,0.2512,0.2512,0,, 
Average:,0.2868,,,,, Average:,0.2534,,,,, Average:,0.5058,,,,, Average:,0.2514,,,,, Average:,0.2507,,,,, 
,Correctness:,0.2200,0.2200,0,, ,Correctness:,0.1400,0.1400,0,, ,Correctness:,0.3000,0.3000,0,, ,Correctness:,0.3800,0.3800,0,, ,Correctness:,0.1900,0.1900,0,, 
,Correctness:,0.2300,0.2300,0,, ,Correctness:,0.1600,0.1600,0,, ,Correctness:,0.3100,0.3100,0,, ,Correctness:,0.3800,0.3800,0,, ,Correctness:,0.2100,0.2100,0,, 
,Correctness:,0.1200,0.1200,0,, ,Correctness:,0.1600,0.1600,0,, ,Correctness:,0.3100,0.3100,0,, ,Correctness:,0.3700,0.3700,0,, ,Correctness:,0.2300,0.2300,0,, 
,Correctness:,0.1000,0.1000,0,, ,Correctness:,0.1800,0.1800,0,, ,Correctness:,0.3300,0.3300,0,, ,Correctness:,0.3300,0.3300,0,, ,Correctness:,0.4000,0.4000,0,, 
,Correctness:,0.1300,0.1300,0,, ,Correctness:,0.3100,0.3100,0,, ,Correctness:,0.3500,0.3500,0,, ,Correctness:,0.3600,0.3600,0,, ,Correctness:,0.3200,0.3200,0,, 
,Correctness:,0.1100,0.1100,0,, ,Correctness:,0.2200,0.2200,0,, ,Correctness:,0.2900,0.2900,0,, ,Correctness:,0.3400,0.3400,0,, ,Correctness:,0.3100,0.3100,0,, 
,Correctness:,0.1600,0.1600,0,, ,Correctness:,0.2200,0.2200,0,, ,Correctness:,0.3100,0.3100,0,, ,Correctness:,0.3200,0.3200,0,, ,Correctness:,0.3200,0.3200,0,, 
,Correctness:,0.1800,0.1800,0,, ,Correctness:,0.1000,0.1000,0,, ,Correctness:,0.3100,0.3100,0,, ,Correctness:,0.4500,0.4500,0,, ,Correctness:,0.1500,0.1500,0,, 
,Correctness:,0.1900,0.1900,0,, ,Correctness:,0.1500,0.1500,0,, ,Correctness:,0.3200,0.3200,0,, ,Correctness:,0.3800,0.3800,0,, ,Correctness:,0.2200,0.2200,0,, 
,Correctness:,0.1400,0.1400,0,, ,Correctness:,0.2400,0.2400,0,, ,Correctness:,0.2800,0.2800,0,, ,Correctness:,0.3400,0.3400,0,, ,Correctness:,0.2700,0.2700,0,, 
,Correctness:,0.2000,0.2000,0,, ,Correctness:,0.2100,0.2100,0,, ,Correctness:,0.2600,0.2600,0,, ,Correctness:,0.3350,0.3350,0,, ,Correctness:,0.2300,0.2300,0,, 
,Correctness:,0.1700,0.1700,0,, ,Correctness:,0.2200,0.2200,0,, ,Correctness:,0.3200,0.3200,0,, ,Correctness:,0.3700,0.3700,0,, ,Correctness:,0.1600,0.1600,0,, 
,Correctness:,0.1700,0.1700,0,, ,Correctness:,0.1300,0.1300,0,, ,Correctness:,0.3300,0.3300,0,, ,Correctness:,0.3350,0.3350,0,, ,Correctness:,0.3600,0.3600,0,, 
,Correctness:,0.1800,0.1800,0,, ,Correctness:,0.1800,0.1800,0,, ,Correctness:,0.3150,0.3150,0,, ,Correctness:,0.3800,0.3800,0,, ,Correctness:,0.2550,0.2550,0,, 
,Correctness:,0.2100,0.2100,0,, ,Correctness:,0.1200,0.1200,0,, ,Correctness:,0.3100,0.3100,0,, ,Correctness:,0.4150,0.4150,0,, ,Correctness:,0.2100,0.2100,0,, 
,Correctness:,0.2150,0.2150,0,, ,Correctness:,0.1200,0.1200,0,, ,Correctness:,0.2700,0.2700,0,, ,Correctness:,0.3700,0.3700,0,, ,Correctness:,0.2800,0.2800,0,, 
,Correctness:,0.1550,0.1550,0,, ,Correctness:,0.1600,0.1600,0,, ,Correctness:,0.3200,0.3200,0,, ,Correctness:,0.3500,0.3500,0,, ,Correctness:,0.2400,0.2400,0,, 
,Correctness:,0.2200,0.2200,0,, ,Correctness:,0.1200,0.1200,0,, ,Correctness:,0.2650,0.2650,0,, ,Correctness:,0.3850,0.3850,0,, ,Correctness:,0.2050,0.2050,0,, 
,Correctness:,0.1550,0.1550,0,, ,Correctness:,0.1700,0.1700,0,, ,Correctness:,0.2900,0.2900,0,, ,Correctness:,0.3950,0.3950,0,, ,Correctness:,0.2450,0.2450,0,, 
,Correctness:,0.2250,0.2250,0,, ,Correctness:,0.1900,0.1900,0,, ,Correctness:,0.2750,0.2750,0,, ,Correctness:,0.3300,0.3300,0,, ,Correctness:,0.3000,0.3000,0,, 
,Correctness:,0.1800,0.1800,0,, ,Correctness:,0.1250,0.1250,0,, ,Correctness:,0.2800,0.2800,0,, ,Correctness:,0.4075,0.4075,0,, ,Correctness:,0.1800,0.1800,0,, 
,Correctness:,0.2400,0.2400,0,, ,Correctness:,0.1050,0.1050,0,, ,Correctness:,0.2675,0.2675,0,, ,Correctness:,0.4100,0.4100,0,, ,Correctness:,0.1900,0.1900,0,, 
,Correctness:,0.1750,0.1750,0,, ,Correctness:,0.1625,0.1625,0,, ,Correctness:,0.3100,0.3100,0,, ,Correctness:,0.3575,0.3575,0,, ,Correctness:,0.2200,0.2200,0,, 
,Correctness:,0.1875,0.1875,0,, ,Correctness:,0.1625,0.1625,0,, ,Correctness:,0.2950,0.2950,0,, ,Correctness:,0.3775,0.3775,0,, ,Correctness:,0.2725,0.2725,0,, 
,Correctness:,0.2125,0.2125,0,, ,Correctness:,0.1375,0.1375,0,, ,Correctness:,0.2725,0.2725,0,, ,Correctness:,0.3925,0.3925,0,, ,Correctness:,0.1750,0.1750,0,, 
,Correctness:,0.2150,0.2150,0,, ,Correctness:,0.1175,0.1175,0,, ,Correctness:,0.2875,0.2875,0,, ,Correctness:,0.3700,0.3700,0,, ,Correctness:,0.2300,0.2300,0,, 
,Correctness:,0.1275,0.1275,0,, ,Correctness:,0.1450,0.1450,0,, ,Correctness:,0.2925,0.2925,0,, ,Correctness:,0.3975,0.3975,0,, ,Correctness:,0.1375,0.1375,0,, 
,Correctness:,0.1825,0.1825,0,, ,Correctness:,0.1500,0.1500,0,, ,Correctness:,0.2975,0.2975,0,, ,Correctness:,0.3600,0.3600,0,, ,Correctness:,0.2075,0.2075,0,, 
,Correctness:,0.1925,0.1925,0,, ,Correctness:,0.1875,0.1875,0,, ,Correctness:,0.3100,0.3100,0,, ,Correctness:,0.3450,0.3450,0,, ,Correctness:,0.2775,0.2775,0,, 
,Correctness:,0.1800,0.1800,0,, ,Correctness:,0.1125,0.1125,0,, ,Correctness:,0.2600,0.2600,0,, ,Correctness:,0.4075,0.4075,0,, ,Correctness:,0.2000,0.2000,0,, 
,Correctness:,0.1837,0.1837,0,, ,Correctness:,0.1437,0.1437,0,, ,Correctness:,0.3125,0.3125,0,, ,Correctness:,0.3262,0.3262,0,, ,Correctness:,0.2650,0.2650,0,, 
,Correctness:,0.1700,0.1700,0,, ,Correctness:,0.1963,0.1963,0,, ,Correctness:,0.3075,0.3075,0,, ,Correctness:,0.3563,0.3563,0,, ,Correctness:,0.2375,0.2375,0,, 
,Correctness:,0.1688,0.1688,0,, ,Correctness:,0.1550,0.1550,0,, ,Correctness:,0.2913,0.2913,0,, ,Correctness:,0.3837,0.3837,0,, ,Correctness:,0.2000,0.2000,0,, 
,Correctness:,0.1762,0.1762,0,, ,Correctness:,0.1638,0.1638,0,, ,Correctness:,0.3075,0.3075,0,, ,Correctness:,0.3688,0.3688,0,, ,Correctness:,0.2600,0.2600,0,, 
,Correctness:,0.1812,0.1812,0,, ,Correctness:,0.1537,0.1537,0,, ,Correctness:,0.3075,0.3075,0,, ,Correctness:,0.3663,0.3663,0,, ,Correctness:,0.2775,0.2775,0,, 
,Correctness:,0.1575,0.1575,0,, ,Correctness:,0.1613,0.1613,0,, ,Correctness:,0.3225,0.3225,0,, ,Correctness:,0.3538,0.3538,0,, ,Correctness:,0.2288,0.2288,0,, 
,Correctness:,0.2150,0.2150,0,, ,Correctness:,0.1562,0.1562,0,, ,Correctness:,0.2963,0.2963,0,, ,Correctness:,0.3663,0.3663,0,, ,Correctness:,0.3038,0.3038,0,, 
,Correctness:,0.2175,0.2175,0,, ,Correctness:,0.1787,0.1787,0,, ,Correctness:,0.2863,0.2863,0,, ,Correctness:,0.3862,0.3862,0,, ,Correctness:,0.2550,0.2550,0,, 
,Correctness:,0.1938,0.1938,0,, ,Correctness:,0.1487,0.1487,0,, ,Correctness:,0.3013,0.3013,0,, ,Correctness:,0.3812,0.3812,0,, ,Correctness:,0.2512,0.2512,0,, 
,Correctness:,0.1762,0.1762,0,, ,Correctness:,0.1313,0.1313,0,, ,Correctness:,0.2913,0.2913,0,, ,Correctness:,0.3738,0.3738,0,, ,Correctness:,0.2162,0.2162,0,, 
,Correctness:,0.1875,0.1875,0,, ,Correctness:,0.1713,0.1713,0,, ,Correctness:,0.3156,0.3156,0,, ,Correctness:,0.3744,0.3744,0,, ,Correctness:,0.2462,0.2462,0,, 
,Correctness:,0.1663,0.1663,0,, ,Correctness:,0.1700,0.1700,0,, ,Correctness:,0.3150,0.3150,0,, ,Correctness:,0.3644,0.3644,0,, ,Correctness:,0.2556,0.2556,0,, 
,Correctness:,0.1981,0.1981,0,, ,Correctness:,0.1444,0.1444,0,, ,Correctness:,0.3000,0.3000,0,, ,Correctness:,0.3819,0.3819,0,, ,Correctness:,0.2450,0.2450,0,, 
,Correctness:,0.1694,0.1694,0,, ,Correctness:,0.1600,0.1600,0,, ,Correctness:,0.3088,0.3088,0,, ,Correctness:,0.3800,0.3800,0,, ,Correctness:,0.2294,0.2294,0,, 
,Correctness:,0.1750,0.1750,0,, ,Correctness:,0.1425,0.1425,0,, ,Correctness:,0.3063,0.3063,0,, ,Correctness:,0.3725,0.3725,0,, ,Correctness:,0.2681,0.2681,0,, 
,Correctness:,0.1775,0.1775,0,, ,Correctness:,0.1625,0.1625,0,, ,Correctness:,0.3262,0.3262,0,, ,Correctness:,0.3613,0.3613,0,, ,Correctness:,0.2712,0.2712,0,, 
,Correctness:,0.1825,0.1825,0,, ,Correctness:,0.1519,0.1519,0,, ,Correctness:,0.3162,0.3162,0,, ,Correctness:,0.3525,0.3525,0,, ,Correctness:,0.2550,0.2550,0,, 
,Correctness:,0.1562,0.1562,0,, ,Correctness:,0.1588,0.1588,0,, ,Correctness:,0.3100,0.3100,0,, ,Correctness:,0.3912,0.3912,0,, ,Correctness:,0.2425,0.2425,0,, 
,Correctness:,0.1931,0.1931,0,, ,Correctness:,0.1500,0.1500,0,, ,Correctness:,0.2900,0.2900,0,, ,Correctness:,0.3756,0.3756,0,, ,Correctness:,0.2238,0.2238,0,, 
,Correctness:,0.1694,0.1694,0,, ,Correctness:,0.1469,0.1469,0,, ,Correctness:,0.3100,0.3100,0,, ,Correctness:,0.3787,0.3787,0,, ,Correctness:,0.2219,0.2219,0,, 
Average:,0.1797,,,,, Average:,0.1610,,,,, Average:,0.3012,,,,, Average:,0.3707,,,,, Average:,0.2430,,,,, 
,Correctness:,0.4300,0.4300,0,, ,Correctness:,0.2200,0.2200,0,, ,Correctness:,0.4000,0.4000,0,, ,Correctness:,0.2300,0.2300,0,, ,Correctness:,0.2100,0.2100,0,, 
,Correctness:,0.4000,0.4000,0,, ,Correctness:,0.1900,0.1900,0,, ,Correctness:,0.3900,0.3900,0,, ,Correctness:,0.1600,0.1600,0,, ,Correctness:,0.1700,0.1700,0,, 
,Correctness:,0.4200,0.4200,0,, ,Correctness:,0.2100,0.2100,0,, ,Correctness:,0.4100,0.4100,0,, ,Correctness:,0.2200,0.2200,0,, ,Correctness:,0.2900,0.2900,0,, 
,Correctness:,0.4700,0.4700,0,, ,Correctness:,0.2100,0.2100,0,, ,Correctness:,0.4300,0.4300,0,, ,Correctness:,0.1700,0.1700,0,, ,Correctness:,0.3200,0.3200,0,, 
,Correctness:,0.4100,0.4100,0,, ,Correctness:,0.2500,0.2500,0,, ,Correctness:,0.4100,0.4100,0,, ,Correctness:,0.2100,0.2100,0,, ,Correctness:,0.3200,0.3200,0,, 
,Correctness:,0.4500,0.4500,0,, ,Correctness:,0.2100,0.2100,0,, ,Correctness:,0.4300,0.4300,0,, ,Correctness:,0.1400,0.1400,0,, ,Correctness:,0.3100,0.3100,0,, 
,Correctness:,0.4400,0.4400,0,, ,Correctness:,0.2700,0.2700,0,, ,Correctness:,0.3700,0.3700,0,, ,Correctness:,0.1800,0.1800,0,, ,Correctness:,0.3600,0.3600,0,, 
,Correctness:,0.3800,0.3800,0,, ,Correctness:,0.2000,0.2000,0,, ,Correctness:,0.4600,0.4600,0,, ,Correctness:,0.2000,0.2000,0,, ,Correctness:,0.1500,0.1500,0,, 
,Correctness:,0.4000,0.4000,0,, ,Correctness:,0.2300,0.2300,0,, ,Correctness:,0.4200,0.4200,0,, ,Correctness:,0.2100,0.2100,0,, ,Correctness:,0.2500,0.2500,0,, 
,Correctness:,0.4100,0.4100,0,, ,Correctness:,0.2300,0.2300,0,, ,Correctness:,0.4400,0.4400,0,, ,Correctness:,0.1500,0.1500,0,, ,Correctness:,0.2600,0.2600,0,, 
,Correctness:,0.4300,0.4300,0,, ,Correctness:,0.2350,0.2350,0,, ,Correctness:,0.3900,0.3900,0,, ,Correctness:,0.1850,0.1850,0,, ,Correctness:,0.2600,0.2600,0,, 
,Correctness:,0.3700,0.3700,0,, ,Correctness:,0.2100,0.2100,0,, ,Correctness:,0.3550,0.3550,0,, ,Correctness:,0.1900,0.1900,0,, ,Correctness:,0.2550,0.2550,0,, 
,Correctness:,0.4100,0.4100,0,, ,Correctness:,0.2750,0.2750,0,, ,Correctness:,0.3700,0.3700,0,, ,Correctness:,0.1650,0.1650,0,, ,Correctness:,0.3400,0.3400,0,, 
,Correctness:,0.3850,0.3850,0,, ,Correctness:,0.2250,0.2250,0,, ,Correctness:,0.4100,0.4100,0,, ,Correctness:,0.2350,0.2350,0,, ,Correctness:,0.2350,0.2350,0,, 
,Correctness:,0.3650,0.3650,0,, ,Correctness:,0.2050,0.2050,0,, ,Correctness:,0.3550,0.3550,0,, ,Correctness:,0.1900,0.1900,0,, ,Correctness:,0.1600,0.1600,0,, 
,Correctness:,0.4450,0.4450,0,, ,Correctness:,0.2700,0.2700,0,, ,Correctness:,0.3400,0.3400,0,, ,Correctness:,0.1450,0.1450,0,, ,Correctness:,0.2400,0.2400,0,, 
,Correctness:,0.4100,0.4100,0,, ,Correctness:,0.2250,0.2250,0,, ,Correctness:,0.4050,0.4050,0,, ,Correctness:,0.1750,0.1750,0,, ,Correctness:,0.2950,0.2950,0,, 
,Correctness:,0.3800,0.3800,0,, ,Correctness:,0.2200,0.2200,0,, ,Correctness:,0.3650,0.3650,0,, ,Correctness:,0.1350,0.1350,0,, ,Correctness:,0.2050,0.2050,0,, 
,Correctness:,0.4250,0.4250,0,, ,Correctness:,0.2300,0.2300,0,, ,Correctness:,0.4050,0.4050,0,, ,Correctness:,0.1600,0.1600,0,, ,Correctness:,0.2500,0.2500,0,, 
,Correctness:,0.4700,0.4700,0,, ,Correctness:,0.2900,0.2900,0,, ,Correctness:,0.3550,0.3550,0,, ,Correctness:,0.2100,0.2100,0,, ,Correctness:,0.3050,0.3050,0,, 
,Correctness:,0.3950,0.3950,0,, ,Correctness:,0.2000,0.2000,0,, ,Correctness:,0.3925,0.3925,0,, ,Correctness:,0.1475,0.1475,0,, ,Correctness:,0.1875,0.1875,0,, 
,Correctness:,0.3800,0.3800,0,, ,Correctness:,0.2375,0.2375,0,, ,Correctness:,0.3750,0.3750,0,, ,Correctness:,0.1700,0.1700,0,, ,Correctness:,0.1875,0.1875,0,, 
,Correctness:,0.4275,0.4275,0,, ,Correctness:,0.2425,0.2425,0,, ,Correctness:,0.3750,0.3750,0,, ,Correctness:,0.1825,0.1825,0,, ,Correctness:,0.2800,0.2800,0,, 
,Correctness:,0.4000,0.4000,0,, ,Correctness:,0.2475,0.2475,0,, ,Correctness:,0.3700,0.3700,0,, ,Correctness:,0.1150,0.1150,0,, ,Correctness:,0.2525,0.2525,0,, 
,Correctness:,0.4175,0.4175,0,, ,Correctness:,0.2400,0.2400,0,, ,Correctness:,0.3625,0.3625,0,, ,Correctness:,0.1375,0.1375,0,, ,Correctness:,0.2100,0.2100,0,, 
,Correctness:,0.4225,0.4225,0,, ,Correctness:,0.2525,0.2525,0,, ,Correctness:,0.3900,0.3900,0,, ,Correctness:,0.1350,0.1350,0,, ,Correctness:,0.2500,0.2500,0,, 
,Correctness:,0.3875,0.3875,0,, ,Correctness:,0.1675,0.1675,0,, ,Correctness:,0.4000,0.4000,0,, ,Correctness:,0.1700,0.1700,0,, ,Correctness:,0.1900,0.1900,0,, 
,Correctness:,0.4400,0.4400,0,, ,Correctness:,0.2500,0.2500,0,, ,Correctness:,0.3675,0.3675,0,, ,Correctness:,0.1150,0.1150,0,, ,Correctness:,0.2525,0.2525,0,, 
,Correctness:,0.4675,0.4675,0,, ,Correctness:,0.2750,0.2750,0,, ,Correctness:,0.3775,0.3775,0,, ,Correctness:,0.1475,0.1475,0,, ,Correctness:,0.3225,0.3225,0,, 
,Correctness:,0.3925,0.3925,0,, ,Correctness:,0.2125,0.2125,0,, ,Correctness:,0.4075,0.4075,0,, ,Correctness:,0.1225,0.1225,0,, ,Correctness:,0.1775,0.1775,0,, 
,Correctness:,0.4512,0.4512,0,, ,Correctness:,0.2650,0.2650,0,, ,Correctness:,0.3912,0.3912,0,, ,Correctness:,0.1400,0.1400,0,, ,Correctness:,0.3262,0.3262,0,, 
,Correctness:,0.4375,0.4375,0,, ,Correctness:,0.2350,0.2350,0,, ,Correctness:,0.3825,0.3825,0,, ,Correctness:,0.1850,0.1850,0,, ,Correctness:,0.3088,0.3088,0,, 
,Correctness:,0.4012,0.4012,0,, ,Correctness:,0.2125,0.2125,0,, ,Correctness:,0.3812,0.3812,0,, ,Correctness:,0.1713,0.1713,0,, ,Correctness:,0.2288,0.2288,0,, 
,Correctness:,0.4100,0.4100,0,, ,Correctness:,0.2313,0.2313,0,, ,Correctness:,0.3912,0.3912,0,, ,Correctness:,0.1800,0.1800,0,, ,Correctness:,0.2662,0.2662,0,, 
,Correctness:,0.4300,0.4300,0,, ,Correctness:,0.2350,0.2350,0,, ,Correctness:,0.3900,0.3900,0,, ,Correctness:,0.1713,0.1713,0,, ,Correctness:,0.2787,0.2787,0,, 
,Correctness:,0.4313,0.4313,0,, ,Correctness:,0.2162,0.2162,0,, ,Correctness:,0.3812,0.3812,0,, ,Correctness:,0.1663,0.1663,0,, ,Correctness:,0.2650,0.2650,0,, 
,Correctness:,0.4475,0.4475,0,, ,Correctness:,0.2737,0.2737,0,, ,Correctness:,0.3850,0.3850,0,, ,Correctness:,0.1675,0.1675,0,, ,Correctness:,0.2762,0.2762,0,, 
,Correctness:,0.4113,0.4113,0,, ,Correctness:,0.2612,0.2612,0,, ,Correctness:,0.3837,0.3837,0,, ,Correctness:,0.1350,0.1350,0,, ,Correctness:,0.2387,0.2387,0,, 
,Correctness:,0.4012,0.4012,0,, ,Correctness:,0.2437,0.2437,0,, ,Correctness:,0.3800,0.3800,0,, ,Correctness:,0.1475,0.1475,0,, ,Correctness:,0.2263,0.2263,0,, 
,Correctness:,0.4238,0.4238,0,, ,Correctness:,0.2275,0.2275,0,, ,Correctness:,0.3912,0.3912,0,, ,Correctness:,0.1500,0.1500,0,, ,Correctness:,0.2325,0.2325,0,, 
,Correctness:,0.4150,0.4150,0,, ,Correctness:,0.2356,0.2356,0,, ,Correctness:,0.3875,0.3875,0,, ,Correctness:,0.1619,0.1619,0,, ,Correctness:,0.2556,0.2556,0,, 
,Correctness:,0.4175,0.4175,0,, ,Correctness:,0.2244,0.2244,0,, ,Correctness:,0.3931,0.3931,0,, ,Correctness:,0.1700,0.1700,0,, ,Correctness:,0.2612,0.2612,0,, 
,Correctness:,0.4050,0.4050,0,, ,Correctness:,0.2437,0.2437,0,, ,Correctness:,0.3837,0.3837,0,, ,Correctness:,0.1500,0.1500,0,, ,Correctness:,0.2319,0.2319,0,, 
,Correctness:,0.4269,0.4269,0,, ,Correctness:,0.2169,0.2169,0,, ,Correctness:,0.3925,0.3925,0,, ,Correctness:,0.1638,0.1638,0,, ,Correctness:,0.2550,0.2550,0,, 
,Correctness:,0.4069,0.4069,0,, ,Correctness:,0.2288,0.2288,0,, ,Correctness:,0.3950,0.3950,0,, ,Correctness:,0.1588,0.1588,0,, ,Correctness:,0.2475,0.2475,0,, 
,Correctness:,0.4094,0.4094,0,, ,Correctness:,0.2344,0.2344,0,, ,Correctness:,0.3875,0.3875,0,, ,Correctness:,0.1744,0.1744,0,, ,Correctness:,0.2762,0.2762,0,, 
,Correctness:,0.4194,0.4194,0,, ,Correctness:,0.2356,0.2356,0,, ,Correctness:,0.3956,0.3956,0,, ,Correctness:,0.1481,0.1481,0,, ,Correctness:,0.2706,0.2706,0,, 
,Correctness:,0.4056,0.4056,0,, ,Correctness:,0.2044,0.2044,0,, ,Correctness:,0.4006,0.4006,0,, ,Correctness:,0.1481,0.1481,0,, ,Correctness:,0.2231,0.2231,0,, 
,Correctness:,0.4113,0.4113,0,, ,Correctness:,0.2356,0.2356,0,, ,Correctness:,0.3781,0.3781,0,, ,Correctness:,0.1713,0.1713,0,, ,Correctness:,0.2419,0.2419,0,, 
,Correctness:,0.4200,0.4200,0,, ,Correctness:,0.2150,0.2150,0,, ,Correctness:,0.3762,0.3762,0,, ,Correctness:,0.1537,0.1537,0,, ,Correctness:,0.2512,0.2512,0,, 
Average:,0.4162,,,,, Average:,0.2321,,,,, Average:,0.3895,,,,, Average:,0.1663,,,,, Average:,0.2531,,,,, 
,Correctness:,0.4500,0.4500,0,, ,Correctness:,0.3900,0.3900,0,, ,Correctness:,0.2300,0.2300,0,, ,Correctness:,0.3100,0.3100,0,, ,Correctness:,0.3700,0.3700,0,, 
,Correctness:,0.4200,0.4200,0,, ,Correctness:,0.4400,0.4400,0,, ,Correctness:,0.2200,0.2200,0,, ,Correctness:,0.4100,0.4100,0,, ,Correctness:,0.3500,0.3500,0,, 
,Correctness:,0.3000,0.3000,0,, ,Correctness:,0.4600,0.4600,0,, ,Correctness:,0.2400,0.2400,0,, ,Correctness:,0.3900,0.3900,0,, ,Correctness:,0.3200,0.3200,0,, 
,Correctness:,0.3200,0.3200,0,, ,Correctness:,0.4100,0.4100,0,, ,Correctness:,0.3000,0.3000,0,, ,Correctness:,0.4000,0.4000,0,, ,Correctness:,0.3300,0.3300,0,, 
,Correctness:,0.3800,0.3800,0,, ,Correctness:,0.4600,0.4600,0,, ,Correctness:,0.3300,0.3300,0,, ,Correctness:,0.4300,0.4300,0,, ,Correctness:,0.2900,0.2900,0,, 
,Correctness:,0.2900,0.2900,0,, ,Correctness:,0.4000,0.4000,0,, ,Correctness:,0.2400,0.2400,0,, ,Correctness:,0.4200,0.4200,0,, ,Correctness:,0.3300,0.3300,0,, 
,Correctness:,0.3200,0.3200,0,, ,Correctness:,0.4500,0.4500,0,, ,Correctness:,0.2500,0.2500,0,, ,Correctness:,0.4200,0.4200,0,, ,Correctness:,0.3300,0.3300,0,, 
,Correctness:,0.4200,0.4200,0,, ,Correctness:,0.4100,0.4100,0,, ,Correctness:,0.2000,0.2000,0,, ,Correctness:,0.4100,0.4100,0,, ,Correctness:,0.3100,0.3100,0,, 
,Correctness:,0.3300,0.3300,0,, ,Correctness:,0.4200,0.4200,0,, ,Correctness:,0.2600,0.2600,0,, ,Correctness:,0.4100,0.4100,0,, ,Correctness:,0.3200,0.3200,0,, 
,Correctness:,0.3300,0.3300,0,, ,Correctness:,0.4400,0.4400,0,, ,Correctness:,0.2600,0.2600,0,, ,Correctness:,0.4600,0.4600,0,, ,Correctness:,0.2600,0.2600,0,, 
,Correctness:,0.3250,0.3250,0,, ,Correctness:,0.4200,0.4200,0,, ,Correctness:,0.2600,0.2600,0,, ,Correctness:,0.3500,0.3500,0,, ,Correctness:,0.3050,0.3050,0,, 
,Correctness:,0.3300,0.3300,0,, ,Correctness:,0.4400,0.4400,0,, ,Correctness:,0.2600,0.2600,0,, ,Correctness:,0.3400,0.3400,0,, ,Correctness:,0.3300,0.3300,0,, 
,Correctness:,0.2600,0.2600,0,, ,Correctness:,0.4800,0.4800,0,, ,Correctness:,0.2600,0.2600,0,, ,Correctness:,0.4250,0.4250,0,, ,Correctness:,0.2950,0.2950,0,, 
,Correctness:,0.3600,0.3600,0,, ,Correctness:,0.4350,0.4350,0,, ,Correctness:,0.2700,0.2700,0,, ,Correctness:,0.4150,0.4150,0,, ,Correctness:,0.3300,0.3300,0,, 
,Correctness:,0.4150,0.4150,0,, ,Correctness:,0.3900,0.3900,0,, ,Correctness:,0.2500,0.2500,0,, ,Correctness:,0.3850,0.3850,0,, ,Correctness:,0.3450,0.3450,0,, 
,Correctness:,0.3450,0.3450,0,, ,Correctness:,0.4150,0.4150,0,, ,Correctness:,0.2850,0.2850,0,, ,Correctness:,0.3800,0.3800,0,, ,Correctness:,0.3300,0.3300,0,, 
,Correctness:,0.2850,0.2850,0,, ,Correctness:,0.4500,0.4500,0,, ,Correctness:,0.2400,0.2400,0,, ,Correctness:,0.4400,0.4400,0,, ,Correctness:,0.3250,0.3250,0,, 
,Correctness:,0.3450,0.3450,0,, ,Correctness:,0.4100,0.4100,0,, ,Correctness:,0.2450,0.2450,0,, ,Correctness:,0.4000,0.4000,0,, ,Correctness:,0.3500,0.3500,0,, 
,Correctness:,0.3250,0.3250,0,, ,Correctness:,0.4950,0.4950,0,, ,Correctness:,0.2700,0.2700,0,, ,Correctness:,0.4050,0.4050,0,, ,Correctness:,0.3350,0.3350,0,, 
,Correctness:,0.3450,0.3450,0,, ,Correctness:,0.4400,0.4400,0,, ,Correctness:,0.3350,0.3350,0,, ,Correctness:,0.3650,0.3650,0,, ,Correctness:,0.3250,0.3250,0,, 
,Correctness:,0.3375,0.3375,0,, ,Correctness:,0.4375,0.4375,0,, ,Correctness:,0.2125,0.2125,0,, ,Correctness:,0.3750,0.3750,0,, ,Correctness:,0.3400,0.3400,0,, 
,Correctness:,0.4150,0.4150,0,, ,Correctness:,0.4075,0.4075,0,, ,Correctness:,0.2550,0.2550,0,, ,Correctness:,0.3700,0.3700,0,, ,Correctness:,0.3200,0.3200,0,, 
,Correctness:,0.3825,0.3825,0,, ,Correctness:,0.4075,0.4075,0,, ,Correctness:,0.2625,0.2625,0,, ,Correctness:,0.3825,0.3825,0,, ,Correctness:,0.3525,0.3525,0,, 
,Correctness:,0.3550,0.3550,0,, ,Correctness:,0.4175,0.4175,0,, ,Correctness:,0.2525,0.2525,0,, ,Correctness:,0.3775,0.3775,0,, ,Correctness:,0.3400,0.3400,0,, 
,Correctness:,0.3825,0.3825,0,, ,Correctness:,0.3900,0.3900,0,, ,Correctness:,0.2725,0.2725,0,, ,Correctness:,0.3450,0.3450,0,, ,Correctness:,0.3250,0.3250,0,, 
,Correctness:,0.3400,0.3400,0,, ,Correctness:,0.4250,0.4250,0,, ,Correctness:,0.2625,0.2625,0,, ,Correctness:,0.3750,0.3750,0,, ,Correctness:,0.3400,0.3400,0,, 
,Correctness:,0.3400,0.3400,0,, ,Correctness:,0.4800,0.4800,0,, ,Correctness:,0.2175,0.2175,0,, ,Correctness:,0.4100,0.4100,0,, ,Correctness:,0.3525,0.3525,0,, 
,Correctness:,0.3375,0.3375,0,, ,Correctness:,0.4350,0.4350,0,, ,Correctness:,0.2725,0.2725,0,, ,Correctness:,0.3850,0.3850,0,, ,Correctness:,0.3150,0.3150,0,, 
,Correctness:,0.3200,0.3200,0,, ,Correctness:,0.4475,0.4475,0,, ,Correctness:,0.3150,0.3150,0,, ,Correctness:,0.3625,0.3625,0,, ,Correctness:,0.3250,0.3250,0,, 
,Correctness:,0.3675,0.3675,0,, ,Correctness:,0.4200,0.4200,0,, ,Correctness:,0.2475,0.2475,0,, ,Correctness:,0.3700,0.3700,0,, ,Correctness:,0.3350,0.3350,0,, 
,Correctness:,0.3287,0.3287,0,, ,Correctness:,0.4487,0.4487,0,, ,Correctness:,0.2888,0.2888,0,, ,Correctness:,0.3812,0.3812,0,, ,Correctness:,0.3075,0.3075,0,, 
,Correctness:,0.3013,0.3013,0,, ,Correctness:,0.4713,0.4713,0,, ,Correctness:,0.2725,0.2725,0,, ,Correctness:,0.4125,0.4125,0,, ,Correctness:,0.3225,0.3225,0,, 
,Correctness:,0.3425,0.3425,0,, ,Correctness:,0.4288,0.4288,0,, ,Correctness:,0.2537,0.2537,0,, ,Correctness:,0.3750,0.3750,0,, ,Correctness:,0.3387,0.3387,0,, 
,Correctness:,0.3262,0.3262,0,, ,Correctness:,0.4462,0.4462,0,, ,Correctness:,0.2750,0.2750,0,, ,Correctness:,0.3937,0.3937,0,, ,Correctness:,0.3438,0.3438,0,, 
,Correctness:,0.3262,0.3262,0,, ,Correctness:,0.4125,0.4125,0,, ,Correctness:,0.2762,0.2762,0,, ,Correctness:,0.4025,0.4025,0,, ,Correctness:,0.3262,0.3262,0,, 
,Correctness:,0.3262,0.3262,0,, ,Correctness:,0.4775,0.4775,0,, ,Correctness:,0.2612,0.2612,0,, ,Correctness:,0.4012,0.4012,0,, ,Correctness:,0.3325,0.3325,0,, 
,Correctness:,0.3713,0.3713,0,, ,Correctness:,0.4012,0.4012,0,, ,Correctness:,0.2913,0.2913,0,, ,Correctness:,0.3600,0.3600,0,, ,Correctness:,0.3262,0.3262,0,, 
,Correctness:,0.3912,0.3912,0,, ,Correctness:,0.3925,0.3925,0,, ,Correctness:,0.2762,0.2762,0,, ,Correctness:,0.3538,0.3538,0,, ,Correctness:,0.3063,0.3063,0,, 
,Correctness:,0.3925,0.3925,0,, ,Correctness:,0.4088,0.4088,0,, ,Correctness:,0.2637,0.2637,0,, ,Correctness:,0.3850,0.3850,0,, ,Correctness:,0.3300,0.3300,0,, 
,Correctness:,0.3387,0.3387,0,, ,Correctness:,0.4375,0.4375,0,, ,Correctness:,0.2612,0.2612,0,, ,Correctness:,0.3713,0.3713,0,, ,Correctness:,0.3425,0.3425,0,, 
,Correctness:,0.3287,0.3287,0,, ,Correctness:,0.4375,0.4375,0,, ,Correctness:,0.2544,0.2544,0,, ,Correctness:,0.3862,0.3862,0,, ,Correctness:,0.3425,0.3425,0,, 
,Correctness:,0.3438,0.3438,0,, ,Correctness:,0.4356,0.4356,0,, ,Correctness:,0.2625,0.2625,0,, ,Correctness:,0.3962,0.3962,0,, ,Correctness:,0.3306,0.3306,0,, 
,Correctness:,0.3744,0.3744,0,, ,Correctness:,0.4225,0.4225,0,, ,Correctness:,0.2700,0.2700,0,, ,Correctness:,0.3663,0.3663,0,, ,Correctness:,0.3325,0.3325,0,, 
,Correctness:,0.3125,0.3125,0,, ,Correctness:,0.4512,0.4512,0,, ,Correctness:,0.2662,0.2662,0,, ,Correctness:,0.3738,0.3738,0,, ,Correctness:,0.3275,0.3275,0,, 
,Correctness:,0.3450,0.3450,0,, ,Correctness:,0.4369,0.4369,0,, ,Correctness:,0.2475,0.2475,0,, ,Correctness:,0.4044,0.4044,0,, ,Correctness:,0.3169,0.3169,0,, 
,Correctness:,0.3294,0.3294,0,, ,Correctness:,0.4519,0.4519,0,, ,Correctness:,0.2687,0.2687,0,, ,Correctness:,0.3925,0.3925,0,, ,Correctness:,0.3350,0.3350,0,, 
,Correctness:,0.3256,0.3256,0,, ,Correctness:,0.4219,0.4219,0,, ,Correctness:,0.2644,0.2644,0,, ,Correctness:,0.3887,0.3887,0,, ,Correctness:,0.3194,0.3194,0,, 
,Correctness:,0.3350,0.3350,0,, ,Correctness:,0.4525,0.4525,0,, ,Correctness:,0.2475,0.2475,0,, ,Correctness:,0.3912,0.3912,0,, ,Correctness:,0.3438,0.3438,0,, 
,Correctness:,0.3569,0.3569,0,, ,Correctness:,0.4487,0.4487,0,, ,Correctness:,0.2556,0.2556,0,, ,Correctness:,0.3894,0.3894,0,, ,Correctness:,0.3287,0.3287,0,, 
,Correctness:,0.3187,0.3187,0,, ,Correctness:,0.4656,0.4656,0,, ,Correctness:,0.2525,0.2525,0,, ,Correctness:,0.3931,0.3931,0,, ,Correctness:,0.3481,0.3481,0,, 
Average:,0.3457,,,,, Average:,0.4334,,,,, Average:,0.2617,,,,, Average:,0.3887,,,,, Average:,0.3285,,,,, 
