35462633416265512143
FFFFFFFFFFFFFFFFFFFF
56154243114146234231
FFFFFFFFFFFFFFFFFFFF
64665462343166612421
LLFFFFFFFFFFFFFFFFFF
65636663454222466666
FFFLLLLLFFFFFFFLLLLL
63616666666635511613
FFFFLLLLLLLFFFFFLLFF
36162566666646664646
FFFFFFFLLLLLLLLLLLLL
63123156526554623221
FFFFFFFFFFFFFFFFFFFF
61332221523615343615
FFFFFFFFFFFFFFFFFFFF
63666636666616661662
LLLLLLLLLLLLLLLLLLLL
45152651261334566263
FFFFFFFFFFFFFFFFFFFF
66666666666666266665
LLLLLLLLLLLLLLLLLLLL
61265625161316266213
LLLFFFFFFFFFFFFFFFFF
35245315364311552323
FFFFFFFFFFFFFFFFFFFF
66536634144666666141
LLLLLLFFFFFFLLLFFFFF
66666666246466632621
LLLLLLLLLLLLLLLFFFFF
66166666666666664666
LLLLLLLLLLLLLLLLLLLL
66666456666136555623
LLLLLLLLLLLLLLFFFFFF
46656661445125666446
FLLLLLLFFFFFFFLLLFFF
61666612655454431626
LLLLLFFFFFFFFFFFFFFF
11416454643344414335
FFFFFFFFFFFFFFFFFFFF
16663666666563666664
FFLLLLLLLLLFFFLLLLLF
66662346663422561461
FLLLFFFLLLFFFFFFFFFF
64616466466666666616
LLLLLLLLLLLLLLLLLLLL
53232552512666616266
FFFFFFFFFFFLLLLLLLLL
56643415655666316664
FFFFFFFFLLLLLLLLLLLF
35243165326245555166
FFFFFFFFFFFFFFFFFFFL
66666566666366666664
LLLLLLLLLLLLLLLLLLLF
46646431436326261664
FFFFFFFFFFFFFLLLLLLL
32334242534435113612
FFFFFFFFFFFFFFFFFLLL
66566665666616353412
LLLLLLLLLLLLLLLFFFFF
26113221165633214433
FFFFFFFFFLFFFFFFFFFF
36525251633265616263
FFFFFFFFFFFFFFFFFFFF
25231135461561256654
FFFFFFFFFFFFLLFFFFFF
36616524654616666464
FFFFFFFFFFFLLLLLLFFF
62346514343324164141
FFFFFFFFFFFFFFFFFFFF
66532261235656665466
FFFFFFFFFFLLLLLLLLLL
46656246666666663666
LLLLLLLLLLLLLLLLLLLL
26653652636355652234
FLLFFFFFFFFFFFFFFFFF
52226666246663366566
FFFFFFLLLLLFFLLLLLLL
45246466655663166666
FFFFFFLLLLLLLLFLLLLL
43321116366656666116
FFFFFFFLLLLLLLLLLFFF
45146212415556322545
FFFFFFFFFFFFFFFFFFFF
11466666626666666316
FFLLLLLLLLLLLLLLLLLL
62365666166456366666
FFFLLLLLLLLFFFFFLLLL
66666663253454363163
LLLLLLLFFFFFFFFFFFFF
21254161636136363366
LFFFFFFFFFFFFLLLLLLL
26151124311535536526
FFFFFFFFFFFFFFFFFFFL
66666631416122636641
LLLLLLFFFFFFFFFFFFFF
46514154331423515112
FFFFFFFFFFFFFFFFFFFF
66664665666666666661
LLLLLLLLLLLLLLLLLLLL
