6666666156
FFLLLLLLLL
1652556223
FFFFFFFFFF
3642666666
LLLLLLLLLL
6666666646
LLLLLLLLFF
3246132436
FFFFFFFFLL
6666166336
LLLLLLLFFF
1351351643
FFFFFFFFFF
6666666166
LLLLLLLLLL
6651562666
FFFFFFFLLL
6666266636
FFLLLLLFFL
1623264116
FFFFFFFFFF
6466666666
LLLLLLLLLL
5121636322
FFFFFFLFFF
6612515452
FFFFFFFFFF
2435664611
FFFFFFFFFF
5263435632
FFFFFFFFFF
3412653354
FFFFFFFFFF
6155654655
FFFFFFFFFF
5456131214
LLLLFFFFFF
4236336523
FFFFFFFFFF
6666661511
LLLLLLFFFF
2156361614
FFFFFFFFFF
5362123256
FFFFFFFFFF
5466526466
FFLLFFFLLL
1413321242
FFFFFFFFFF
3216146133
FFFFFFFFFF
5665666626
FLLLLLLLLL
1235653111
FFFFFFFFFF
4532151614
FFFFFFFFFF
3664425432
FFFFFFFFFF
6666645616
LLLLLFFFFF
3244563116
FFFFFFFFFF
3342433316
FFFFFFFFFF
6664626532
LLLFFFFFFF
6432515534
FFFFFFFFFF
6662126356
FFFFFFFFFF
6666166661
LLLLLLLLFF
2416114312
FFFFFFFFFF
6662656155
LLLLLLLFFF
1212555216
FFFFFFFFFF
6553251234
FFFFFFFFFF
1454431666
FFFFFFFFFF
6666666343
LLLLLLLFFF
6666466656
LLLLLLLLFL
2662634313
FFFFFFFFFF
2412141146
FFFFFFFFFF
6556446163
FFFFFFFFLL
4661266665
LLLFFFFFLF
1321344125
LFFFFFFFFF
5213241636
FFFFFFFLLL
4443534165
FFFFFFFFFF
5212536165
FFFFFFFFLF
4241441311
FFFFFFFFFF
6614666646
FLLLLLLLLL
4256535265
FFFFFFFFFF
6666664666
FFLLLLLLLL
6143343663
FFFFFFFFFF
6631535133
LLFFFFFFFF
2426564116
FFFFFFFFFF
4346226644
FFFFFFFFFF
6656646511
FFFFFFFFFF
1464666666
FFFFLLLLLL
6266666666
LLLLLLLLLL
3512555456
FFFFFFFFLL
3212466662
FFFFFLLLLF
2212421523
FFFFFFFFFF
5626324314
FFFFFFFFFF
3133226266
FFFFFFLLLL
6544666643
FFFFLLLLFF
1425366244
FFFFFFFFFF
3252216414
FFFFFFFFFF
6431525166
FFFFFFFFFF
1633611421
FFFFFFFFFF
5341541522
FFFFFFFFFF
6524113666
LFFFFFFLLL
3112666665
FFFFFLLLLF
6666666666
LLLLLLLLLL
2526123423
FFFFFFFFFF
6666636636
LLLLLLLLLL
3561252516
FFFFFFFFFF
1136666561
LLLLLLLLLL
6215532636
FFFFFFLLLL
2351422354
FFFFFFFFFF
2136666532
LLLLLLLLLL
3645251615
FFFFFFFLLF
4641556633
FFFFFFFFFF
5235361666
FFFFFFFFFF
6666366622
LLLLLLLFFF
6666666653
LLLLLLLLFF
6666566661
LLLLLLLLLL
2226365415
FFFFFFFFFF
3431262663
FFFFFFFFLL
6566431445
FFFFFFLLLF
3265112123
FFFFFFFFFF
6661666664
LLLLLLLLFF
2164455146
FFFFFFFFLL
5431111644
FFFFFFFFLL
3466646366
LLLLLFFFLL
5562262663
FFFFFFFFFF
1264656466
FFFFLFLLLL
