1466324616541636145344254412566666666366
FFFFFFFLLLFFFFFFFFFFFFFFFFFFFFLLLLLLLLLL
1125466666666466666266666616563131223636
FFFFFLLLLLLLLLLLLLLLLLLLLLFFFFFFFFFFFLLL
1613624211316666664345433634365614325513
FFFFFFFFFFFFLLLLLLFFFFFFFFFFFFFFFFFFFFFF
1612661156124263536666666666562111514213
FFFFLLLLFFFFFFFFFFLLLLFLLLLLFFFFFFFFFFFF
6522555236664452463436465121451162516646
FFFFFFFFFLLLFFFFFFFFFFFFFFFFFFFFFFFFLLLL
3511515232655553662366616251461163315316
FFFFFFFFFFFFFFFFFFFFFFFFFFFFFFFFFFFFFFFF
5433255352442114526422416656666666166666
FFFFFFFFFFFFFFFFFFFFFFFFFLLLLLLLLLFFLLLL
3113411246666465261541446626666662241436
FFFFFFFFFFFFLFFFFFFFFFFFLLLLLLLLLFFFFFFF
3653112456346266154416651361116126433553
FFFFFFFFFFFFFFFFFFFFFFFFFFFFFFFFFFFFFFFF
4244234245611265666631656666366666525666
FFFFFFFFFFFFFFFFLLLLLLLLLLLLLLLLLLFFFLLL
6654322465153663362616251415211354666113
LLFFFFFFFFFFFFFFFFFFFFFFFFFFFFFFFFFLLLLF
4416456654143356163156254666666662536643
FFFFFLLLFFFFFFFFFFFFFFFFLLLLLLLLLFFFFFFF
4221213226566662126662516426532511253164
FFFFFFFFLLLLLLLFFFFFFFFFFFFFFFFFFFFFFFFF
1325322114366666665466666645611365223265
FFFFFFFFFFFLLLLLLLFFLLLLLLFFFFFFFFFFFFFF
6666666616416641432513514211666661163355
LLLLLLLLLLLLLLFFFFFFFFFFFFFFLLLLLFFFFFFF
5616666636661151562652424615265466666626
LLLLLLLLLLLLFFFFFFFFFFFFFFFFFLLLLLLLLLFF
4134566622135115336361524626151434116424
FFFFFLLLLFFFFFFFFFFFFFFFFFFFFFFFFFFFFFFF
6666662666666621563411154562364125222313
LLLLLLLLLLLLLFLFFFFFFFFFFFFFFFFFFFFFFFFF
4346631553342145332645213161323512552154
FFFFFFFFFFFFFFFFFFFLFFFFFFFFFFFFFFFFFFFF
3455556466666616666263444452361433315255
FFFFFLLLLLLLLLLLLLLLLFFFFFFFFFFFFFFFFFFF
6666462661534612666666661121556646666646
LLLLLFFFLLLLFFFFLLLLLLLLFFFFFFFFFLLLLLLL
6143523456141563246566664666213362636222
FFFFFFFFFFFFFFFFFFLLLLLLLLLLFFFFFFFFFFFF
1366666666656666636666666666663516266666
FFLLLLLLLLLLLLLLLLLLLLLLLLLLLLLLLLLLLLLL
6626664655251256616626666666666663625523
LLLLLLFFFFFFFFFLLLLLLLLLLLLLLLLLLFFFFFFF
6666666266632661114341511452554336621662
LLLLLLLLLLLFFLLFFFFFFFFFFFFFFFFFFLLLLLLL
