41264253134223613264556314256664666464662666636666
FFFFFFFFFFFFFFFFFFFFFFFFFFFFFLLLLLLLLLLLLLLLLLLLLL
66663562234542454241226462646265646132513546324541
LLLLLLLFFFFFFFFFFFFFFFFFFLLLLLLLLFFFFFFFFFFFFFFFFF
35142535653653111354262666466126615116326324612664
FFFFFFFFFFFFFFFFFFFFFFFLLLLLLLLLLLFFFFFFFFFLLFFLLL
33666352655114312366622613644116666666666666646654
FFLLLFFFFFFFFFFFFLLLLFFFFFFFFFLLLLLLLLLLLLLLLLLLFL
13225144346216542125261625264512256264466666316366
FFFFFFFFFFFFFFFFFFFFFFFFFFFFFFFFFFFFFFFFLLLLFFFFFL
65135233113112626345253462414621365613211214236624
FFFFFFFFFFFFFFFFFFFFFFFFFFFFFFFFFFFFFFFFFFFFFFFFFF
46613661346365523566144342215322466526661156246536
FLLLFFFFFFFFFFFFFFLLFFFFFFFFFFFFFLLLLLLLFFFFFFFFFL
31314244222315315231432614412442543133622636266666
FFFFFFFFFFFFFFFFFFFFFFFFFFFFFFFFFFFFFFFFFLLLLLLLLL
65665666141155421163553313425524434345265451354134
FFFLLLLLFFFFFFLFFFFFFFFFFFFFFFFFFFFFFFFFFFFFFFFFFF
33565551615436561422526666435262321445416541136636
FFFLLFFFFFFFFFFFFFFFFLLLLLFFFFFFFFFFFFFFFFFFFFFFFF
51421655332536366512312633352366255244166112366236
FFFFFFFFFFFFFFFFFFFFFFFFFFFFFFFFFFFFFFFFFFFFFFFFFL
16242221232562622535255531425465224324344211144621
FFFFFFLFFFFFFFFFFFFFFFFFFFFFFFFFFFFFFFFFFFFFFFFFFF
22433466165544411246636626666662651666666646466615
FFFFFFFFFFFFFFFFFFFLLLLLLLLLLLLLLLLLLLLLLLLLLLLLFF
16266646666125446546542524335534411246124613662263
FLLLLLLLLLLFFFFFFFFFFFFFFFFFFFFFFFFFFFFFFFFFLLLLLL
16551561332114262542666666515263666625415351466213
FFFFFFFFFFFFFFFFFFFFFLLLLLLLLLLLLLLLFFFFFFFFFFFFFF
46363666666241255432631543112566166662354156665616
LLFLLLLLLLLFFFFFFFFFFFFFFFFFFFLLLLLLLFFFFFFLLLLLLL
66661414545663242266341234656366662163515363525246
LLLFFFFLFFFFFFFFFFFFFFFFFFLLLLLLLLFFFLLFFFFFFFFFFL
66663666666666264666666656366653666641322133166656
LLLLLLLLLLLFLLLLLLLLLLLLLLLFFFFFFLLLLFFFFFFFFLLLLL
56631232344164446316455265355462551256112666624666
FLLFFFFFFFFFFFFFFFFFFFFFFFFFFFFFFFFFFLFFFLLLLLLLLL
66666666666366666664644624611561361622464416666666
LLLLLLLLLLLLLLLLLLLLLFFFFFFFFFFFFFFFFFFFFFFLLLLLLL
56613161513264625115425325153323166666666353244353
LLFFFFFFFFFFFFFFFFFFFFFFFFFFFFFLLLLLLLLLLLFFFFFFFF
34261441335255632166633235566344441421552425646626
FFFFFFFFFFFFFFFFFFLLLFFFFFFFFFFFFFFFFFFFFFFFLLLLLF
45414526463522456512436566644311365424234311342366
FFFFFFFFFFFFFFFFFFFFFFLLLLLFFFFFFFFFFFFFFFFFFFFFLL
11333246631513453162114225521622246446662243625434
FFFFFFFFFFFFFFFFFFFFFFFFFFFFFFFFFFFFFFFFFFFFFFFFFF
41562561341633535633626353262443562116164644663236
FFFFFFFFFFFFFFFFFFFFFFFFFFFLFFFFFFFFFFFFFFFFLLFFFF
64566666644566635214662526432151665234633666466664
FFLLLFFFLLLLLLLFFFFFFFFFFFFFFFFFFFFFFFFFFLLLLLLLLL
34623516464262214142322356536633336664165666666666
FFFFFFFFFFFFFFFFFFFFFFFFFFFFFFFFFFLLLLLLLLLLLLLLLL
35336612631666611114466666666424543653525645633154
FFFFLLLLLLLLLLLFFFFFFLLLLLLLLFFFFFFFFFFFFLFFFFFFFF
52624666666466664666666663665646666666666666664666
FFLLLLLLLLLLLLLLLLLLLLLLLLLLLLLLLLLLLLLLLLLLLLLLLL
12126454561546466666644351144315561165344666666666
FFFFFFFFFFFFFLLLLLLLLFFFFFFFFFFFFFFFFFFFFFLLLLLLLL
61446664653366666656666616526235636254454664666566
LFFFFLLLLLFFLLLLLLLLLLLLLLFFFFFFFFFFFFFFFLLLLLLLLL
14663341226466644222634661152525534164666535363633
FFFLFFFFFFFFLLLFFFFFFFFFFFFFFFFFFFFFFFFFFFFFFFFFFF
65564166666656661116616536656536354115144463413135
LLLLLLLLLLLLLLLFFFFFFFFFFLLFFFFFFFFFFFFFFFFFFFFFFF
32412666666666666666655351166422615316654563223146
FFFFFLLLLLLLLLLLLLLLLFFFFFFFFFFFFFFFFFFFFFFFFFFFFF
46666646265333232653132543226516666566666622544611
FLLLLFFFFFFFFFFFFFFFFFFFFFFFFFFLLLLLLLLLLLFFFFFFFF
51126661135655145146666646666535354612332665135212
FFFFLLFFFFFFFFFFFFFLLLLLLLLLFFFFFFFFFFFFFLLFFFFFFF
34423523121566621666666166413361424666623553261222
FFFFFFFFFFFFLLLLLLLLLLLFFFFFFFFFFLLLLLLLLFFFFFFFFF
16223115264436241644466646666666665611212666316521
FFFFFFFFFLFFFFFFFFFFFLLLLLLLLLLLLLLLFFFFLLLLFFFFFF
33455135243341533423445546666455636616651666666463
FFFFFFFFFFFFFFFFFFFFFFFFFLLLLLLLLLLLLLLLLLLLLLFFFF
26156666666666666666616626415664262461666666666563
FFFFLLLLLLLLLLLLLLLLLLLLLLLLLLLFFFFFLLLLLLLLLLLLLL
64166664162666666366666365236266156334462462262553
LLLLLLLFFFFLLLLLLLLLLLLFFFFFLLLLLLFFFFFFFFFFFFFFFF
66666666666464366661663665552446121531244666666646
LLLLLLLLLLLLLLLLLLLLLLLLLFFFFFFLFFFFFFFFFFLLLLLLLL
52365561163465646146231666626666646366266663666516
FFFFFFFFFFFFFFFFFFFFFFFLLLLLLLLLLLLLLLLLLLLFFFLLLL
36361416136666566366666666266666666111243533632532
FFFFFFFFFFFLLLLLLLLLLLLLLLLLLLLLLFFFFFFFFFFFFFFFFF
61154416661631535136113414241225551435152466645244
FFFFFFFFFFFFFFFFFFFFFFFFFFFFFFFFFFFFFFFFFFLLFFFFFF
33232315325125466636666666666662354215221232362566
FFFFFFFFFFFFFFFLLLLLLLLLLLLLLLLFFFFFFFFFFFFFFFFFLL
23162366422641661555242546134324413446626644531464
FFFFFFFFFFFFFFFFFFFFFFFFFFFFFFFFFFFFFFFFFFFFFFFFFF
21143614612526456144116426665124334126566666666616
FFFFFFFFFFFFFFFFFFFFFFLLLLLLLLFFFFFFFLLLLLLLLLLLLL
51536666646636642663135464111516646666665666566666
LLLFLLLLLLLLLLLLLLFFFFFFFFFFFFFFLLLLLLLLLLLLLLLLLL
16652563666466646666666361266666235441414313466666
FFFFFFFFFLLLLLLLLLLLLLLFFFFLLLLFFFFFFFFFFFFFFFLLLL
66415436143523431425243662122644422264444316466364
LLFFFFFFFFFFFFFFFFFFFFFFFFFFFFFFFFFFFFFFFFLLFFFFFF
26623626624431563334543512563354222632225435432322
FFLFFLLLFFFFFFFFFFFFFFFFFFFFFFFFFFFFFFFFFFFFFFFFFF
65533646141412655566566556114363262514526336324466
FFFFFFFFFFFFFFFFFFFLLLLLLLFFFFFFFFFFFFFFFFFFFFFFFL
26256424134325152645356151415553266161366662666636
FFFFFFFFFFFFFFFFFFFFFFFFFFFFFFFFFFLFFLLLLLLLLLLLFF
66616666446646626535423346421536666616666666611516
LLLLLLLLLLLLLLLLLLFFFFFFFFFFFFFLLLLLLLLLLLLLLFFFFF
66666666662646666131666666553625563424325144666454
LLLLLLLLLLLLLLLLLLLLLLLLLLLFFFFFFFFFFFFFFFFFFFFFFF
15466666666666666414654115534611613264164256665114
FFFLLLLLLLLLLLLLFFFFFFFFFFFFFFFFFFFFFFFFFFFFFFFFFF
25432562366245425316666611611523554111354261622566
FFFFFFFFFFFFFFFFFFFLLLLLFFFFFFFFFFFFFFFFFFFFFFFLLL
61533466616632655155444142244562354222534643344262
LLFFFLLLLLLLLLLFFFFFFFFFFFFFFFFFFFFFFFFFFFFFFFFFFF
66651662623344442265645535144236436663313612666641
LLLLLLLLFFFFFFFFFFFFFFFFFFFFFFFFFFLFFFFFFFFFLLLFFF
16365132261452565662213253214212416146332644361165
FFFFFFFFFFFFFFLLLLLFFFFFFFFFFFFFFFFFFFFFFFFFFFFFFF
63313442544362156624346261536352656526466666662656
FFFFFFFFFFFFFFFFFFFFFFFFFFFFFFFFLFFFFLLLLLLLLLLLLL
54541265235566264333313221324332665313155361344253
FFFFFFFFFFFLLLLLFFFFFFFFFFFFFFFFLLFFFFFFFFFFFFFFFF
66666665121124113152535364666266663656361342363535
LLLLLLLFFFFFFFFFFFFFFFFFLLLLLLLLLLLLLLLLFFFFFFFFFF
44224514164135221666366666466556466666266662551664
FFFFFFFFFFFFFFFFLLLLLLLLLLLLLLLLLLLLLLLLLLLFFFFFFF
46546534322546253616646666362666265246253256654154
FFFFFFFFFFFFFLLLLLLLLLLLLLLLLLLLFFFFFFFFFFFFFFFFFF
45351345263133141324556166666353624344564553642313
FFFFFFFFFFFFFFFFFFFFFFLLLLLLLFFFFFFFFFFFFFFFFFFFFF
62621362455654616556664661456363555654223232115352
FFFFFFFFFFFFFLLLLLLLLLLLLFFFFFFFFFFFFFFFFFFFFFFFFF
61433132546666666266566456645323112223352146514661
FFFFFFFFFLLLLLLLLLLLLLLLLLLFFFFFFFFFFFFFFFFFFFFLLL
26641231322314254221526621512136514115455162146666
FFFFFFFFFFFFFFFFFFFFFFFFFFFFFFFFFFFFFFFFFFFFFFLLLF
56666216141354554556646666666612166212664361616255
FFLLLFFFFFFFFFFFFFFLLLLLLLLLLLFFFLLLLLLFFFFFFFFFFF
25555332145211355465166222114631336611663266636616
FFFFFFFFFFFFFFFFFFFFFFFFFFFFFFFFFFLLFFFFLLLLLLLLLL
52122524515456242362543166111265264565563666636664
LFFFFFFFFFFFFFFFFFFFFFFFFFFFFFFFFFFFFFFFLLLLLLLLLF
23143435651311132415423154342551125361614153152321
FFFFFFFFFFFFFFFFFFFFFFFFFFFFFFFFFFFFFFFFFFFFFFFFFF
24246142664655453336566663666535131262415555661532
FFFFFFFFFFFFFFFFFFFFFFLLLLLLLFFFFFFFFFFFFFFFFFFFFF
53643654566646666623156423352521224435366533316131
FFFFFFFFLLLLLLLLLLFFFFFFFFFFFFFFFFFFFFFFFFFFFFFFFF
31116166366661243434526566253242364521453651662666
FFFFLLLLLLLLLLFFFFFFFFFFFFFFFFFFFFFFFFFFFFFFFFFFFL
66623636651555623661666666641616143122515355614221
LLLFFFFFFFFFFFFFLLLLLLLLLLLFFFFFFFFFFFFFFFFFFFFFFF
13651536246666661653616666616666666666635116466166
FFFFFFFFFFLLLLLLLLFFLLLLLLLLLLLLLLLLLLLFFFFFFLLLLL
21533661152642252463343556251516426666566542115466
FFFFFFFFFFFFFFFFFFFFFFFFFFFFFFFFFFLLLLLLLFFFFFFFLL
45115653161636314655352245426125522442611566666666
FFFFFFFFFLLLLLFFFFFFFFFFFFFFFFFFFFFFFFFFFFLLLLLLLL
55535516313552155313665142211516143526344655653366
FFFFFFFFFFFFFFFFFFFFFFFFFFFFFFFFFFFFFFFFFFFFFFFFLL
46666665312132354133526666656262364221525466661333
LLLLLLLFFFFFFFFFFFFFFFLLLLLLLFFFFFFFFFFFFFFLLLLFFF
63646666664321631453324561452441451146132242621555
LLLLLLLLLLLFFFFFFFFFFFFFFFFFFFFFFFFFFFFFFFFFFFFFFF
24646146133464433231316315164331614513666663233666
FFFFFFFFFFFFFFFFFFFFFFFFFFFFFFFFFFFFFFLLLLLFFFFLLL
66626664665656664212334215216131256315336566544246
LLLLLLLLLLLLLLLLFFFFFFFFFFFFFFFFFFLLFFFFLLLLLFFFFF
26534546155466444633266666654222555543444251134122
FFFFFFFFFFFFFFFFFFFFFFLLLLLFFFFFFFFFFFFFFFFFFFFFFL
54611513356565662325463666466666666666166666424236
FFFFFFFFFFLLLLLFFFFFLLLLLLLLLLLLLLLLLLLLLLLLFFFFFF
43561136251366355533111562666666123511124464412141
FFFFFFFFFFFFFFFFFFFFFFFFFFLLLLLLFFFFFFFFFFFFFFFFFF
12666666664666653614424613256421666666662666543213
FFFFLLLLLLLLLLLLFFFFFFFFFFFFFFFLLLLLLLLLLLLLFFFFFF
64642664566661662663113465466666524614365113366613
FFFFFLLLLLLLLLLLLLLFFFFFFFFLLLLLLFFFFFFLFFFFLLLLLL
51635112263133325345543621256665326566434664123461
FFFFFFFFFFFFFFFFFFFFFFFFFFFFFFFFFFFFLLLFLLFFFFFFFF
54616142243441253211253555365341512116254645343364
FFFFFFFFFFFFFFFFFFFFFFFFFFFFFFFFFFFFFFFFFFFFFFFFFF
36666662663662233442664532626666566666666666666666
LLLLLLLLLLLLLFFFFFFFFFFFFFLLLLLLLLLLLLLLLLLLLLLLLL
15425666665616661666365326156615631415316646266662
FFFFFLLLLLLLLLLLLLLLLLFFFFFFFFFFFFFFFFFFFLLLFLLLLL
35626113613446136551222466655223156555232341523234
FFFFFFFFFFFFFFFFFFFFFFFFFLLFFFFFFFFFFFFFFFFFFFFFFF
16255561226666665632636221661154263224512224515512
FFFFFFFFFFLLLLLLLLLFFFFFFFFFFFFFFFFFFFFFFFFFFFFFFF
36144564646533151566666366661666626666666466563556
FFFFFFFFFFFFFFFFFFLLLLLLLLLLLLLLLLLLLLLLLLLLFFFFFL
25555664242516264244531216664346635516266666666614
FFFFFLLFFFFFFFFFFFFFFFFFFFFFFFFFFFFFFFFLLLLLLLLLFF
14345626241666666664566166666646666166632522636416
FFFFFFFFFFLLLLLLLLLLLLLLLLLLLLLLLLLLLLLFFFFFFFFFFF
15112262362642364125656616614666662666665662666666
FFFFFFFFFLFFFFFFFFFLLLLLLLLLLLLLLLLLLLLLLLLLLLLLLL
12251141214461616366611434421136454246454666666366
FFFFFLFFFFFFFFLLLLLLLFFFFFFFFFFFFFFFFFFFFLLLLLLLLL
66666465646351226666661666166646315633131365162646
LLLLLFFFFFFFFFFFLLLLLLLLLLLLLLFFFFFFFFFFFFFFFLLLFF
66562366353542451534661666611616316144561252115562
LLLLLLLLFFFFFFFFFFFFLLLLLLLFFFFFFFFFFFFFFFFFFFFFFF
21232444232351363344146651431446626666666166566666
FFFFFFFFFFFFFFFFFFFFLLLLFFFFFFFFLLLLLLLLLFFFLLLLLL
16646245661561614666141212641651366116423666464621
FFFFFFFFLLFFFFFFFFFFFFFFFFFFFFFFFFFFFFFFFFFFFFFFFF
45614456666666666632223124515354122463666153525633
FFLFFFFFLLLLLLLLLLFFFFFFFFFFFFFFFFFFFFLLLFFFFFFFFF
31343356145115551552156352252236412666624666666636
FFFFFFFFFFFFFFFFFFFFFFFFFFFFFFFFLLLLLLLLLLLLLLLLLL
66662554515644352526262624354366211113565243556265
LLFFFFFFFFFFFFFFFFFFFFFFFFFFFFFFFFFFFFFFFFFFFFFFFF
61563523143552154153233331613646261632241546666321
FFFFFFFFFFFFFFFFFFFFFFFFFFFFLLLLFFFFFFFFFFFFFFFFFF
33134631362465566425236666626466263642624552566466
FFFFFFFFFFFFFFFFFFFFFFFFFFFFLLLLFFFFFFFFFFFFFLLLLL
41443664313611526566155652133542532113253364211455
FFFFFFFFFFFFFFFFFFFFFFFFFFFFFFFFFFFFFFFFFFFFFFFFFF
45125151161261556325263462424311424446654216666666
FFFFFFFFFFFFFFFFFFFFFFFFFFFFFFFFFFFFFFFFFFFFFLLLLL
65665621654411446266666656666166646651255612422645
LLLLLLFFFFFFFFFFFFLLLLLLLLLLLLLLLLLLLFFFFFFFFFFFFF
36513621234452461245623623222322563434654132555363
FFFFFFFFFFFFFFFFFFFFFFFFFFFFFFFFFFFFFFFFFFFFFFFFFF
25434366166664663416666666666326666666516562454116
FFFFFFLLLLLLLLLLLLLLLLLLLLLLLLLLLLLLLLLFFFFFFFFFFF
53115666323545423155666646666426665616166665666662
FFFFFFFFFFFFFFFFFFFFFLLLLLLLLFFFFLLLLLLLLLLLLLLLLL
51624513356656626535666632543511433431262654454343
FFLFFFFFFFFFFLLFLLLLLLLLFFFFFFFFFFFFFFFFFFFFFFFFFF
41665344353411322522156656446466666666166666666666
FFFFFFFFFFFFFFFFFFFFFFFFFFFFLLLLLLLLLLLLLLLLLLLLLL
64146664245435441514425636666662532665616346266663
LLLLLFFFFFFFFFFFFFFFFFFFFLLLFFFFFFFFFFFFFFFFFLLLLL
42553366161364653566522136666666622365513566356153
FFFFFFFFFFFFFFFFFFFFFFFFFLLLLLLLFFFFFFFFFFFFFFFFFF
61346224443364216514666441551645611165366116523666
FFFFFFFFFFFFFFFFFFFFFFFFFFFFFFFFFFFFFFFFFFFFFFFLLL
36524646666666663355342235536666666565666666366346
FFFFFFFLLLLLLLLLFFFFFFFFFFFFLLLLLLLLLLLLLLLLFLLLFF
15144113156322166644132312254123126113311651551525
FFFFFFFFFFFFFFLLLLFFFFFFFFFFFFFFFFFFFFFFFFFFFFFFFF
56616646462566542512453514643526444155225256566661
FLLLLFFFFLLLLLFFFFFFFFFFFFFFFFFFFFFFFFFFFFFFFLLLLL
46441561343443651611161143145635665661646366266623
FFFFFFFFFFFFFFFFFFFFFFFFFFFFFFFFFFFLLLLLLLLLLLLLFF
64232133621666666643564453366666661666136116363436
FFFFFFFFFFFLLLLLLLFFFFFFFLLLLLLLLLLLLLLFLFFLLLLLLL
23355515513635325666666666256666666666666666346454
FFFFFFFFFFFFFFFFFFLLLLLLLLLLLLLLLLLLLLLLLLLLLLFFFF
32666365666611666661666232161446666346661646666666
FFFLLLLLLLLLLLLLLLLLLLLLLLLLFFFLLLLFFLLLLLLLLLLLLL
66613463666666625133243112246266666666332365641346
LLLFFFLLLLLLLLLFFFFFFFFFFFFLLLLLLLLLLLFFLLLLLLLLLL
24221424632343334126551544564513354636566326123146
FFFFFFFFFFFFFFFFFFFFFFFFFFFFFFFFFFFLLLLLLFFFFFFFFF
66665666563624212666666651255232265623226666666666
LLLLLLLLFFFFFFFFLLLLLLLLFFFFFFFFFFFFFFFFLLLLLLLLLL
46551432651264666666613666664325626662666561414561
FFFFFFFFFFFFFFLLLLLLLFFLLLLFFFFFFFFFLLLLLFFFFFFFFF
14426146646666644442461322364666654663641666666654
FFFFFFFLLLLLLLLLFFFFFFFFFFFFFLLLLLLLLLLLLLLLLLLLFF
26561461666326666666666366656664162666636663666363
FLFFFFFFFLLLLLLLLLLLLLLLLLLLLLLLLLLLLLLLLLLLLLLLLL
34221335426631553511163233414653566663562641522552
FFFFFFFFFFFFFFFFFFFFFFFFFFFFFFFFFFFLFFFFFFFFFFFFFF
31341656422653141623253344333351441623436221325115
FFFFLLLLLLLLFFFFFFFFFFFFFFFFFFFFFFFFFFFFFFFFFFFFFF
63666665666666636666666644245462152545631263652636
LLLLLLLLLLLLLLLLLLLLLLLFFFFFFFFFFFFFFFFFFFFFFFFFFF
31334213266231334543135311442554342156131555442466
FFFFFFFFFFFFFFFFFFFFFFFFFFFFFFFFFFFFFFFFFFFFFFFFLL
26325554356533615262666666354161115366462456663523
FFFFFFFFFFFFFFFFFFFFLLLLLLFFFFFFFFFFFFFFFFFFFFFFFF
43151636565144633523314666616666636666666663666662
FFFFFFFFFFFFFFFFFFFFFFFLLLLLLLLLLLLLLLFLLLLLLLLLLF
42666656266264642321624413661565666364666354156312
LLLLLLLLLLLFFFFFFFFFFFFFFFLLLFFFLLLFFFLFFFFFFFFFFF
41316254111244415266666563566564416554613363515654
FFFFFFFFFFFFFFFFFFLLLLLLLLLLFFFFFFFFFFFFFFFFFFFFFF
35526444515635636163465251621115561663612513145656
FFFLLLFFFFFFFFFFFFFFFFFFFFFFFFFFFFFLLFFFFFFFFFFFFF
66366666666166666612664666664144526666651616461663
LLLLLLLLLLLLLLLLLLLLLLLLLLLLLFFFFFLLLLLFFFFFFFFFFF
61546162636314315666666664666666366666666166664652
LLLLLLLFFFFFFFFFFLLLLLLLLLLLLLLLLLLLLLLLLLLLLLFFFF
61366665666665161665256666661626666662256216436154
LLLLLLLLLLLLLFFFFFFFFFLLLLLLLLLLLLLLLLFFFFFFFFLFFF
66666666163256654136666666265646616666513335325666
LLLLLLLLLLFFFLLFFFFFLLLLLLLLLLLLLLLLLFFFFFFFFFFLLL
41155354643432211531323614341631424422622646656443
FFFFFFFFFFFFFFFFFFFFFFFFFFFFFFFFFFFFFFFFFFFFFFFFFF
32366666665561544232522626645642242152666544211535
FFFLLLLLLLFFFFFFFFFFFFFLLLLLFFFFFFFFFFFFFFFFFFFFFF
24444315263246221542245555365333445126255464321515
FFFFFFFFFFFFFFFFFFFFFFFFFFFFFFFFFFFFFFFFFFFFFFFFFF
65526146553135564112646641263563345553213421626536
FFFFFFFFFFFFFFFFFFFFFFFFFFFFFFFFFFFFFFFFFFFFLLLLFF
53235425635546166633666663561266225113446335425666
FFFFFFFFFFFFFLLLLLLLLLLLLFFFFFFFFFFFFFFFFFFFFFFLLL
66434326124533156565154351524216456134666666635643
FFFFFFFFFFFFFFFFFFFFFFFFFFFFFFFFFFFFFFFLLLLLLFFFFF
25462262332641466663261112233154341356423313664632
FFFFFFFFFFFFFFFFFLLLLLFFFFFFFFFFFFFFFFFFFFFFFFFFFF
26442514341466666613314142246211164116223212634364
FFFFFFFFFFFFLLLLLLFFFFFFFFFFFFFFFFFFFFFFFFFFFFFFFF
66656616425632321551112351565436456532363164525512
LLLFFFFFFFFFFFFFFFFFFFFFFFFFFFFFFFFFFFFFFFFFFFFFFF
46661443356546155356112441142521526646664635236426
FFFFFFFFFFFFFFFFFFFFFFFFFFFFFFFFFFFLLLLLLLFFFFFFFF
66661256621662632446551622616664666646666663335314
LLLLLFFLLLLLLFFFFFFLFFFFFFFFLFLLLLLLLLLLLLFFFFFFFF
34233523223521263162536314165154666666666336653124
FFFFFFFFFFFFFFFFFFFFFFFFFFFFFFFFLLLLLLLLFFFFFFFFFF
66636656666661525612454112124131363652265543343535
FLLLLLLLLLLLLLFFFFFFFFFFFFFFFFFFFFFFFFFFFFFFFFFFFF
25243213664426656233115561436666562566653166255366
FFFFFFFFFFFLLLLLLFFFFFFFFFFFLLLLLLFFFFFFFLLLFFFFLL
46566646666326155411352466662666666656252252465322
LLLLLLLLLLLFFFFFFFFFFFFFLLLLLLLLLLLLFFFFFFFFFFFFFF
63666166666666646263666666645666414344321221431426
FFLLLLLLLLLLLLLLLLLLLLLLLLFFFFFFFFFFFFFFFFFFFFFFFF
12511354122466314513334465651432632611266665152211
FFFFFFFFFFFFFFFFFFFFFFFFLLLFFFFLLLLLFFFFLLLFFFFFFF
66226666666466266666666513412166226624652146354332
LLLLLLLLLLLLLLLLLLLLLLLLFFFFFFFFFFFFFFFFFFFFFFFFFF
34315462521226113111135136122612565324244651334611
FFFFFFFFFFFFFFFFFFFFFFFFFFFFFFFFFFFFFFFFFFFFFFFFFF
46123522266664354666661131465562334646666666666435
FFFFFFFFFLLLLFFFFLLLLLLFFFFFFFFFFFFFFFFLLLLLLLLFFF
65561254652165144456153544424164235561433545244332
FFFFFFFFFFFFFFFFFFFFFFFFFFFFFFFFFFFFFFFFFFFFFFFFFF
56666666666616566666662623221264354531343364543336
LLLLLLLLLLLLLLLLLLLLLLLLFFFFFFFFFFFFFFFFFFFFFFFFFF
15454114646416165323656661265612511446561545421623
FFFFFFFFFFFFFFLLFFFFFFFFFFFFFFFFFFFFFFFFFFFFFFFFFF
64664235214643123133462131356166612121132355661625
LLLLFFFFFFFFFFFFFFFFFFFFFFFFFFLLLFFFFFFFFFFFFFFFFF
46214452166656466534554424514523122656666466666636
FFFFFFFFFFFFFFFFFFFFFFFFFFFFFFFFFFFLLLLLLFLLLLLLLL
63215224652624155452355661342343231321416566616666
FFFFFFFFFFFFFFFFFFFFFFFFFFFFFFFFFFFFFFFFFLLLLLLLLL
66666666666466666166666263224412125553621663343345
LLLLLLLLLLLLLLLLLLLLLLLFFFFFFFFFFFFFFFFFFFFFFFFFFF
54656531234651222656665166666666666612335521466323
FFFFLLFFFFFFFFFFFFLLLLLLLLLLLLLLLLLFFFFFFFFFFFFFFF
63136541622563666666646666666621666636466636622225
FFFFFFFFFFFFLLLLLLLLLLLLLLLLLLFFLLLLLLLLLLLLLFFFFF
66665462666666364666554645636513316313625424434526
LLLLLLLLLLLLLLLLLLLLFFFFFFFFFFFFFFFFFFFFFFFFFFFFFF
43423165366165512515343633166466366133145544166664
FFFFFFFFFFFFFFFFFFFFFFFFFFFLLLLLLLLFFFFFFFFFFLLLLF
62666651555555335152364456666542441355226651636664
LLLLLLLFFFFFFFFFFFFFFFFFFLLLLFFFFFFFFFFFFFFFFFLLLL
12324535362554451432452656612611266666666611641426
FFFFFFFFFFFFFFFFLFFFFFFFFFFFFFFFFLLLLLLLLLFFFFFFFF
64626666666652142556411666663453266666626666646532
FFLLLLLLLLLLFFFFFFFFFFFFLLLLLFFFFLLLLLLLLLLLLLLFFF
62666226566636366566666663245453266462225534652362
LLLLLFFFFLLLFLLLLLLLLLLLLLFFFFFFFFLLLFFFFFFFFFFFFF
13214556355564655631354655255343164446545326646635
FFFFFFFFFFFFFFFFFFFFFFFFFFFFFFFFLLFFFFFFFFLLLLLLFF
26426466466645623665166166666352115266433366623335
FFFFFLLLLLLLLLLLLLLLLLLLLLLLLFFFFFFFFLLLLLLLLFFFFL
25366111241134646635136531325423666666656116666666
FFLLLLLLFFFFFFFFFFFFFFFFFFFFFFFLLLLLLLLLLLLLLLLLLL
14422464165664456666664663266246256561521564554656
FFFFFFFFFLLLLLLLLLLLLLLLFFFFFFFFFFFFFFFFFFFFFFFFFF
13534321244236331523153143551443643166656563336666
FFFFFFFFFFFFFFFFFFFFFFFFFFFFFFFFFFFLLLLLLLLLLLLLLL
66266356666646411563241666442135126166666666666666
LLLLLLLLLLLFFFFFFFFFFFFFFFFFFFFFFFFLLLLLLLLLLLLLLL
32464553362465144112135224545466666466662666566656
FFFFFFFFFFFFFFFFFFFFFFFFFFFFFFFFLLLLLLLLLLLLLLLLFF
42666666452262666666616645462666166656614666635652
FFLLLLLLFFFFLLLLLLLLLLLLLFFLLLLLLLLLLLLFFLLLLFFFFF
43363442224665213224525232566666466666663543366264
FFFFFFFFFFFFFFFFFFFFFFFFFFFLLLLLLLLLLLLLFFFFFLLLLF
66666661661666566132631655265544421323214311326546
LLLLLLLLLLLLLLLLFFFFFFFFFFFFFFFFFFFFFFFFFFFFFFFFFL
65561414166641145341612416636666664666616461662462
FFFFFFFFFLLLFFFFFFFFFFFFFLLLLLLLLLLLLLLLLLLLLLFFFF
46261142266666662456245225366666315665666666662366
FFFFFFFFFLLLLLLFFFFFFFFFFFFLLLLLFFFLFLLLLLLLLLLLLL
66666656361641263343355416156612666663666666666166
LLLLLLLLFFFFFFFFFFFFFFFFFFFFFFFFLLLLLLLLLLLLLLLLLL
54162235465423154465361214616222231443133151121136
FFFFFFFFFFFFFFFFFFFFFFFFFFFFFFFFFFFFFFFFFFFFFFFLLL
65636561256465531652463134516666665666563666632125
FFFFFFFFFFFFFFFFFFFFFLLLFFFFFLLLLLLLLLLLLLLLFFFFFF
55345263544154435426346655224632553461656616525562
FFFFFFFFFFFFFFFFFFFFFFFFFFFFFFFFFFFFFFFLLLFFFFFFFF
25624366666365165666236244513636666665666636636164
FFFFFLLLLLLFFFFLLLLLFFFFFFFFFLLLLLLLLLLLLLLLFFFFFF
66666664666666666166566466251434212662566661616666
LLLLLLLLLLLLLLLLLLLLLLFFFFFFFFFFFFFFFFFLLLLLLLLLLL
23246324413266666666666651666666615612534263161632
FFFFFFFFFFFFLLLLLLLLLLLLLLLLLLLLLFFFFFFFFFFFFFFFFF
44651643323144255555116531266225563155666416666663
FFFFFFFFFFFFFFFFFFFFFFFFFFFFFFFFFFFFFFFFLLLLLLLLLL
66666666664666515513612266331136414446466336262662
LLLLLLLLLLLLLLFFFFFFFFFFFFFFFFFFFFFFFFFFFFFFFFFFFF
65536165262611633666646636666261544525523522314525
FFFFLLLFFFFFFFFFFLLLLLLLLLLLLLLFFFFFFFFFFFFFFFFFFF
66666266666326666166553415445436525635645651122264
LLLFLLLLLLLFLLLLLLLLFFFFFFFFFFFFFFFFFFFFFFFFFFFFLF
36541546112336666366645162431535432553231562666666
LLFFFFFFFFFFFLLLFFLLLLLLLLFFFFFFFFFFFFFFFFLFFLLLLL
16234335543242266631645263632152546666616314316622
FFFFFFFFFFFFFFFLLLFFLFFFFFFFFFFFFFLLLLLFFFFFFFFFFF
56225264134626636523223666266666566625114514325153
FFFFFFFFFFFFLLLLLFFFFFFLLLLLLLLLLLLLLFFFFFFFFFFFLL
32661666112322645624611351445226143246135534314666
FFLLLLLLFFFFFFFFFFFFFFFFFFFFFFFFFFFFFFFFFFFFFFFLLL
36666666666666166666566135221353211454425614443431
FLLLLLLLLLLLLLLLLLLLFFFFFFFFFFFFFFFFFFFFFFFFFFFFFF
66613642223456636456366222563661156456362146631545
LLLFFFFFFFFFFFFFFFFLLLLFFFFFFFLFFFFFFFFFFFFLLFFFFF
35662425635116113352245544523563121646626661666466
FFFFFFFFFFFFFFFFFFFFFFFFFFFFFFFFFFFLLLLLLLLLLLLLLL
36325536122142326123661143351362266252553152142366
FFFFFFLLFFFFFFFFFFFFFFFFFFFFFFFFFLLFFFFFFFFFFFFFFF
12166265325636566666566321434163611526661532662643
FFFFFLLLFFFLLLLLLLLLLLLFFFFFFFFFLLFFFLLLFFFFLLLLFF
66666666316165566666666666626166666661666663666566
LLLLLLLLLLLLLLLLLLLLLLLFFFFLLLLLLLLLLLLLLLLLLLLLLL
66625441264251263556263653114416566261166615346122
LLLFFFFFFFFFFFFFFFFFFFFLFFFFFFFFFFFFFFFLLLFFFFFFFF
36462652362315652333113343626422466662662333446133
FFFFFFFFFFFFFFFFFFFFFFFFFFFFFFFFFLLLLLLLLFFFFFFFFF
32456324623552533251132334614435654364346641666666
FFFFFFFFFFFFFFFFFFFFFFFFFFFFFFFFFFFFFFFFFFFLLLLLLL
64113533246466551356322251146346643556552614666652
FFFFFFFFFFLFFFFFFFFFFFFFFFFFFFFFFFFFFFFFFFFFFFFFFL
45131525646136634113161342462614624535126623166352
FFFFFFFFFFLFFFFFFFFFFFFFFFFFFFFFFFFFFFFFFFFFFFLFFF
46546614562435146224345125134612312212662666665666
FFFFLFFFFFFFFFFFFFFFFFFFFFFFFFFFFFFFFFLLLLLLLLLLLL
25521526452646664666666636656662225545561131661264
FFFFFFFFFFFLLLLLLLLLLLLLLLLFLLLFFFFFFFFFFFFFFFFFFF
66322122636234432364154341524154142134232113361666
LLFFFFFFFFFFFFFFFFFFFFFFFFFFFFFFFFFFFFFFFFFFFLLFLL
31532346666666666661663666662365154335554361564422
FFFFFFLLLLLLLLLLLLLLLLLLLLLLLLLFFFFFFFFFFFFFFLFFFF
54536663425516435256666666614665656166666644144662
FFFFLLLFFFFFFLFFFFFFFLLLLLLLLLLLLLLLLLLLLLFFFFFFFF
46666644564663332326163241552323331315461166666666
FLLLLLLLFFFFFFFFFFFFFFFFFFFFFFFFFFFFFFFFFLLLLLLLLL
66444536354461416163353313613446566666664652136462
FFFFFFFFFFFFFFFFLFFFFFFFFFFFFFFFFLLLLLLLLLFFFFFFLF
56266266566664646665356666666666666644654133162441
LLLLLLLLLLLLLLLLLLLFFFLLLLLLLLLLLLLLLLLFFFFFFFFFFF
11133222646166662666163461652435116266661616666661
FFFFFFFFFFFFFLLLLLLLLLFFFFFFFFFFFFLLLLLLLLLLLLLLLL
52342516666616366651222131146546666626662666256666
FFFFFFFLLLLLLLLLLLFFFFFFFFFFFFLLLLLLLLLLLLLLLLLLLL
56615212666634356514526262646666615534645515411614
LLLLLFFFLLLLLFFFFFFFFFFLLLLLLLLLLLFFFFFFFFFFFFFFFF
66666661666666666666646666224366335116161436354112
LLLLLLLLLLLLLLLLLLLLLLLLLLFFFFFFFFFFFFFFFFFFFFFFFF
21224526356522666666664623631234431153115351343116
FFFFFFFFFFFFFLLLLLLLLLLLFFLFFFFFFFFFFFFFFFFFFFFFFF
21425666552525323646626656466251431454611532515342
FFFFFFFFFFFFFFFFFLLLLLLLFFFFFFFFFFFFFFLFFFFFFFFFFF
16264352666615666666661666666666666666363212652465
FFFFFFFFLLLLLLLLLLLLLLLLLLLLLLLLLLLLLLLLFFFFLFFFFF
43146266226655646666666666666666636626615436633634
FFFLLLLLFFLLLLLLLLLLLLLLLLLLLLLLLLLLLLLFFFFLLLLLLL
36645166656662666164252316231266663216512354566666
FFFFFFLLLFLLLLLLLLFFFFFFFFFFFFFFFFFFFFFFFFFFFLLLLL
66663662636664334465666666366663261666666666663515
LLLLLLLLLLLLFFFFFFFFLLLLLLLLLLLLLLLLLLLLLLLLLFFFFF
45255414623466135646646213662151312615152214655546
FFFFFFFFFFFFFFFFFFLLLFFFFFFFFFFFFFFFFFFFFFFFFFFFFF
63666626266666564245443456466363625541666266666666
LLLLLLLLLLLLLLFFFFFFFFFFFFFFFFFFFFFFFFLLLLLLLLLLLL
66666616666666666666662244453421361416653266122615
LLLLLLLLLLLLLLLLLLLLLLLFFFFFFFFFFFFFFFFFFFLLFFFFFF
26233443132525312122462234666666666525316661466164
FFFFFFFFFFFFFFFFFFFFFFFFFFFLLLLLLLLFFFFLLLLLLLLLLL
21666664666326666116534365352566666655115554256235
LLLLLLLLLLLLLLLLLLLLFFFFFFFFFLLLLLLLFFFFFFFFFFFFFF
32635452436144633652466636636233414435253163553642
FFLFFFFFFFFFFFFFFLLLLLLLFFFFFFFFFFFFFFFFFFFFFFFFFF
42166416154134461366111464244535514441452116666636
FFFFFFFFFFFFFFFFFFFFFFFFFFFFFFFFFFFFFFFFFFFFLLLLLL
66613332162512165556426516144314164522426222542441
LLFFFFFFFFFFFFFFFFFFFFFFFFFFFFFFFFFFFFFFFFFFFFFFFF
25361444466666666426235443163255613532633434521212
FFFFFFFFFLLLLLLLLLLLFFFFFFFFFFFFFFFFFFFFFFFFFFFFFF
23315454532555666126666166666563663663345651456463
FFFFFFFFFFFFFFLLLLLLLLLLLLLLLLLLLLLLLFFFFFFFFFFFFF
64111113126664265551121222666462666643146316666666
FFFFFFFFFFFFFFFFFFFFFFFFFLLLLLLLLLLLFFFFFFFLLLLLLL
43662565561123252312666365666666623566322336246235
FFFFFFLLLLFFFFFFFFLLLLLLLLLLLLLLLFFFFFFFFFFFFFFFFF
56532641214555333324462661133443613213132451655464
FFFFFFFFFFFFFFFFFFFFFFFFFFFFFFFFFFFFFFFFFFFFFFFFFF
66666666516665633646664653655662132666663666666666
LLLLLLLLLLLLLFFFFFFFFFFFFFFFFFFFFFFFLLLLLLLLLLLLLL
34552166446166626663266666666241432345266161236663
FFFFFFFFFFLLLLLLLLLLLLLLLLLLLFFFFFFFFFFFFFFFFFLLLL
66661233513362254426514626663426652656222621656423
LLLLFFFFFFFFFFFFFFFFFFFFFFLLFFFFFFFFFFFFFFFFFFFFFF
66666666662563454563546264512365163513246644655331
LLLLLLLLLLLLFFFFFFFFFFFFFFFFFFFFFFFFFFFFLFFFLLFFFF
44264222262652356666666626666316666245666663661666
FFFFFFFFFFFFFFFLLLLLLLLLLLLLLLLLLLLFFFFLLLLLLLLFLL
64646611132612323555666666566662452531411142164566
LLLLLLLFFFFFFFFFFFFFLLLLLLLLLLLLLFFFFFFFFFFFFFFFLL
52542663616311521265415136364632334332423111561466
FFFFFFLLLLLFFFFFFFFFFFFFFFFFFFFFFFFFFFFFFFFFFFFLLL
66425666664456566661246233111166655666666644252233
LLLLLLLLLLFFFFFFFFLLFFFFFFFFFFLLLLLLLLLLLLFFFFFFFF
22466524615126116222422461361236254645266154232632
FLFFFFFFFFFFFFFFFFFFFFFFFFFFFFFLFFFFFFFFFFFFFFFFFF
63252456645343332331131321461226543666666366666666
FFFFFFFFFFFFFFFFFFFFFFFFFFFFFFFFFFFFFLLLLLLLLLLLLL
36555344652666164353452246326165242122631366256664
LLFFFFFFFFFLLLFFFFFFFFFFFFFFFFFFFFFFFFFFFFLLLLLLLF
44445634634563135265562213325363253255626666615554
FFFFFFFFFFFFFFFFFFFFFFFFFFFFFFFFFFFFFFFFLLLLLFFFFF
45323311236252161311633321226244543163656531631541
FFFFFFFFFFFFFFFLFFFFLFFFFFFFFFFFFFFFFFFFLLFFFFFFFF
42342264666662666361661666666666646356666666666666
FFFFFFFLLLLLLLLLLLLLLLLLLLLLLLLLLFFFFLLLLLLLLLLLLL
23522323325124654262511666166613611224666666466164
FFFFFFFFFFFFFFFFFFFFFFFLLLLLLLLLFFFFFFLLLLLLLLLLLL
61166443435344122331111535236154226666666656442113
FFFFFFFFFFFFFFFFFFFFFFFFFFFFFFFFFFFLLLLLLLLLFFFFFF
33132256652465466435116455125246216642622512222423
LFFFFFFFFFFFFFFFFFFFFFLFFFFFFFFFFFLLFFFFFFFFFFFFFF
62666666611323445512265466536622166455411533245241
LLLLLLLLFFFFFFFFFFFFFFFFFFFFLLLLLLLFFFFFFFFFFFFFFF
56562322454412441225526151231666635364326432325552
FFFFFFFFFFFFFFFFFFFFFFFFFFFFFLLLLFFFFFFFFFFFFFFFFF
24521551366666666666666666666612566215261314313363
FFFFFFFFLLLLLLLLLLLLLLLLLLLLLLFFFFLFFFFFFFFFFFFFFF
63325616661115444655626235626124464515146566666666
FFFFFFFFFFFFFFFFFFFFFFFFFFFFFFFFFFFFFFFLLLLLLLLLLL
16215641666566144116155631233315115141141423326535
FFFFFFFFLLLLLLFFFFFFFFFFFFFFFFFFFFFFFFFFFFFFFFFFFF
36522234162634263263666621666663666646666666666143
FFFFFFFFFFFFFFFFFFFFLLLLLLLLLLLLLLLLLLLLLLLLLLLLLL
15363666266666666666666652666666666666536646666662
FFFFFFLLLLLLLLLLLLLLLLLLLLLLLLLLLLLLLLLLLLLLLLLLFF
23666666154562645161261456543651151436266366112655
LLLLLLFFFFFFFFFFFFFFFFFFFFFFFFFFFFFFFLFLLLLFFFFFFF
56426233443221163133615212336122121324642331662654
FLFFFFFFFFFFFFFFFFFFFFFFFFFFFFFFFFFFFFFFFFFFFFFFFF
63352643114613452325626666166666666266633666665454
FFFFFFFFFFFFFFFFFFFFLLLLLLLLLLLLLLLLLLLFFFLLLLFFFF
15561265256542254541236662236422153462635366666166
FFFFFFFFFFFFFFFFFFFFFFFFFFFFFFFFFFFFFFFFFFLLLLLLLL
64325132154344561514614634156626164642644642266336
FFFFFFFFFFFFFFFFFFFFFFFFFFFFLLFFFFFFFFFFFFFFFLFFFF
12153154133331626125413666666666666666445422153231
FFFFFFFFFFFFFFFFFFFFFFFLLLLLLLLLLLLLLFFFFFFFFFFFFF
56256615515666166666166666666666666666626115533346
FFFFFLFFFFFLLLLLLLLLLLLLLLLLLLLLLLLLLLLLFFFFFFFFFF
31422426466666226666166465664261416145224163413625
FFFFFFFLFLLLLLLLLLLLLLLLLLLLLLLFFFFFFFFFFFFFFFFFFF
53425262155262166666663156525552242414345122533166
FFFFFFFFFFFFFFFFFLLLLLLLLLFFFFFFFFFFFFFFFFFFFFFFFF
52153461361246662325414632543321244516322535646666
FFFFFFFFFFFFFFFFFFFFFFFFFFFFFFFFFFFFFFFFFFFLLLLLLL
24535325162516343323156134511664323666666366131666
FFFFFFFFFFFFFFFFFFFFFFFFFFFFFFFFFFFLLLLLLLLLFFFFFL
34632324223224541662222431235666111313513242116466
FFLLFFFFFFFFFFFFFFFFFFFFFFFFFFFFFFFFFFFFFFFFFFFFFF
52526164136666665661666266664314323335133635666656
LFFFFFFFFFFLLLLLLLLLLLLLLLLFFFFFFFFFFFFFFLLLLLLLLL
66666466663523631126563514246636114224665162266536
LLLLLLLLLLFFFFFFFFFFFFFFFFFFFFFFFFFFFFFFFFFFLLLFFF
46145523453421543266636611631566362644566663644563
FFFFFFFFFFFFFFFFFFFFFFFFFFFFFFFFFLFFFFFLLLLLLLFFFF
65541543345526466666666236666646566616466664466611
LFFFFFFFFFFFFLLLLLLLLLLLLLLLLLLLLLLLLLLLLLLFFLLLFF
46351464251534256415352364666623326264612655666366
FFFFFFFFFFFFFFFFFFFFFFFFLLLLLFFFFFFFFLLFFLLLLLLLLL
66666666343615362535323544246661343366616131262545
LLLLLLLFFFFFFFFFFFFFFFFFFFFFLLFFFFFFFFFFFFFFFFFFFF
11545321566666666664625543424441615521246122536331
FFFFFFFFFLLLLLLLLLLLFFFFFFFFFFFFFFFFFFFFFFFFFFFFFF
66666664666653651665666326162666666666666664666666
LLLLLLLLLLLLLLLLLLLLLLLLLLLLLLLLLLLLLLLLLLLLLLLLLL
26666365166614622532125211636416333635221215331256
LLLLLLLLLLLLFFFFFFFFFFFFFFFFFFFFFFFFFFFFFFFFFFFFFF
65431513315254566423523243636662433111636115652241
FFFFFFFFFFFFFFFFFFFFFFFFFLLLLLLLFFFFFFFFFFFFFFFFFF
46111642516454332343456415542622313465645635652556
FFFFFFFFFFLFFFFFFFFFFFFFFFFFFFFFFFFFFFFFFFLLLFFFFF
21513236513412111561643663466122456665666666666666
FFFFFFFFFFFFFFFFFFFFFFFFFFFFFFFFFFFLLLLLLLLLLLLLLL
22331366666666326666666166656555111136143623113216
FFFFFFLLLLLLLLLLLLLLLLLLLLLFFFFFFFFFFLFFFFFFFFFFFF
16162654423611316666313564666514632636661363644154
FFLLFFFFFFFFFFFFFLLLFFFFFFFFFFFFFFFLLLLLLLLFFFFFFF
21525433636561316115115656253352634342332556661636
FFFFFFFFFFFFFFFFFFFFFFFLFFFFFFFFFFFFFFFFFFFLLLLLFF
65465666666666426116345223612511416116466666525366
LLLLLLLLLLLLLLLLLLFFFFFFFFFFFFFFFFFFFFFLLLLLFFFFLL
25161561632226351131623512666666666664266426165111
FFFFFFFFFFFFFFFFFFFFFFFFFFLLLLLLLLLFLFFFFFFFFFFFFF
11451554631641243564223663333266656222256142132453
FFFFFFFFFFFFFFFFFFFFFFFLFFFFFFLLLLLLFFFFFFFFFFFFFF
32515565155111166666622466566166466461666214256666
FFFFFFFFFFFFFFFLLLLLLLLLLLLLLLLLLLLLLLLLLFFFFFLLLL
53443444123514636665366235221242142125311635131111
FFFFFFFFFFFFFFFFLLLFFFFFFFFFFFFFFFFFFFFFFFFFFFFFFF
66666662616463516612314333134346542252151141556616
FLLLLLLLLLLLLFFFFFFFFFFFFFFFFFFFFFFFFFFFFFFFFFLLLL
66522435266664655654614656166522543662666666641666
FFFFFFFFFFLLLLLLLLFFFFFFFLLLLFFFFFFLLLLLLLLLLLLLLL
14451643644535145242221454646633242562566221666666
FFFFFFFFFFFFFFFFFFFFFFFFFFFFFFFFFFFFFFFFFFFFLLLLLL
26616526666566666662661625124356162532661152356232
FLLLLLLLLLLLLLLLLLLLLLFFFFFLFFFFFFFFFFFFFFFFFFFFFF
66364366666435335516616264566566663666245566432562
LFFFFFFFLLLLFFFFFFFFFFFFFFFLLLLLLLFLLLLLLLLLFFFFFF
36466533213122464442456155544561214263664516466665
FFFFFFFFFFFFFFFFFFFFFFLFFFFFFFFFFFFFFLLLFFFFFLLLLL
25352456456516131641442451413213416626636155326166
FFFFFFFFFFFFFFFFFFFFFFFFFFFFFFFFFFLLLLLLLFFFFFFFLL
16433234552233165612323242443446162466443316636663
FFFFFFFFFFFFFFFFFFFFFFFFFFFFFFFFFFFFFFFFFFFLLLLLLL
36246254322341635615626423653314335134314136666666
FFFFFFFFFFFFFFFFFFFFFFFFFFFFFFFFFFFFFFFFFFFLLLLLLL
42611352253251441152234416143422444426535233252324
FFFFFFFFFFFFFFFFFFFFFFFFFFFFFFFFFFFFFFFFFFFFFFFFFF
46145563132266661546413434242124455563463523521156
FFFFFFFFFFFFFFFFFFFFFFFFFFFFFFFFFFFFFFFFFFFFFFFFFF
13513465346522542344436356646663644666164666266665
FFFFFFFFFFFFFFFFFFFFFFFFFFFLLLLLLLLLLLLLLLLLLLLLLL
46342614231325511166666261564313463466466366666666
FFFFFFFFFFFFFFFFFFLLLLLLLLLLFFFFFFFFLLLLLLLLLLLLLL
13544652542645513464454631336166666656646666663266
FFFFFFFFFFFFFFFFFFFFFFFFFFFFFFFLLLLLLLLLLLLLLLLLLL
21655415344315666113224111315565533454551253146643
FFFFFFFFFFFFFFFFFFFFFFFFFFFFFFFFFFFFFFFFFFFFFFFFFF
46666666645125434561626624555311442166163645656553
LLLLLLLLFFFFFFFFFFFFFFFFFFFFFFFFFFFFFFFFFFFFFFFFFF
55612135154226666661653156326253253653661666326662
FFFFFFFFFFFFFLLLLLFFFFFFFFFFFFFFFFFFFLLLLLLLFFLLLL
66666366623666666466665653662663465452151233323663
LLLLLLLLLLLLLLLLLLLLLLLFFFLLLLLFFFFFFFFFFFFFFFFFLF
64651662324662354643115324626541211335132666334414
LLLLLLLFFFFFFFFFFFFFFFFFFFFFLFFFFFFFFFFFFLLLFFFFFF
22611466541231322566666666644531253151441554326665
FFFFFFLLFFFFFFFFFFLLLLLLLLLFFFFFFFFFFFFFFFFFFFLLLL
64533113443666666662666666666636666666666662366663
LFFFFFFFFFFFLLLLLLLLLLLLLLLLLLLLLLLLLLLLLLLLLLLLLL
64243353321236466666666664631321613646666623153436
FFFFFFFFFFFFLLLLLLLLLLLLLFFFFFFFFFFFFFLLLLFFFFFFFF
51346663645666636662464566266633534664535513623461
FFFFFFFFFFFLLLLLLLLLLLLLLLLLLFFFFFFFFFFFFFFFFFFFFF
26666666626666666666266632435551245416666663666663
LLLLLLLLLLLLLLLLLLLLLLLFFFFFFFFFFFFFFLLLLLLLLLLLLF
21566664652216666666626616165646662664666656261265
FFFLLLLLLFFFFFFLLLLLLLLLLLLLLLLLLLLLLLLLLLFFFFFFFF
66166666616626344166436113355441566666166524414526
LLLLLLLLLLLLFFFFFFFFFFFFFFFFFFFFFFLLLLLLLFFFFFFFFF
66666666666666664622666141653226351653541612556162
LLLLLLLLLLLLLLLLLLFFFFFFFFFFFFFFFFFFFFFFFLFFFFFFFF
13455131336424454426666666566626666666566463661663
FFFFFFFFFFFFFFFFFFFLLLLLLLLLLLLLLLLLLLLLLLLLLLFFLL
15612131145511666616625543666266133411446666666646
FFFFFFFFFFFFFFFLLLLLLFFFLLLLLLLFFFFFFFFFLLLLLLLLLL
22243363633666561433141332661211223666616626666666
FFFFFFFFFFFLLLLLFFFFFFFFFFFFFFFFFFFLLLLLLLLLLLLLLL
52515656616163263665365646246626666666666635666666
FFFFFLLLLLLLLFFFFFFFFFFLLLLLLLLLLLLLLLLLLLLLLLLLLL
36666666663544256453654416423456335416335446411321
FLLLLLLLLLFFFFFFFFFFFFFFFFFFFFFFFFFFFFFFFFFFFFFFFF
66666561165134142164364263361314354216146136635541
LLLLLFFFFFFFFFFFFFFFFFFFFFFFFFFFFFFFFFFFFFFFFFFFFF
62532324426143315633443111115431412362416522645564
FFFFFFFFFFFFFFFFFFFFFFFFFFFFFFFFFFFFFFFFLFFFFFFFFF
24414262536661666143662526266335554111533653631116
FFFFFFFFFFLLLLFFFFFFFFFFFFFFFFFFFFFFFFFFFFFFFFFFFF
66466663666115651331346235456311151526363312125222
FLLLLLLLLLLFFFLFFFFFFFFFFFFFFFFFFFFFFFFFFFFFFFFFFF
33653665312461235364433123443436241432461344346452
FFFFFFFFFFFFLFFFFFFFFFFFFFFFFFFFFFFFFFFFFFFFFFFFFF
16665622521361665631135146642333442246553514361266
FLLLFFFFFFFFFFFFFLFFFFFFFFFFFFFFFFFFFFFFFFFFFFFFLL
32155512513233152115133564331614365662552313145622
FFFFFFFFFFFFFFFFFFFFFFFFFFFFFFFFFFFFFFFFFFFFFFFFFF
64661532223554322125433341562242143666636336644141
LLLLFFFFFFFFFFFFFFFFFFFFFFFFFFFFFFFLLLLFFFFFFFFFFF
16363666661666663313446416226116666643456512612366
LLLLLLLLLLLLLLLLLLFFFFFFFFFFFFFLLLLLFFFFFFFFFFFFFL
56664166516666666666414634612432635351345415616664
LLLLLLLLFFLLLLLLLLLLFFFFFFFFFFFFFFFFFFFFFFFFFFFFFF
15654621325211466624366661636153213326425145246366
FFFFFFFFFFFFFFFLLLLLLLLLLFFFFFFFFFFFFFFFFFFFFFFFFF
66616666644164611542455153252666166666666666264155
LLLLLLLLLLFFFFFFFFFFFFFFFFFFFFLLLLLLLLLLLLLLFFFFFF
62611666616666666666363613666644354154335334352622
FFFFLLLLLLLLLLLLLLLLLLLFFLLLLLFFFFFFFFFFFFFFFFFFFF
66665662621312651666626666114666664632566355566663
LLLLLLLFFFFFFFFFFLLLLLLLLLLLLLLLLLLFFFFFFFFFFLLLLL
36536466666664655566446424266666666166666666266664
FFFFLLLLLLLLLLLFFFLLFFFFFFLLLLLLLLLLLLLLLLLLLLLLLL
14466623666616666666666651453121222446666343422116
FFFFFLLLLLLFFFLLLLLLLLLLLLFFFFFFFFFFFLLLLFFFFFFFFF
62412643245635312326365132216646666566655624351546
FFFFFFFFFFFFLFFFFFFFFFFFFFFFLLLLLLLLLLLFFLFFFFFFFL
66635611615644626114632614412541422155165356416542
LLLLLLLLLFFFFFFFFFFFFFFFFFFFFFFFFFFFFFFFFFFFFFFFFF
15535162142455643251411346633366622511636666666636
FFFFFFFFFFFFFFFFFFFFFFFFFFFFFFLLLFFFFFLLLLLLLLLLLL
26334421542253666662613344146665153266664666666666
FFFFFFFFFFFFFLLLLLLFFFFFFFFFFFFFFFFFFLLLLLLLLLLLLL
63632434133262526451626453512144425636536666626634
FFFFFFFFFFFFFFFFLLFLLLLFFFFFFFFFFFFFFFFFLLLLLLLLLF
66666666214316344241623626254266666666666666666666
LLLLLLLFFFFFFFFFFFFFFFFFFFFFFFLLLLLLLLLLLLLLLLLLLL
65656666621664266666651663444623532561354426216221
LLLLLLLLLLLLLLLLLLLLLFLLLFFFFFFFFFFFFFFFFFFFFFFFFF
46613126626243656345456666636156664662426456135536
FFFFFFFFLFFFFFFFFFFFFLLLLLLLLLLLLLFFFFFFFFFFFFFFFF
23332453154666214465331661164514616566531262666466
FFFFFFFFFFFFFFFFFFFFFFFFFFFFFFFFFFFFFFFFFFFFLLLLLL
61136343213552266666626666662545466435146631266222
FFFFFFFFFFFFFFFLLLLLLLLLLLLLLLFFFLLFFFFFFFFFFFFFFF
53124643625666666163253226666166143314611224423626
FFFFFFFFLLLLLLLLLFFFFFFLLLLLLLLLFFFFFFFFFFFFFFFFFF
13136111331513313451665355626666166664415412253666
FFFFFFFFFFFFFFFFFFFFFFFFFFFFLLLLLLLLFFFFFFFFFFFLLL
54135264265364655162226666666666666665654535115524
FFFFFFFFFFFFFFFFFFFFFFLLLLLLLLLLLLLLLLLLFFFFFFFFFF
61416665666224523342463325334164653425666666666666
FFFFLLLLLLLFFFFFFFFFFFFFFFFFFFFFFFFFFFLLLLLLLLLLLL
66422316666666663646353441366552644526663351232326
LLLLFFFLLLLLLLLLFFFFFFFFFFLLLFFFFFFFFFLLLFFFFFFFFL
14315162233141616131132132325366666563566446662221
FFFFFFFFFFFFFLLLLFFFFFFFFFFFFFFFFFFFFFFFFFFLLLFFFF
56154121415612636666662414324645531145664223422444
FFFFFFFFFFFFFFFFLLLLLLFFFFFFFFFFFFFFFFFFFFFFFFFFFF
32213461621262656624435221326551645216131523415145
FFFFFFFFFFFFFFFFLLFFFFFFFFFFFFFFFFFFFFFFFFFFFFFFFF
24156663642666663616254244253232451663163463523325
FFFLLLLLLLLLLLLLLLFFFFFFFFFFFFFFFFFFFFFFFFFFFFFFFF
44165662533665626164224566666365456663241663611246
FFFFFLLFFFFLLLLLLFFFFFFFLLLLLFLLLLLLFFFFFFFFFFFFFF
63266633463361426214333533653352445113356433656566
FFFFFFFFFFFFFFFFFFFFFFFFFFFFFFFFFFFFFFFFFFFFFFFFFL
66656626565442564112463264616122335664513456152654
LLLLLLLLLLFFFFFFFFFFFFFFFFFFFFFFFFFFFFFFFFFFFFFFFF
16312423151422266626466364656666364666652366665352
FFFFFFFFFFFFFFFLLLLLLLLLLLLLLLLLLLLLLLFFFLLLLFFFFF
33412633641431164666666666666636554266666623446234
FFFFFFFFFFFFFFFFFLLLLLLLLLLLLLLLFFFFLLLLLLFFFFFFFF
32323356666614156336365666665443625155626324516666
FFFFFFFFLLLLFFFFFFFFFLLLFFFFFFFFFFFFFFFFFFFFFFLLLL
13426456666151663666613366666166664162662126666664
FFFFFFFLLLLLLLLLLLLLLLLLLLLLLLLLLLLLLFFLFFFFFFFLLF
66666666616666665632253113641554365335541336666166
LLLLLLLLLLLLLLLLFFFFFFFFFFFFFFFFFFFFFFFFFFLLFFFFFF
21264426566646346344562354235621223522132624165346
FFFFFFFLLLLLFFFFFFFFFFFFFFFFFFFFFFFFFFFFFFFFFFFFFL
26556263166516353342463541666666666336366666263666
FFFFFFFFFFFFFFFFFFFFFFFFFFLLLLLLLLLLLLLLLLLFLLLLLL
15635461261165663314652435361616356223615523466622
FFFFFFFFFFFFFFFFFFFFFFFFFFFFFFFFFFFFFFFFFLLLLLLLFF
65523644166534312365146361651246566335462212522545
LFFFFFFFFFFFFFFFFFLFFFFFFFFFFFFFFFFFFFFFFFFFFFFFFF
22466114566461162651441461615626565235156423666626
FFFLLFFFLLLLLLFFFFFFFFFFFFFFFFFFFFFFFFFFLFFFLLLLLL
66666266636666366631266666666666642244126561561316
LLLLLLLLLLLLLLLLLLLFFFLLLLLLLLLLLFFFFFFFFFFFFFFFFL
31656563124556235646666266654132336366666243153332
FLLLLFFFFFFFFFFFFFLLLLLLLLFFFFFFFFFFFLLLLFFFFFFFFF
23666444155315111211315434431225364112116666666666
FFFFFFFFFFFFFFFFFFFFFFFFFFFFFFFFFFFFFFFFLLLLLLLLLL
21256153161464264411666646661632612633636516246461
FFFFFFFFFFFFFFFFFFFFLLLLLLLLFFFFFFFFFFFLLFFFFFFFFF
66666322614323455112323666646216613135266666666626
LLLLLFFFFFFFFFFFFFFFFLLLLLLLFLFFFFFFFFFLLLLLLLLLLL
22323543163216666161666612631666663616241213342266
FFFFFFFFFFFFFLLLLLLLLLLFFFLLFFLLLLFFFFFFFFFFFFFFLL
62161453156441166366666666666621144666666661236663
FFFFFFFFFFFFFFLLLLLLLLLLLLLLLLLLLLLLLLLLLLLLLLLLLL
46263141124543666661434144321441224326463152365632
FFFFFFFFFFFFFFLLLLLFFFFFFFFFFFFFFFFFFFFFFFFFFFFFFF
36666466663166616666636613256342631416565666666661
LLLLLLLLLLFFLLLLLLLLLLLLFFFFFFFFFFFFFFFLLLLLLLLLLL
46543263221554543642151646132625616436663566666664
FFFFFFFFFFFFFFFFFFFFFFFFFFFFFFFFLLLLLLLLLLLLLLLLLL
66533236646663346513342225116553441533152616665155
LLFFFFFLLLLLLFFFFFFFFFFFFFFFFFFFFFFFFFFFLLLLLLFFFF
33253352121324666661542656663456365121534664342123
FFFFFFFFFFFFFLLLLLLFFFFFFLLLFFFFFFFFFFFFFFFFFFFFFF
42624434545666666235333562665431162651612531653254
FFFFFFFFLFFLLLLLLFFFFFFFFFFFFFFFLLLLLLLFFFFFFFFFFF
66661666364211254215265666664145631615466336166662
LLLLLLLLLLLFFFFFFFFFFFLLLLLLFFFFFFFFFFLLLLLLLLLLLL
12165636645514336531441666651134156453522525624466
FFFFFFFFFFFFFFFFFFFFFFFLLLLFFFFFFFFFFFFFFFFFFFFFLL
46666666666666663664221265253233634155425355153625
FLLLLLLLLLLLLLLLLLLFFFFFFFFFFFFFFFFFFFFFFFFFFFFFFF
62666441542565642235626635343251636666641115242361
LLLLFFFFFFFFFFFFFFFFFFFFFFFFFFFFLLLLLLLFFFFFFFFFFF
22626135664121521641643366354366556666616353511161
FFFFFFFFFFFFFFFFFFFFFFFFLLFFFLLLLLLLLLLFFFFFFFFFFF
66664666566666166463216661214666666666662163163242
LLLLLLLLLLLLLLLLLLLLLLLLLLLLLLLLLLLLLLLLFFFFFFFFFF
16452124253461261462663116436143214342621265216532
FFFFFFFFFFFFFFFLLFFFFFFFFFFFFFFFFFFFFFLFFFFFFFFFFF
15356233136626552234212442662666632654416666666662
LFFFFFFFFFFFFFFFFFFFFFFFFFLLLLLLFFFFFFFFLLLLLLLLLL
46441645121261155616666666666666566565654321554242
FFFFFFFFFFFFFFFFFFFLLLLLLLLLLLLLLLLLLFFFFFFFFFFFFF
26524632162444546333166662643255666666656666666626
FFFFFFFFFFFFFFFFFFFFFLLLLFFFFFFFFFLLLLLLLLLLLLLLLL
44666666626666666563564651665254611656346662116324
FFFFFLLLLLLLLLLLLLLLFFFFFLLLLFFFFFLLLLFFLLLFFFFFFF
25215523333136535611362341561166252515213236614362
FFFFFFFFFFFFFFFFFFFFFFFFFFFFFFLLFFFFFFFFFFFFFFFFFF
33162261665161366566661212666366132424513224555633
FFFFFFFFFFFFFFFFFFFLLLLFFFFFLLLLFFFFFFFFFFFFFFFFFF
44366651153566645351632334116666644626666626664315
FFFLLFFFFFFFFFFFFFFFFFFFFFFFLLLLLLLLLLLLLLLLLLFFFF
66361633152254344416346222436515161363324425366655
LLLLLLFFFFFFFFFFFFFFFFFFFFFFFFFFFFFFFFFFFFFFFFFFFF
46154166226334425435441461331464243666536451463465
FFFFFFLLFFFFFFFFFFFFFFFFFFFFFFFFFFFFFFFFFFFFFFFFFF
66525246451651265662622521245526213146515325236566
LLFFFFFFFFLLLLLLLLLLLFFFFFFFFFFFFFFFFFFFFFFFFFLLLL
26651153215513566636623313335316462262522424343143
FFFFFFFFFFFFFFFLLLLLLFFFFFFFFFFFFFFFFFFFFFFFFFFFFF
63353145644526661262466551146666666666453661656666
LFFFFFFFFFFFLLLLLFFFLLLLFFFFFLLLLLLLLFFFFLLLLLLLLL
35442225245626666333643214453626666266666666666666
FFFFFFFFFFFLLLLLLFFFFFFFFFFFFLLLLLLLLLLLLLLLLLLLLL
66665666666263666361163626666665353565161511433364
LLLLLLLLLLLLLLLLLLLLLLLLLLLLLLLFFFFFFFFFFFFFFFFFFF
26625513546223356534366632546462666262666263626666
LLLLLFFFFFFFFFFFFFFFFFFFFFFFLFFFLLLLLFLLLLLLLLLLLL
65444356231315666543466532556243344646366666666666
LLLLFFFFFFFFFFFFFFFFFFFFFFFFFFFFFFFFFFFFLLLLLLLLLL
26365212516133462342466666666266453633336556416451
FFFFFFFFFFFFFFFFFFFFFFLLLLLLLFFFFFFFFFFFFFFFFFFFFF
56651513621413666116666266411446264665465236234561
FFFFFFFFFFFFFFLLLLLLLLLLLLFFFFFLLLLLLFFFFFFFFFFFFF
66666666662353445332666466663215666626666162634243
LLLLLLLLLLLFFFFFFFFFLLLLLLLLFFFFLLLLLLLLLLLLLFFFFF
21615363652534524411525662636651412541663316161232
FFFFFFFFFFFFFFFFFFFFFFFFFFFFFFFFFFFFFLLFFFFFFFFFFF
26154536666636661661454456645513622431444531462434
FFFFFFLLLLLLLLLLLLLFFFFFFFFFFFFFFFFFFFFFFFFFFFFFFF
32126541422564515133131124164552323466225415211135
FFFFFFFFFFFFFFFFFFFFFFFFFFFFFFFFFFFFLLFFFFFFFFFFFF
42534613146146551543666265352211666666466623411561
FFFFFFFFFFFFFFFFFFFFLLLLLLFFFFFFLLLLLLLLLLLFFFFFFF
66323215421156234116356414433151132636461535426666
LLFFFFFFFFFFFFFFFFFFFFFFFFFFFFFFFFFFFFFFFFFFFFLLLL
52256154236541666266661666665263663666666626356666
FFFFFFFFFFFFFFLLLLLLLLLLLLLLLFFFFLLLLLLLLLLLLLLLLL
15256516165231163262311322542653552642213634522364
FFFFFFFFFFFFFFFFFFFFFFFFFFFFFFFFFFFFFFFFFFFFFFFFFF
66666641251166626666466466666626664616664666656666
LLLLLLFFFFFLLLLLLLLLLLLLLLLLLLLLLLLLLLLLLLLLLLLLLL
44121242524214563222565656666124132322666662666565
LFFFFFFFFFFFFFFFFFFFFFFLFFLLFFFFFFFFFFFFFLLLLLLLLL
31561411652666511564346236146636143565666666514221
FFFFFFFFFFLLLLFFFFFFFFFFFFFFFFFFFFFFFFLLLLLFFFFFFF
26116226662166666661626235322351316146166146452316
FFFFFFLLLLLLLLLLLLLLLFFFFFFFFFFFFFFFFLFLLFFFFFFFFF
14315315153126132562232461413333534226261225164514
FFFFFFFFFFFFFFFFFFLLFFFFFFFFFFFFFFFFFFFFFFFFFFFFFF
45561612425152264665455254645116666366626512252133
FFFFFFFFFFFFFFFFFFFFFFFFFFFFFFFLLLLLLLLLFFFFFFFFFF
42143363666664111265634215131132352321312266616264
FFFFFFFFFLLLLFFFFFFFFFFFFFFFFFFFFFFFFFFFFLLLLLLLLL
32153334126212536251166614534345666666666613626666
FFFFFFFFFFFFFFFFFFFFFFFFFFFFFFFFFLLLLLLLLLLLLLLLLL
65212514166666666351134262334613111641632644321151
LFFFFFFFFLLLLLLLLLFFFFFFFFFFFFFFFFFFFFFFFFFFFFFFFF
52311213366356634432536666644212363232626161341244
FFFFFFFFFLLLLLLLLFFFFFLLLLLFFFFFFFFFFFFFLFFFFFFFFF
62666666155665666666666321556463514266165663613236
LLLLLLLFFFLLLLLLLLLLLLLFFFFFFFFFFFFFLLLLLLLFFFFFFL
42456465545465666566661666666642662666436666666445
FFFFFFFFFFFFFLLLLLLLLLLLLLLLLLLLLLLLLLLLLLLLLLLFFF
31665666426666665563366666666663662616613165666666
FFFFFLLLLLLLLLLLFFFFLLLLLLLLLLLLLLLLLLFFFFFFLLLLLL
66616666646616666666663661436666654132366626661266
LLLLLLLLLLLLLLLLLLLLLLLLFFFFFFFFFFFFFFLLLLLLLLLLLL
16666663331453612345335546646136363553161362534514
FLLLLLLFFFFFFFFFFFFFFFFFFFFFFFFFFFFFFFFFFFFFFFFFFF
31633435333562355666626636666426666666644664433315
FLFFFFFFFFFFFFFFLLFFFLLLLLLLLLLLLLLLLLLFFLLLLLFFFF
13651461636423256664135415125626666666662666244133
FFFFFFLLLFFFFFFFFFFFFFFFFFFFFFFLLLLLLLLLLLLLFFFFFF
11446115212316666542532155531155521631136666666562
FFFFFFFFFFFFFLLLLFFFFFFFFFFFFFFFFFFFFFFFLLLLLLLFFF
21512511436264122344635546666666616666661512663366
FFFFFFFFFFFFFFFFFFFFFFFFFLLLLLLLLLLLLLLLFFFFLLLLLL
46133624663621422566666366654246314315366311363632
FFFFFFFFFFFFFFFFFFLLLLLFLFFFFFFFFFFFFFFLLFFFFLLLLL
53355116135563636316326566322125666366666666626644
FFFFFFFFFFFFFFFFFFFFFFFFFFFFFFFFLLLLLLLLLLLLLLLLFF
55166642166464333636536345433223626545566666535662
FFFFFFFFFLLLLFFFFFFFFFFFFFFFFFFFFFLFFFFLLLLFFFFLLL
46636655532232565524646666664626666666646351666656
LLLLLLLLFFFFFFFFFFFFFFLLLLLLLLLLLLLLLLLLLLLLLLLLLL
53664326564225434234343253466265666541615124543145
FFFFFFFFFFFFFFFFFFFFFFFFFFFFLLLLLLLFFFFFFFFFFFFFFF
66561666636566216252554351615425532663255454444164
LLLLLLLLLLLLLLFFFFFFFFFFFFFFFFFFFFFFFFFFFFFFFFFFFF
66666662666466616615466466663654126333145124526554
LLLLLLLLLLLLLLLLLLLLLLLLLLLLLLFFFFFFFFFFFFFFFFFFFF
26666662312266411451411334643566331151323446666466
FLLLLFFFFFFFLLFFFFFFFFFFFFFFFFFFFFFFFFFFFFFFFFLLLL
66662666666636666666166114455524642111631121333436
LLLLLLLLLLLLLLLLLLLLLLLFFFFFFFFFFFFFFFFFFFFFFFFFLL
25213243433154212411516666665666666132536461536666
FFFFFFFFFFFFFFFFFFFFFFLLLLLLLLLLLLLFFFFFFFFFFFLLLF
42666663153662226524234315352546165652666211134556
FLLLLLLFFFFFFFFFFFFFFFFFFFFFFFFFFFFFFFFFFFFFFFFFFF
14641635615534363161456465144161325445442651556521
FFFFFFFFFFFFFFFFFFFFFFFFFFFFFFFFFFFFFFFFFFFFFFFFFF
42243531363426344366513323326434353615142446656443
FFFFFFFFFFFFFFFFFFFFFFFFFFFFFFFFFFFFFFFFFFFLLFFFFF
63136315212625312234515643434462544666666166466426
FFFFFFFFFFFFFFFFFFFFFFFFFFFFFFFFFFFFLLLLLLLLLLLFFF
66212332621352636634622221656666336666664463412454
FFFFFFFFFFFFFFFFLLFFFFFFFFFFFFFFFFLLLLLLLFFFFFFFFF
45453356422656564356355253411114456221514566662666
FFFFFFFFFFFFFFFFFFFFFFFFFFFFFFFFFFFFFFFFFFFLLLLLLL
43141616143431311451363566666663412256666666661226
FFFFFFFFFFFFFFFFFFFFFFFLLLLLLLFFFFFFFLLLLLLLLLFFFF
45656662166636666665666666666166666666666666666666
FFFFFFFFFLLLLLLLLLLLLLLLLLLLLLLLLLLLLLLLLLLLLLLLLL
66646466566646344635433266213516666666666366662666
LLLLLLLLLLLLFFFFFFFFFFFFFFFFFFFLLLLLLLLLLLLLLLLLLL
63136256156561436213116225666661445165614234462621
FFFFFFFFFFFFFFFFFFFFFFFFFFLLLLLLLLLLLLFFFFFFFFFFFF
36251142631451621441366164221635322525114223134466
FFFFFFFFFFFFFFFFFFFFFFFFFFFFFFFFFFFFFFFFFFFFFFFFFF
65263533544221542522312143565221366666241325331142
LFFFFFFFFFFFFFFFFFFFFFFFFFFFFFFFFLLLLLFFFFFFFFFFFF
51666616366626656565316421611555234426222124252566
FFFFFLLLLLLLLLLLLFFFFFFFFFFFFFFFFFFFFFFFFFFFFFFFFF
54324561612315663216453623354166653546366316661662
FFFFFFFFFFFFFFFFFFFFFFFFFFFFFFFFFFFFFFFLLLLLLLLLFF
32664116564445353551666643633341346311535234644131
FFFFFFLLFFFFFFFFFFFFLLLLFFFFFFFFFFFFFFFFFFFFFFFFFF
55311532465666666661666666545322354664646666666252
FFFFFFFFFLLLLLLLLLLLLLLLLLFFFFFFFFFFLLLLLLLLLLLFFF
53234342454366162666136651666666165666616666564666
FFFFFFFFFFFFLLFFFLLLLLLLLLLLLLLLLLLLLLLLLLLLLLLLLL
25355414426356662365666646621324162636666112243364
FFFFFFFFFFFFFLLLLLLLLLLLLLFFFFFFFLLLLLLLLLFFFFFFFF
62266666616666651666666666546636616666266666666356
FFFLLLLLLLLLLLLLLLLLLLLLLLFFLLFLLLLLLLLLLLLLLLLFFF
66666666416666566143144656416356636662631161453365
LLLLLLLLLLLLLLLLLLLFFFFFFFFFFFFLLLLLLLLFFFFFFFFFFF
42414224362315466666622666641242565354523433131465
FFFFFFFFFFFFFFFFLLLLLLLLLLLFFFFFFFFFFFFFFFFFFFFFFF
15163615634555243642655514451311653515251546656433
FFFFFFFFFFFFFFFFFFFFFFFFFFFFFFFFFFFFFFFFFFFFFFFFFF
55136264266661666636552623446166626341163153236431
FFFFFFLFFFLLLLLLLFFFFFFFFFFFLLLLLFFFFFFFFFFFFFFFFF
54155515146153511566661666135443651261153444526665
FFFFFFFFFFFFFFFFFFLLLLLLLLLLFFFFFFFFFFFFFFFFFFFLLL
63254462155445666466666264664324442622463113553461
LFFFFFFFFFFFFFLLLFLLLLFFFFFFFFFFFFFFFFFFFFFFFFFFFF
14121661631135443162525466666566643362524245124116
FFFFFFFFFFFFFFFFFFFFFFFFLLLLLLLLLFFFFFFFFFFFFFFFFF
26666666666444313216452311123615314343454354426423
LLLLLLLLLLLFFFFFFFFFFFFFFFFFFFFFFFFFFFFFFFFFFFFFFF
66666466666666246626345136616332435542666666626611
LLLLLLLLLLLLLLFFFLLLLFFFLLLLLFFFFFFFFFLLLLLLLLLLLF
66665664466656666666666266666666666664666666666666
LLLLLLLLLLLLLLLLLLLLLLLLLLLLLLLLLLLLLLLLLLLLLLLLLL
66666516344262542246611453664423625661315146166614
LLLLLFFFFFFFFFFFFFFLLFFFFFFLFFFFFFFFFFFFFFFLLLLFFF
12166664166642552144144332524341434654544245123154
FFLLLLLLLLLLFFFFFFFFFFFFFFFFFFFFFFFFFFFFFFFFFFFFFF
66666563632521345336623313444166411666666166235313
LLLLLFFFFFFFFFLFFFLLLLFFFFFFFFFFFFFLLLLLLLLLFFFFFF
61511131144235241212161153111261255241654664236426
FFFFFFFFFFFFFFFFFFFFFFFFFFFFFFFFFFFFFFFFFFFFFFFFFL
64125451543523346666236623261212325132556521322541
FFFFFFFFFFFFFFFFFFFFFFFLFFFFFFFFFFFFFFFFFFFFFFFFFF
52434554665442664666164136456626666666663311645112
FFFFFFFFFFFFFLLLLLLLFFFFFFFFFFFLLLLLLLLLFFFFFFFFFF
45551236356266323656666666564152623615115466351221
FFFFFFFFFFFFFFFFFFFLLLLLFFFFFFFLLFFFFFFFFFFFFFFFFF
65155433666663666666666666666665662543536616666666
FFFFFFFFLLLLLLLLLLLLLLLLLLLLLLLLLLFFFFFFFLLLLLLLLL
