22243456456663325231
FFFFFFFFFFFFFFFFFFFF
62236466343544243416
FFFFLLLLFFFFFFFFFFFF
45353224565251512544
FFFFFFFFFFFFFFFFFFFF
63466666643666663666
LLLLLLLLLLLLLLLLLLLL
22252661142614654132
FFFFFLLFFFFFFFFFFFFF
55412323466452132616
FFFFFFFFFLLFFFFFFFLL
54456666666666464316
FFFFLLLLLLLLLFFFFFFL
64512363626466446666
LFFFFLLLLLLLLLLLLLLL
43426331541633112161
FFFFFFFFFFFFLLFFFFFF
56624666666551513445
FFFLFFLLLLLFFFFFFFFF
24536323642565134122
FFFFFFFFFFFFFFFFFFFF
34113142646562232561
FFFFFFFFFFFFFFFFFFFF
66111554114122445233
FFFFFFFFFFFFFFFFFFFF
21222242122613441124
FFFFFFFFFFFFFFFFFFFF
42156626666661366626
FFLLLLLLLLLFLLLLLLLL
14145626664665662643
FFFFLLLLLLLLLLLLFFFF
66666665666666666644
LLLLLLLLLLLLLLLLLLLL
66425444211561335426
LLFFFFFFFFFFLFFFFFFF
66636623163136651662
LLFFFFFFFFFFFFFFFFFF
51513561265442432343
FFFFFFFFFFFFFFFFFFFF
54522654664166666665
FFFFFLLLLLLLLLLLLLLL
54636666656632444536
FFLLLLLLLLLFFFFFFFFF
46566431233511121556
LFFFFFFFFFFFFFFFFFFF
66665141563665123642
LLLLFFFFFFFLLLFFFLLL
43562231465632211435
FFFFFFFFFFFFFFFFFFFF
12152531556214146656
FFFFFFFFFFFFFFFFFLLL
35666665251331424663
FFFLLLLFFFFFFFFFFFFF
64332226326614366663
FFFFFFFFFFLFFFFLLLLF
66544336646626666266
FFFFFFFLLLLLLLLLLLLL
26252166563464522664
FFFFFFFFFFFFFFFFFFFF
55666461213532611652
LLLLLLLFFFFFFFFFFFFF
56666664662166666666
LLLLLLLLLLLLLLLLLLLL
22231521455122326331
FFFFFFFFFFFFFFFFFFFF
65366315624163125232
LLLLLLLFFFFFFFFFFFFF
33331251441645411546
FFFFFFFFFFFFFFFFFFFF
65666626366666616666
LLLLLLLLLLLLLLLLLLLL
62543215226351636522
FFFFFFFFFFFFFFFFFFFF
66666666166666666216
LLLLLLLLLLLLLLLLLLLL
55266666636666644336
FFFLLLLLLLLLLLLFFFFF
34521636311131311414
FFFFFFFFFFFFFFFFFFFF
56511366412656314651
FFFFFFFFFFFFFFFFFFFF
66666666666666666661
LLLLLLLLLLLLLLLLLLLL
36446166656632566342
FFFFLLLLLLLLFFFFFFFF
66666646632663653665
LLLLLLLLLLLLLFFFFFFF
45214641244226536342
FFFFFFFFFFFFFFFFFFFF
45534446226666666426
FFFFFFFFFFLLLLLLLLLL
13445566666266666316
FFFFFFFLLLLLLLLLLLLL
65626655566464111666
LLLLLLLFFFFFFFFFLLLL
55144146321432544555
FFFFFFFFFFFFFFFFFFFF
44545453142346656663
FFFFFFFFFFFFFFFFLLLF
65614433135664666664
LLFFFFFFFFFFFFLLLLLF
66664634326661413235
LLLLFFFFFFLLLLFFFFFF
26156415433152663412
FFFFFFFFFFFFFFFFFFFF
62666666662666644326
LLLLLLLLLLLLLLFFFFFF
12555631256636111466
FFFFFFFFFFFFFFFFFFFF
14666666566666662666
FFLLLLLLLLLLLLLLLLLL
64663646352261555522
LLLLLLFFFFFFFFFFFFFF
32215252661452451356
FFFFFFFFFFFFFFFFFFFF
65353433235241166566
FFFFFFFFFFFFFFFLLLLL
44621213416212624112
FFFFFFFFFFFFFFFFFFFF
55362465653265652342
FFFFFFFFFFFFFLLLLFFF
24566626425662223126
FFFLLLLLLFFFFFFFFFFF
36345455132444611564
FFFFFFFFFFFFFFFFFFFF
21241216241161263246
FFFFFFFFFFFLLFFFFFFF
66614636425513446154
LLLLFFFFFFFFFFFFFFFF
36215655653264643656
FFFFFFFFFFFFFFFFFLLL
32453154624564566654
FFFFFFFFFFFFFFFFFFFF
46462636146531314351
FFFFFFFFFFFFFFFFFFFF
46631323511535243155
FFFFFFFFFFFFFFFFFFFF
31666666664661123225
FFFLLLLLLLFFFFFFFFFF
34546661666646662666
FFFFLLLLLLLLLLLLLLLL
61164425561334614615
FFFFFFFFFFFFFFFFFFFF
43241135563115454666
FFFFFFFFFFFFFFFFFLLL
23646616666662666661
FFFFFFFLLLLLLLLLLLLL
65666156645141125126
LLLLLLLLLFFFFFFFFFFF
23326266611241663666
FFFFFFFLLFFFFFFFFFFL
56613626152425433162
LLLLFFFFFFFFFFFFFFFF
12531531516563122644
FFFFFFFFFFFFFFFFFFFF
53166442626666666236
FFFLLFFFFFLLLLLLFFFF
22262522144211151331
FFFFFFFFFFFFFFFFFFFF
51141356561131566666
FFFFFFFFFFFFFFFLLLLL
61254313365343335561
FFFFFFFFFFFFFFFFFFFF
66135365455534541213
LLFFFFFFFFFFFFFFFFFF
13266662636143565514
FFFLLLLLLLFFFFFFFFFF
34354261563223162233
FFFFFFFFFFFFFFFFFFFF
54346522215466552116
FFFFFFFFFFFFFFFFFFFL
61566666666626656633
LLLLLLLLLLLLLLLLLFFF
55331336542121255346
FFFFFFFFFFFFFFFFFFFF
66462666362614666134
LLLLLLLLLLFFFFFFFFFF
16336266163646665666
FFFFFLLLLLLLLLLLLLLL
24166666666653432613
FFLLLLLLLLLLFFFFFFFF
42626416651166522353
FFFFFFFFFFFFFFFFFFFF
53666666661642666666
FFLLLLLLLLFFFFLLLLLL
35533456656662662543
FFFFFFFLLFFFFFFFFFFF
42515653266666666423
FFFFFFFFFLLLLLLLLFFF
55315666666666666366
FFFFFLLLLLLLLLLLLLLL
46134432125315523266
FFFFFFFFFFFFFFFFFFFF
66155331146516416146
LLFFFFFFFFFFFLLFFFFF
64114311355666522424
FFFFFFFFFFFFFFFFFFFF
66662666614116626651
LLLLLLLLLFFFFFFFLLFF
66134553515162344266
LLFFFFFFFFFFFFFFFFLL
66661426612631531624
LLLFFFFFFFFFFFFFFFFF
13146155224652213521
FFLFFFFFFFFFFFFFFFFF
65316656566662614341
FFFFFLLLLLLLLFFFFFFF
66646661666666666666
LLLLLLLLLLLLLLLLLLLL
16343646111333523635
FFFFFFFFFFFFFFFFFFFF
31633244344634346111
LLLFFFFFFFFFFFFFFFFF
25446161666626664666
FFFFLLLLLLLLLLLLLLLL
32546111353516322413
FFFFFFFFFFFFFFFFFFFF
61666123636663653543
FFLLLLLLLLLLLLLLFFFF
33451441616666266521
FFFFFFFFFFLLLLLLFFFF
34326566566666666666
FFFFLLLLLLLLLLLLLLLL
21615515666666666656
FFFFFFFFLLLLLLLLFFFF
66666665652631116346
FLLLLLLFFFFFFFFFFFFF
43361353663523135666
FFFFFFFFFFFFFFFFFFFF
13156633125552621256
FFFFFFFFFFFFFFFFFFFF
64666633666666666666
LLLLLLLLLLLLLLLLLLLL
16631644666616666665
LLLFFFFFLLLLLLLLLLLF
63551512164164565244
FFFFFFFFFFFFFFFFFFFF
36261546162266645325
LLFFFFFFFFFLLLLFFFFF
66666135611246542554
LLLLLFFFFFFFFFFFFFFF
14131421233355625266
FFFFFFFFFFFFFFFFFFLL
66366466221636615554
LLLLLLLFFFFLLLLFFFFF
64323455665156466666
FFFFFFFFFFFFLLLLLLLL
52266666665334245632
FFFLLLLLLFFFFFFFFFFF
22223231455661661123
FFFFFFFFFFFLLLLLFFFF
41365156566666664352
FLLLLLLLLLLLLLLLLFFF
45646666662536654152
FFLLLLLLLLFFFFFFFFFF
36131563532464366664
FFFFFFFFFFFFFFFLLLLL
52266636662645143364
FFFFLLLLLLLLFFFFFFFF
31335252642164461331
FFFFFFFFFFFFFFFLFFFF
44336341316664656161
FFFFFFFLLLLLLLLFLLLL
46264242661453666666
FFFFFFFFFFFFFFLLLLLL
66666666613336516366
LLLLLLLLLFFFFFFFFFLL
66445665536161421166
LLFFFFFFFFFFFFFFFFFF
65534612654255646326
FFFFFFLLLFFFFFFFFFFF
46464156562366666666
FFFFFFFFFFFFLLLLLLLL
66666623646626666661
LLLLLLFFFFLLLLLLLLLL
41443322452565625313
FFFFFFFFFFFFFFFFFFFF
41524545215311266611
FFFFFFFFFFFFFFFLLLFF
61343366464366666621
FFFFFFFLLLFFFLLLLLFF
53562436116126411316
FFFFFFFFFFFFFFFFFFFF
31236666366343652123
FFFFLLLLLLLFFFFFFFFF
41146666126666666354
FFFFFLLLLLLLLLLLLFFF
66262561666666561236
LLLLLLLLLLLLLLLFFFFF
66636363614164266162
LLLLLLLLLFFFLFFFFFFF
24251311623333355551
FFFFFFFFFFFFFFFFFFFF
51645146651626254465
FFFFFFFFFFFLLLFFFFFF
14514335136666136646
FFFFFFFFFFLLLLLLLLLL
41543621631321442163
FFFFFFFFLFFFFFFFFFFF
66156166626233163221
LLFFFFFFFFFFFFFFFFFF
23615521666666631116
FFFFFFFFFFLLLLLLFFFF
26666662666666662213
FFFLLLLLLLLLLLLLFFFF
15151346114666666663
FFFFFFFFFFFLLLLLLLLF
35432344466666636636
FFFFFFFFLLLLLLLLLLLL
15551435635645635626
FFFFFFFFFFFFFFFFFFFL
16664413565446554465
LLLLFFFFFFFFFFFFFFLL
66616166656612664266
FLLLLLLLLLLLFFLLLLLL
55341631445616666666
FFFFFFFFFFFFLLLLLLLL
43244656664126621262
FFFFFFFLLLFFFFFFFFFF
66616264656666666626
LLLFLLLLLLLLLLLLLLLL
23646526554111666666
LFFFFFFFFFFFFLLLLLLL
64261646661616661663
LFFFLLLLLLLLLLLLLLLF
13664665666666666663
FFFFFLLLLLLLLLLLLLLL
66665666636624446666
LLLLLLLLLLLLLFFFLLLL
55514464341656626245
FFFFFFFFFFFFFLLLLLFL
52636331364653664622
FFFFFFFFFFFFFFFFFFFF
46612124326655626534
LLLLLFFFFFLLLLLFFFFF
16232666664164334123
FFFFFLLLLLLFFFFFFFFF
16561466666664126641
FFFFFFLLLLLLLLLLLLLL
66662261262651225342
LLLLLFFFFFFFFFFFFFFF
53246213355612125623
FFFFFFFFFFFFFFFFFFFF
51664321135512133364
FFFFFFLFFFFFFFFFFFFF
33453122152111422661
FFFFFFFFFFFFFFFFFFFF
31364252115231313436
FFFLFFFFFFFFFFFFFFFF
56666545265133624111
LLLLLFFFFFFFFFFFFFFF
55545431521462431315
FFFFFFFFFFFFFFFFFFFF
56662666366633222366
LLLLLLLLLLLLFFFFFFFL
61666441665666666666
LLLLLFFFFLLLLLLLLLLL
22225326665666566466
FFFFFFFFFFFLLLLLLLLL
66566615535155633464
LLLLLLFFFFFFFFFFFFFF
65661663326666666535
FFFLLLLLLLLLLLLLLFFF
23653363336241314223
FFFFFFFFFFFFFFFFFFFF
13534514444365443436
FFFFFFFFFFFFFFFFFFFF
12613421464436666466
FFFFFFFFFFFFFLLLLLLL
42224346151322246666
FFFFFFFFFFFFFFFFFLLL
26454613416524563521
FFFFFFFFFFFFFFFFFFFF
62546665626366663322
FFFFLLLLLLLLLLLLLLFF
34652336224655252626
FFFFFFFFFFFFFFFFFFFL
42661513136236624666
FFFLFFFFFFFFFLLLLLLL
31211341125516666666
FFFFFFFFFFFFFLLLLLLL
34565432662515356446
FFFFFFFFFFFFFFFFFFFF
63625154353643661566
LFFFFFFFFFFFFFFFFFLL
54266464564454441324
FFFFFFFFFFFFFFFFFFFF
51416646666666646665
FFFFLLLLLLLLLLLLLLLL
11561334656346553456
FFFFFFFFFFFLFFFFFFFF
66362232241626315416
LLLLFFFFFFFFFFFFFFFL
61666662613615415121
LLLLLLLFFFFFFFFFFFFF
55166644132343636666
FFLLLLFFFFFFFFLLLLLL
35412511214141532352
FFFFFFFFFFFFFFFFFFFF
