6641253166663666666463666664463666663551
LLFFFFFFFLLLLLLLLLLLLLLLLLLLLLLLLLLLFFFF
4461626231466666366545513364612322666666
FFFFFFFFFFLLLLLLLLLLLFFFFFFFFFFFFFLLLLLL
6266666666666623116126134432522636163343
LLLLLLLLLLLLLLFFFFFFFFFFFFFFFFFFFFFFFFFF
4141223314246666646666665636662666665166
FFFFFFFFFFFFLLLLLLLLLLLLLLLLLLLLLLLLFFLL
2443226666254416613146216242421331663414
FFFFFFLLLLFFFFFFFFFFFFFFFFFFFFFFFFLLLLFF
6666366341323664663666166666566666663666
LLLLFLLLLFFFLLLLLLLLLLLLLLLLLLLLLLLLLLLF
6115615611641635464222163166432511523434
FFFFFFFFFFFFFFFFFFFFFFFFFFFFFFFFFFFFFFFF
4663666654625642166466666666666616656431
FLLLLLLLFFFFFFFFFLLLLLLLLLLLLLLLLLLFLLFF
2556163224566566666666666666666616241341
FFFFFFFFFFFFFFLLLLLLLLLLLLLLLLLLLLLFFFFF
6635456266466453663535462656655424664234
LLFFFFLLLLLLLFFFFFFFFFFFFFFLLFFFFFFFFFFF
3146666666636666616366415362656425354641
FFLLLLLLLLLLLLLLLLLLLFFFFFFFFFFFFFFFFFFF
5552164651326453513464465361536662436663
FFFFFFFFFFFFFFFFFFFFFFFFFFFFFFFFFFFFLLLL
6233536151152553153254431413436426313164
LFFFFFFFFFFFFFFFFFFFFFFFFFFFFFFFFFFFFFFF
6626626624666434314526346662646662164356
LLLLLLLLLLLLLFFFFFFFFFFLLLLLLLLLLFFFFFFF
2534343545614432561144464251666666666653
FFFFFFFFFFFFFFFFFFFFFFFFFFFFLLLLLLLLLLLF
4614661234342456153613626663666343434211
LLFFLLFFFFFFFFFFFFFFFFFFLLLLLLLFFFFFFFFF
6662133124134416336633124652153163456266
LLFFFFFFFFFFFFFFFFFFFFFFFFFFFFLFFFFLLLLL
1442364664632513551356615424421166416666
FFFFFFFLFFFFFFFFFFFFFFFFFFFFFFFLLLLLLLLL
4414316466356666666645512235136666664356
FFFFFLLFLLLLLLLLLFFFFFFFFFFFFFLLLLLLFFFF
5666164234514116323653536112636531323344
LLLLLLFFFFFFFFFFFFFFFFFFFFFFFFFFFFFFFFFF
6652364424144523555225356515554133666646
LLFFFFFFFFFFFFFFFFFFFFFFFFFFFFFFFFLLLLLL
1666313521161164366111416435332222214545
FFLLLFFFFFFFFFFFFFFFFFFFLFFFFFFFFFFFFFFF
2334112256665243261155114365216544631521
FFFFFFFFFLLLLFFFFFFFFFFFFFFFFFFFFFFFFFFF
3631356664421156666556666664356666155544
FFFFFFFFFFFFFFFFLLLLLLLLLLLFFFFLLLFFFFFF
4512151614651343555512524665651112466661
FFFFFFFFFFFFFFFFFFFFFFFFFFFFFFFFFFFLLLLL
6144114311115623364622666666616656166236
FFFFFFFFFFFFFFFFFFFFFFFLLLLLLLLFFFFFFFLL
1333162232666462233135212245163566565144
FFFFFFFFFFLLLLLFFFFFFFFFFFFFFFFFFLFFFFFF
4451555643144455545256513445224512213256
FFFFFFFFFFFFFFFFFFFFFFFFFFFFFFFFFFFFFFFF
6613666666666626323456644423235545414345
LLLLLLLLLLLLLLFLFFFFFFFFFFFFFFFFFFFFFFFF
5152613144134666666413612666666666666666
FFFFFFFFFFFFFFFFFFFFFFFFLLLLLLLLLLLLLLLL
6634522162425425532154666566656626636535
LLFFFFFFFFFFFFFFFFFFFFLLLLLLLLLLLLLFFFFF
2256326425141256664164623611164635554654
FFFFFFFFFFFFFFFFFFFFFFFFFFFFFFLLFFFFFFFF
5436455326612434516262254326314563415651
FFFFFFFFFFFFFFFFFFFFFFFFFFFFFFFFFFFFFFFF
6666562666666622616665662335641246515456
LLLLLLLLLLLLLLLLLLLLLFFFFFFFFFFFFFFFFFFF
3666666636166556636461466466156666666526
FLLLLLLLLLLLLLLLLFFFFFFLLLLLLLLLLLLLLLLL
5325325235113531616242326144124355326325
FFFFFFFFFFFFFFFFFFFFFFFFFFFFFFFFFFFFFFFF
6663666666616454165342453243625112466666
LLLLLLLLLLLFFFFFFFFFFFFFFFFFFFFFFLLLLLLL
2663666526666351414364235231654441464644
LLLLLLLLLLLLLFFFFFFFFFFFFFFFFFFFFFFFFFFF
4362664436164211626146456522116156666626
FFLFFLFFFFFFFFFFFFFFFFFFFFFFFFLFFLLLLLLL
5411231666656651453442442611335525561223
FFFFFFFFLLLFLLFFFFFFFFFFFFFFFFFFFFFFFFFF
2263646566666666615244646653235542241431
FFLLLLLLLLLLLLLLLFFFFFFLLLLFFFFFFFFFFFFF
6252332341415211163252354412435226426166
LFFFFFFFFFFFFFFFFFFFFFFFFFFFFFFFFLLFLLLL
6323525456666663662662664666166666666666
LFFFFFFLLLLLLLLLLLLLLLLLLLLLLLLLLLLLLLLL
6165416135614341564315314146666616635661
FLFFFFFFFFFFFFFFFFFFFFFFFFFLLLLLLLLLLLLL
1655531635124366666666526513354513565666
FFFFFFFFFFFFFLLLLLLLLLFFFFFFFFFFFFFLLLLL
3166666321666245565126462543615645546313
FFFFLLLFFFLFFFFFFFFFFFFFFFFFFFFFFFFFFFFF
6656665666266666636512331552314611355424
LLLLLLLLLLLLLLLLLLLLFFFFFFFFFFFFFFFFFFFF
3666665666651636666616666363314236666666
FLLLLLLLLLLLLLLLLLLLLLLLLLLFFFFFFLLLLLLL
4665142466624535313666665645452343523213
FFFFFFFFLLFFFFFFFFLLLLLLLLFFFFFFFFFFFFFF
6516324665255114666164616662516631533112
LFFFFFFLFFFFFFFLLLLLLLLLLLLFFFFFFFFFFFFF
6635462332562634645223114263515355115366
FFFFFFFFFFFFFFFFFFFFFFFFFFFFFFFFFFFFFFFF
1134515345623351334134413536621231462513
FFFFFFFFFFFFFFFFFFFFFFFFFFFFFFFFFFFFFFFF
2151565524352162353255645633651563552455
FFFFFFFFFFFFFFFFFFFFFFFFFFFFFFFFFFFFFFFF
5666666641526461126254446314113223263666
FLLLLLLLFFFFFFFFFFFFFFFFFFFFFFFFFFFFFLLL
6666666443645616611556526255663346266615
LLLLLLLLLFFFFFFFFFFFFFFFFFFFFFFFFFFLLLFF
5625636235642643152433545462131214464564
FFFFFFFFFFFFFFFFFFFFFFFFFFFFFFFFFFFFFFFF
1666632244655316633666666642452615152451
FLLFFFFFFFFFFFFFFFFLLLLLLLLFFFFFFFFFFFFF
6664234324462565256512121622265464653452
LLFFFFFFFFFFFFFFFFFFFFFFFFFFFFFFFFFFFFFF
4316443563622454655616345661434643243632
FFFFFFFFFFFFFFFFFFFFFFFFFFFFFFFFFFFFFFFF
3453663466666666664666666646654622442463
LFFLLLLLLLLLLLLLLLLLLLLLLLLLLFFFFFFFFFLL
1236466266662666666666166666655266636661
FFFLLLLLLLLLLLLLLLLLLLLLLLLLLLLLLLLLLFFF
4626626351163566254422666666651666646311
LFFLLLLFFFFFFFFFFFFFFFLLLLLLLLLLLLLFFFFF
2526234325111415666643332334353413311523
FFFFFFFFFFFFFFFFLLLLFFFFFFFFFFFFFFFFFFFF
6666666665663426366333334144355424546435
LLLLLLLLLLLLFFFFFFFFFFFFFFFFFFFFFFFFFFFF
1152626346366664664666636643466666666626
FFFFFFFFFLLLLLLLLLLLLLLLLLLLLLLLLLLLLLLL
6556364536666666666666666626466615464246
FFFFFLLLLLLLLLLLLLLLLLLLLLLLLLLLFLFFFFFF
3356243546244364311554465216666666366266
FFFFFFFFFFFFFFFFFFFFFFFLLLLLLLLLLLLLLLLL
1216465613332455244655214166646536321626
FFFFFFFFFFFFFFFFFFFFFFFFFLLLLLLFFFFFFFFF
5521116615113312362232151266626633446566
FFFFFFFFFFFFFFFFFFFFFFFFFFFFFFFFFFFFLLLL
6661654232621626126663211232312224666666
LLLLLFFFFFFFFFFFFFFFFFFFFFFFFFFFLLLLLLLL
6614516666666366664322535466266666166666
LLFFFFLLLLLLLLLLLLFFFFFFFFLLLLLLLLLLLLLL
3626325236666642311666266262612222662254
FFFFFFFFFFFFLLFFFFFLLLLLLFFFFFFFFFLLFFFF
2155466366666664666622666666266615666626
FFFFFLLLLLLLLLLLLLLLLFLLLLLLFLLLLLLLLLLL
3666666214661214556666666666616152561632
FLLLLLLFFFFFFFFFFLLLLLLLLLLLLLLFFFFFFFFF
1636124462622323165142645262131315161213
FFFFFFFFFFFFFFFFFFFFFFFFFFFFFFFFFFFFFFFF
4516532325655336216516232112231226166366
FFFFFFFFFFLFFFFFFFFFFFFFFFFFFFFFFFFLLLLL
6662426266116264663415422634146164664652
LLFFFFFFFFLLLLLFFFFFFFFFFFFFFFFFFFFFFFFF
2465232236662136666666666661666661421654
FFFFFFFFFFFFFFLLLLLLLLLLLFFFLLLLFFFFFFFF
1365613266544226214443411513244136662342
FFFFFFFFFFFFFFFFFFFFFFFFFFFFFFFFFFFFFFFF
6164666151624116643141644466666414623453
LLLFFFFFFFFFFFFFFFFFFFFFFFFLLLLFFFFFFFFF
3666656666666646666245164666366665666666
LLLLLLLLLLLLLLLLLLLFFFFFFFFFFFLLLFLLLLLL
4133166116365534634126626644266666266666
FFFFFLLFFFFFFFFFFFFFFFFFFFFFFLLLLLLLLLLL
3666453344566666156223351123256362343462
LLLLFFFFFFFLLLLFFFFFFFFFFFFFFFFFFFFFFFFF
5611224513554413126666666664663642355245
FFFFFFFFFFFFFFFFFLLLLLLLLLLFFFFFFFFFFFFF
6666264311331464355462241235352134451142
LLLLFFFFFFFFFFLFFFFFFFFFFFFFFFFFFFFFFFFF
4116265662643531536622644351243132432214
FFFFFFFFLFFFFFFFFFFFFFFFFFFFFFFFFFFFFFFF
4233665636666664223156326663336155665466
FFFFLLLLLLLLLLFFFFFFFFFFFFFFFFFFFFFFFFFF
2146431323146333465433126666663453336316
FFFFFFFFFFFFFFFFFFFFFFFLLLLLLFFFFFFFFFFF
1452334431232135425544546622332442536344
FFFFFFFFFFFFFFFFFFFFFFFFFFFFFFFFFFFFFFFF
1464666631615666666666666612446621214231
FFFFFFLLLLLFFFLLLLLLLLLLLLFFFFFFFFFFFFFF
4263325153464262541246211422521222461461
FFFFFFFFFFFFFFFFFFFFFFFFFFFFFFFFFFFFFFFF
3535435356166666166662166666666366116662
FFFFFFFFFFLLLLLLLLLLLLLLLLLLLLLLLLLLLLLF
1462426431551651215652223646641521641636
FFFFFFFFFFFFFFFFFFFFFFFFFFFFLFFFFFFFFFFL
2666666665531416636626126666661166666666
FLLLLLLLLLFFFFLLLLLLLLLLLLLLLLLLLLLLLLLL
1466323143554653322533323666316544516542
FFFFFFFFFFFFFFFFFFFFFFFFFLLLFFFFFFFFFFFF
5143626166461134451253645114266666666663
LLLLLLLLLLFFFFFFFFFFFFFFFFFFFLLLLLLLLLLL
6333255243145525542224263426343321115145
FFFFFFFFFFFFFFFFFFFFFFFFFFFFFFFFFFFFFFFF
4666564616666661666666545416654226621661
LLLLLLLLLLLLLLLLLLLLLLFFFFFFFFFFFFFFFFFF
5646623114646442264432335162431513526251
FFFFFFFFFFFFFFFFFLFFFFFFFFFFFFFFFFFFFFFF
6666666666126663666664665626662666666663
LLLLLLLLLLLLLLLLLLLLLLLLLLLLLLLLLLLLLLLF
