666666666666563116546654546666
LLLLLLLLLLLLFFFFFFFFFFFFFFLLLL
666666566541245466666463616451
LLLLLLLLLFFFFFFFLLLLLFFFFFFFFF
642121534256221656662666124166
FFFFFFFFFFFFFFFLLLLLLLLLLFFFLL
445612535243661363666266366162
FFFFFFFFFFFFFFFLLLLLLLLLLLLLLL
232121262355266666665165463412
FFFFFFFFFFFFFLLLLLLLFFFFFFFFFF
452626211163443554244333666666
FFFFFFFFFFFFFFFFFFFFFFFLLLLLLL
122366166233153431353462666666
FFFFLLLLLFFFFFFFFFFFFFFFFLLLLL
666646513546656631542242623512
LLLLFFFFFFFFFFFFFFFFFFFFFFFFFL
256353665665645545432523535451
FFFFFFLLLLLLFFFFFFFFFFFFFFFFFF
123655666615514544316155343162
FFFLLLLLLLFFFFFFFFFFFFFFFFFFFF
321133232252533224256466666314
FFFFFFFFFFFFFFFFFFFFFLLLLLLLFF
455266366665646141555455535624
FFFFFFFLLLLLLLLFFFFFFFFFFFFFFF
666366256166532462225521636662
LLLLLLFFLFFFFFFFFFFFFFFFFFFFFF
165355123432236646616166651626
FFFFFFFFFFFFFFLLLLLLLLLLLLLLLL
342656636642622541524666466666
FFFFLLLLLLFFFFFFFFFFLLLLLLLLLL
334126666666666666566635126666
FFFFFLLLLLLLLLLLLLLLLLFFFFLLLL
665666666666666666666116666663
LLLLLLLLLLLLLLLLLLLLLLLLLLLLLL
126661312453126641346446534212
FFFLFFFFFFFFFFFFFFFFFFFFFFFFFF
666666426221623535614655542266
LLLLLLFFFFFFFFFFFFFFFFFFFFFFFF
333111666626624546515544666666
FFFFFFFFLFFFFFFFFFFFFFFFLLLLLL
652431666665666624166666666666
FFFFFFLLLLLLLLLLLFLLLLLLLLLLLL
614214231546565445264212666466
FFFFFFFFFFFFFFFFFFFFFFFLLLLLLL
666146561425351666132611531223
LLLFFLLLFFFFFFFLLLLFFFFFFFFFFF
345132634211632132561666112466
FFFFFFFFFFFFFFFFFFFFFLLLFFFFLL
546656666122346166664326666666
FFLLLLLLLFFFFFFFFLLLLLFLLLLLLL
544621536666366666535356553656
FFFFFFFFLLLLLLLLLLLFFFFFFFFFFF
141365325326111363316611333666
FFFFFFFFFFFLFFFFFFFFFFFFFFFLLL
341263331654123145531335126233
FFFFFFFFFFFFFFFFFFFFFFFFFFFFFF
666633561436366665666666662613
LLLLLLLLLLLLLLLLLLLLLLLLLLFFFF
661666666666623434162344334666
LLLLLLLLLLLLLFFFFFFFFFFFFFFFLL
336154321666666466666636666616
FFFFFFFFFLLLLLLLLLLLLLLLLLLLLL
146616663666265642246534531622
FFLLLLLLLLLLLLLLLFFFFFFFFFFFFF
112123464321415163325652112214
FFFFFFFFFFFFFFFFFFFFFFFFFFFFFF
342411546545523166352311326366
FFFFFFFFFFFFFFFFFFFFFFFFFFLLLL
235314665666666524222656251325
FFFFFFLLLLLLLLLFFFFFFFFFFFFFFF
165245524362326566266662266666
FFFFFFFFFFFFFFFFLLLLLLLLLLLLLL
231513664646666166622644464322
FFFFFFFFFFFFLLLLLLLFFFFFFFFFFF
311352311614224435613344254536
FFFFFFFFFFFFFFFFFFFFFFFFFFFFFF
321332432361612356526666666643
FFFFFFFFFFLLLFFFFLFFFFLLLLLLFF
666662666636166666666666461366
LLLLLLLLLLLLLLLLLLLLLLLLLLLLLL
453446526146666226226626666666
FFFFFFFFLLLLLLLFFFFFLLLLLLLLLL
666465566614434655353544614314
LLLLLLLLLFFFFFFFFFFFFFFFFFFFFF
615536231661666666566666636665
FFFFFLFFFLLLLLLLLLLLLLLLLLLLLL
133425166666634346116636351135
FFFFFFFLLLLLLFFFFFFFFFFFFFFFFF
664311654444212516336666163666
FFFFFFFFFFFFFFFFFFFFLLLLLLLLLL
656551666666662666666166435142
FFFFFFLLLFLLLLLLLLLLLLLLFFFFFF
513662654522336133325136123362
FFFFFFFFFFFFFFFFFFFFFFFFFFFFFF
435461652212566326666662636466
FFFFFFFFFFFFFLLLLLLLLLLLLLLLLL
666646664666545443563433544215
LLLLLLLLLLLFFFFFFFFFFFFFFFFFFF
264415325554122454262662651651
FFFFFFFFFFFFFFFFFFFLFFFFFFFFFF
666335421666566666662165341562
LLLFFFFFFFFLLLLLLLLLLLFFFFFFFF
511642431146516516136255552654
FFFLFFFFFFFFFFLFFFFFFFFFFFFFFF
152451112126531551123365535532
FFFFFFFFFFFFFFFFFFFFFFFFFFFFFF
446656645331432126313655466166
FFFLLLLFFFFFFFFFFFFFFFFFFFFFFF
656666666266161625646364535334
LLLLLLLLLLLLLLFFFFFFFFFFFFFFFF
242516542112622526626612513456
FFFFFFFFFFFFFFFFFFLLLLFFFFFFFF
251141442452165566265513336251
FFFFFFFFFFFFFFFFLLLLFFFFFFFFFF
662466644426366662466666656165
LLLLLLLFFFFFFLLLLLLLLLLLLLLLLL
666666666636663666645656146556
LLLLLLLLLLLLLLLLLLLLLLLLFFFFFF
666642664434351533551143115231
LLLLLLLLFFFFFFFFFFFFFFFFFFFFFF
341154362656322213122466336566
FFFFFFFFFFFFFFFFFFFFFFLLLLLLLL
151626616124666551455624252666
FFFFFLLFFFFFLLLFFFFFFFFFFFFLLL
411221552241243624534466636466
FFFFFFFFFFFFFFFFFFFFFFLLLLLFLL
146266616666666254146353552522
FFLLLLLLLLLLLLLFFFFFFFFFFFFFFF
256666526666626113535166626664
FFLLLLLLLLLLFFFFFFFFFFLLLLLLLL
145512454311525264115633332366
FFFFFFFFFFFFFFFFFFFFFFFFFFFFFF
166663233112331416662266112444
FLLLFFFFFFFFFFFFFFLLLLLLFFFFFF
351122456666665626666663666324
FFFFFFFFFFLLLLLLLLLLLLLLLLLLFF
524542126666666445666666663416
FFFFFFLLLLLLLLLLFFLLLLLLLLLFFL
256232143566666626464165541255
FFFFFFFFFFLLLLLLFLLLFFFFFFFFFF
666666661666663466666636426666
LLLLLLLLLLLLLLLLLLLLLLLLLLLLLL
214214666632654162643542645356
FFFFFFLLLLFFFFFFFFFFFFFFFFFFFF
326661626662146663666666566166
FFLLLLLLLLLFFFFLLLLLLLLLLLLLLL
166366215366424135336656616666
FLLLLLFFFFFFFFFFFFFLLLLLLLLLLL
666666634664262142515546351456
LLLLLLLFFFFFFFFFFFFFFFFFFFFFFF
312656545513643413334156615626
FFFLFFFFFFFFFFFFFFFFFFFFFLLLLL
121264222121151566666666666666
FFFFFFFFFFFFFFLLLLLLLLLLLLLLLL
263165426354646515664422435116
FFFFFFFFFFFFFFFFFFFFFFFFFFFFFF
316616666666666625526646266666
FFLLLLLLLLLLLLLLLLFFLLLLLLLLLL
254325615643513633561242433446
FFFFFFFFFFFFFFFFFFFFFFFFFFFFFL
666666664343236455536226663233
LLLLLLLLFFFFFFFFFFFFFFFFLFFFFF
344232321363455561546666651266
FFFFFFFFFFFFFFFFFFLLLLLLLLLLLL
561416163324355533262512222553
FLLLLLFFFFFFFFFFFFFFFFFFFFFFFF
666664646666666665663266262666
LLLLLLLLLLLLLLLLLLLLLLLLLLLLFF
613121651256665363532631366462
FFFFFFLLFFFLLLFFFFFFFFFFFFFFLL
666666626224566666666662656666
LLLLLLLFFFFFFFLLLLLLLLLLLLLLLL
616466354552362131666362131562
FFFLLLFFFFFFFLFFFLLLLLLFFFFFFF
661525321446166166663662666631
FFFFFFFFFFFFFFFFLLLLLLLLLLLLLF
666363432666613656216666666644
FFFFFFFFFFFFFFLLLLLLLFLLLLLLLL
166525632144413633545155116263
LLLFFFFFFFFFFFFFFLLLFFFFFLLLLL
666663666651545335462261546314
LLLLLLLLLLFFFFFFFFFFFFFFFFFFFF
125432466666336166666666663666
FFFFFFFFLLLLLLLLLLLLLLLLLLLLLL
663664666665666435555266666666
LLLLLLLLLLLLLLLFFFFFFFFFLLLLLL
344366666666661665436666142226
FFFLLLLLLLLLLLLLLLLLLLLLFFFFFL
312544633143111243564125121211
FFFFFFFFFFFFFFFFFFFFFFFFFFFFFF
423461666666634163666366616624
FFFFLLLLLLFLLFFFFFLLLLLLLLLLFF
131121466126626666656665665646
FFFFFFFFFFLLLLLLLLLLLLLLLLLLFF
563322322331265223316364352346
LLFFFFFFFFFFFFFFFFFFLFFFFFFFFF
662242666646613122254144466641
LLFFFFLLLLLLLFFFFFFFFFFFFFFFFF
436441623165111242436656236626
FFFFFFLLFFFFFFFFFFFFLLLLLLLLLL
644443125554642645445245266444
FFFFFFFFFFFFFFFLFFFFFFFFFFFFFF
462654621356666666664616666616
FLLLFFFFFLLLLLLLLLLLLLLLLLLLLL
153342554141415525414466316546
FFFFFFFFFFFFFFFFFFFFFFLLFFFFFL
164526666115661252266362156526
FFFFFLLLLLFFFFFFFFFFFFFFFFFFFL
666666666666266656366664666166
LLLLLLLLLLLLLLLLLLLLLLLLLLLLLL
566524665113215466163646465663
LFFFFFFLFFFFFFFLLLLLLLLLFFFFFF
556141264431362123356666566656
FFFFFFFFFFFFFFFFFFFFLLLLLLLLLL
254644662315445366541665652456
FFFFFFFFFFFFFFFFFFFFFFFFFFFFFF
435253115661646124416441645666
FFFFFFFFLLLFFFFFFFFFFFFFFFFLLL
453455645162642266362516663612
FFFFFFFFFFFFFFFFFLLLFFFLLLFFFF
533661146416643412236165533665
FFFLLFFFFFFFFFFFFFFFFFFFFFFFFF
565611424541256145233345663626
FFFFFFFFFFFFFFFFFFFFFFFFLLFFFF
225513511465355454466663666662
FFFFFFFFFFFFFFFFFFFFFLLLLLLLLL
223222441125666165666562666666
FFFFFFFFFFFFLLLLLLLLLLLLLLLLLL
626334522522635526126611545514
FFFFFFFFFFFFFFFFFFFFFFFFFFFFFF
466666636666636666452454222343
LLLLLLLLLLLLLLLLLLLFFFFFFFFFFF
625556163125631152426151442355
FFFFLLLLFFFFFFFFFFFFFFFFFFFFFF
313622336663666612546331634163
FFFFFFFFFLLLLLLFFFFFFFFFFFFLLL
566544531616625146141336513446
FFFFFFFFFFFFFFFFFFFFFFFFFFFFFF
166322666566645545233512663665
LLLLFFFLLLLLLFFFFFFFFFFFFFFLLL
461135156616666664213653235622
FFFFFFFFLLLLLLLLLFFFFFFFFFFFFF
431366666666622122666662453145
FFFFLLLLLLLFFFFFFFLLLLLFFFFFFF
141133511126466662623156466652
FFFFFFFFFFLLLLLLFFFFFFFFFFFFFF
623411542665526541435625114165
FFFFFFFFFFFFFFFFFFFFFFFFFFFFFF
646126666166314342614441666266
FFFFFLLLLLLLFFFFFFFFFFFFFFFLLL
311362464112453564141521665666
FFFFFFFFFFFFFFFFFFFFFFFFLLLLLL
466562656666532635365253666461
FLLLLLLLLLLLLLLLFFFFFFFFLLLLLL
533411133336131356346315666666
FFFFFFFFFFFFFFFFFFFFFFFFLLLLLL
633666664415663336434132546446
LLLLLLLLFFFFFFFFFFFFFFFFFFLLLL
651224335411555356164333513423
LFFFFFFFFFFFFFFFFFFLFFFFFFFFFF
321666364666465226654653641414
FFFFLLLLLLLLLLLLLLLFFFFFFFFFFF
235154564355343563621434424533
FFFFFFFFFFFFFFFFFFFFFFFFFFFFFF
411336666656266666166644622134
FFFLLLLLLLLLLLLLLLLLLFFFFFFFFF
666664646664656666666666666666
LLLLLFFFLLLLLFLLLLLLLLLLLLLLLL
666616616665134434362414436324
LLLLLLLLLLLFFFFFFFFFFFFFFFFFFF
421256513645124121121135331611
FFFFFFFFFFFFFFFFFFFFFFFFFFFFFF
422455126163323212654451432211
FFFFFFFFFFFFFFFFFFFFFFFFFFFFFF
163412626666665223252242325166
FFFFFFLLLLLLLFFFFFFFFFFFFFFFFF
666361523536316664564322135132
LLLLLFFFFFFFLLLLLFFFFFFFFFFFFF
166666444566211631312132653121
FLLLLFFFFFFFFFFFFFFFFFFFFFFFFF
664226666646666363653632625216
FFFLLLLLLLLLLLLFFFFFFFFFFFFFFF
414466666646642356466626666636
FFFFLLLLLLFFFFFFFFFLLLLLLLLLLL
311612413262225226623516213446
FFFFFFFFFFFFFFFFFLLFFFFFFFFFFF
255536666636252525241266662323
LLFFFLLLLLLFFFFFFFFFFFLLLLFFFF
466666666666666666665564631626
LLLLLLLLLLLLLLLLLLLLFFFFFLLLLL
443315132622524424362326112146
FFFFFFFFFFFFFFFFFFFFFFFFFFFFFF
355322645433441666666623113265
FFFFFFFFFFFFFFFLLLLLLFFFFFFFFF
443243531441653216365326226246
FFFFFFFFFFFFFFFFFLLLFFFFFFFFFL
666663416541655446613323336616
LLLLLLFFFFFFFFFFLLLLFFFFFFLLLL
666661115566641326121251666451
LLLLLFFFFFFFFFFFFFFFFFFFFFFFFF
466425514466623645466431126522
FLLFFFFFFFFFFFFFFFFFFFFFFFFFFF
336636463241524212251316666636
FFFFFFFFFFFFFFFFFFFFFFFLLLLLLL
666666666626536666235666316652
LLLLLLLLLLLLLLLLLFFFFLLLLLLLLF
346616626666666626266663654445
FFLLLLLLLLLLLLLLLLLLLLLFFFFFFF
542531665251561656166466646663
FFFFFFLLFFFFFFFFFFFFFFLLLLLLLL
666666666666666366666662241236
LLLLLLLLLLLLLLLLLLLLLLLFFFFFFF
426616664256455245153234322253
FFLLLLLLLLFFFFFFFFFFFFFFFFFFFF
513515236442665414243445366225
FFFFFFFFFFFFFFFFFFFFFFFFFLLFFF
145513454543351461615616326214
FFFFFFFFFFFFFFFFFFFFFFFFFFFFFF
334661665666266651334231554162
FFFLLLLLLLLLLLLFFFFFFFFFFFFFFF
435331634666666563132421163224
FFFFFFFFLLLLLLLLLFFFFFFFFFFFFF
225162411444222451232462344422
FFFFFFFFFFFFFFFFFFFFFFFFFFFFFF
615624232514666365153465244264
FFFFFFFFFFFFFLLLLLFFFFFFFFFFFF
635443164526166616544346144153
FFFFFFFFFFFLLLLLLFFFFFFFFFFFFF
643351415663422112554111616421
FFFFFFFFFFFFFFFFFFFFFFFFFFFFFF
665141116262364332263653613225
LLFFFFFFFFFFFFFFFFFFFFFFFFFFFF
663656666666666626666666666616
LLLLLLLLLLLLLLLLLLLLLLLLLLLLLL
245245224665345113165645236263
FFFFFFFFFFFFFFFFFFFFFFFFFFLLLF
455244334122533124562362662552
FFFFFFFFFFFFFFFFFFFFFFFFFFFFFF
626666666366366666665636161242
LLLLLLLLLLLLLLLLLLLLLLFFFFFFFF
543616211136664622142366225464
FFFLLLFFFFFLLLFFFFFFFLLLLFFFFF
153665432321412146241251513364
FFFLLFFFFFFFFFFFFFFFFFFFFFFFFF
663356153663666612155661166265
LLFFFFFFFLLLLLLLFFFFFFFFFFFFFF
462623636465666466666651151232
FFFFFFFLLLLLLLLLLLLLLLFFFFFFFF
542126422326666662245546666666
FFFFFFFFFFFFLLLLLFFFFFFLLLLLLL
654355666522252531166333246262
FFFFFFFFFFFFFFFFFFFFFFFFFFFFFF
636646261351634444513516644511
LLLLFFFFFFFFFFFFFFFFFFFFFFFFFF
311564213666324142631422421666
FFFFFFFFLLLLFFFFFFFFFFFFFFFLLL
666266642613666552564232521221
LLLLLLLFFLLLLFFFFFFFFFFFFFFFFF
666666632243466566636666666645
FLLLLLLFFFFFFFFLLLLLLLLLLLLLLL
313661451323361152466546515142
FFFFFFFFFFFFFFFFFFFFFFFFFFFFFF
111152366214346242215136666542
FFFFFFFLFFFFFFFFFFFFFFFLLFFFFF
356636666266366626661115433362
FLLLLLLLLLLLLLLLLLLLFFFFFFFFFF
666366556626662266666625136166
LFLFFLLFLLLLLFFFLLLLLLFFFFFFFF
166643666666666666636664546266
LLLLLLLLLLLLLLLLLLLLLLLLLLLLLL
432231532626265241216654144423
FFFFFFFFFFFFFFFFFFFFFFFFFFFFFF
666666566251356155161634436666
LLLLLLLFFFFFFFFFFFFFFLLLLLLLLL
632665131652611155126334554231
FFFFFFFFFFFFFFFFFFFFFFFFFFFFFF
366222363662654443636565611146
LFFFFFFLLLLLLFFFFFFFFFFFFFFFFF
524441521346634636161464234232
FFFFFFFFFFFFFFFFFFFFFFFFFFFFFF
553431623314556324164261226431
FFFFFFFFFFFFFFFFFFFFFFFFFFFFFF
666631426523142656242466366666
LLLLFFFFFFFFFFLLFFFFFLLLLLLLLL
423643463643166343624461516666
FFFFFFFFFFFFFFFFFFFFFFLLFFLLLL
133226662664656615666664153236
FFFFFLLLLLLLLLLLLLLLLLLLFFFFFF
666666616246311264542115535321
LLLLLLLLLLLLFFFFFFFFFFFFFFFFFF
611666666646616661426361526666
LLLLLLLLLLLLLLLLLFFFFFFFFFFLLL
261656666666666661166666664646
FFFFFFLLLLLLLLLLLLLLLLLLLLLLLL
553132364213412611343536243434
FFFFFFFFFFFFFFFFFFFFFFFFFFFFFF
661666662661626616345165152146
LLLLLLLLLLLLLLLLLLFFFFFFFFFFFL
434464522643522616366662666661
FFFFFFFFFLFFFFFFFFFLLLLLLLLLLL
241256516134565526153411661634
FFFFFFFFFFFFFFFFFFFFFFFLLLLFFF
452266666666663661664523664543
FFFFLLLLLLLLLLLLLLLFFFFFFFFFFF
441564626666466656154124454255
FFFFLLLLLLLLLLLLLLFFFFFFFFFFFF
521313364633633551534661666616
FFFFFFFFFFFFFFFFFFFFFLLLLLLLLL
556213441623366466666652424521
FFFFFFFFFFFFFFLLLLLLLLFFFFFFFF
665656666666436663666666666565
LLLLLLLLLLLLFFFFLLLLLLLLLLLLLF
442465641314364646665663666646
FFFFFFFFFFFFFFFFFLLLLLLLLLLLLL
626662666641666633646626665666
LLLLLLLLLLLLLLLLLLLLLLLLLLLLLL
266661666616663223244461551451
LLLFFLLLLLLLLLFFFFFFFFFFFFFFFF
263311321421536416646611545361
FFFFFFFFFFFFFFFFFLLLLLFFFFFFFF
262663641466566515644411124222
FFFFFFFFLLLLLLLFFFFFFFFFFFFFFF
155242412346554536412533532163
FFFFFFFFFFFFFFFFFFFFFFFFFFFFFF
544621422524536432126566616664
FFFFFFFFFFFFFFFFFFFFFFFLLLLLLL
242132621236314645366526661636
FFFFFFFFFFFFFFFFFFFFFFFLLLLLLL
166646666636634631254122456563
LLLLLLLLLLLLLFFFFFFFFFFFFFFFFF
531612626336241415166332465341
FFFFFFFFFFFFFFFFFFFFFFFFFFFFFF
666436666166656661214236125666
LLLLLLLLLLLLLLLLLFFFFFFFFFLLLF
436262162222265562236544235146
FFFLLLLFFFFFFFFFFFFFFFFFFFFFFL
566361466666616666666256666642
LLLLLLLLLLLLLLLLLLLLLLLLLLLLFF
166656666656666662166636666126
LLLLLLLLLLLLLLLLLLLLLLLLLLFFFL
666346125412362565666666616626
LLLFFFFFFFFFFFFFFFLLLLLLLLLLLL
534562351431263462563466364324
FFFFFFFFFFFFFFFFFFFFFFFFFFFFFF
533454666662661666662425416663
FFFFFFLLLLLLLLFLLLLLFFFFFFFFFF
266146666666613344635452121432
FFFFFLLLLLLLLFFFFFFFFFFFFFFFFF
124521311113162264161154245614
FFFFFLFFFFFFFFFFLFFFFFFFFFFFFF
245625211543453425244434266666
FFFFFFFFFFFFFFFFFFFFFFFFFFLLLL
566342523162412231133426516666
FFFFFFFFFFFFFFFFFFFFFFFLLLLLLL
326541322621551132231626225126
FFFFFFFFFFFFFFFFFFFFLLFFFFFFFF
152365311116163563322355211233
FFFFFFFFFFFFFFFFFFFFFFFFFFFFFF
131424215451124654336323166666
FFFFFFFFFFFFFFFFFFFFFFFFFLLLLL
466522511466666346435315524336
FFFFFFFFFLLLLLLFFFFFFFFFFFFFFF
613324312124341541552656133216
FFFFFFFFFFFFFFFFFFFFFFFFFFFFFF
566645252246665666164466266361
FFFFFFFFFFFFFFLLLLFFFFLLLLFFLL
141666666516666666666266426662
FFFFLLLLLLLLLLLLLLLLLLLLLLLLLL
666663456345621465146566664465
LLLLLFFFFFFFFFFFFFFLLLLLLLLLLF
564616226362466566666664616651
FFLLLLLLLLLLLLLLLLLLLLLLLLLLFF
666216666666654121555466111451
LLLLLLLLLLLLLLFFFFFFFFFFFFFFFF
666666661666641233623266666666
LLLLLLLLLLLLFFFFFFFFFFLLLLLLLF
666266362156126122235523163662
LLLLLFFFFFFFFFFFFFFFFFFFFFFFFF
542314663126232462154614463533
FFFFFFFFFFFFFFFFFFFFFFFFFFFFFF
363636661155642324315431161112
FFFFFFFFFFFFFFFFFFFFFFFFFFFFFF
366112253666241362221433366231
FFFFFFFFFFLLFFFFFFFFFFFFFFFFFF
666166361315522315324153145366
LLLLLLFFFFFFFFFFFFFFFFFFFFFFFF
216664343642454312211243232353
FFFLLFFFFFFFFFFFFFFFFFFFFFFFFF
242463664222466665666666655666
FFFFFFLLLFFFFLLLLLLLLLLLLLLLLL
646666646252624421554555556226
LLLLLLLLLFFFFFFFFFFFFFFFFFFFFF
413651231224166655126245431556
FFFFFFFFFFFFLLLLLFFFFFFFFFFFFF
456314241615424666666666566661
FFFFFFFFFFFFFFFLLLLLLLLLLLLLLL
533223425525625214262665516633
FFFFFFFFFFFFFFFFFFFFFFFFFFLLLF
233253465643316356546263666552
LFFFFFFFFFFFFFFFFFFFFFFFFFFFFF
344444355535166661432316516166
FFFFFFFFFFFFFLLLLFFFFFFFFFLLFF
426666666666666451416566262662
FFLLLLLLLLLLLLLFFFFFFFLLFFFFLF
235353461461666666616666166666
FFFFFFFFFFFFLLLLLLLLLLLLLLLLLL
566621632254111416666666665662
LLLLFFFFFFFFFFFFFLLLLLLLLLLLLL
666266666666655661136222661514
LLLLLLLLLLLLLLLLLLFFFFFFFFFFFF
663323523311234366661666665626
LLFFFFFFFFFFFFFFLLLLLLLLLLLLFL
125336516415663413265323666666
FFFFFFFFFFFFFFFFFFFFFFFFLLLLLL
425165646225453642654323554662
FFFFFFFFLFFFFFFFFFFFFFFFFFFLLF
545321314624346266226666663626
FFFFFFFFFFFFFFFFLLFFLLLLLLLLLL
321152321136212621416356113123
FFFFFFFFFFFFFFFFFFFFFFFFFFFFFF
545656214212144266666315255364
FFFFFFFFFFFFFFFLLLLFFFFFFFFFFF
622664641151152344466365325335
FFFLLFFFFFFFFFFFFFFFFFFFFFFFFF
355464535215534363636655431115
FFFFFFFFFFFFFFFFFFFFFFFFFFFFFF
535322266666666666662145341432
FFFFFFFLLLLLLLLLLLLLLLFFFFFFFF
416131614536331265154154533662
FFFFFFFFFFFFFFFFFFFFFFFFFFFLLL
241331524352422126666666666563
FFFFFFFFFFFFFFFFFFLLLLLLLLLLLL
262224225341555155544164524666
LLFFFFFFFFFFFFFFFFFFFFFFFFLLLL
511523323512111666666466665666
FFFFFLFFFFFFFFFLLLLLLLLLLLLLLL
646666441321143332666656632666
FFLLLLFFFFFFFFFFFLLLLLLLLFFLLL
666442365611126666143666666466
LLLFFFFFFFFFFFLLLLFFLLLLLLLLLL
666666666662662636643122466634
LLLLLLLLLLLLLLLLFFFFFFFFFLLLFF
651345235324222115235531625362
LFFFFFFFFFFFFFFFFFFFFFFFFFFFFF
324666666666466666666323666166
FFFLLLLLLLLLLLLLLLLLFFFFLLLLLL
552142164415141454626362635661
FFFFFFFFFFFFFFFFFFFFFFFFFFFLLF
321366526666666636666666666612
FFFLLLFFLLLLLLLLLLLLLLLLLLLLLL
566654135646666666623656666221
LLLLFFFFFFLLLLLLLLLFFLLLLLLFFF
664661466666666246636566666663
LLLLLLLLLLLLLLLFFLLLLLLLLLLLFL
364131666666656666466222265516
FLFFFFLLLLLLLFFLLLLLLLFFFLLFFF
456665656354262131166562435251
FFLLFFFFFFFFFFFFFFFLLFFFFFFFFF
131634541665466615215656311146
FFFFFFFFFFLLLLLLFFLLLLFFFFFFFF
665623551245224355141653253415
LLLLFFFFFFFFFFFFFFFFFFFFFFFFFF
646543333411422653264531116666
LLLFFFFFFFFFFFFFFFFFFFFFFLLLLL
262125363214622456436666113334
FFFFFFFFFFFFFFFFFFFFFFFFFFFFFF
252312432231664566666616261213
FFFFFFFFFFFFFFFFLLLLLLFFFFFFFF
666312114643344452416236663661
LLLLFFFFFFFFFFFFFFFFLLFLLLFFFF
666654664646661246642422222115
LLLLLLLLLLLLLLFFFLLFFFFFFFFFFF
636656451313562325531364346512
LLLLLLFFFFFFFFFFFFFFFFFFFFFFFF
451421556562464651324543436652
FFFFFFFFLFFFFLLLFFFFFFFFFFFFFF
651666662666666266666666665666
LLLLLLLLLLLLLLLLLLLLLLLLLLLLLL
213156636136266663153666616635
FFFFFFFFFFFLLLLLLFFFFLLLLLLLFF
135521543621264113452116662662
FFFFFFFFFFFFFFFFFFFFFFFLLLLLFF
656626646666124264155261653614
LLLLLLLLLLLLFFFFFFFFFFFFFFFFFF
552136624666666616666666666663
FFFFFFLLLLLLLLLLLLLLLLLLLLLLLL
666664111143362523125445214235
LLLLFFFFFFFFFFFFFFFFFFFFFFFFFF
465556646134333464132633225522
FFFFLLLFFFFFFFFFFFFFFFFFFFFFFF
455535413435146115165266666625
FFFFFFFFFFFFFFFFFFFFFFLLLLLLFF
436532366626612164316246314215
FFFFFFFLLLLLLFFFFFFFFFFFFFFFFF
642145346615532166346366545136
FFFFFFFFFFFFFFFFFFFFFFFFFFFFFF
666646666664666661243226346251
LLLLFLLLLLLLLLLLLLLLFFFFFFFFFF
666666656665616661556166421613
LLLLLLLLLLLLLLLLFFFFFFFFFFFFFF
