444443114222232114121331424444
CCCBBBBBBBBBBBBBBBBBBBBBCCCCCC
321122111241212211214211111144
AAAAAAAAAAAAAAAAAAABBAAAAAAACC
312411141112134244423444221211
AAAAAAACAAAAACCCCCCCCCCCAAAAAA
121221122121342412144212442423
AAAAAAAAAAAAAACCAAAAAAAAAAAAAA
314322111221312443442444412144
BBBBCAAAAAAABBBCCCCCCCCCCCCCCC
322414444424412414423311234142
CCCCCCCCCCCCCAABBBBBBBBBBBBBBB
231111432111221142123311442421
BBBAAACCAAAAAABBBBBBBBBBBBBBBB
141244441112222112122211131211
ABBBCCCCCAAAAAAAAAAAAAAAAAAAAA
211241313422121232444441344444
BBBBBBBBBBBAAAACCCCCCCCCCCCCCC
114224143434144442243412213313
AAAAAABBBCCCCCCCCCCCCCAAAAABBB
141214442221121232442432114341
BBBBBBCCAAAABBBBBBBBBBBBBBBBBB
433122413211112321241222212113
BBBBBBBBBBBAAAAAAAAAAAAAAAAAAB
312224313444314124143431434414
BBBBBBBBCCCCCCCCCCCCCCCCCCCCBB
121444443442221212224342444422
AAACCCCCCCCAAAAAAACCCCCCCCCCBA
212241122144242242324123111412
AAAAAAAAAAAAABBBBBBBBBBBBBBBBB
212221221242241444444412241131
AAAAAAAAAAAAACCCCCCCCCAAAAAABB
321111224122241313211221132122
AAAAAAAAAAAAAAAAABBAAAAAAAAAAA
244212232413222224124123434143
ACCBBBBBBBAAAAAAAAAACCCCCCCACC
221121411211122122223111234312
AAAAAAAAAAAAAAAAAAAAAACBBBBBBB
324224334323243444434442244244
BBBBBBBBBBBBBCCCCCBBBBBBBBBBCC
211214112111221111111221431222
AAAAAAAAAAAAAAAAAAAAAAAABBAAAA
112421131222111111414133414443
AAAAAAABAAAAAAAAAABBCBBBBBBBBB
121213442443431332424334422431
AAAAACCCCCCCCBBBBBCCBBCCCAAAAA
134112121221212212221222324444
AAAAAAAAAAAAAAAAAAAAAAACCCCCCC
221212244441441411132144444344
AAAAAAAACCCAAAAAAAACCCCCCCCCCC
144443312334342421431242213122
ACCCCBBBBBBBBBBBBBBBBBBBBBAAAA
111442444444344134414442442421
AACCCACCCCCCCCCCCCCCCCCCCCCCAA
221211111242224423433324314131
AAAAAAAAABBBBBBBBBBBBBBBBBBBBB
122143414123111122221142333442
AABBBBCCCAAAAAAAAAAAAACABBBBBB
131332144234444423441444142414
AAAAAAACCCCCCCCCCCCCCCCCCCCCCC
221211213144312222142114444122
AAAAABBBBBBBBAAAABBBBBBBBCCAAA
221112222123434421212214321111
AAAAAAAAAABBBBBBBAAAAAAAAAAAAA
221432211143211112212221124431
AAAAAAAAACCCAAAAAAAAAAAAAACCCA
121121221224344444324441314341
AAAAAAAAAAACCCCCCCCCCCCCCCCCBA
141123121334331313122444133444
BCAAAAAAAABBBBBBBBAACCCCCCCCCC
241222111144441221122212221211
AAAAAAAAAACCCCAAAAAAAAAAAAAAAA
112113324332332412342241432431
AAAAABBBBBBBBBBBBBBBBBBBBBBBBB
144332333123241323131122334431
BBBBBBBBBBBBBBBBBBBBBBBBBBBBBB
114144243132123332233444143344
BBBBBBBBBBBBBBBBBBBCCCCBCCCCCC
443141234141132242141112112123
BBBBBBBBBBBBBBBBBBBBAAAAAAAAAA
121144444144444444444144144422
AAAACCCCCCCCCCCCCCCCCCCCBBBBBB
113244131312144111411121234444
BBBBBBBBBBBBBBBBBBCAAAAAACCCCC
142334334414134221144312222134
AABBBBBBBBBBBBBBBBBBBBBAAAAABB
114332314244442421231311134442
BBBBBBBBCCCCCCCCAABBBBBBBBBBBB
124241232212412144212111122422
ABBBBBBBBBBBBBBBBBAAAAAAAAAAAA
341441242241221122211134344441
BCCCCCCCAAAAAAAAAAAAAABBBCCCCC
122124221211421124124442444444
AAAAAAAAAAAAAACCCCCCCCCCCCCCCC
222121112444334444441212221221
AAAAACCCCCCCCCCCCCCCCCAAAAAAAA
111444444144444442134434434444
AAACCCCCCCCCCCCCCCCCCCCCCCCCCC
434222212111221131114444124444
BBBBBAAAAAAAAAAAAAAACCCCAACCCC
211122434131321444344132311142
AAAAAABBBBBBBBBCCCCCCCCCCCAACC
221123433243233431431324331213
AAAAABBBBBBBBBBBBBBBBBBBBBBBBB
221122112221221211211222112221
AAAAAAAAAAAAAAAAAAAAAAAAAAAAAA
312211132244114444441324444442
AAAAAAAAAAACAACCCCCCABCCCCCCCA
144241431444243234414141331344
CCCCCBBBBBBBBBBBBBBBBBBBBBBCCC
222233414231321414413444434442
ABBBBBBBBAAABBBBBCCBBCCCCCCCCC
314341422424344414442344444414
AACCCCCCCCCCCCCCCCCCCCCCCCCCCC
211111221122212122211121312111
AAAAAAAAAAAAAAAAAAAAAAAAAAAAAA
113123321132214144244314422333
AAAAAAAAAAAAAABBBBBBBBBBBBBBBB
124311313222432442244111221443
AAAAAAAAAAAABBBBBBBBBBBBBBBBBB
214121142412111123122133222121
AABBBBBBBBBBBAAAAAAABBBBAAAAAA
441111111444412212321122232121
BBAAAAAAACCCCAAAAAAAAAAAAAAAAA
442112121321114441344441444411
CCAAAAAAAAABBBCCCCCCCCCCCCCCCC
212422212121112334211434424411
AAACCAAAAABBBBBBBBBBBBBBBBBBBB
221241111221313442123212112444
AAAAAAAAAABBBBBBBBBBBBBBAAACCC
344234411444443142324343424114
BBBBBBBBBBCCCCCCCCCCCBBBBBBBBB
233411214123243433341133211111
BBBBBBBBBBBBBBBBBBBBBBBBBBBAAA
321134311241212132323331132234
BBBBBBBBBBCCBBBBBBBBBBBBBBBACC
221312221244441442223323411223
AAAAAAAAAACCCBBBBBBBBBAAAAAAAA
431114224441143414442143444444
AAAAACCCCCCCCCCCCCCCCACCCCCCCC
121222124142314344411334444421
AAAAAAAAAACCCCCCCCCCCCCCCCCCAA
122414231412241334112141444424
AABBABBBBBBBBBBBBBBBCCCCCCCCCC
344444444444444442443121213234
BBCCCCCCCCCCCCCCCCCCCCBBBBBBBB
212312141122411232241111141132
AAAAAAABBBBBBBBBBBBBBBAAABBBBB
421212231112321212112142222221
CAAAAAAAAAAAAAAAAAAAAAAAAAAAAA
424211221444241111212221212121
AAAABBBBCCCCCCAAAAAAAAAAAAAAAA
111244444134244443243444222411
AAACCCCCCCCCCCCCCCCCCCCCBBBBBB
122234344443444444411232133133
AAAAACCCCCCCCCCCCBBBBBBBBBBBBB
122312312112122222212232142122
AAAAAAAAAAAAAAAAAAAAAAAAAAAAAB
112111222212123122212132441444
AAAAAAAAAAAAAAAAAAAAAABBBBBCCC
314223312444141444444443214431
BBBBBBBBCCCCCCCCCCCCCCCCCCCCAA
443144444444344444441221442444
CCCCCCCCCCCCCCCCCCCCAAAACCCCCC
121443144441143444412142221212
AAACCCCCCCCCCCCCCCAAAAAAAAAAAA
122122224333424142144231311311
AAAAAAAACBBBBBBBBBBBBBBBBBBBBB
444444414442443444444444442212
CCCCCCCCCCCCCCCCCCCCCCCCCCBBBB
111211222213114444243444444444
AAAAAAAAAAABBAACCCCCCCCCCCCCCC
111211322212413331222311212212
AAAAAABBBBBBBBBBBBBBBBAAAAAAAA
222112142241444213444341344112
AAAAAAAAAAACCCCBBBBBBBBBBBAAAA
432121142442134121432132211122
BBBBBCCCCCCBBBBBBBBAAAAAAAAAAA
134424411444314441233424342442
ACCCCCCCCCCCCCCCCCCBBBBBBBBBBB
112212121224244444444442444444
AAAAAAAAAAACCCCCCCCCCCCCCCCCCC
412324222341444441222141124231
BBBBBBBBBBBBCCCCCBBBBBBBBBBBBB
113421132212432241222211114241
BBBBBBBBBBBBBBBBBBAAAAAAAAAAAA
221121322112211221112122324114
AAAAAAAAAAAAAAAAAAABBBBBBBBBBC
111312221122144113441212212443
AAAAAAAAAAAAACCAAAAAAAAAAAACCC
221144444422113344113412121143
AAACCCBBBBBBBBBBBBCABBBAAAAACC
442221222222241222112143421112
BBBBAAAAAAAAAAAAAAAAAABBBBAAAA
124321124423441324231242434414
AABBBBBBBBBBBBBBBBBBBBBCCCCCCC
222214324423341224443413244441
AAAAAABBBBBCCCCCCCCCCCCCCCCCCA
144341442444221411113131434213
ACCCCACCCCCCCBBBAAAABBBBBBCBBB
121211112114111223244334344342
AAAAAAAAAAAAAAAAAAACCCCCCCCCCC
222111212123222111122121211121
AAAAAAAAAAAAAAAAAAAAAAAAAAAAAA
143414231123423342421111123211
BBBBBBBBBBBBBBBBBBAAAAAAAAAAAA
221222222212242331122121211212
AAAAAAAAAAAAABBAAABAAAAAAAAAAA
234121231222444324444144444241
BBBBBBBBBBBCCCCCCCCCCCCCCCCCCC
221111212224414423444442144421
AAAAAAAAAAACCCCCCCCCCCCBBBBBBB
414112211221222122421422221113
CCCAAAAAAAAAAAAAAAAAACAAAAAAAB
133233224211432241222241224443
BABBBBBBBBBBCAAAAAAAAAAAAACCCC
221214144434114444124324244144
AAAAACCCCCCCCCCCCCCBBBBBBBBBBC
211222111223113242441442443442
AAAAAAAAAAAAAAAAAAAAACCCCCCCCA
422244341222134412224112313144
BBAACCCCAAAABBBBBBBBBBABBBBBBC
112111221122222444444424143444
AAAAAAABBBAAAABCCCCCCCCCBBBBCC
231211222244423112124243343223
BBAAAAAAAACCCAAAAAAACCCBBBBBBB
222124424444141141144444444431
AAAAACCCCCCCAAAACBBBCCCCCCCCCC
113221121114142144324111211231
AAAAAAAAABBBBBBBBBBBBAAAAAAAAA
241211112112212122123221222122
AAAAAAABBAAAAAAAAAAAAAAAAAAAAA
211311144322214414232244424431
BBBBBBBBBBBBBBBBCCCBBBCCCCCCCC
211221211444144213111312241321
AAAAAAAACCCCCCCAAAAAABBBBBBBBB
342223144343411242111141223421
AAAAACCCCCCAAAAAAAAAAABBBBBBBB
113113122222412121112213143214
BBBBBBBBBAAAAAAAAAAAAAABBBBBBB
211212221112124211224213241244
AAAAAAAAAAAAAAAAAAAAAACBBBBBBB
113321144322111244243412233444
BBBBBBBBBBAAAABBBBBBBBBBBBBCCC
221111121131111242321412332433
AAAAAAAAAAAAAAABBBBBBBBBBBBBBB
411122321112212122413111212121
AAAAAAAAAAAAAAAAAAAAAAAAAAAAAA
122242241141422443444323334131
AAAAAAAAACCCCCCCCCCCBBBBBBBBBB
111114444444444444414444224412
AAACCCCCCCCCCCCCCCCACCCCCCCAAA
232332332241244112342412222221
ABBBBBBBBBBBBBBBBBBBBBAAAAAAAA
432144444142144444442342444444
BBBBCCCCCCCCCCCCCCAAAACCCCCCCC
212121321421121122111221211112
AAAAAAAAAAAAAAAAAAAAAAAAAAAAAA
111142222121333311111211221231
AAAAAAAAAAABBBBBAAAAAAAAAAAAAA
414444444441242223211344424314
CCCCCCCCCCCCCCCCAAAACCCCCCCBAA
442213121344432122221111312123
BBBAAAAAABBBBBBAAAAAAAAABBBBBB
443431231132443442432342112121
BBBBBBBBBBBBBBBBBBBBBBBBAAAAAA
444422322444444424444443232313
CCCCCBBAACCCCCCCCCCCCCCBBBBBBB
132211311212222122121243111344
AAAAAAAAAAAAAAAAAAAAAABBBBACCC
134432443414424214344212212211
BBBBBBBBBBBBBBBBBCCCCAAAAAAAAA
212121214142211223344444444121
AAAAAAAAAAAAAAAABBBBCCCCCCCCAA
122324344444212144243244141222
AAABBCCCCCCCAAAACCCCCCCCCCCAAA
334333322431342242412433131422
BBBBBBBBBBBBBBBCCCCBBBBBBBBBBB
132242132331134343134441111221
BBABBBBBBBBBBBCCCBBBCCCAAAAAAA
111142221222243212121121124433
AAAAAAAAAABBBBBBBAAAAAAAACCCCC
433412444242122321113444211111
BCCCCCCCCBBBBBBBBBBBBBBBBBBBBB
212122141413241133342221112121
AAAAAAAABBBBBBBABBBCCAAAAAAAAA
222133343141414244243224131213
BBBBBBCCCCCCCCCCCCCCBBBBBBBBBB
112131211122121122214341311132
AAAAAAAAAAAAAAAABBBBBBBBBBBBBB
212221113331424133344424444342
AAAAAAAABBBBBBBBBBBBCCCCCCCCCA
221444313144222424424413142224
BBBBBBBBBBBBAACBBCCCCCCCBBAABB
144344334423121412111112142112
BBCCCCCCCCAAAAAAAAAAAAAAAAAAAC
314232112231221111113341111222
BBBBBBBBBBBBBAAAAAAAAAAAAAAAAA
331433321444344244444344142144
BCCCCCCCCCCCCCCCCCCCCCCCCCCCCC
243331241124223444412342211444
BBBBBBBBBBBBBCCCCBBBBBBBBAACCC
213133312112211121242432314211
BBBBBBBBAAAAAAAAAAABBBBBBBBAAA
213112112131121111222211112111
AAAAAAAAAAAAAAAAAAAAAAAAAAAAAA
421323331321321114422242111323
BBBBBBBBBBBBBBBBBBBBBABAAAAAAA
112243441422111111111234434212
BBAACCCCCCAAAAAAAAACCCCCCBBBBB
212122222212111243212324324412
AAAAAAAAAAAAAAABBBBBBBBBBBBBBB
222234441444424244424441244241
BBBBACCCCCCCCCCCCCCCCCCCCCCCCC
322431133313221121122221412224
BBBBBBBBBBAAAAAAAAAAAAAAAAAAAA
411413211424333314414422444434
BBBBBBBBBBBBBBBBBCCCCCCCCCCCCC
124344414111133144441242444442
BBBBCCCAAAAAABBBBBBCCCCCCCCCCC
121111223413314312121212424443
AAAAAAAABBBBBBBBBBBBBBBBCCCCCC
213141311233424231412233111213
BBBBBBBBBBBBBBBBBBCBBBBBBBBBBB
222122212144142222144434211121
AAAAAAAAAACCCCAAAAACCCCBAAAAAA
344444134442313322213313144221
CCCCCCCCCCCBBBBBBBBBBBBBBBBBBB
343112431221434144412122211422
ABBBBBBBBBBBBCCCCCCAAAAAAAAAAA
342424411222114113221212212222
BBBBBBBBBBAAAAAAAAAAAAAAAAAAAA
242233244414131314122432431223
BBBBBBBCCCCCCBBBBBBBBBBBBBBBBB
443442441344121333244412241443
BCCCCCCCCCCCBBBBBBBBBBBAAAACCC
224444231222224114212332131211
AACCCCAAAAAAAACCAAAAAAAAAAAAAA
222223121223221141112242144241
AAAAAAAAAAAAAAAAAAAAAABACCCCCC
444222431222233424334441433222
BBBBBBBBBBBBBBBBBBBBBBBBBBBBBB
413141444443441221124441431141
BCCCCCCCCCCCCCCAAAAACCCCCAAABB
212211312213212213124421122131
AAAAAAAAAAAAAAAAAAAAAAABBAAABB
113221222142244322211244433444
AAAAAAAAAAAAACCBBBBBBBBBBBBCCC
243442444444441212343221133141
CCCCCCCCCCCCCCCAAABBBBBBBBBBBB
213114122444122221112211121421
BBBBBBBBBCCCAAAAAAAAAAAAAAAAAA
222212141211112111124222112211
AAAAAAAAAAAAAAAAAAAAAAAAAAAAAA
241443241144424232234433242323
CCAAAAACCCCCCCCCBBBBBBBBBBBBAA
141124144444441341441443414432
ACAAACCCCCCCCCCCCCCCCCCCCCCCCB
222224141124444424222124414444
AAAAABBBBBBCCCCCCCCAAAACCCCCCC
111121113111344444144441211122
AAAAAAAAAAAACCCCCCCCCBBAAAAAAA
121141212212422124232423411221
AAAAAAAAAAAAAAAAAAABBBBBCAAAAA
111132211111222344424432312444
AAAAAAAAAAAAAAACCCCBBBBAACCCCC
222222242144444344144444444241
AAAAAACCCCCCCCCCCCCCCCCCCCCCCC
444444424444444444444114312444
CCCCCCCCCCCCCCCCCCCCCCCBBBBCCC
211222113112322222222211212231
AAAAAAAAAAAAAAAAAAAAAAAAAAAAAB
223121213124242131213412233234
AAAAAAAABBBBBBBBBBBBBBBBBBBBBB
321211111131423212433231213343
BBAAAAAABBBBBBBBBBBBBBBBBBBBBB
212221211414431144412222441331
AAAAAAABBBBBBBBBBBBBBBBBBBBBBB
111121314124244314444133144222
AAAAAAAAAAACCCCCCCCCCCCCCCBBBB
442242411211222324444244444323
BBBBBBBBBBBBBBBBBBCCCCCCCCCBBB
112111214214211321323213244243
AAAAAAAACCCCCBBBBBBBBBBBBBBBBB
422112221434312221412244413222
AAAAAAABBBBBBAAAAAABBBBBBBBBBB
444444114134424411232442344234
BBCCCCCCCCCCCCCCCCCCCCCCCCCCCC
444114342444124111313434241214
CCCCCCCCCCCCBBBBBBBBBBBBBBBBBB
313213343341144444414412344341
BBBBBBBBCCCAACCCCCCCCCCCCCCCCC
223313122221211121442142222221
AAAAAAAAAAAAAAAAAAAAAAAAAAAAAA
212212221211144434414144441424
AAAAAAAAAAAAACCCCCCCCCCCCCBBBB
441111412241444444434444444443
BBBBBBCAAACCCCCCCCCCCCCCCCCCCC
421321224233123444212244242143
AAAAAAAACCBBBBBBBBBBBBBBBBBBBB
