	Correctness:	0.4730
	Correctness:	0.4738
	Correctness:	0.4802
	Correctness:	0.4734
	Correctness:	0.4798
	Correctness:	0.4816
	Correctness:	0.4688
	Correctness:	0.4718
	Correctness:	0.4672
	Correctness:	0.4612
	Correctness:	0.4750
	Correctness:	0.4664
	Correctness:	0.4706
	Correctness:	0.4748
	Correctness:	0.4650
	Correctness:	0.4704
	Correctness:	0.4812
	Correctness:	0.4662
	Correctness:	0.4714
	Correctness:	0.4740
	Correctness:	0.4670
	Correctness:	0.4718
	Correctness:	0.4704
	Correctness:	0.4710
	Correctness:	0.4818
	Correctness:	0.4666
	Correctness:	0.4784
	Correctness:	0.4752
	Correctness:	0.4770
	Correctness:	0.4696
	Correctness:	0.4728
	Correctness:	0.4766
	Correctness:	0.4630
	Correctness:	0.4654
	Correctness:	0.4736
	Correctness:	0.4716
	Correctness:	0.4624
	Correctness:	0.4712
	Correctness:	0.4716
	Correctness:	0.4704
	Correctness:	0.4630
	Correctness:	0.4720
	Correctness:	0.4798
	Correctness:	0.4656
	Correctness:	0.4804
	Correctness:	0.4694
	Correctness:	0.4734
	Correctness:	0.4736
	Correctness:	0.4732
	Correctness:	0.4622
Average:	0.4717
	Correctness:	0.0840
	Correctness:	0.0980
	Correctness:	0.0838
	Correctness:	0.0804
	Correctness:	0.0804
	Correctness:	0.0870
	Correctness:	0.0954
	Correctness:	0.0888
	Correctness:	0.0814
	Correctness:	0.1012
	Correctness:	0.0814
	Correctness:	0.0928
	Correctness:	0.0880
	Correctness:	0.0922
	Correctness:	0.0886
	Correctness:	0.0938
	Correctness:	0.0968
	Correctness:	0.0886
	Correctness:	0.0762
	Correctness:	0.0954
	Correctness:	0.0846
	Correctness:	0.0886
	Correctness:	0.0832
	Correctness:	0.0872
	Correctness:	0.0996
	Correctness:	0.0904
	Correctness:	0.0870
	Correctness:	0.0870
	Correctness:	0.1034
	Correctness:	0.0802
	Correctness:	0.0974
	Correctness:	0.0804
	Correctness:	0.0948
	Correctness:	0.0974
	Correctness:	0.1006
	Correctness:	0.0832
	Correctness:	0.0914
	Correctness:	0.0900
	Correctness:	0.0908
	Correctness:	0.0854
	Correctness:	0.0758
	Correctness:	0.0906
	Correctness:	0.0950
	Correctness:	0.0694
	Correctness:	0.0840
	Correctness:	0.0852
	Correctness:	0.0820
	Correctness:	0.0976
	Correctness:	0.0912
	Correctness:	0.0940
Average:	0.0888
	Correctness:	0.0924
	Correctness:	0.1094
	Correctness:	0.0922
	Correctness:	0.0880
	Correctness:	0.0878
	Correctness:	0.0984
	Correctness:	0.1078
	Correctness:	0.0976
	Correctness:	0.0890
	Correctness:	0.1128
	Correctness:	0.0890
	Correctness:	0.1032
	Correctness:	0.0964
	Correctness:	0.1010
	Correctness:	0.0946
	Correctness:	0.1026
	Correctness:	0.1040
	Correctness:	0.0994
	Correctness:	0.0874
	Correctness:	0.1066
	Correctness:	0.0958
	Correctness:	0.0964
	Correctness:	0.0964
	Correctness:	0.0996
	Correctness:	0.1070
	Correctness:	0.1032
	Correctness:	0.0982
	Correctness:	0.0962
	Correctness:	0.1138
	Correctness:	0.0910
	Correctness:	0.1058
	Correctness:	0.0916
	Correctness:	0.1052
	Correctness:	0.1054
	Correctness:	0.1086
	Correctness:	0.0948
	Correctness:	0.0986
	Correctness:	0.0964
	Correctness:	0.0966
	Correctness:	0.0942
	Correctness:	0.0846
	Correctness:	0.0950
	Correctness:	0.1026
	Correctness:	0.0782
	Correctness:	0.0938
	Correctness:	0.0940
	Correctness:	0.0908
	Correctness:	0.1072
	Correctness:	0.1016
	Correctness:	0.1004
Average:	0.0981
	Correctness:	0.0840
	Correctness:	0.0998
	Correctness:	0.0838
	Correctness:	0.0804
	Correctness:	0.0790
	Correctness:	0.0870
	Correctness:	0.0954
	Correctness:	0.0888
	Correctness:	0.0814
	Correctness:	0.1012
	Correctness:	0.0814
	Correctness:	0.0928
	Correctness:	0.0880
	Correctness:	0.0922
	Correctness:	0.0886
	Correctness:	0.0938
	Correctness:	0.0968
	Correctness:	0.0886
	Correctness:	0.0762
	Correctness:	0.0954
	Correctness:	0.0846
	Correctness:	0.0892
	Correctness:	0.0832
	Correctness:	0.0872
	Correctness:	0.0978
	Correctness:	0.0904
	Correctness:	0.0870
	Correctness:	0.0870
	Correctness:	0.1034
	Correctness:	0.0802
	Correctness:	0.0974
	Correctness:	0.0804
	Correctness:	0.0948
	Correctness:	0.0974
	Correctness:	0.1006
	Correctness:	0.0832
	Correctness:	0.0914
	Correctness:	0.0900
	Correctness:	0.0908
	Correctness:	0.0854
	Correctness:	0.0758
	Correctness:	0.0906
	Correctness:	0.0956
	Correctness:	0.0694
	Correctness:	0.0840
	Correctness:	0.0852
	Correctness:	0.0820
	Correctness:	0.0976
	Correctness:	0.0912
	Correctness:	0.0940
Average:	0.0888
	Correctness:	0.4362
	Correctness:	0.4536
	Correctness:	0.4548
	Correctness:	0.4404
	Correctness:	0.4440
	Correctness:	0.4596
	Correctness:	0.4492
	Correctness:	0.4390
	Correctness:	0.4356
	Correctness:	0.4358
	Correctness:	0.4424
	Correctness:	0.4410
	Correctness:	0.4388
	Correctness:	0.4532
	Correctness:	0.4434
	Correctness:	0.4500
	Correctness:	0.4454
	Correctness:	0.4410
	Correctness:	0.4472
	Correctness:	0.4476
	Correctness:	0.4364
	Correctness:	0.4414
	Correctness:	0.4442
	Correctness:	0.4448
	Correctness:	0.4486
	Correctness:	0.4414
	Correctness:	0.4460
	Correctness:	0.4428
	Correctness:	0.4468
	Correctness:	0.4356
	Correctness:	0.4454
	Correctness:	0.4464
	Correctness:	0.4368
	Correctness:	0.4330
	Correctness:	0.4434
	Correctness:	0.4354
	Correctness:	0.4414
	Correctness:	0.4446
	Correctness:	0.4390
	Correctness:	0.4414
	Correctness:	0.4348
	Correctness:	0.4436
	Correctness:	0.4480
	Correctness:	0.4414
	Correctness:	0.4436
	Correctness:	0.4374
	Correctness:	0.4416
	Correctness:	0.4498
	Correctness:	0.4404
	Correctness:	0.4440
Average:	0.4432
	Correctness:	0.9070
	Correctness:	0.8908
	Correctness:	0.9076
	Correctness:	0.9118
	Correctness:	0.9120
	Correctness:	0.9012
	Correctness:	0.8926
	Correctness:	0.9018
	Correctness:	0.9112
	Correctness:	0.8874
	Correctness:	0.9108
	Correctness:	0.8970
	Correctness:	0.9038
	Correctness:	0.8992
	Correctness:	0.9050
	Correctness:	0.8978
	Correctness:	0.8962
	Correctness:	0.9004
	Correctness:	0.9116
	Correctness:	0.8936
	Correctness:	0.9044
	Correctness:	0.9032
	Correctness:	0.9038
	Correctness:	0.9002
	Correctness:	0.8924
	Correctness:	0.8966
	Correctness:	0.9014
	Correctness:	0.9040
	Correctness:	0.8864
	Correctness:	0.9088
	Correctness:	0.8944
	Correctness:	0.9086
	Correctness:	0.8944
	Correctness:	0.8948
	Correctness:	0.8908
	Correctness:	0.9044
	Correctness:	0.9014
	Correctness:	0.9038
	Correctness:	0.9034
	Correctness:	0.9060
	Correctness:	0.9150
	Correctness:	0.9048
	Correctness:	0.8980
	Correctness:	0.9214
	Correctness:	0.9064
	Correctness:	0.9058
	Correctness:	0.9094
	Correctness:	0.8930
	Correctness:	0.8986
	Correctness:	0.8994
Average:	0.9019
	Correctness:	0.9070
	Correctness:	0.8908
	Correctness:	0.9076
	Correctness:	0.9118
	Correctness:	0.9120
	Correctness:	0.9012
	Correctness:	0.8926
	Correctness:	0.9018
	Correctness:	0.9112
	Correctness:	0.8874
	Correctness:	0.9108
	Correctness:	0.8970
	Correctness:	0.9038
	Correctness:	0.8992
	Correctness:	0.9050
	Correctness:	0.8978
	Correctness:	0.8962
	Correctness:	0.9004
	Correctness:	0.9116
	Correctness:	0.8936
	Correctness:	0.9044
	Correctness:	0.9032
	Correctness:	0.9038
	Correctness:	0.9002
	Correctness:	0.8924
	Correctness:	0.8966
	Correctness:	0.9014
	Correctness:	0.9040
	Correctness:	0.8864
	Correctness:	0.9088
	Correctness:	0.8944
	Correctness:	0.9086
	Correctness:	0.8944
	Correctness:	0.8948
	Correctness:	0.8908
	Correctness:	0.9044
	Correctness:	0.9014
	Correctness:	0.9038
	Correctness:	0.9034
	Correctness:	0.9060
	Correctness:	0.9150
	Correctness:	0.9048
	Correctness:	0.8980
	Correctness:	0.9214
	Correctness:	0.9064
	Correctness:	0.9058
	Correctness:	0.9094
	Correctness:	0.8930
	Correctness:	0.8986
	Correctness:	0.8994
Average:	0.9019
	Correctness:	0.9154
	Correctness:	0.9004
	Correctness:	0.9160
	Correctness:	0.9194
	Correctness:	0.9208
	Correctness:	0.9130
	Correctness:	0.9050
	Correctness:	0.9110
	Correctness:	0.9188
	Correctness:	0.8990
	Correctness:	0.9184
	Correctness:	0.9074
	Correctness:	0.9122
	Correctness:	0.9080
	Correctness:	0.9122
	Correctness:	0.9066
	Correctness:	0.9034
	Correctness:	0.9112
	Correctness:	0.9228
	Correctness:	0.9048
	Correctness:	0.9156
	Correctness:	0.9108
	Correctness:	0.9170
	Correctness:	0.9126
	Correctness:	0.9016
	Correctness:	0.9094
	Correctness:	0.9126
	Correctness:	0.9132
	Correctness:	0.8968
	Correctness:	0.9196
	Correctness:	0.9028
	Correctness:	0.9198
	Correctness:	0.9048
	Correctness:	0.9028
	Correctness:	0.8988
	Correctness:	0.9160
	Correctness:	0.9086
	Correctness:	0.9102
	Correctness:	0.9096
	Correctness:	0.9148
	Correctness:	0.9244
	Correctness:	0.9092
	Correctness:	0.9062
	Correctness:	0.9298
	Correctness:	0.9154
	Correctness:	0.9146
	Correctness:	0.9182
	Correctness:	0.9026
	Correctness:	0.9090
	Correctness:	0.9058
Average:	0.9112
	Correctness:	0.0836
	Correctness:	0.0950
	Correctness:	0.0798
	Correctness:	0.0752
	Correctness:	0.0758
	Correctness:	0.0850
	Correctness:	0.0914
	Correctness:	0.0856
	Correctness:	0.0782
	Correctness:	0.0932
	Correctness:	0.0806
	Correctness:	0.0928
	Correctness:	0.0808
	Correctness:	0.0876
	Correctness:	0.0870
	Correctness:	0.0886
	Correctness:	0.0904
	Correctness:	0.0838
	Correctness:	0.0718
	Correctness:	0.0906
	Correctness:	0.0850
	Correctness:	0.0826
	Correctness:	0.0832
	Correctness:	0.0798
	Correctness:	0.0942
	Correctness:	0.0876
	Correctness:	0.0846
	Correctness:	0.0870
	Correctness:	0.0958
	Correctness:	0.0702
	Correctness:	0.0902
	Correctness:	0.0792
	Correctness:	0.0900
	Correctness:	0.0890
	Correctness:	0.0938
	Correctness:	0.0844
	Correctness:	0.0890
	Correctness:	0.0852
	Correctness:	0.0832
	Correctness:	0.0798
	Correctness:	0.0704
	Correctness:	0.0874
	Correctness:	0.0942
	Correctness:	0.0686
	Correctness:	0.0804
	Correctness:	0.0832
	Correctness:	0.0796
	Correctness:	0.0912
	Correctness:	0.0872
	Correctness:	0.0920
Average:	0.0849
	Correctness:	0.0924
	Correctness:	0.1094
	Correctness:	0.0922
	Correctness:	0.0880
	Correctness:	0.0878
	Correctness:	0.0986
	Correctness:	0.1078
	Correctness:	0.0976
	Correctness:	0.0890
	Correctness:	0.1128
	Correctness:	0.0890
	Correctness:	0.1032
	Correctness:	0.0964
	Correctness:	0.1010
	Correctness:	0.0948
	Correctness:	0.1026
	Correctness:	0.1040
	Correctness:	0.0994
	Correctness:	0.0874
	Correctness:	0.1066
	Correctness:	0.0958
	Correctness:	0.0964
	Correctness:	0.0964
	Correctness:	0.0996
	Correctness:	0.1088
	Correctness:	0.1032
	Correctness:	0.0982
	Correctness:	0.0962
	Correctness:	0.1138
	Correctness:	0.0910
	Correctness:	0.1058
	Correctness:	0.0916
	Correctness:	0.1052
	Correctness:	0.1054
	Correctness:	0.1086
	Correctness:	0.0948
	Correctness:	0.0986
	Correctness:	0.0964
	Correctness:	0.0966
	Correctness:	0.0942
	Correctness:	0.0846
	Correctness:	0.0950
	Correctness:	0.1026
	Correctness:	0.0782
	Correctness:	0.0938
	Correctness:	0.0940
	Correctness:	0.0908
	Correctness:	0.1072
	Correctness:	0.1016
	Correctness:	0.1004
Average:	0.0981
