	Correctness:	0.3810
	Correctness:	0.3676
	Correctness:	0.3846
	Correctness:	0.3670
	Correctness:	0.3986
	Correctness:	0.3616
	Correctness:	0.3716
	Correctness:	0.4000
	Correctness:	0.3766
	Correctness:	0.3690
	Correctness:	0.3764
	Correctness:	0.3742
	Correctness:	0.3722
	Correctness:	0.3794
	Correctness:	0.3750
	Correctness:	0.3764
	Correctness:	0.3956
	Correctness:	0.4050
	Correctness:	0.3894
	Correctness:	0.3728
	Correctness:	0.3852
	Correctness:	0.3664
	Correctness:	0.3668
	Correctness:	0.3760
	Correctness:	0.3758
	Correctness:	0.3916
	Correctness:	0.3940
	Correctness:	0.3806
	Correctness:	0.3844
	Correctness:	0.3890
	Correctness:	0.3718
	Correctness:	0.3654
	Correctness:	0.3870
	Correctness:	0.3854
	Correctness:	0.3920
	Correctness:	0.4000
	Correctness:	0.3810
	Correctness:	0.3928
	Correctness:	0.3728
	Correctness:	0.3652
	Correctness:	0.3800
	Correctness:	0.3768
	Correctness:	0.3874
	Correctness:	0.3798
	Correctness:	0.3684
	Correctness:	0.3756
	Correctness:	0.4018
	Correctness:	0.3620
	Correctness:	0.3760
	Correctness:	0.3700
Average:	0.3799
	Correctness:	0.9026
	Correctness:	0.8862
	Correctness:	0.8982
	Correctness:	0.8970
	Correctness:	0.8900
	Correctness:	0.8976
	Correctness:	0.8986
	Correctness:	0.8898
	Correctness:	0.8950
	Correctness:	0.8994
	Correctness:	0.8946
	Correctness:	0.8982
	Correctness:	0.9014
	Correctness:	0.8864
	Correctness:	0.8946
	Correctness:	0.8854
	Correctness:	0.8984
	Correctness:	0.8972
	Correctness:	0.8844
	Correctness:	0.9092
	Correctness:	0.8964
	Correctness:	0.8856
	Correctness:	0.8956
	Correctness:	0.8934
	Correctness:	0.9062
	Correctness:	0.8968
	Correctness:	0.8824
	Correctness:	0.8954
	Correctness:	0.8940
	Correctness:	0.8960
	Correctness:	0.8854
	Correctness:	0.8970
	Correctness:	0.9018
	Correctness:	0.9046
	Correctness:	0.8876
	Correctness:	0.8868
	Correctness:	0.8954
	Correctness:	0.9118
	Correctness:	0.8930
	Correctness:	0.8886
	Correctness:	0.8874
	Correctness:	0.9108
	Correctness:	0.8964
	Correctness:	0.8842
	Correctness:	0.8970
	Correctness:	0.9018
	Correctness:	0.8962
	Correctness:	0.8976
	Correctness:	0.8936
	Correctness:	0.8804
Average:	0.8949
	Correctness:	0.9026
	Correctness:	0.8872
	Correctness:	0.8982
	Correctness:	0.8984
	Correctness:	0.8912
	Correctness:	0.8976
	Correctness:	0.9000
	Correctness:	0.8908
	Correctness:	0.8952
	Correctness:	0.9004
	Correctness:	0.8956
	Correctness:	0.9002
	Correctness:	0.9014
	Correctness:	0.8872
	Correctness:	0.8960
	Correctness:	0.8878
	Correctness:	0.8998
	Correctness:	0.8996
	Correctness:	0.8868
	Correctness:	0.9092
	Correctness:	0.8984
	Correctness:	0.8866
	Correctness:	0.8956
	Correctness:	0.8934
	Correctness:	0.9072
	Correctness:	0.8962
	Correctness:	0.8838
	Correctness:	0.8988
	Correctness:	0.8940
	Correctness:	0.8980
	Correctness:	0.8862
	Correctness:	0.8980
	Correctness:	0.9028
	Correctness:	0.9074
	Correctness:	0.8886
	Correctness:	0.8876
	Correctness:	0.8964
	Correctness:	0.9118
	Correctness:	0.8928
	Correctness:	0.8906
	Correctness:	0.8884
	Correctness:	0.9108
	Correctness:	0.8978
	Correctness:	0.8856
	Correctness:	0.8970
	Correctness:	0.9018
	Correctness:	0.8976
	Correctness:	0.8976
	Correctness:	0.8956
	Correctness:	0.8804
Average:	0.8958
	Correctness:	0.9026
	Correctness:	0.8872
	Correctness:	0.8982
	Correctness:	0.8960
	Correctness:	0.8900
	Correctness:	0.8966
	Correctness:	0.8986
	Correctness:	0.8898
	Correctness:	0.8936
	Correctness:	0.9006
	Correctness:	0.8946
	Correctness:	0.8992
	Correctness:	0.9014
	Correctness:	0.8874
	Correctness:	0.8946
	Correctness:	0.8864
	Correctness:	0.8984
	Correctness:	0.8972
	Correctness:	0.8854
	Correctness:	0.9092
	Correctness:	0.8964
	Correctness:	0.8866
	Correctness:	0.8956
	Correctness:	0.8920
	Correctness:	0.9056
	Correctness:	0.8968
	Correctness:	0.8818
	Correctness:	0.8964
	Correctness:	0.8938
	Correctness:	0.8970
	Correctness:	0.8860
	Correctness:	0.8980
	Correctness:	0.9018
	Correctness:	0.9046
	Correctness:	0.8876
	Correctness:	0.8868
	Correctness:	0.8944
	Correctness:	0.9118
	Correctness:	0.8930
	Correctness:	0.8896
	Correctness:	0.8874
	Correctness:	0.9108
	Correctness:	0.8964
	Correctness:	0.8842
	Correctness:	0.8970
	Correctness:	0.9018
	Correctness:	0.8962
	Correctness:	0.8976
	Correctness:	0.8946
	Correctness:	0.8804
Average:	0.8950
	Correctness:	0.0950
	Correctness:	0.1146
	Correctness:	0.1000
	Correctness:	0.1028
	Correctness:	0.1106
	Correctness:	0.0992
	Correctness:	0.0972
	Correctness:	0.1070
	Correctness:	0.1024
	Correctness:	0.1004
	Correctness:	0.1026
	Correctness:	0.0964
	Correctness:	0.0972
	Correctness:	0.1098
	Correctness:	0.1024
	Correctness:	0.1150
	Correctness:	0.0992
	Correctness:	0.1020
	Correctness:	0.1126
	Correctness:	0.0888
	Correctness:	0.1006
	Correctness:	0.1156
	Correctness:	0.1040
	Correctness:	0.1096
	Correctness:	0.0938
	Correctness:	0.1024
	Correctness:	0.1172
	Correctness:	0.1062
	Correctness:	0.1066
	Correctness:	0.1018
	Correctness:	0.1136
	Correctness:	0.1036
	Correctness:	0.0928
	Correctness:	0.0900
	Correctness:	0.1136
	Correctness:	0.1148
	Correctness:	0.1042
	Correctness:	0.0838
	Correctness:	0.1082
	Correctness:	0.1088
	Correctness:	0.1112
	Correctness:	0.0898
	Correctness:	0.1012
	Correctness:	0.1154
	Correctness:	0.1032
	Correctness:	0.0972
	Correctness:	0.1030
	Correctness:	0.1026
	Correctness:	0.1016
	Correctness:	0.1204
Average:	0.1038
	Correctness:	0.9026
	Correctness:	0.8872
	Correctness:	0.8982
	Correctness:	0.8984
	Correctness:	0.8912
	Correctness:	0.8976
	Correctness:	0.8986
	Correctness:	0.8908
	Correctness:	0.8938
	Correctness:	0.9004
	Correctness:	0.8946
	Correctness:	0.8992
	Correctness:	0.9014
	Correctness:	0.8872
	Correctness:	0.8946
	Correctness:	0.8864
	Correctness:	0.8998
	Correctness:	0.8982
	Correctness:	0.8854
	Correctness:	0.9092
	Correctness:	0.8984
	Correctness:	0.8866
	Correctness:	0.8956
	Correctness:	0.8920
	Correctness:	0.9072
	Correctness:	0.8968
	Correctness:	0.8824
	Correctness:	0.8974
	Correctness:	0.8938
	Correctness:	0.8980
	Correctness:	0.8860
	Correctness:	0.8980
	Correctness:	0.9028
	Correctness:	0.9056
	Correctness:	0.8886
	Correctness:	0.8876
	Correctness:	0.8964
	Correctness:	0.9118
	Correctness:	0.8928
	Correctness:	0.8906
	Correctness:	0.8884
	Correctness:	0.9108
	Correctness:	0.8964
	Correctness:	0.8842
	Correctness:	0.8970
	Correctness:	0.9018
	Correctness:	0.8962
	Correctness:	0.8976
	Correctness:	0.8956
	Correctness:	0.8804
Average:	0.8954
	Correctness:	0.0968
	Correctness:	0.1130
	Correctness:	0.1018
	Correctness:	0.1028
	Correctness:	0.1092
	Correctness:	0.1026
	Correctness:	0.1002
	Correctness:	0.1094
	Correctness:	0.1046
	Correctness:	0.0992
	Correctness:	0.1066
	Correctness:	0.1004
	Correctness:	0.0982
	Correctness:	0.1130
	Correctness:	0.1048
	Correctness:	0.1124
	Correctness:	0.1006
	Correctness:	0.1014
	Correctness:	0.1150
	Correctness:	0.0910
	Correctness:	0.1014
	Correctness:	0.1132
	Correctness:	0.1038
	Correctness:	0.1082
	Correctness:	0.0930
	Correctness:	0.1028
	Correctness:	0.1172
	Correctness:	0.1008
	Correctness:	0.1060
	Correctness:	0.1018
	Correctness:	0.1136
	Correctness:	0.1016
	Correctness:	0.0970
	Correctness:	0.0928
	Correctness:	0.1118
	Correctness:	0.1126
	Correctness:	0.1034
	Correctness:	0.0880
	Correctness:	0.1074
	Correctness:	0.1096
	Correctness:	0.1118
	Correctness:	0.0908
	Correctness:	0.1022
	Correctness:	0.1154
	Correctness:	0.1032
	Correctness:	0.0984
	Correctness:	0.1022
	Correctness:	0.1012
	Correctness:	0.1042
	Correctness:	0.1198
Average:	0.1044
	Correctness:	0.9026
	Correctness:	0.8872
	Correctness:	0.8996
	Correctness:	0.8984
	Correctness:	0.8906
	Correctness:	0.8976
	Correctness:	0.9014
	Correctness:	0.8908
	Correctness:	0.8952
	Correctness:	0.9004
	Correctness:	0.8958
	Correctness:	0.8992
	Correctness:	0.9014
	Correctness:	0.8872
	Correctness:	0.8960
	Correctness:	0.8878
	Correctness:	0.8998
	Correctness:	0.8996
	Correctness:	0.8870
	Correctness:	0.9092
	Correctness:	0.8984
	Correctness:	0.8866
	Correctness:	0.8958
	Correctness:	0.8934
	Correctness:	0.9072
	Correctness:	0.8962
	Correctness:	0.8838
	Correctness:	0.8986
	Correctness:	0.8940
	Correctness:	0.8980
	Correctness:	0.8862
	Correctness:	0.8994
	Correctness:	0.9028
	Correctness:	0.9070
	Correctness:	0.8888
	Correctness:	0.8876
	Correctness:	0.8964
	Correctness:	0.9118
	Correctness:	0.8928
	Correctness:	0.8906
	Correctness:	0.8884
	Correctness:	0.9092
	Correctness:	0.8978
	Correctness:	0.8856
	Correctness:	0.8984
	Correctness:	0.9018
	Correctness:	0.8976
	Correctness:	0.8990
	Correctness:	0.8972
	Correctness:	0.8822
Average:	0.8960
	Correctness:	0.0968
	Correctness:	0.1130
	Correctness:	0.1018
	Correctness:	0.1028
	Correctness:	0.1092
	Correctness:	0.1040
	Correctness:	0.1016
	Correctness:	0.1094
	Correctness:	0.1060
	Correctness:	0.0992
	Correctness:	0.1066
	Correctness:	0.1004
	Correctness:	0.0982
	Correctness:	0.1130
	Correctness:	0.1048
	Correctness:	0.1138
	Correctness:	0.1020
	Correctness:	0.1014
	Correctness:	0.1150
	Correctness:	0.0910
	Correctness:	0.1014
	Correctness:	0.1132
	Correctness:	0.1038
	Correctness:	0.1082
	Correctness:	0.0930
	Correctness:	0.1028
	Correctness:	0.1172
	Correctness:	0.1022
	Correctness:	0.1060
	Correctness:	0.1018
	Correctness:	0.1138
	Correctness:	0.1016
	Correctness:	0.0970
	Correctness:	0.0942
	Correctness:	0.1128
	Correctness:	0.1126
	Correctness:	0.1034
	Correctness:	0.0880
	Correctness:	0.1074
	Correctness:	0.1096
	Correctness:	0.1118
	Correctness:	0.0908
	Correctness:	0.1036
	Correctness:	0.1154
	Correctness:	0.1032
	Correctness:	0.0984
	Correctness:	0.1036
	Correctness:	0.1026
	Correctness:	0.1042
	Correctness:	0.1198
Average:	0.1047
	Correctness:	0.9026
	Correctness:	0.8872
	Correctness:	0.8982
	Correctness:	0.8984
	Correctness:	0.8906
	Correctness:	0.8976
	Correctness:	0.9014
	Correctness:	0.8908
	Correctness:	0.8938
	Correctness:	0.9004
	Correctness:	0.8956
	Correctness:	0.8992
	Correctness:	0.9014
	Correctness:	0.8872
	Correctness:	0.8960
	Correctness:	0.8864
	Correctness:	0.8984
	Correctness:	0.8996
	Correctness:	0.8870
	Correctness:	0.9092
	Correctness:	0.8984
	Correctness:	0.8866
	Correctness:	0.8956
	Correctness:	0.8934
	Correctness:	0.9072
	Correctness:	0.8962
	Correctness:	0.8838
	Correctness:	0.8988
	Correctness:	0.8940
	Correctness:	0.8980
	Correctness:	0.8862
	Correctness:	0.8994
	Correctness:	0.9028
	Correctness:	0.9056
	Correctness:	0.8876
	Correctness:	0.8886
	Correctness:	0.8964
	Correctness:	0.9118
	Correctness:	0.8928
	Correctness:	0.8906
	Correctness:	0.8884
	Correctness:	0.9108
	Correctness:	0.8964
	Correctness:	0.8842
	Correctness:	0.8984
	Correctness:	0.9018
	Correctness:	0.8962
	Correctness:	0.8976
	Correctness:	0.8972
	Correctness:	0.8804
Average:	0.8957
