,Correctness:,0.8100,0.8100,0,, ,Correctness:,0.3900,0.3900,0,, ,Correctness:,0.6600,0.6600,0,, ,Correctness:,0.5100,0.5100,0,, ,Correctness:,0.5000,0.5000,0,, 
,Correctness:,0.6800,0.6800,0,, ,Correctness:,0.7500,0.7500,0,, ,Correctness:,0.4700,0.4700,0,, ,Correctness:,0.5500,0.5500,0,, ,Correctness:,0.5000,0.5000,0,, 
,Correctness:,0.9200,0.9200,0,, ,Correctness:,0.7900,0.7900,0,, ,Correctness:,0.5500,0.5500,0,, ,Correctness:,0.5400,0.5400,0,, ,Correctness:,0.4800,0.4800,0,, 
,Correctness:,0.8700,0.8700,0,, ,Correctness:,0.7800,0.7800,0,, ,Correctness:,0.5400,0.5400,0,, ,Correctness:,0.5700,0.5700,0,, ,Correctness:,0.5300,0.5300,0,, 
,Correctness:,0.8400,0.8400,0,, ,Correctness:,0.8400,0.8400,0,, ,Correctness:,0.5300,0.5300,0,, ,Correctness:,0.5500,0.5500,0,, ,Correctness:,0.5100,0.5100,0,, 
,Correctness:,0.8800,0.8800,0,, ,Correctness:,0.8500,0.8500,0,, ,Correctness:,0.5100,0.5100,0,, ,Correctness:,0.5400,0.5400,0,, ,Correctness:,0.5200,0.5200,0,, 
,Correctness:,0.9400,0.9400,0,, ,Correctness:,0.8400,0.8400,0,, ,Correctness:,0.4900,0.4900,0,, ,Correctness:,0.5400,0.5400,0,, ,Correctness:,0.5100,0.5100,0,, 
,Correctness:,0.8400,0.8400,0,, ,Correctness:,0.6500,0.6500,0,, ,Correctness:,0.6300,0.6300,0,, ,Correctness:,0.5400,0.5400,0,, ,Correctness:,0.5200,0.5200,0,, 
,Correctness:,0.8000,0.8000,0,, ,Correctness:,0.7600,0.7600,0,, ,Correctness:,0.5600,0.5600,0,, ,Correctness:,0.5400,0.5400,0,, ,Correctness:,0.4800,0.4800,0,, 
,Correctness:,0.8500,0.8500,0,, ,Correctness:,0.5600,0.5600,0,, ,Correctness:,0.5900,0.5900,0,, ,Correctness:,0.5200,0.5200,0,, ,Correctness:,0.5300,0.5300,0,, 
,Correctness:,0.8350,0.8350,0,, ,Correctness:,0.7250,0.7250,0,, ,Correctness:,0.5450,0.5450,0,, ,Correctness:,0.5200,0.5200,0,, ,Correctness:,0.4950,0.4950,0,, 
,Correctness:,0.8450,0.8450,0,, ,Correctness:,0.7200,0.7200,0,, ,Correctness:,0.5200,0.5200,0,, ,Correctness:,0.5350,0.5350,0,, ,Correctness:,0.5150,0.5150,0,, 
,Correctness:,0.8550,0.8550,0,, ,Correctness:,0.4950,0.4950,0,, ,Correctness:,0.6300,0.6300,0,, ,Correctness:,0.5200,0.5200,0,, ,Correctness:,0.5100,0.5100,0,, 
,Correctness:,0.7300,0.7300,0,, ,Correctness:,0.5950,0.5950,0,, ,Correctness:,0.6100,0.6100,0,, ,Correctness:,0.5050,0.5050,0,, ,Correctness:,0.4950,0.4950,0,, 
,Correctness:,0.9350,0.9350,0,, ,Correctness:,0.7150,0.7150,0,, ,Correctness:,0.5650,0.5650,0,, ,Correctness:,0.5300,0.5300,0,, ,Correctness:,0.4900,0.4900,0,, 
,Correctness:,0.8650,0.8650,0,, ,Correctness:,0.6500,0.6500,0,, ,Correctness:,0.5650,0.5650,0,, ,Correctness:,0.5200,0.5200,0,, ,Correctness:,0.4850,0.4850,0,, 
,Correctness:,0.9250,0.9250,0,, ,Correctness:,0.7450,0.7450,0,, ,Correctness:,0.5450,0.5450,0,, ,Correctness:,0.5200,0.5200,0,, ,Correctness:,0.4900,0.4900,0,, 
,Correctness:,0.7550,0.7550,0,, ,Correctness:,0.7150,0.7150,0,, ,Correctness:,0.5500,0.5500,0,, ,Correctness:,0.5150,0.5150,0,, ,Correctness:,0.5000,0.5000,0,, 
,Correctness:,0.7200,0.7200,0,, ,Correctness:,0.6600,0.6600,0,, ,Correctness:,0.5650,0.5650,0,, ,Correctness:,0.5250,0.5250,0,, ,Correctness:,0.5050,0.5050,0,, 
,Correctness:,0.8900,0.8900,0,, ,Correctness:,0.8550,0.8550,0,, ,Correctness:,0.5250,0.5250,0,, ,Correctness:,0.5550,0.5550,0,, ,Correctness:,0.5250,0.5250,0,, 
,Correctness:,0.7900,0.7900,0,, ,Correctness:,0.6750,0.6750,0,, ,Correctness:,0.5900,0.5900,0,, ,Correctness:,0.5500,0.5500,0,, ,Correctness:,0.5025,0.5025,0,, 
,Correctness:,0.8675,0.8675,0,, ,Correctness:,0.7475,0.7475,0,, ,Correctness:,0.5625,0.5625,0,, ,Correctness:,0.5250,0.5250,0,, ,Correctness:,0.5225,0.5225,0,, 
,Correctness:,0.8425,0.8425,0,, ,Correctness:,0.8100,0.8100,0,, ,Correctness:,0.5250,0.5250,0,, ,Correctness:,0.5350,0.5350,0,, ,Correctness:,0.5075,0.5075,0,, 
,Correctness:,0.8275,0.8275,0,, ,Correctness:,0.6650,0.6650,0,, ,Correctness:,0.5700,0.5700,0,, ,Correctness:,0.5225,0.5225,0,, ,Correctness:,0.5000,0.5000,0,, 
,Correctness:,0.8650,0.8650,0,, ,Correctness:,0.8600,0.8600,0,, ,Correctness:,0.5050,0.5050,0,, ,Correctness:,0.5350,0.5350,0,, ,Correctness:,0.4975,0.4975,0,, 
,Correctness:,0.9275,0.9275,0,, ,Correctness:,0.7075,0.7075,0,, ,Correctness:,0.5750,0.5750,0,, ,Correctness:,0.5275,0.5275,0,, ,Correctness:,0.5100,0.5100,0,, 
,Correctness:,0.8875,0.8875,0,, ,Correctness:,0.7200,0.7200,0,, ,Correctness:,0.5625,0.5625,0,, ,Correctness:,0.5275,0.5275,0,, ,Correctness:,0.5050,0.5050,0,, 
,Correctness:,0.8700,0.8700,0,, ,Correctness:,0.7200,0.7200,0,, ,Correctness:,0.5475,0.5475,0,, ,Correctness:,0.5375,0.5375,0,, ,Correctness:,0.5050,0.5050,0,, 
,Correctness:,0.8700,0.8700,0,, ,Correctness:,0.7450,0.7450,0,, ,Correctness:,0.5425,0.5425,0,, ,Correctness:,0.5250,0.5250,0,, ,Correctness:,0.5050,0.5050,0,, 
,Correctness:,0.7775,0.7775,0,, ,Correctness:,0.6100,0.6100,0,, ,Correctness:,0.5750,0.5750,0,, ,Correctness:,0.5200,0.5200,0,, ,Correctness:,0.5100,0.5100,0,, 
,Correctness:,0.9050,0.9050,0,, ,Correctness:,0.7087,0.7087,0,, ,Correctness:,0.5700,0.5700,0,, ,Correctness:,0.5250,0.5250,0,, ,Correctness:,0.5062,0.5062,0,, 
,Correctness:,0.8512,0.8512,0,, ,Correctness:,0.6875,0.6875,0,, ,Correctness:,0.5813,0.5813,0,, ,Correctness:,0.5288,0.5288,0,, ,Correctness:,0.5062,0.5062,0,, 
,Correctness:,0.9225,0.9225,0,, ,Correctness:,0.8538,0.8538,0,, ,Correctness:,0.5075,0.5075,0,, ,Correctness:,0.5325,0.5325,0,, ,Correctness:,0.5050,0.5050,0,, 
,Correctness:,0.8525,0.8525,0,, ,Correctness:,0.7250,0.7250,0,, ,Correctness:,0.5700,0.5700,0,, ,Correctness:,0.5200,0.5200,0,, ,Correctness:,0.5075,0.5075,0,, 
,Correctness:,0.8912,0.8912,0,, ,Correctness:,0.7225,0.7225,0,, ,Correctness:,0.5687,0.5687,0,, ,Correctness:,0.5262,0.5262,0,, ,Correctness:,0.4963,0.4963,0,, 
,Correctness:,0.8375,0.8375,0,, ,Correctness:,0.6325,0.6325,0,, ,Correctness:,0.5975,0.5975,0,, ,Correctness:,0.5238,0.5238,0,, ,Correctness:,0.5038,0.5038,0,, 
,Correctness:,0.8013,0.8013,0,, ,Correctness:,0.5900,0.5900,0,, ,Correctness:,0.6175,0.6175,0,, ,Correctness:,0.5312,0.5312,0,, ,Correctness:,0.5200,0.5200,0,, 
,Correctness:,0.8462,0.8462,0,, ,Correctness:,0.6312,0.6312,0,, ,Correctness:,0.5900,0.5900,0,, ,Correctness:,0.5175,0.5175,0,, ,Correctness:,0.5025,0.5025,0,, 
,Correctness:,0.7950,0.7950,0,, ,Correctness:,0.6112,0.6112,0,, ,Correctness:,0.6212,0.6212,0,, ,Correctness:,0.5238,0.5238,0,, ,Correctness:,0.5075,0.5075,0,, 
,Correctness:,0.8762,0.8762,0,, ,Correctness:,0.6913,0.6913,0,, ,Correctness:,0.5725,0.5725,0,, ,Correctness:,0.5225,0.5225,0,, ,Correctness:,0.5012,0.5012,0,, 
,Correctness:,0.8769,0.8769,0,, ,Correctness:,0.6719,0.6719,0,, ,Correctness:,0.5900,0.5900,0,, ,Correctness:,0.5256,0.5256,0,, ,Correctness:,0.5112,0.5112,0,, 
,Correctness:,0.8375,0.8375,0,, ,Correctness:,0.6444,0.6444,0,, ,Correctness:,0.5969,0.5969,0,, ,Correctness:,0.5269,0.5269,0,, ,Correctness:,0.5025,0.5025,0,, 
,Correctness:,0.8862,0.8862,0,, ,Correctness:,0.7100,0.7100,0,, ,Correctness:,0.5556,0.5556,0,, ,Correctness:,0.5238,0.5238,0,, ,Correctness:,0.5056,0.5056,0,, 
,Correctness:,0.8575,0.8575,0,, ,Correctness:,0.6663,0.6663,0,, ,Correctness:,0.5863,0.5863,0,, ,Correctness:,0.5206,0.5206,0,, ,Correctness:,0.5062,0.5062,0,, 
,Correctness:,0.7975,0.7975,0,, ,Correctness:,0.6581,0.6581,0,, ,Correctness:,0.5831,0.5831,0,, ,Correctness:,0.5244,0.5244,0,, ,Correctness:,0.5044,0.5044,0,, 
,Correctness:,0.9113,0.9113,0,, ,Correctness:,0.6981,0.6981,0,, ,Correctness:,0.5650,0.5650,0,, ,Correctness:,0.5194,0.5194,0,, ,Correctness:,0.5000,0.5000,0,, 
,Correctness:,0.8888,0.8888,0,, ,Correctness:,0.7256,0.7256,0,, ,Correctness:,0.5587,0.5587,0,, ,Correctness:,0.5288,0.5288,0,, ,Correctness:,0.4963,0.4963,0,, 
,Correctness:,0.8919,0.8919,0,, ,Correctness:,0.7488,0.7488,0,, ,Correctness:,0.5469,0.5469,0,, ,Correctness:,0.5219,0.5219,0,, ,Correctness:,0.5025,0.5025,0,, 
,Correctness:,0.8925,0.8925,0,, ,Correctness:,0.6831,0.6831,0,, ,Correctness:,0.5769,0.5769,0,, ,Correctness:,0.5231,0.5231,0,, ,Correctness:,0.5088,0.5088,0,, 
,Correctness:,0.8694,0.8694,0,, ,Correctness:,0.7069,0.7069,0,, ,Correctness:,0.5656,0.5656,0,, ,Correctness:,0.5275,0.5275,0,, ,Correctness:,0.4994,0.4994,0,, 
Average:,0.8520,,,,, Average:,0.7022,,,,, Average:,0.5645,,,,, Average:,0.5289,,,,, Average:,0.5050,,,,, 
,Correctness:,0.8100,0.8100,0,, ,Correctness:,0.5100,0.5100,0,, ,Correctness:,0.4100,0.4100,0,, ,Correctness:,0.4900,0.4900,0,, ,Correctness:,0.4900,0.4900,0,, 
,Correctness:,0.7100,0.7100,0,, ,Correctness:,0.5000,0.5000,0,, ,Correctness:,0.7300,0.7300,0,, ,Correctness:,0.5100,0.5100,0,, ,Correctness:,0.5100,0.5100,0,, 
,Correctness:,0.8600,0.8600,0,, ,Correctness:,0.4900,0.4900,0,, ,Correctness:,0.7900,0.7900,0,, ,Correctness:,0.4900,0.4900,0,, ,Correctness:,0.4900,0.4900,0,, 
,Correctness:,0.8200,0.8200,0,, ,Correctness:,0.5200,0.5200,0,, ,Correctness:,0.7800,0.7800,0,, ,Correctness:,0.5400,0.5400,0,, ,Correctness:,0.5000,0.5000,0,, 
,Correctness:,0.8400,0.8400,0,, ,Correctness:,0.5000,0.5000,0,, ,Correctness:,0.8400,0.8400,0,, ,Correctness:,0.5100,0.5100,0,, ,Correctness:,0.5000,0.5000,0,, 
,Correctness:,0.8000,0.8000,0,, ,Correctness:,0.5000,0.5000,0,, ,Correctness:,0.8500,0.8500,0,, ,Correctness:,0.5200,0.5200,0,, ,Correctness:,0.4900,0.4900,0,, 
,Correctness:,0.8100,0.8100,0,, ,Correctness:,0.5000,0.5000,0,, ,Correctness:,0.8400,0.8400,0,, ,Correctness:,0.4900,0.4900,0,, ,Correctness:,0.4900,0.4900,0,, 
,Correctness:,0.8200,0.8200,0,, ,Correctness:,0.5200,0.5200,0,, ,Correctness:,0.6900,0.6900,0,, ,Correctness:,0.5200,0.5200,0,, ,Correctness:,0.5100,0.5100,0,, 
,Correctness:,0.8100,0.8100,0,, ,Correctness:,0.4800,0.4800,0,, ,Correctness:,0.7600,0.7600,0,, ,Correctness:,0.5100,0.5100,0,, ,Correctness:,0.4800,0.4800,0,, 
,Correctness:,0.8200,0.8200,0,, ,Correctness:,0.5200,0.5200,0,, ,Correctness:,0.5800,0.5800,0,, ,Correctness:,0.5100,0.5100,0,, ,Correctness:,0.5300,0.5300,0,, 
,Correctness:,0.8000,0.8000,0,, ,Correctness:,0.5000,0.5000,0,, ,Correctness:,0.7250,0.7250,0,, ,Correctness:,0.5100,0.5100,0,, ,Correctness:,0.4950,0.4950,0,, 
,Correctness:,0.7800,0.7800,0,, ,Correctness:,0.5050,0.5050,0,, ,Correctness:,0.7200,0.7200,0,, ,Correctness:,0.5200,0.5200,0,, ,Correctness:,0.5150,0.5150,0,, 
,Correctness:,0.8000,0.8000,0,, ,Correctness:,0.5150,0.5150,0,, ,Correctness:,0.5350,0.5350,0,, ,Correctness:,0.4950,0.4950,0,, ,Correctness:,0.5250,0.5250,0,, 
,Correctness:,0.8250,0.8250,0,, ,Correctness:,0.4900,0.4900,0,, ,Correctness:,0.6150,0.6150,0,, ,Correctness:,0.4900,0.4900,0,, ,Correctness:,0.4950,0.4950,0,, 
,Correctness:,0.8500,0.8500,0,, ,Correctness:,0.5100,0.5100,0,, ,Correctness:,0.7250,0.7250,0,, ,Correctness:,0.5100,0.5100,0,, ,Correctness:,0.5050,0.5050,0,, 
,Correctness:,0.7900,0.7900,0,, ,Correctness:,0.4950,0.4950,0,, ,Correctness:,0.6500,0.6500,0,, ,Correctness:,0.5100,0.5100,0,, ,Correctness:,0.5050,0.5050,0,, 
,Correctness:,0.8300,0.8300,0,, ,Correctness:,0.5050,0.5050,0,, ,Correctness:,0.7450,0.7450,0,, ,Correctness:,0.5000,0.5000,0,, ,Correctness:,0.5050,0.5050,0,, 
,Correctness:,0.8150,0.8150,0,, ,Correctness:,0.4900,0.4900,0,, ,Correctness:,0.7150,0.7150,0,, ,Correctness:,0.4950,0.4950,0,, ,Correctness:,0.4950,0.4950,0,, 
,Correctness:,0.7750,0.7750,0,, ,Correctness:,0.5000,0.5000,0,, ,Correctness:,0.6850,0.6850,0,, ,Correctness:,0.4950,0.4950,0,, ,Correctness:,0.4950,0.4950,0,, 
,Correctness:,0.8500,0.8500,0,, ,Correctness:,0.5250,0.5250,0,, ,Correctness:,0.8550,0.8550,0,, ,Correctness:,0.5250,0.5250,0,, ,Correctness:,0.5250,0.5250,0,, 
,Correctness:,0.8125,0.8125,0,, ,Correctness:,0.5075,0.5075,0,, ,Correctness:,0.7075,0.7075,0,, ,Correctness:,0.5100,0.5100,0,, ,Correctness:,0.4900,0.4900,0,, 
,Correctness:,0.8325,0.8325,0,, ,Correctness:,0.5150,0.5150,0,, ,Correctness:,0.7475,0.7475,0,, ,Correctness:,0.5175,0.5175,0,, ,Correctness:,0.5200,0.5200,0,, 
,Correctness:,0.8250,0.8250,0,, ,Correctness:,0.5025,0.5025,0,, ,Correctness:,0.8250,0.8250,0,, ,Correctness:,0.5100,0.5100,0,, ,Correctness:,0.5075,0.5075,0,, 
,Correctness:,0.8100,0.8100,0,, ,Correctness:,0.4925,0.4925,0,, ,Correctness:,0.6650,0.6650,0,, ,Correctness:,0.5025,0.5025,0,, ,Correctness:,0.5025,0.5025,0,, 
,Correctness:,0.8350,0.8350,0,, ,Correctness:,0.5025,0.5025,0,, ,Correctness:,0.8600,0.8600,0,, ,Correctness:,0.5075,0.5075,0,, ,Correctness:,0.5075,0.5075,0,, 
,Correctness:,0.8350,0.8350,0,, ,Correctness:,0.5050,0.5050,0,, ,Correctness:,0.7375,0.7375,0,, ,Correctness:,0.5150,0.5150,0,, ,Correctness:,0.5100,0.5100,0,, 
,Correctness:,0.8350,0.8350,0,, ,Correctness:,0.5000,0.5000,0,, ,Correctness:,0.7250,0.7250,0,, ,Correctness:,0.5150,0.5150,0,, ,Correctness:,0.4900,0.4900,0,, 
,Correctness:,0.8100,0.8100,0,, ,Correctness:,0.4975,0.4975,0,, ,Correctness:,0.7200,0.7200,0,, ,Correctness:,0.5300,0.5300,0,, ,Correctness:,0.5075,0.5075,0,, 
,Correctness:,0.8100,0.8100,0,, ,Correctness:,0.5000,0.5000,0,, ,Correctness:,0.7400,0.7400,0,, ,Correctness:,0.5075,0.5075,0,, ,Correctness:,0.5050,0.5050,0,, 
,Correctness:,0.7900,0.7900,0,, ,Correctness:,0.5100,0.5100,0,, ,Correctness:,0.6100,0.6100,0,, ,Correctness:,0.5100,0.5100,0,, ,Correctness:,0.5125,0.5125,0,, 
,Correctness:,0.8375,0.8375,0,, ,Correctness:,0.5050,0.5050,0,, ,Correctness:,0.7775,0.7775,0,, ,Correctness:,0.5088,0.5088,0,, ,Correctness:,0.5062,0.5062,0,, 
,Correctness:,0.8187,0.8187,0,, ,Correctness:,0.5088,0.5088,0,, ,Correctness:,0.7262,0.7262,0,, ,Correctness:,0.5100,0.5100,0,, ,Correctness:,0.5000,0.5000,0,, 
,Correctness:,0.8187,0.8187,0,, ,Correctness:,0.5000,0.5000,0,, ,Correctness:,0.8538,0.8538,0,, ,Correctness:,0.5088,0.5088,0,, ,Correctness:,0.5038,0.5038,0,, 
,Correctness:,0.8450,0.8450,0,, ,Correctness:,0.5012,0.5012,0,, ,Correctness:,0.7425,0.7425,0,, ,Correctness:,0.5050,0.5050,0,, ,Correctness:,0.5012,0.5012,0,, 
,Correctness:,0.8300,0.8300,0,, ,Correctness:,0.5050,0.5050,0,, ,Correctness:,0.7625,0.7625,0,, ,Correctness:,0.5100,0.5100,0,, ,Correctness:,0.4963,0.4963,0,, 
,Correctness:,0.8125,0.8125,0,, ,Correctness:,0.4988,0.4988,0,, ,Correctness:,0.6475,0.6475,0,, ,Correctness:,0.5075,0.5075,0,, ,Correctness:,0.5038,0.5038,0,, 
,Correctness:,0.8137,0.8137,0,, ,Correctness:,0.5138,0.5138,0,, ,Correctness:,0.6038,0.6038,0,, ,Correctness:,0.5200,0.5200,0,, ,Correctness:,0.5088,0.5088,0,, 
,Correctness:,0.8163,0.8163,0,, ,Correctness:,0.5100,0.5100,0,, ,Correctness:,0.6887,0.6887,0,, ,Correctness:,0.5075,0.5075,0,, ,Correctness:,0.5075,0.5075,0,, 
,Correctness:,0.8287,0.8287,0,, ,Correctness:,0.5088,0.5088,0,, ,Correctness:,0.7175,0.7175,0,, ,Correctness:,0.5162,0.5162,0,, ,Correctness:,0.5050,0.5050,0,, 
,Correctness:,0.8213,0.8213,0,, ,Correctness:,0.5038,0.5038,0,, ,Correctness:,0.7238,0.7238,0,, ,Correctness:,0.4988,0.4988,0,, ,Correctness:,0.5000,0.5000,0,, 
,Correctness:,0.8363,0.8363,0,, ,Correctness:,0.5062,0.5062,0,, ,Correctness:,0.6719,0.6719,0,, ,Correctness:,0.5169,0.5169,0,, ,Correctness:,0.5094,0.5094,0,, 
,Correctness:,0.8300,0.8300,0,, ,Correctness:,0.5019,0.5019,0,, ,Correctness:,0.6706,0.6706,0,, ,Correctness:,0.5106,0.5106,0,, ,Correctness:,0.5025,0.5025,0,, 
,Correctness:,0.8256,0.8256,0,, ,Correctness:,0.5044,0.5044,0,, ,Correctness:,0.7188,0.7188,0,, ,Correctness:,0.5075,0.5075,0,, ,Correctness:,0.5094,0.5094,0,, 
,Correctness:,0.8206,0.8206,0,, ,Correctness:,0.5012,0.5012,0,, ,Correctness:,0.6825,0.6825,0,, ,Correctness:,0.5056,0.5056,0,, ,Correctness:,0.5044,0.5044,0,, 
,Correctness:,0.8213,0.8213,0,, ,Correctness:,0.5006,0.5006,0,, ,Correctness:,0.7231,0.7231,0,, ,Correctness:,0.5050,0.5050,0,, ,Correctness:,0.5050,0.5050,0,, 
,Correctness:,0.8344,0.8344,0,, ,Correctness:,0.4988,0.4988,0,, ,Correctness:,0.7269,0.7269,0,, ,Correctness:,0.5012,0.5012,0,, ,Correctness:,0.4975,0.4975,0,, 
,Correctness:,0.8306,0.8306,0,, ,Correctness:,0.5019,0.5019,0,, ,Correctness:,0.7469,0.7469,0,, ,Correctness:,0.5106,0.5106,0,, ,Correctness:,0.5044,0.5044,0,, 
,Correctness:,0.8137,0.8137,0,, ,Correctness:,0.5044,0.5044,0,, ,Correctness:,0.7506,0.7506,0,, ,Correctness:,0.5138,0.5138,0,, ,Correctness:,0.4994,0.4994,0,, 
,Correctness:,0.8337,0.8337,0,, ,Correctness:,0.5062,0.5062,0,, ,Correctness:,0.6913,0.6913,0,, ,Correctness:,0.5094,0.5094,0,, ,Correctness:,0.5069,0.5069,0,, 
,Correctness:,0.8125,0.8125,0,, ,Correctness:,0.5006,0.5006,0,, ,Correctness:,0.7319,0.7319,0,, ,Correctness:,0.5081,0.5081,0,, ,Correctness:,0.5006,0.5006,0,, 
Average:,0.8182,,,,, Average:,0.5038,,,,, Average:,0.7187,,,,, Average:,0.5089,,,,, Average:,0.5035,,,,, 
,Correctness:,0.8700,0.8700,0,, ,Correctness:,0.5200,0.5200,0,, ,Correctness:,0.6000,0.6000,0,, ,Correctness:,0.6000,0.6000,0,, ,Correctness:,0.6100,0.6100,0,, 
,Correctness:,0.7200,0.7200,0,, ,Correctness:,0.5100,0.5100,0,, ,Correctness:,0.2600,0.2600,0,, ,Correctness:,0.2600,0.2600,0,, ,Correctness:,0.7200,0.7200,0,, 
,Correctness:,0.9600,0.9600,0,, ,Correctness:,0.5200,0.5200,0,, ,Correctness:,0.2200,0.2200,0,, ,Correctness:,0.2200,0.2200,0,, ,Correctness:,0.8100,0.8100,0,, 
,Correctness:,0.9300,0.9300,0,, ,Correctness:,0.5400,0.5400,0,, ,Correctness:,0.2100,0.2100,0,, ,Correctness:,0.2100,0.2100,0,, ,Correctness:,0.7600,0.7600,0,, 
,Correctness:,0.9300,0.9300,0,, ,Correctness:,0.5100,0.5100,0,, ,Correctness:,0.1700,0.1700,0,, ,Correctness:,0.1700,0.1700,0,, ,Correctness:,0.8000,0.8000,0,, 
,Correctness:,0.9500,0.9500,0,, ,Correctness:,0.5100,0.5100,0,, ,Correctness:,0.1600,0.1600,0,, ,Correctness:,0.1600,0.1600,0,, ,Correctness:,0.7700,0.7700,0,, 
,Correctness:,0.9400,0.9400,0,, ,Correctness:,0.5100,0.5100,0,, ,Correctness:,0.1700,0.1700,0,, ,Correctness:,0.1700,0.1700,0,, ,Correctness:,0.7700,0.7700,0,, 
,Correctness:,0.8300,0.8300,0,, ,Correctness:,0.5200,0.5200,0,, ,Correctness:,0.3600,0.3600,0,, ,Correctness:,0.3600,0.3600,0,, ,Correctness:,0.7200,0.7200,0,, 
,Correctness:,0.9100,0.9100,0,, ,Correctness:,0.5200,0.5200,0,, ,Correctness:,0.2300,0.2300,0,, ,Correctness:,0.2300,0.2300,0,, ,Correctness:,0.7600,0.7600,0,, 
,Correctness:,0.9000,0.9000,0,, ,Correctness:,0.5200,0.5200,0,, ,Correctness:,0.4300,0.4300,0,, ,Correctness:,0.4300,0.4300,0,, ,Correctness:,0.7200,0.7200,0,, 
,Correctness:,0.8800,0.8800,0,, ,Correctness:,0.5150,0.5150,0,, ,Correctness:,0.2800,0.2800,0,, ,Correctness:,0.2800,0.2800,0,, ,Correctness:,0.7300,0.7300,0,, 
,Correctness:,0.8800,0.8800,0,, ,Correctness:,0.5200,0.5200,0,, ,Correctness:,0.2850,0.2850,0,, ,Correctness:,0.2850,0.2850,0,, ,Correctness:,0.7250,0.7250,0,, 
,Correctness:,0.8850,0.8850,0,, ,Correctness:,0.5100,0.5100,0,, ,Correctness:,0.5000,0.5000,0,, ,Correctness:,0.5000,0.5000,0,, ,Correctness:,0.6350,0.6350,0,, 
,Correctness:,0.9100,0.9100,0,, ,Correctness:,0.4950,0.4950,0,, ,Correctness:,0.4000,0.4000,0,, ,Correctness:,0.4000,0.4000,0,, ,Correctness:,0.7000,0.7000,0,, 
,Correctness:,0.9000,0.9000,0,, ,Correctness:,0.5250,0.5250,0,, ,Correctness:,0.2800,0.2800,0,, ,Correctness:,0.2800,0.2800,0,, ,Correctness:,0.7900,0.7900,0,, 
,Correctness:,0.8850,0.8850,0,, ,Correctness:,0.5100,0.5100,0,, ,Correctness:,0.3450,0.3450,0,, ,Correctness:,0.3450,0.3450,0,, ,Correctness:,0.6900,0.6900,0,, 
,Correctness:,0.8950,0.8950,0,, ,Correctness:,0.5050,0.5050,0,, ,Correctness:,0.2600,0.2600,0,, ,Correctness:,0.2600,0.2600,0,, ,Correctness:,0.7700,0.7700,0,, 
,Correctness:,0.8350,0.8350,0,, ,Correctness:,0.5000,0.5000,0,, ,Correctness:,0.2900,0.2900,0,, ,Correctness:,0.2900,0.2900,0,, ,Correctness:,0.7350,0.7350,0,, 
,Correctness:,0.8350,0.8350,0,, ,Correctness:,0.4950,0.4950,0,, ,Correctness:,0.3350,0.3350,0,, ,Correctness:,0.3350,0.3350,0,, ,Correctness:,0.7150,0.7150,0,, 
,Correctness:,0.9400,0.9400,0,, ,Correctness:,0.5500,0.5500,0,, ,Correctness:,0.1500,0.1500,0,, ,Correctness:,0.1500,0.1500,0,, ,Correctness:,0.8200,0.8200,0,, 
,Correctness:,0.8875,0.8875,0,, ,Correctness:,0.5250,0.5250,0,, ,Correctness:,0.3225,0.3225,0,, ,Correctness:,0.3225,0.3225,0,, ,Correctness:,0.7325,0.7325,0,, 
,Correctness:,0.8825,0.8825,0,, ,Correctness:,0.5100,0.5100,0,, ,Correctness:,0.2550,0.2550,0,, ,Correctness:,0.2550,0.2550,0,, ,Correctness:,0.7625,0.7625,0,, 
,Correctness:,0.9175,0.9175,0,, ,Correctness:,0.5125,0.5125,0,, ,Correctness:,0.1875,0.1875,0,, ,Correctness:,0.1875,0.1875,0,, ,Correctness:,0.7850,0.7850,0,, 
,Correctness:,0.8525,0.8525,0,, ,Correctness:,0.5125,0.5125,0,, ,Correctness:,0.3375,0.3375,0,, ,Correctness:,0.3375,0.3375,0,, ,Correctness:,0.7300,0.7300,0,, 
,Correctness:,0.8925,0.8925,0,, ,Correctness:,0.5125,0.5125,0,, ,Correctness:,0.1425,0.1425,0,, ,Correctness:,0.1425,0.1425,0,, ,Correctness:,0.8075,0.8075,0,, 
,Correctness:,0.9225,0.9225,0,, ,Correctness:,0.5200,0.5200,0,, ,Correctness:,0.2950,0.2950,0,, ,Correctness:,0.2950,0.2950,0,, ,Correctness:,0.7475,0.7475,0,, 
,Correctness:,0.9050,0.9050,0,, ,Correctness:,0.5175,0.5175,0,, ,Correctness:,0.2775,0.2775,0,, ,Correctness:,0.2775,0.2775,0,, ,Correctness:,0.7600,0.7600,0,, 
,Correctness:,0.8875,0.8875,0,, ,Correctness:,0.5150,0.5150,0,, ,Correctness:,0.2825,0.2825,0,, ,Correctness:,0.2825,0.2825,0,, ,Correctness:,0.7450,0.7450,0,, 
,Correctness:,0.8825,0.8825,0,, ,Correctness:,0.5125,0.5125,0,, ,Correctness:,0.2575,0.2575,0,, ,Correctness:,0.2575,0.2575,0,, ,Correctness:,0.7575,0.7575,0,, 
,Correctness:,0.8625,0.8625,0,, ,Correctness:,0.5225,0.5225,0,, ,Correctness:,0.3925,0.3925,0,, ,Correctness:,0.3925,0.3925,0,, ,Correctness:,0.6875,0.6875,0,, 
,Correctness:,0.9000,0.9000,0,, ,Correctness:,0.5088,0.5088,0,, ,Correctness:,0.2925,0.2925,0,, ,Correctness:,0.2925,0.2925,0,, ,Correctness:,0.7512,0.7512,0,, 
,Correctness:,0.8875,0.8875,0,, ,Correctness:,0.5225,0.5225,0,, ,Correctness:,0.3137,0.3137,0,, ,Correctness:,0.3137,0.3137,0,, ,Correctness:,0.7288,0.7288,0,, 
,Correctness:,0.9263,0.9263,0,, ,Correctness:,0.5200,0.5200,0,, ,Correctness:,0.1475,0.1475,0,, ,Correctness:,0.1475,0.1475,0,, ,Correctness:,0.7913,0.7913,0,, 
,Correctness:,0.9087,0.9087,0,, ,Correctness:,0.5162,0.5162,0,, ,Correctness:,0.2762,0.2762,0,, ,Correctness:,0.2762,0.2762,0,, ,Correctness:,0.7650,0.7650,0,, 
,Correctness:,0.9075,0.9075,0,, ,Correctness:,0.5138,0.5138,0,, ,Correctness:,0.2762,0.2762,0,, ,Correctness:,0.2762,0.2762,0,, ,Correctness:,0.7488,0.7488,0,, 
,Correctness:,0.9038,0.9038,0,, ,Correctness:,0.5288,0.5288,0,, ,Correctness:,0.3663,0.3663,0,, ,Correctness:,0.3663,0.3663,0,, ,Correctness:,0.6987,0.6987,0,, 
,Correctness:,0.8875,0.8875,0,, ,Correctness:,0.5300,0.5300,0,, ,Correctness:,0.4113,0.4113,0,, ,Correctness:,0.4113,0.4113,0,, ,Correctness:,0.6937,0.6937,0,, 
,Correctness:,0.8925,0.8925,0,, ,Correctness:,0.5100,0.5100,0,, ,Correctness:,0.3675,0.3675,0,, ,Correctness:,0.3675,0.3675,0,, ,Correctness:,0.7100,0.7100,0,, 
,Correctness:,0.8888,0.8888,0,, ,Correctness:,0.5212,0.5212,0,, ,Correctness:,0.3900,0.3900,0,, ,Correctness:,0.3900,0.3900,0,, ,Correctness:,0.7050,0.7050,0,, 
,Correctness:,0.9025,0.9025,0,, ,Correctness:,0.5162,0.5162,0,, ,Correctness:,0.3100,0.3100,0,, ,Correctness:,0.3100,0.3100,0,, ,Correctness:,0.7350,0.7350,0,, 
,Correctness:,0.9050,0.9050,0,, ,Correctness:,0.5175,0.5175,0,, ,Correctness:,0.3287,0.3287,0,, ,Correctness:,0.3287,0.3287,0,, ,Correctness:,0.7425,0.7425,0,, 
,Correctness:,0.8969,0.8969,0,, ,Correctness:,0.5262,0.5262,0,, ,Correctness:,0.3550,0.3550,0,, ,Correctness:,0.3550,0.3550,0,, ,Correctness:,0.7281,0.7281,0,, 
,Correctness:,0.9150,0.9150,0,, ,Correctness:,0.5150,0.5150,0,, ,Correctness:,0.2906,0.2906,0,, ,Correctness:,0.2906,0.2906,0,, ,Correctness:,0.7456,0.7456,0,, 
,Correctness:,0.9006,0.9006,0,, ,Correctness:,0.5156,0.5156,0,, ,Correctness:,0.3344,0.3344,0,, ,Correctness:,0.3344,0.3344,0,, ,Correctness:,0.7200,0.7200,0,, 
,Correctness:,0.9019,0.9019,0,, ,Correctness:,0.5162,0.5162,0,, ,Correctness:,0.3412,0.3412,0,, ,Correctness:,0.3412,0.3412,0,, ,Correctness:,0.7212,0.7212,0,, 
,Correctness:,0.9031,0.9031,0,, ,Correctness:,0.5144,0.5144,0,, ,Correctness:,0.3013,0.3013,0,, ,Correctness:,0.3013,0.3013,0,, ,Correctness:,0.7481,0.7481,0,, 
,Correctness:,0.9044,0.9044,0,, ,Correctness:,0.5156,0.5156,0,, ,Correctness:,0.2750,0.2750,0,, ,Correctness:,0.2750,0.2750,0,, ,Correctness:,0.7588,0.7588,0,, 
,Correctness:,0.8956,0.8956,0,, ,Correctness:,0.5200,0.5200,0,, ,Correctness:,0.2506,0.2506,0,, ,Correctness:,0.2506,0.2506,0,, ,Correctness:,0.7544,0.7544,0,, 
,Correctness:,0.9181,0.9181,0,, ,Correctness:,0.5238,0.5238,0,, ,Correctness:,0.3175,0.3175,0,, ,Correctness:,0.3175,0.3175,0,, ,Correctness:,0.7406,0.7406,0,, 
,Correctness:,0.8888,0.8888,0,, ,Correctness:,0.5206,0.5206,0,, ,Correctness:,0.2925,0.2925,0,, ,Correctness:,0.2925,0.2925,0,, ,Correctness:,0.7356,0.7356,0,, 
Average:,0.8942,,,,, Average:,0.5167,,,,, Average:,0.2985,,,,, Average:,0.2985,,,,, Average:,0.7398,,,,, 
,Correctness:,0.9200,0.9200,0,, ,Correctness:,0.5100,0.5100,0,, ,Correctness:,0.8100,0.8100,0,, ,Correctness:,0.9100,0.9100,0,, ,Correctness:,0.6900,0.6900,0,, 
,Correctness:,0.6700,0.6700,0,, ,Correctness:,0.5100,0.5100,0,, ,Correctness:,0.7100,0.7100,0,, ,Correctness:,0.7600,0.7600,0,, ,Correctness:,0.4200,0.4200,0,, 
,Correctness:,0.8300,0.8300,0,, ,Correctness:,0.4800,0.4800,0,, ,Correctness:,0.8600,0.8600,0,, ,Correctness:,0.8600,0.8600,0,, ,Correctness:,0.4300,0.4300,0,, 
,Correctness:,0.8400,0.8400,0,, ,Correctness:,0.5300,0.5300,0,, ,Correctness:,0.8200,0.8200,0,, ,Correctness:,0.9200,0.9200,0,, ,Correctness:,0.4700,0.4700,0,, 
,Correctness:,0.8600,0.8600,0,, ,Correctness:,0.5100,0.5100,0,, ,Correctness:,0.8400,0.8400,0,, ,Correctness:,0.8400,0.8400,0,, ,Correctness:,0.4700,0.4700,0,, 
,Correctness:,0.7000,0.7000,0,, ,Correctness:,0.5000,0.5000,0,, ,Correctness:,0.8000,0.8000,0,, ,Correctness:,0.8800,0.8800,0,, ,Correctness:,0.4500,0.4500,0,, 
,Correctness:,0.8300,0.8300,0,, ,Correctness:,0.5100,0.5100,0,, ,Correctness:,0.8100,0.8100,0,, ,Correctness:,0.9400,0.9400,0,, ,Correctness:,0.3800,0.3800,0,, 
,Correctness:,0.8300,0.8300,0,, ,Correctness:,0.5200,0.5200,0,, ,Correctness:,0.8200,0.8200,0,, ,Correctness:,0.8900,0.8900,0,, ,Correctness:,0.5500,0.5500,0,, 
,Correctness:,0.8600,0.8600,0,, ,Correctness:,0.4800,0.4800,0,, ,Correctness:,0.8100,0.8100,0,, ,Correctness:,0.7400,0.7400,0,, ,Correctness:,0.4600,0.4600,0,, 
,Correctness:,0.9000,0.9000,0,, ,Correctness:,0.5100,0.5100,0,, ,Correctness:,0.8200,0.8200,0,, ,Correctness:,0.6600,0.6600,0,, ,Correctness:,0.5900,0.5900,0,, 
,Correctness:,0.8350,0.8350,0,, ,Correctness:,0.5100,0.5100,0,, ,Correctness:,0.8000,0.8000,0,, ,Correctness:,0.7300,0.7300,0,, ,Correctness:,0.4750,0.4750,0,, 
,Correctness:,0.8000,0.8000,0,, ,Correctness:,0.5200,0.5200,0,, ,Correctness:,0.7800,0.7800,0,, ,Correctness:,0.8550,0.8550,0,, ,Correctness:,0.4950,0.4950,0,, 
,Correctness:,0.8250,0.8250,0,, ,Correctness:,0.5100,0.5100,0,, ,Correctness:,0.8000,0.8000,0,, ,Correctness:,0.7900,0.7900,0,, ,Correctness:,0.6350,0.6350,0,, 
,Correctness:,0.8700,0.8700,0,, ,Correctness:,0.4900,0.4900,0,, ,Correctness:,0.8250,0.8250,0,, ,Correctness:,0.7500,0.7500,0,, ,Correctness:,0.5550,0.5550,0,, 
,Correctness:,0.8950,0.8950,0,, ,Correctness:,0.5150,0.5150,0,, ,Correctness:,0.8500,0.8500,0,, ,Correctness:,0.8300,0.8300,0,, ,Correctness:,0.4900,0.4900,0,, 
,Correctness:,0.8250,0.8250,0,, ,Correctness:,0.5100,0.5100,0,, ,Correctness:,0.7900,0.7900,0,, ,Correctness:,0.7500,0.7500,0,, ,Correctness:,0.5250,0.5250,0,, 
,Correctness:,0.8300,0.8300,0,, ,Correctness:,0.5000,0.5000,0,, ,Correctness:,0.8300,0.8300,0,, ,Correctness:,0.7450,0.7450,0,, ,Correctness:,0.4700,0.4700,0,, 
,Correctness:,0.7650,0.7650,0,, ,Correctness:,0.4950,0.4950,0,, ,Correctness:,0.8150,0.8150,0,, ,Correctness:,0.8550,0.8550,0,, ,Correctness:,0.5000,0.5000,0,, 
,Correctness:,0.8150,0.8150,0,, ,Correctness:,0.4950,0.4950,0,, ,Correctness:,0.7750,0.7750,0,, ,Correctness:,0.7700,0.7700,0,, ,Correctness:,0.5200,0.5200,0,, 
,Correctness:,0.9000,0.9000,0,, ,Correctness:,0.5250,0.5250,0,, ,Correctness:,0.8500,0.8500,0,, ,Correctness:,0.8550,0.8550,0,, ,Correctness:,0.4400,0.4400,0,, 
,Correctness:,0.8125,0.8125,0,, ,Correctness:,0.5100,0.5100,0,, ,Correctness:,0.8125,0.8125,0,, ,Correctness:,0.8550,0.8550,0,, ,Correctness:,0.5275,0.5275,0,, 
,Correctness:,0.8325,0.8325,0,, ,Correctness:,0.5175,0.5175,0,, ,Correctness:,0.8325,0.8325,0,, ,Correctness:,0.7725,0.7725,0,, ,Correctness:,0.4875,0.4875,0,, 
,Correctness:,0.8300,0.8300,0,, ,Correctness:,0.5100,0.5100,0,, ,Correctness:,0.8250,0.8250,0,, ,Correctness:,0.8550,0.8550,0,, ,Correctness:,0.4375,0.4375,0,, 
,Correctness:,0.8675,0.8675,0,, ,Correctness:,0.5075,0.5075,0,, ,Correctness:,0.8100,0.8100,0,, ,Correctness:,0.7600,0.7600,0,, ,Correctness:,0.5000,0.5000,0,, 
,Correctness:,0.8450,0.8450,0,, ,Correctness:,0.5075,0.5075,0,, ,Correctness:,0.8350,0.8350,0,, ,Correctness:,0.8600,0.8600,0,, ,Correctness:,0.4250,0.4250,0,, 
,Correctness:,0.9025,0.9025,0,, ,Correctness:,0.5175,0.5175,0,, ,Correctness:,0.8350,0.8350,0,, ,Correctness:,0.8525,0.8525,0,, ,Correctness:,0.5025,0.5025,0,, 
,Correctness:,0.8250,0.8250,0,, ,Correctness:,0.5025,0.5025,0,, ,Correctness:,0.8350,0.8350,0,, ,Correctness:,0.8300,0.8300,0,, ,Correctness:,0.4750,0.4750,0,, 
,Correctness:,0.7750,0.7750,0,, ,Correctness:,0.5175,0.5175,0,, ,Correctness:,0.8100,0.8100,0,, ,Correctness:,0.8775,0.8775,0,, ,Correctness:,0.4825,0.4825,0,, 
,Correctness:,0.8475,0.8475,0,, ,Correctness:,0.5125,0.5125,0,, ,Correctness:,0.8100,0.8100,0,, ,Correctness:,0.8225,0.8225,0,, ,Correctness:,0.4850,0.4850,0,, 
,Correctness:,0.8750,0.8750,0,, ,Correctness:,0.5100,0.5100,0,, ,Correctness:,0.7900,0.7900,0,, ,Correctness:,0.7300,0.7300,0,, ,Correctness:,0.5525,0.5525,0,, 
,Correctness:,0.8712,0.8712,0,, ,Correctness:,0.5088,0.5088,0,, ,Correctness:,0.8375,0.8375,0,, ,Correctness:,0.8600,0.8600,0,, ,Correctness:,0.5088,0.5088,0,, 
,Correctness:,0.8000,0.8000,0,, ,Correctness:,0.5050,0.5050,0,, ,Correctness:,0.8187,0.8187,0,, ,Correctness:,0.7925,0.7925,0,, ,Correctness:,0.5038,0.5038,0,, 
,Correctness:,0.8300,0.8300,0,, ,Correctness:,0.5100,0.5100,0,, ,Correctness:,0.8187,0.8187,0,, ,Correctness:,0.9025,0.9025,0,, ,Correctness:,0.3925,0.3925,0,, 
,Correctness:,0.8738,0.8738,0,, ,Correctness:,0.5062,0.5062,0,, ,Correctness:,0.8450,0.8450,0,, ,Correctness:,0.8438,0.8438,0,, ,Correctness:,0.4888,0.4888,0,, 
,Correctness:,0.8525,0.8525,0,, ,Correctness:,0.5062,0.5062,0,, ,Correctness:,0.8300,0.8300,0,, ,Correctness:,0.8413,0.8413,0,, ,Correctness:,0.4963,0.4963,0,, 
,Correctness:,0.8762,0.8762,0,, ,Correctness:,0.5050,0.5050,0,, ,Correctness:,0.8125,0.8125,0,, ,Correctness:,0.7937,0.7937,0,, ,Correctness:,0.5413,0.5413,0,, 
,Correctness:,0.8287,0.8287,0,, ,Correctness:,0.5200,0.5200,0,, ,Correctness:,0.8137,0.8137,0,, ,Correctness:,0.7163,0.7163,0,, ,Correctness:,0.5575,0.5575,0,, 
,Correctness:,0.8612,0.8612,0,, ,Correctness:,0.5012,0.5012,0,, ,Correctness:,0.8163,0.8163,0,, ,Correctness:,0.7488,0.7488,0,, ,Correctness:,0.5312,0.5312,0,, 
,Correctness:,0.8512,0.8512,0,, ,Correctness:,0.5175,0.5175,0,, ,Correctness:,0.8287,0.8287,0,, ,Correctness:,0.7650,0.7650,0,, ,Correctness:,0.5625,0.5625,0,, 
,Correctness:,0.8550,0.8550,0,, ,Correctness:,0.5012,0.5012,0,, ,Correctness:,0.8213,0.8213,0,, ,Correctness:,0.8588,0.8588,0,, ,Correctness:,0.5150,0.5150,0,, 
,Correctness:,0.8775,0.8775,0,, ,Correctness:,0.5162,0.5162,0,, ,Correctness:,0.8363,0.8363,0,, ,Correctness:,0.8156,0.8156,0,, ,Correctness:,0.5169,0.5169,0,, 
,Correctness:,0.8469,0.8469,0,, ,Correctness:,0.5062,0.5062,0,, ,Correctness:,0.8300,0.8300,0,, ,Correctness:,0.7519,0.7519,0,, ,Correctness:,0.5281,0.5281,0,, 
,Correctness:,0.8588,0.8588,0,, ,Correctness:,0.5044,0.5044,0,, ,Correctness:,0.8256,0.8256,0,, ,Correctness:,0.8119,0.8119,0,, ,Correctness:,0.5012,0.5012,0,, 
,Correctness:,0.8494,0.8494,0,, ,Correctness:,0.5094,0.5094,0,, ,Correctness:,0.8206,0.8206,0,, ,Correctness:,0.7837,0.7837,0,, ,Correctness:,0.5188,0.5188,0,, 
,Correctness:,0.8406,0.8406,0,, ,Correctness:,0.5056,0.5056,0,, ,Correctness:,0.8213,0.8213,0,, ,Correctness:,0.7981,0.7981,0,, ,Correctness:,0.5200,0.5200,0,, 
,Correctness:,0.8838,0.8838,0,, ,Correctness:,0.5044,0.5044,0,, ,Correctness:,0.8344,0.8344,0,, ,Correctness:,0.8456,0.8456,0,, ,Correctness:,0.4956,0.4956,0,, 
,Correctness:,0.8625,0.8625,0,, ,Correctness:,0.5075,0.5075,0,, ,Correctness:,0.8306,0.8306,0,, ,Correctness:,0.8275,0.8275,0,, ,Correctness:,0.4900,0.4900,0,, 
,Correctness:,0.8200,0.8200,0,, ,Correctness:,0.5088,0.5088,0,, ,Correctness:,0.8137,0.8137,0,, ,Correctness:,0.8069,0.8069,0,, ,Correctness:,0.4625,0.4625,0,, 
,Correctness:,0.8725,0.8725,0,, ,Correctness:,0.5069,0.5069,0,, ,Correctness:,0.8337,0.8337,0,, ,Correctness:,0.8725,0.8725,0,, ,Correctness:,0.5150,0.5150,0,, 
,Correctness:,0.8163,0.8163,0,, ,Correctness:,0.5019,0.5019,0,, ,Correctness:,0.8125,0.8125,0,, ,Correctness:,0.8194,0.8194,0,, ,Correctness:,0.4925,0.4925,0,, 
Average:,0.8408,,,,, Average:,0.5079,,,,, Average:,0.8182,,,,, Average:,0.8160,,,,, Average:,0.5006,,,,, 
,Correctness:,0.6000,0.6000,0,, ,Correctness:,0.6100,0.6100,0,, ,Correctness:,0.6000,0.6000,0,, ,Correctness:,0.8100,0.8100,0,, ,Correctness:,0.4900,0.4900,0,, 
,Correctness:,0.2600,0.2600,0,, ,Correctness:,0.7200,0.7200,0,, ,Correctness:,0.2600,0.2600,0,, ,Correctness:,0.7100,0.7100,0,, ,Correctness:,0.7300,0.7300,0,, 
,Correctness:,0.2200,0.2200,0,, ,Correctness:,0.8100,0.8100,0,, ,Correctness:,0.2200,0.2200,0,, ,Correctness:,0.8600,0.8600,0,, ,Correctness:,0.7900,0.7900,0,, 
,Correctness:,0.2100,0.2100,0,, ,Correctness:,0.7600,0.7600,0,, ,Correctness:,0.2100,0.2100,0,, ,Correctness:,0.8200,0.8200,0,, ,Correctness:,0.8200,0.8200,0,, 
,Correctness:,0.1700,0.1700,0,, ,Correctness:,0.8000,0.8000,0,, ,Correctness:,0.1700,0.1700,0,, ,Correctness:,0.8400,0.8400,0,, ,Correctness:,0.8400,0.8400,0,, 
,Correctness:,0.1500,0.1500,0,, ,Correctness:,0.7600,0.7600,0,, ,Correctness:,0.1600,0.1600,0,, ,Correctness:,0.8000,0.8000,0,, ,Correctness:,0.8400,0.8400,0,, 
,Correctness:,0.1700,0.1700,0,, ,Correctness:,0.7700,0.7700,0,, ,Correctness:,0.1700,0.1700,0,, ,Correctness:,0.8100,0.8100,0,, ,Correctness:,0.8400,0.8400,0,, 
,Correctness:,0.3600,0.3600,0,, ,Correctness:,0.7200,0.7200,0,, ,Correctness:,0.3600,0.3600,0,, ,Correctness:,0.8200,0.8200,0,, ,Correctness:,0.8400,0.8400,0,, 
,Correctness:,0.2300,0.2300,0,, ,Correctness:,0.7600,0.7600,0,, ,Correctness:,0.2300,0.2300,0,, ,Correctness:,0.8100,0.8100,0,, ,Correctness:,0.8100,0.8100,0,, 
,Correctness:,0.4300,0.4300,0,, ,Correctness:,0.7200,0.7200,0,, ,Correctness:,0.4300,0.4300,0,, ,Correctness:,0.8200,0.8200,0,, ,Correctness:,0.6700,0.6700,0,, 
,Correctness:,0.2800,0.2800,0,, ,Correctness:,0.7350,0.7350,0,, ,Correctness:,0.2800,0.2800,0,, ,Correctness:,0.8000,0.8000,0,, ,Correctness:,0.8100,0.8100,0,, 
,Correctness:,0.2850,0.2850,0,, ,Correctness:,0.7250,0.7250,0,, ,Correctness:,0.2850,0.2850,0,, ,Correctness:,0.7800,0.7800,0,, ,Correctness:,0.8600,0.8600,0,, 
,Correctness:,0.5000,0.5000,0,, ,Correctness:,0.6350,0.6350,0,, ,Correctness:,0.5000,0.5000,0,, ,Correctness:,0.8000,0.8000,0,, ,Correctness:,0.7100,0.7100,0,, 
,Correctness:,0.4000,0.4000,0,, ,Correctness:,0.7000,0.7000,0,, ,Correctness:,0.4000,0.4000,0,, ,Correctness:,0.8250,0.8250,0,, ,Correctness:,0.7400,0.7400,0,, 
,Correctness:,0.2800,0.2800,0,, ,Correctness:,0.7900,0.7900,0,, ,Correctness:,0.2800,0.2800,0,, ,Correctness:,0.8500,0.8500,0,, ,Correctness:,0.8200,0.8200,0,, 
,Correctness:,0.3450,0.3450,0,, ,Correctness:,0.6900,0.6900,0,, ,Correctness:,0.3450,0.3450,0,, ,Correctness:,0.7900,0.7900,0,, ,Correctness:,0.7300,0.7300,0,, 
,Correctness:,0.2600,0.2600,0,, ,Correctness:,0.7700,0.7700,0,, ,Correctness:,0.2600,0.2600,0,, ,Correctness:,0.8300,0.8300,0,, ,Correctness:,0.8200,0.8200,0,, 
,Correctness:,0.2900,0.2900,0,, ,Correctness:,0.7350,0.7350,0,, ,Correctness:,0.2900,0.2900,0,, ,Correctness:,0.8150,0.8150,0,, ,Correctness:,0.8650,0.8650,0,, 
,Correctness:,0.3350,0.3350,0,, ,Correctness:,0.7150,0.7150,0,, ,Correctness:,0.3350,0.3350,0,, ,Correctness:,0.7750,0.7750,0,, ,Correctness:,0.7950,0.7950,0,, 
,Correctness:,0.1450,0.1450,0,, ,Correctness:,0.8200,0.8200,0,, ,Correctness:,0.1500,0.1500,0,, ,Correctness:,0.8500,0.8500,0,, ,Correctness:,0.8550,0.8550,0,, 
,Correctness:,0.3250,0.3250,0,, ,Correctness:,0.7325,0.7325,0,, ,Correctness:,0.3225,0.3225,0,, ,Correctness:,0.8125,0.8125,0,, ,Correctness:,0.8250,0.8250,0,, 
,Correctness:,0.2550,0.2550,0,, ,Correctness:,0.7625,0.7625,0,, ,Correctness:,0.2550,0.2550,0,, ,Correctness:,0.8325,0.8325,0,, ,Correctness:,0.8225,0.8225,0,, 
,Correctness:,0.1875,0.1875,0,, ,Correctness:,0.7850,0.7850,0,, ,Correctness:,0.1875,0.1875,0,, ,Correctness:,0.8250,0.8250,0,, ,Correctness:,0.8725,0.8725,0,, 
,Correctness:,0.3375,0.3375,0,, ,Correctness:,0.7300,0.7300,0,, ,Correctness:,0.3375,0.3375,0,, ,Correctness:,0.8100,0.8100,0,, ,Correctness:,0.7350,0.7350,0,, 
,Correctness:,0.1425,0.1425,0,, ,Correctness:,0.8075,0.8075,0,, ,Correctness:,0.1425,0.1425,0,, ,Correctness:,0.8350,0.8350,0,, ,Correctness:,0.8800,0.8800,0,, 
,Correctness:,0.2950,0.2950,0,, ,Correctness:,0.7475,0.7475,0,, ,Correctness:,0.2950,0.2950,0,, ,Correctness:,0.8350,0.8350,0,, ,Correctness:,0.8150,0.8150,0,, 
,Correctness:,0.2775,0.2775,0,, ,Correctness:,0.7600,0.7600,0,, ,Correctness:,0.2775,0.2775,0,, ,Correctness:,0.8350,0.8350,0,, ,Correctness:,0.8600,0.8600,0,, 
,Correctness:,0.2825,0.2825,0,, ,Correctness:,0.7425,0.7425,0,, ,Correctness:,0.2825,0.2825,0,, ,Correctness:,0.8100,0.8100,0,, ,Correctness:,0.7925,0.7925,0,, 
,Correctness:,0.2575,0.2575,0,, ,Correctness:,0.7575,0.7575,0,, ,Correctness:,0.2575,0.2575,0,, ,Correctness:,0.8100,0.8100,0,, ,Correctness:,0.8450,0.8450,0,, 
,Correctness:,0.3900,0.3900,0,, ,Correctness:,0.6900,0.6900,0,, ,Correctness:,0.3925,0.3925,0,, ,Correctness:,0.7900,0.7900,0,, ,Correctness:,0.6975,0.6975,0,, 
,Correctness:,0.2925,0.2925,0,, ,Correctness:,0.7512,0.7512,0,, ,Correctness:,0.2925,0.2925,0,, ,Correctness:,0.8375,0.8375,0,, ,Correctness:,0.8625,0.8625,0,, 
,Correctness:,0.3137,0.3137,0,, ,Correctness:,0.7288,0.7288,0,, ,Correctness:,0.3137,0.3137,0,, ,Correctness:,0.8187,0.8187,0,, ,Correctness:,0.7925,0.7925,0,, 
,Correctness:,0.1462,0.1462,0,, ,Correctness:,0.7913,0.7913,0,, ,Correctness:,0.1475,0.1475,0,, ,Correctness:,0.8187,0.8187,0,, ,Correctness:,0.8962,0.8962,0,, 
,Correctness:,0.2762,0.2762,0,, ,Correctness:,0.7662,0.7662,0,, ,Correctness:,0.2762,0.2762,0,, ,Correctness:,0.8450,0.8450,0,, ,Correctness:,0.8150,0.8150,0,, 
,Correctness:,0.2762,0.2762,0,, ,Correctness:,0.7500,0.7500,0,, ,Correctness:,0.2762,0.2762,0,, ,Correctness:,0.8300,0.8300,0,, ,Correctness:,0.8225,0.8225,0,, 
,Correctness:,0.3663,0.3663,0,, ,Correctness:,0.6987,0.6987,0,, ,Correctness:,0.3663,0.3663,0,, ,Correctness:,0.8125,0.8125,0,, ,Correctness:,0.7462,0.7462,0,, 
,Correctness:,0.4113,0.4113,0,, ,Correctness:,0.6937,0.6937,0,, ,Correctness:,0.4113,0.4113,0,, ,Correctness:,0.8137,0.8137,0,, ,Correctness:,0.6950,0.6950,0,, 
,Correctness:,0.3675,0.3675,0,, ,Correctness:,0.7100,0.7100,0,, ,Correctness:,0.3675,0.3675,0,, ,Correctness:,0.8163,0.8163,0,, ,Correctness:,0.7500,0.7500,0,, 
,Correctness:,0.3900,0.3900,0,, ,Correctness:,0.7050,0.7050,0,, ,Correctness:,0.3900,0.3900,0,, ,Correctness:,0.8287,0.8287,0,, ,Correctness:,0.7900,0.7900,0,, 
,Correctness:,0.3100,0.3100,0,, ,Correctness:,0.7338,0.7338,0,, ,Correctness:,0.3100,0.3100,0,, ,Correctness:,0.8213,0.8213,0,, ,Correctness:,0.7900,0.7900,0,, 
,Correctness:,0.3287,0.3287,0,, ,Correctness:,0.7425,0.7425,0,, ,Correctness:,0.3287,0.3287,0,, ,Correctness:,0.8363,0.8363,0,, ,Correctness:,0.7812,0.7812,0,, 
,Correctness:,0.3550,0.3550,0,, ,Correctness:,0.7281,0.7281,0,, ,Correctness:,0.3550,0.3550,0,, ,Correctness:,0.8300,0.8300,0,, ,Correctness:,0.7762,0.7762,0,, 
,Correctness:,0.2900,0.2900,0,, ,Correctness:,0.7456,0.7456,0,, ,Correctness:,0.2906,0.2906,0,, ,Correctness:,0.8256,0.8256,0,, ,Correctness:,0.8187,0.8187,0,, 
,Correctness:,0.3344,0.3344,0,, ,Correctness:,0.7200,0.7200,0,, ,Correctness:,0.3344,0.3344,0,, ,Correctness:,0.8206,0.8206,0,, ,Correctness:,0.7562,0.7562,0,, 
,Correctness:,0.3412,0.3412,0,, ,Correctness:,0.7212,0.7212,0,, ,Correctness:,0.3412,0.3412,0,, ,Correctness:,0.8213,0.8213,0,, ,Correctness:,0.8025,0.8025,0,, 
,Correctness:,0.3013,0.3013,0,, ,Correctness:,0.7481,0.7481,0,, ,Correctness:,0.3013,0.3013,0,, ,Correctness:,0.8344,0.8344,0,, ,Correctness:,0.8106,0.8106,0,, 
,Correctness:,0.2744,0.2744,0,, ,Correctness:,0.7581,0.7581,0,, ,Correctness:,0.2750,0.2750,0,, ,Correctness:,0.8306,0.8306,0,, ,Correctness:,0.7994,0.7994,0,, 
,Correctness:,0.2506,0.2506,0,, ,Correctness:,0.7544,0.7544,0,, ,Correctness:,0.2506,0.2506,0,, ,Correctness:,0.8137,0.8137,0,, ,Correctness:,0.8156,0.8156,0,, 
,Correctness:,0.3175,0.3175,0,, ,Correctness:,0.7388,0.7388,0,, ,Correctness:,0.3175,0.3175,0,, ,Correctness:,0.8337,0.8337,0,, ,Correctness:,0.8119,0.8119,0,, 
,Correctness:,0.2925,0.2925,0,, ,Correctness:,0.7356,0.7356,0,, ,Correctness:,0.2925,0.2925,0,, ,Correctness:,0.8125,0.8125,0,, ,Correctness:,0.7994,0.7994,0,, 
Average:,0.2981,,,,, Average:,0.7396,,,,, Average:,0.2985,,,,, Average:,0.8182,,,,, Average:,0.7950,,,,, 
,Correctness:,0.5200,0.5200,0,, ,Correctness:,0.6000,0.6000,0,, ,Correctness:,0.6000,0.6000,0,, ,Correctness:,0.8100,0.8100,0,, ,Correctness:,0.5200,0.5200,0,, 
,Correctness:,0.5100,0.5100,0,, ,Correctness:,0.2600,0.2600,0,, ,Correctness:,0.2600,0.2600,0,, ,Correctness:,0.7100,0.7100,0,, ,Correctness:,0.5400,0.5400,0,, 
,Correctness:,0.4900,0.4900,0,, ,Correctness:,0.2100,0.2100,0,, ,Correctness:,0.2200,0.2200,0,, ,Correctness:,0.8600,0.8600,0,, ,Correctness:,0.5300,0.5300,0,, 
,Correctness:,0.5300,0.5300,0,, ,Correctness:,0.2100,0.2100,0,, ,Correctness:,0.2100,0.2100,0,, ,Correctness:,0.8200,0.8200,0,, ,Correctness:,0.5700,0.5700,0,, 
,Correctness:,0.5100,0.5100,0,, ,Correctness:,0.1600,0.1600,0,, ,Correctness:,0.1700,0.1700,0,, ,Correctness:,0.8400,0.8400,0,, ,Correctness:,0.5500,0.5500,0,, 
,Correctness:,0.5000,0.5000,0,, ,Correctness:,0.1500,0.1500,0,, ,Correctness:,0.1600,0.1600,0,, ,Correctness:,0.8000,0.8000,0,, ,Correctness:,0.5500,0.5500,0,, 
,Correctness:,0.4900,0.4900,0,, ,Correctness:,0.1600,0.1600,0,, ,Correctness:,0.1700,0.1700,0,, ,Correctness:,0.8100,0.8100,0,, ,Correctness:,0.5400,0.5400,0,, 
,Correctness:,0.5200,0.5200,0,, ,Correctness:,0.3600,0.3600,0,, ,Correctness:,0.3600,0.3600,0,, ,Correctness:,0.8200,0.8200,0,, ,Correctness:,0.5500,0.5500,0,, 
,Correctness:,0.5200,0.5200,0,, ,Correctness:,0.2400,0.2400,0,, ,Correctness:,0.2300,0.2300,0,, ,Correctness:,0.8100,0.8100,0,, ,Correctness:,0.5500,0.5500,0,, 
,Correctness:,0.5200,0.5200,0,, ,Correctness:,0.4300,0.4300,0,, ,Correctness:,0.4300,0.4300,0,, ,Correctness:,0.8200,0.8200,0,, ,Correctness:,0.5300,0.5300,0,, 
,Correctness:,0.5150,0.5150,0,, ,Correctness:,0.2750,0.2750,0,, ,Correctness:,0.2800,0.2800,0,, ,Correctness:,0.8000,0.8000,0,, ,Correctness:,0.5350,0.5350,0,, 
,Correctness:,0.5200,0.5200,0,, ,Correctness:,0.2800,0.2800,0,, ,Correctness:,0.2850,0.2850,0,, ,Correctness:,0.7800,0.7800,0,, ,Correctness:,0.5500,0.5500,0,, 
,Correctness:,0.5300,0.5300,0,, ,Correctness:,0.5000,0.5000,0,, ,Correctness:,0.5000,0.5000,0,, ,Correctness:,0.8000,0.8000,0,, ,Correctness:,0.5550,0.5550,0,, 
,Correctness:,0.4850,0.4850,0,, ,Correctness:,0.4000,0.4000,0,, ,Correctness:,0.4000,0.4000,0,, ,Correctness:,0.8250,0.8250,0,, ,Correctness:,0.5200,0.5200,0,, 
,Correctness:,0.5000,0.5000,0,, ,Correctness:,0.2800,0.2800,0,, ,Correctness:,0.2800,0.2800,0,, ,Correctness:,0.8500,0.8500,0,, ,Correctness:,0.5450,0.5450,0,, 
,Correctness:,0.5100,0.5100,0,, ,Correctness:,0.3450,0.3450,0,, ,Correctness:,0.3450,0.3450,0,, ,Correctness:,0.7900,0.7900,0,, ,Correctness:,0.5250,0.5250,0,, 
,Correctness:,0.5000,0.5000,0,, ,Correctness:,0.2550,0.2550,0,, ,Correctness:,0.2600,0.2600,0,, ,Correctness:,0.8300,0.8300,0,, ,Correctness:,0.5350,0.5350,0,, 
,Correctness:,0.4950,0.4950,0,, ,Correctness:,0.2900,0.2900,0,, ,Correctness:,0.2900,0.2900,0,, ,Correctness:,0.8150,0.8150,0,, ,Correctness:,0.5100,0.5100,0,, 
,Correctness:,0.4950,0.4950,0,, ,Correctness:,0.3350,0.3350,0,, ,Correctness:,0.3350,0.3350,0,, ,Correctness:,0.7750,0.7750,0,, ,Correctness:,0.5300,0.5300,0,, 
,Correctness:,0.5350,0.5350,0,, ,Correctness:,0.1450,0.1450,0,, ,Correctness:,0.1500,0.1500,0,, ,Correctness:,0.8500,0.8500,0,, ,Correctness:,0.5700,0.5700,0,, 
,Correctness:,0.5175,0.5175,0,, ,Correctness:,0.3250,0.3250,0,, ,Correctness:,0.3225,0.3225,0,, ,Correctness:,0.8125,0.8125,0,, ,Correctness:,0.5625,0.5625,0,, 
,Correctness:,0.5200,0.5200,0,, ,Correctness:,0.2525,0.2525,0,, ,Correctness:,0.2550,0.2550,0,, ,Correctness:,0.8325,0.8325,0,, ,Correctness:,0.5400,0.5400,0,, 
,Correctness:,0.5100,0.5100,0,, ,Correctness:,0.1875,0.1875,0,, ,Correctness:,0.1875,0.1875,0,, ,Correctness:,0.8250,0.8250,0,, ,Correctness:,0.5375,0.5375,0,, 
,Correctness:,0.5125,0.5125,0,, ,Correctness:,0.3375,0.3375,0,, ,Correctness:,0.3375,0.3375,0,, ,Correctness:,0.8100,0.8100,0,, ,Correctness:,0.5400,0.5400,0,, 
,Correctness:,0.5100,0.5100,0,, ,Correctness:,0.1400,0.1400,0,, ,Correctness:,0.1425,0.1425,0,, ,Correctness:,0.8350,0.8350,0,, ,Correctness:,0.5525,0.5525,0,, 
,Correctness:,0.5175,0.5175,0,, ,Correctness:,0.2925,0.2925,0,, ,Correctness:,0.2950,0.2950,0,, ,Correctness:,0.8350,0.8350,0,, ,Correctness:,0.5475,0.5475,0,, 
,Correctness:,0.5125,0.5125,0,, ,Correctness:,0.2775,0.2775,0,, ,Correctness:,0.2775,0.2775,0,, ,Correctness:,0.8350,0.8350,0,, ,Correctness:,0.5350,0.5350,0,, 
,Correctness:,0.5200,0.5200,0,, ,Correctness:,0.2800,0.2800,0,, ,Correctness:,0.2825,0.2825,0,, ,Correctness:,0.8100,0.8100,0,, ,Correctness:,0.5500,0.5500,0,, 
,Correctness:,0.5075,0.5075,0,, ,Correctness:,0.2575,0.2575,0,, ,Correctness:,0.2575,0.2575,0,, ,Correctness:,0.8100,0.8100,0,, ,Correctness:,0.5350,0.5350,0,, 
,Correctness:,0.5150,0.5150,0,, ,Correctness:,0.3900,0.3900,0,, ,Correctness:,0.3925,0.3925,0,, ,Correctness:,0.7900,0.7900,0,, ,Correctness:,0.5325,0.5325,0,, 
,Correctness:,0.5088,0.5088,0,, ,Correctness:,0.2925,0.2925,0,, ,Correctness:,0.2925,0.2925,0,, ,Correctness:,0.8375,0.8375,0,, ,Correctness:,0.5337,0.5337,0,, 
,Correctness:,0.5112,0.5112,0,, ,Correctness:,0.3125,0.3125,0,, ,Correctness:,0.3137,0.3137,0,, ,Correctness:,0.8187,0.8187,0,, ,Correctness:,0.5413,0.5413,0,, 
,Correctness:,0.5112,0.5112,0,, ,Correctness:,0.1462,0.1462,0,, ,Correctness:,0.1475,0.1475,0,, ,Correctness:,0.8187,0.8187,0,, ,Correctness:,0.5437,0.5437,0,, 
,Correctness:,0.5088,0.5088,0,, ,Correctness:,0.2750,0.2750,0,, ,Correctness:,0.2762,0.2762,0,, ,Correctness:,0.8450,0.8450,0,, ,Correctness:,0.5413,0.5413,0,, 
,Correctness:,0.5075,0.5075,0,, ,Correctness:,0.2762,0.2762,0,, ,Correctness:,0.2762,0.2762,0,, ,Correctness:,0.8300,0.8300,0,, ,Correctness:,0.5475,0.5475,0,, 
,Correctness:,0.5100,0.5100,0,, ,Correctness:,0.3663,0.3663,0,, ,Correctness:,0.3663,0.3663,0,, ,Correctness:,0.8125,0.8125,0,, ,Correctness:,0.5238,0.5238,0,, 
,Correctness:,0.5262,0.5262,0,, ,Correctness:,0.4100,0.4100,0,, ,Correctness:,0.4113,0.4113,0,, ,Correctness:,0.8137,0.8137,0,, ,Correctness:,0.5337,0.5337,0,, 
,Correctness:,0.5100,0.5100,0,, ,Correctness:,0.3675,0.3675,0,, ,Correctness:,0.3675,0.3675,0,, ,Correctness:,0.8163,0.8163,0,, ,Correctness:,0.5425,0.5425,0,, 
,Correctness:,0.5125,0.5125,0,, ,Correctness:,0.3887,0.3887,0,, ,Correctness:,0.3900,0.3900,0,, ,Correctness:,0.8287,0.8287,0,, ,Correctness:,0.5387,0.5387,0,, 
,Correctness:,0.5050,0.5050,0,, ,Correctness:,0.3088,0.3088,0,, ,Correctness:,0.3100,0.3100,0,, ,Correctness:,0.8213,0.8213,0,, ,Correctness:,0.5262,0.5262,0,, 
,Correctness:,0.5131,0.5131,0,, ,Correctness:,0.3681,0.3681,0,, ,Correctness:,0.3287,0.3287,0,, ,Correctness:,0.8363,0.8363,0,, ,Correctness:,0.5444,0.5444,0,, 
,Correctness:,0.5188,0.5188,0,, ,Correctness:,0.3550,0.3550,0,, ,Correctness:,0.3550,0.3550,0,, ,Correctness:,0.8300,0.8300,0,, ,Correctness:,0.5431,0.5431,0,, 
,Correctness:,0.5112,0.5112,0,, ,Correctness:,0.2900,0.2900,0,, ,Correctness:,0.2906,0.2906,0,, ,Correctness:,0.8256,0.8256,0,, ,Correctness:,0.5344,0.5344,0,, 
,Correctness:,0.5106,0.5106,0,, ,Correctness:,0.3344,0.3344,0,, ,Correctness:,0.3344,0.3344,0,, ,Correctness:,0.8206,0.8206,0,, ,Correctness:,0.5337,0.5337,0,, 
,Correctness:,0.5100,0.5100,0,, ,Correctness:,0.3412,0.3412,0,, ,Correctness:,0.3412,0.3412,0,, ,Correctness:,0.8213,0.8213,0,, ,Correctness:,0.5356,0.5356,0,, 
,Correctness:,0.5081,0.5081,0,, ,Correctness:,0.3013,0.3013,0,, ,Correctness:,0.3013,0.3013,0,, ,Correctness:,0.8344,0.8344,0,, ,Correctness:,0.5350,0.5350,0,, 
,Correctness:,0.5106,0.5106,0,, ,Correctness:,0.2744,0.2744,0,, ,Correctness:,0.2750,0.2750,0,, ,Correctness:,0.8306,0.8306,0,, ,Correctness:,0.5463,0.5463,0,, 
,Correctness:,0.5081,0.5081,0,, ,Correctness:,0.2506,0.2506,0,, ,Correctness:,0.2506,0.2506,0,, ,Correctness:,0.8137,0.8137,0,, ,Correctness:,0.5431,0.5431,0,, 
,Correctness:,0.5125,0.5125,0,, ,Correctness:,0.3169,0.3169,0,, ,Correctness:,0.3175,0.3175,0,, ,Correctness:,0.8337,0.8337,0,, ,Correctness:,0.5369,0.5369,0,, 
,Correctness:,0.5094,0.5094,0,, ,Correctness:,0.2931,0.2931,0,, ,Correctness:,0.2925,0.2925,0,, ,Correctness:,0.8125,0.8125,0,, ,Correctness:,0.5444,0.5444,0,, 
Average:,0.5112,,,,, Average:,0.2979,,,,, Average:,0.2985,,,,, Average:,0.8182,,,,, Average:,0.5401,,,,, 
,Correctness:,0.6000,0.6000,0,, ,Correctness:,0.8000,0.8000,0,, ,Correctness:,0.8800,0.8800,0,, ,Correctness:,0.5300,0.5300,0,, ,Correctness:,0.5100,0.5100,0,, 
,Correctness:,0.2600,0.2600,0,, ,Correctness:,0.4600,0.4600,0,, ,Correctness:,0.6800,0.6800,0,, ,Correctness:,0.5100,0.5100,0,, ,Correctness:,0.5100,0.5100,0,, 
,Correctness:,0.2100,0.2100,0,, ,Correctness:,0.5500,0.5500,0,, ,Correctness:,0.8500,0.8500,0,, ,Correctness:,0.5000,0.5000,0,, ,Correctness:,0.4900,0.4900,0,, 
,Correctness:,0.2200,0.2200,0,, ,Correctness:,0.2200,0.2200,0,, ,Correctness:,0.8400,0.8400,0,, ,Correctness:,0.5200,0.5200,0,, ,Correctness:,0.5000,0.5000,0,, 
,Correctness:,0.1600,0.1600,0,, ,Correctness:,0.3000,0.3000,0,, ,Correctness:,0.8400,0.8400,0,, ,Correctness:,0.5000,0.5000,0,, ,Correctness:,0.5000,0.5000,0,, 
,Correctness:,0.1500,0.1500,0,, ,Correctness:,0.1500,0.1500,0,, ,Correctness:,0.7700,0.7700,0,, ,Correctness:,0.5000,0.5000,0,, ,Correctness:,0.4900,0.4900,0,, 
,Correctness:,0.1600,0.1600,0,, ,Correctness:,0.2500,0.2500,0,, ,Correctness:,0.8200,0.8200,0,, ,Correctness:,0.4900,0.4900,0,, ,Correctness:,0.5000,0.5000,0,, 
,Correctness:,0.3600,0.3600,0,, ,Correctness:,0.3600,0.3600,0,, ,Correctness:,0.7800,0.7800,0,, ,Correctness:,0.5400,0.5400,0,, ,Correctness:,0.5100,0.5100,0,, 
,Correctness:,0.2400,0.2400,0,, ,Correctness:,0.2400,0.2400,0,, ,Correctness:,0.8000,0.8000,0,, ,Correctness:,0.5000,0.5000,0,, ,Correctness:,0.4800,0.4800,0,, 
,Correctness:,0.4300,0.4300,0,, ,Correctness:,0.5800,0.5800,0,, ,Correctness:,0.9000,0.9000,0,, ,Correctness:,0.5400,0.5400,0,, ,Correctness:,0.5200,0.5200,0,, 
,Correctness:,0.2750,0.2750,0,, ,Correctness:,0.4400,0.4400,0,, ,Correctness:,0.8000,0.8000,0,, ,Correctness:,0.5050,0.5050,0,, ,Correctness:,0.4950,0.4950,0,, 
,Correctness:,0.2800,0.2800,0,, ,Correctness:,0.3950,0.3950,0,, ,Correctness:,0.7800,0.7800,0,, ,Correctness:,0.5100,0.5100,0,, ,Correctness:,0.5100,0.5100,0,, 
,Correctness:,0.5000,0.5000,0,, ,Correctness:,0.5000,0.5000,0,, ,Correctness:,0.8550,0.8550,0,, ,Correctness:,0.5250,0.5250,0,, ,Correctness:,0.5250,0.5250,0,, 
,Correctness:,0.4000,0.4000,0,, ,Correctness:,0.6350,0.6350,0,, ,Correctness:,0.8500,0.8500,0,, ,Correctness:,0.5000,0.5000,0,, ,Correctness:,0.4950,0.4950,0,, 
,Correctness:,0.2800,0.2800,0,, ,Correctness:,0.6350,0.6350,0,, ,Correctness:,0.8800,0.8800,0,, ,Correctness:,0.4900,0.4900,0,, ,Correctness:,0.5050,0.5050,0,, 
,Correctness:,0.3450,0.3450,0,, ,Correctness:,0.3500,0.3500,0,, ,Correctness:,0.8150,0.8150,0,, ,Correctness:,0.5100,0.5100,0,, ,Correctness:,0.4800,0.4800,0,, 
,Correctness:,0.2550,0.2550,0,, ,Correctness:,0.5500,0.5500,0,, ,Correctness:,0.8300,0.8300,0,, ,Correctness:,0.4750,0.4750,0,, ,Correctness:,0.5050,0.5050,0,, 
,Correctness:,0.2850,0.2850,0,, ,Correctness:,0.4350,0.4350,0,, ,Correctness:,0.8050,0.8050,0,, ,Correctness:,0.4950,0.4950,0,, ,Correctness:,0.4950,0.4950,0,, 
,Correctness:,0.3350,0.3350,0,, ,Correctness:,0.4550,0.4550,0,, ,Correctness:,0.7850,0.7850,0,, ,Correctness:,0.5000,0.5000,0,, ,Correctness:,0.5000,0.5000,0,, 
,Correctness:,0.1450,0.1450,0,, ,Correctness:,0.2350,0.2350,0,, ,Correctness:,0.8550,0.8550,0,, ,Correctness:,0.5300,0.5300,0,, ,Correctness:,0.5250,0.5250,0,, 
,Correctness:,0.3250,0.3250,0,, ,Correctness:,0.4550,0.4550,0,, ,Correctness:,0.8150,0.8150,0,, ,Correctness:,0.5225,0.5225,0,, ,Correctness:,0.5050,0.5050,0,, 
,Correctness:,0.2525,0.2525,0,, ,Correctness:,0.4250,0.4250,0,, ,Correctness:,0.8275,0.8275,0,, ,Correctness:,0.5100,0.5100,0,, ,Correctness:,0.5150,0.5150,0,, 
,Correctness:,0.1875,0.1875,0,, ,Correctness:,0.3700,0.3700,0,, ,Correctness:,0.8150,0.8150,0,, ,Correctness:,0.4950,0.4950,0,, ,Correctness:,0.5025,0.5025,0,, 
,Correctness:,0.3375,0.3375,0,, ,Correctness:,0.4625,0.4625,0,, ,Correctness:,0.8375,0.8375,0,, ,Correctness:,0.5025,0.5025,0,, ,Correctness:,0.4975,0.4975,0,, 
,Correctness:,0.1400,0.1400,0,, ,Correctness:,0.5250,0.5250,0,, ,Correctness:,0.8225,0.8225,0,, ,Correctness:,0.5025,0.5025,0,, ,Correctness:,0.5075,0.5075,0,, 
,Correctness:,0.2925,0.2925,0,, ,Correctness:,0.4150,0.4150,0,, ,Correctness:,0.8475,0.8475,0,, ,Correctness:,0.5100,0.5100,0,, ,Correctness:,0.5150,0.5150,0,, 
,Correctness:,0.2775,0.2775,0,, ,Correctness:,0.4850,0.4850,0,, ,Correctness:,0.8325,0.8325,0,, ,Correctness:,0.5025,0.5025,0,, ,Correctness:,0.4900,0.4900,0,, 
,Correctness:,0.2800,0.2800,0,, ,Correctness:,0.5300,0.5300,0,, ,Correctness:,0.8125,0.8125,0,, ,Correctness:,0.5050,0.5050,0,, ,Correctness:,0.5075,0.5075,0,, 
,Correctness:,0.2575,0.2575,0,, ,Correctness:,0.3275,0.3275,0,, ,Correctness:,0.8325,0.8325,0,, ,Correctness:,0.5050,0.5050,0,, ,Correctness:,0.5050,0.5050,0,, 
,Correctness:,0.3900,0.3900,0,, ,Correctness:,0.5600,0.5600,0,, ,Correctness:,0.8275,0.8275,0,, ,Correctness:,0.5250,0.5250,0,, ,Correctness:,0.5100,0.5100,0,, 
,Correctness:,0.2925,0.2925,0,, ,Correctness:,0.4900,0.4900,0,, ,Correctness:,0.8387,0.8387,0,, ,Correctness:,0.4950,0.4950,0,, ,Correctness:,0.5025,0.5025,0,, 
,Correctness:,0.3125,0.3125,0,, ,Correctness:,0.4462,0.4462,0,, ,Correctness:,0.8213,0.8213,0,, ,Correctness:,0.5200,0.5200,0,, ,Correctness:,0.5088,0.5088,0,, 
,Correctness:,0.1462,0.1462,0,, ,Correctness:,0.3162,0.3162,0,, ,Correctness:,0.8113,0.8113,0,, ,Correctness:,0.4938,0.4938,0,, ,Correctness:,0.4988,0.4988,0,, 
,Correctness:,0.2750,0.2750,0,, ,Correctness:,0.4988,0.4988,0,, ,Correctness:,0.8538,0.8538,0,, ,Correctness:,0.5100,0.5100,0,, ,Correctness:,0.5050,0.5050,0,, 
,Correctness:,0.2762,0.2762,0,, ,Correctness:,0.4612,0.4612,0,, ,Correctness:,0.8300,0.8300,0,, ,Correctness:,0.5038,0.5038,0,, ,Correctness:,0.4963,0.4963,0,, 
,Correctness:,0.3663,0.3663,0,, ,Correctness:,0.4875,0.4875,0,, ,Correctness:,0.8375,0.8375,0,, ,Correctness:,0.5112,0.5112,0,, ,Correctness:,0.5012,0.5012,0,, 
,Correctness:,0.4100,0.4100,0,, ,Correctness:,0.4550,0.4550,0,, ,Correctness:,0.8263,0.8263,0,, ,Correctness:,0.5250,0.5250,0,, ,Correctness:,0.5075,0.5075,0,, 
,Correctness:,0.3675,0.3675,0,, ,Correctness:,0.4138,0.4138,0,, ,Correctness:,0.8413,0.8413,0,, ,Correctness:,0.5175,0.5175,0,, ,Correctness:,0.5050,0.5050,0,, 
,Correctness:,0.3887,0.3887,0,, ,Correctness:,0.5025,0.5025,0,, ,Correctness:,0.8375,0.8375,0,, ,Correctness:,0.5112,0.5112,0,, ,Correctness:,0.5088,0.5088,0,, 
,Correctness:,0.3088,0.3088,0,, ,Correctness:,0.4462,0.4462,0,, ,Correctness:,0.8400,0.8400,0,, ,Correctness:,0.5138,0.5138,0,, ,Correctness:,0.4988,0.4988,0,, 
,Correctness:,0.3287,0.3287,0,, ,Correctness:,0.5131,0.5131,0,, ,Correctness:,0.8569,0.8569,0,, ,Correctness:,0.5100,0.5100,0,, ,Correctness:,0.5056,0.5056,0,, 
,Correctness:,0.3550,0.3550,0,, ,Correctness:,0.4969,0.4969,0,, ,Correctness:,0.8450,0.8450,0,, ,Correctness:,0.5188,0.5188,0,, ,Correctness:,0.5019,0.5019,0,, 
,Correctness:,0.2900,0.2900,0,, ,Correctness:,0.4263,0.4263,0,, ,Correctness:,0.8406,0.8406,0,, ,Correctness:,0.5038,0.5038,0,, ,Correctness:,0.5088,0.5088,0,, 
,Correctness:,0.3344,0.3344,0,, ,Correctness:,0.5175,0.5175,0,, ,Correctness:,0.8281,0.8281,0,, ,Correctness:,0.5156,0.5156,0,, ,Correctness:,0.5019,0.5019,0,, 
,Correctness:,0.3412,0.3412,0,, ,Correctness:,0.4781,0.4781,0,, ,Correctness:,0.8325,0.8325,0,, ,Correctness:,0.5050,0.5050,0,, ,Correctness:,0.5012,0.5012,0,, 
,Correctness:,0.3013,0.3013,0,, ,Correctness:,0.4919,0.4919,0,, ,Correctness:,0.8488,0.8488,0,, ,Correctness:,0.5069,0.5069,0,, ,Correctness:,0.4994,0.4994,0,, 
,Correctness:,0.2744,0.2744,0,, ,Correctness:,0.4481,0.4481,0,, ,Correctness:,0.8394,0.8394,0,, ,Correctness:,0.5025,0.5025,0,, ,Correctness:,0.5044,0.5044,0,, 
,Correctness:,0.2506,0.2506,0,, ,Correctness:,0.4606,0.4606,0,, ,Correctness:,0.8175,0.8175,0,, ,Correctness:,0.5069,0.5069,0,, ,Correctness:,0.4988,0.4988,0,, 
,Correctness:,0.3169,0.3169,0,, ,Correctness:,0.4931,0.4931,0,, ,Correctness:,0.8506,0.8506,0,, ,Correctness:,0.5112,0.5112,0,, ,Correctness:,0.5050,0.5050,0,, 
,Correctness:,0.2925,0.2925,0,, ,Correctness:,0.4250,0.4250,0,, ,Correctness:,0.8181,0.8181,0,, ,Correctness:,0.5056,0.5056,0,, ,Correctness:,0.5019,0.5019,0,, 
Average:,0.2972,,,,, Average:,0.4473,,,,, Average:,0.8280,,,,, Average:,0.5088,,,,, Average:,0.5032,,,,, 
,Correctness:,0.8800,0.8800,0,, ,Correctness:,0.5100,0.5100,0,, ,Correctness:,0.5000,0.5000,0,, ,Correctness:,0.6900,0.6900,0,, ,Correctness:,0.8600,0.8600,0,, 
,Correctness:,0.7200,0.7200,0,, ,Correctness:,0.5200,0.5200,0,, ,Correctness:,0.5100,0.5100,0,, ,Correctness:,0.4700,0.4700,0,, ,Correctness:,0.7200,0.7200,0,, 
,Correctness:,0.9200,0.9200,0,, ,Correctness:,0.5200,0.5200,0,, ,Correctness:,0.5200,0.5200,0,, ,Correctness:,0.5700,0.5700,0,, ,Correctness:,0.9600,0.9600,0,, 
,Correctness:,0.9500,0.9500,0,, ,Correctness:,0.5700,0.5700,0,, ,Correctness:,0.5800,0.5800,0,, ,Correctness:,0.5400,0.5400,0,, ,Correctness:,0.9300,0.9300,0,, 
,Correctness:,0.9500,0.9500,0,, ,Correctness:,0.5400,0.5400,0,, ,Correctness:,0.5500,0.5500,0,, ,Correctness:,0.5100,0.5100,0,, ,Correctness:,0.9500,0.9500,0,, 
,Correctness:,0.9500,0.9500,0,, ,Correctness:,0.5500,0.5500,0,, ,Correctness:,0.5400,0.5400,0,, ,Correctness:,0.5100,0.5100,0,, ,Correctness:,0.9400,0.9400,0,, 
,Correctness:,0.9200,0.9200,0,, ,Correctness:,0.5400,0.5400,0,, ,Correctness:,0.5000,0.5000,0,, ,Correctness:,0.4900,0.4900,0,, ,Correctness:,0.9400,0.9400,0,, 
,Correctness:,0.8100,0.8100,0,, ,Correctness:,0.5300,0.5300,0,, ,Correctness:,0.5200,0.5200,0,, ,Correctness:,0.6300,0.6300,0,, ,Correctness:,0.9300,0.9300,0,, 
,Correctness:,0.8500,0.8500,0,, ,Correctness:,0.5300,0.5300,0,, ,Correctness:,0.5400,0.5400,0,, ,Correctness:,0.5800,0.5800,0,, ,Correctness:,0.9100,0.9100,0,, 
,Correctness:,0.9000,0.9000,0,, ,Correctness:,0.5200,0.5200,0,, ,Correctness:,0.5200,0.5200,0,, ,Correctness:,0.6100,0.6100,0,, ,Correctness:,0.7800,0.7800,0,, 
,Correctness:,0.8700,0.8700,0,, ,Correctness:,0.5200,0.5200,0,, ,Correctness:,0.5250,0.5250,0,, ,Correctness:,0.5450,0.5450,0,, ,Correctness:,0.8950,0.8950,0,, 
,Correctness:,0.8650,0.8650,0,, ,Correctness:,0.5300,0.5300,0,, ,Correctness:,0.5450,0.5450,0,, ,Correctness:,0.5250,0.5250,0,, ,Correctness:,0.8600,0.8600,0,, 
,Correctness:,0.9050,0.9050,0,, ,Correctness:,0.5300,0.5300,0,, ,Correctness:,0.5250,0.5250,0,, ,Correctness:,0.6250,0.6250,0,, ,Correctness:,0.8800,0.8800,0,, 
,Correctness:,0.9200,0.9200,0,, ,Correctness:,0.5000,0.5000,0,, ,Correctness:,0.5050,0.5050,0,, ,Correctness:,0.6200,0.6200,0,, ,Correctness:,0.9200,0.9200,0,, 
,Correctness:,0.9050,0.9050,0,, ,Correctness:,0.5250,0.5250,0,, ,Correctness:,0.5400,0.5400,0,, ,Correctness:,0.5650,0.5650,0,, ,Correctness:,0.9300,0.9300,0,, 
,Correctness:,0.8850,0.8850,0,, ,Correctness:,0.5200,0.5200,0,, ,Correctness:,0.5250,0.5250,0,, ,Correctness:,0.5700,0.5700,0,, ,Correctness:,0.9050,0.9050,0,, 
,Correctness:,0.8950,0.8950,0,, ,Correctness:,0.5150,0.5150,0,, ,Correctness:,0.5300,0.5300,0,, ,Correctness:,0.5450,0.5450,0,, ,Correctness:,0.9150,0.9150,0,, 
,Correctness:,0.8800,0.8800,0,, ,Correctness:,0.5100,0.5100,0,, ,Correctness:,0.5250,0.5250,0,, ,Correctness:,0.5500,0.5500,0,, ,Correctness:,0.9000,0.9000,0,, 
,Correctness:,0.8150,0.8150,0,, ,Correctness:,0.5250,0.5250,0,, ,Correctness:,0.5200,0.5200,0,, ,Correctness:,0.5550,0.5550,0,, ,Correctness:,0.8550,0.8550,0,, 
,Correctness:,0.9400,0.9400,0,, ,Correctness:,0.5500,0.5500,0,, ,Correctness:,0.5650,0.5650,0,, ,Correctness:,0.5300,0.5300,0,, ,Correctness:,0.9100,0.9100,0,, 
,Correctness:,0.8550,0.8550,0,, ,Correctness:,0.5450,0.5450,0,, ,Correctness:,0.5450,0.5450,0,, ,Correctness:,0.5900,0.5900,0,, ,Correctness:,0.8850,0.8850,0,, 
,Correctness:,0.8875,0.8875,0,, ,Correctness:,0.5250,0.5250,0,, ,Correctness:,0.5125,0.5125,0,, ,Correctness:,0.5675,0.5675,0,, ,Correctness:,0.9025,0.9025,0,, 
,Correctness:,0.9125,0.9125,0,, ,Correctness:,0.5325,0.5325,0,, ,Correctness:,0.5400,0.5400,0,, ,Correctness:,0.5350,0.5350,0,, ,Correctness:,0.9275,0.9275,0,, 
,Correctness:,0.8525,0.8525,0,, ,Correctness:,0.5325,0.5325,0,, ,Correctness:,0.5250,0.5250,0,, ,Correctness:,0.5750,0.5750,0,, ,Correctness:,0.8725,0.8725,0,, 
,Correctness:,0.9025,0.9025,0,, ,Correctness:,0.5325,0.5325,0,, ,Correctness:,0.5425,0.5425,0,, ,Correctness:,0.5050,0.5050,0,, ,Correctness:,0.9500,0.9500,0,, 
,Correctness:,0.9275,0.9275,0,, ,Correctness:,0.5275,0.5275,0,, ,Correctness:,0.5350,0.5350,0,, ,Correctness:,0.5800,0.5800,0,, ,Correctness:,0.9275,0.9275,0,, 
,Correctness:,0.8825,0.8825,0,, ,Correctness:,0.5250,0.5250,0,, ,Correctness:,0.5300,0.5300,0,, ,Correctness:,0.5725,0.5725,0,, ,Correctness:,0.9450,0.9450,0,, 
,Correctness:,0.8775,0.8775,0,, ,Correctness:,0.5400,0.5400,0,, ,Correctness:,0.5400,0.5400,0,, ,Correctness:,0.5500,0.5500,0,, ,Correctness:,0.9025,0.9025,0,, 
,Correctness:,0.8875,0.8875,0,, ,Correctness:,0.5225,0.5225,0,, ,Correctness:,0.5300,0.5300,0,, ,Correctness:,0.5425,0.5425,0,, ,Correctness:,0.8900,0.8900,0,, 
,Correctness:,0.8675,0.8675,0,, ,Correctness:,0.5200,0.5200,0,, ,Correctness:,0.5275,0.5275,0,, ,Correctness:,0.5875,0.5875,0,, ,Correctness:,0.8425,0.8425,0,, 
,Correctness:,0.8975,0.8975,0,, ,Correctness:,0.5250,0.5250,0,, ,Correctness:,0.5250,0.5250,0,, ,Correctness:,0.5713,0.5713,0,, ,Correctness:,0.9250,0.9250,0,, 
,Correctness:,0.8750,0.8750,0,, ,Correctness:,0.5300,0.5300,0,, ,Correctness:,0.5325,0.5325,0,, ,Correctness:,0.5813,0.5813,0,, ,Correctness:,0.8975,0.8975,0,, 
,Correctness:,0.9237,0.9237,0,, ,Correctness:,0.5325,0.5325,0,, ,Correctness:,0.5400,0.5400,0,, ,Correctness:,0.5112,0.5112,0,, ,Correctness:,0.9513,0.9513,0,, 
,Correctness:,0.8938,0.8938,0,, ,Correctness:,0.5262,0.5262,0,, ,Correctness:,0.5337,0.5337,0,, ,Correctness:,0.5700,0.5700,0,, ,Correctness:,0.9100,0.9100,0,, 
,Correctness:,0.9075,0.9075,0,, ,Correctness:,0.5300,0.5300,0,, ,Correctness:,0.5300,0.5300,0,, ,Correctness:,0.5737,0.5737,0,, ,Correctness:,0.9287,0.9287,0,, 
,Correctness:,0.9062,0.9062,0,, ,Correctness:,0.5212,0.5212,0,, ,Correctness:,0.5262,0.5262,0,, ,Correctness:,0.5950,0.5950,0,, ,Correctness:,0.9187,0.9187,0,, 
,Correctness:,0.8850,0.8850,0,, ,Correctness:,0.5312,0.5312,0,, ,Correctness:,0.5312,0.5312,0,, ,Correctness:,0.6200,0.6200,0,, ,Correctness:,0.8712,0.8712,0,, 
,Correctness:,0.9000,0.9000,0,, ,Correctness:,0.5262,0.5262,0,, ,Correctness:,0.5288,0.5288,0,, ,Correctness:,0.5925,0.5925,0,, ,Correctness:,0.8788,0.8788,0,, 
,Correctness:,0.8962,0.8962,0,, ,Correctness:,0.5238,0.5238,0,, ,Correctness:,0.5238,0.5238,0,, ,Correctness:,0.6238,0.6238,0,, ,Correctness:,0.8800,0.8800,0,, 
,Correctness:,0.8975,0.8975,0,, ,Correctness:,0.5175,0.5175,0,, ,Correctness:,0.5200,0.5200,0,, ,Correctness:,0.5750,0.5750,0,, ,Correctness:,0.9200,0.9200,0,, 
,Correctness:,0.9075,0.9075,0,, ,Correctness:,0.5288,0.5288,0,, ,Correctness:,0.5294,0.5294,0,, ,Correctness:,0.5913,0.5913,0,, ,Correctness:,0.9175,0.9175,0,, 
,Correctness:,0.8831,0.8831,0,, ,Correctness:,0.5275,0.5275,0,, ,Correctness:,0.5300,0.5300,0,, ,Correctness:,0.5981,0.5981,0,, ,Correctness:,0.9050,0.9050,0,, 
,Correctness:,0.9137,0.9137,0,, ,Correctness:,0.5256,0.5256,0,, ,Correctness:,0.5275,0.5275,0,, ,Correctness:,0.5600,0.5600,0,, ,Correctness:,0.9169,0.9169,0,, 
,Correctness:,0.8931,0.8931,0,, ,Correctness:,0.5212,0.5212,0,, ,Correctness:,0.5250,0.5250,0,, ,Correctness:,0.5906,0.5906,0,, ,Correctness:,0.9025,0.9025,0,, 
,Correctness:,0.8938,0.8938,0,, ,Correctness:,0.5225,0.5225,0,, ,Correctness:,0.5256,0.5256,0,, ,Correctness:,0.5856,0.5856,0,, ,Correctness:,0.8969,0.8969,0,, 
,Correctness:,0.8988,0.8988,0,, ,Correctness:,0.5219,0.5219,0,, ,Correctness:,0.5275,0.5275,0,, ,Correctness:,0.5694,0.5694,0,, ,Correctness:,0.8994,0.8994,0,, 
,Correctness:,0.9069,0.9069,0,, ,Correctness:,0.5269,0.5269,0,, ,Correctness:,0.5312,0.5312,0,, ,Correctness:,0.5637,0.5637,0,, ,Correctness:,0.9150,0.9150,0,, 
,Correctness:,0.8931,0.8931,0,, ,Correctness:,0.5200,0.5200,0,, ,Correctness:,0.5269,0.5269,0,, ,Correctness:,0.5537,0.5537,0,, ,Correctness:,0.9194,0.9194,0,, 
,Correctness:,0.9131,0.9131,0,, ,Correctness:,0.5244,0.5244,0,, ,Correctness:,0.5269,0.5269,0,, ,Correctness:,0.5856,0.5856,0,, ,Correctness:,0.9269,0.9269,0,, 
,Correctness:,0.8888,0.8888,0,, ,Correctness:,0.5250,0.5250,0,, ,Correctness:,0.5281,0.5281,0,, ,Correctness:,0.5663,0.5663,0,, ,Correctness:,0.9069,0.9069,0,, 
Average:,0.8911,,,,, Average:,0.5273,,,,, Average:,0.5296,,,,, Average:,0.5683,,,,, Average:,0.9025,,,,, 
,Correctness:,0.7900,0.7900,0,, ,Correctness:,0.7200,0.7200,0,, ,Correctness:,0.6000,0.6000,0,, ,Correctness:,0.6800,0.6800,0,, ,Correctness:,0.9100,0.9100,0,, 
,Correctness:,0.7300,0.7300,0,, ,Correctness:,0.5100,0.5100,0,, ,Correctness:,0.2600,0.2600,0,, ,Correctness:,0.4400,0.4400,0,, ,Correctness:,0.6700,0.6700,0,, 
,Correctness:,0.9300,0.9300,0,, ,Correctness:,0.5500,0.5500,0,, ,Correctness:,0.2200,0.2200,0,, ,Correctness:,0.4900,0.4900,0,, ,Correctness:,0.7000,0.7000,0,, 
,Correctness:,0.9100,0.9100,0,, ,Correctness:,0.4300,0.4300,0,, ,Correctness:,0.2100,0.2100,0,, ,Correctness:,0.5000,0.5000,0,, ,Correctness:,0.7300,0.7300,0,, 
,Correctness:,0.9200,0.9200,0,, ,Correctness:,0.3900,0.3900,0,, ,Correctness:,0.1700,0.1700,0,, ,Correctness:,0.4900,0.4900,0,, ,Correctness:,0.6000,0.6000,0,, 
,Correctness:,0.9200,0.9200,0,, ,Correctness:,0.3700,0.3700,0,, ,Correctness:,0.1600,0.1600,0,, ,Correctness:,0.4800,0.4800,0,, ,Correctness:,0.4900,0.4900,0,, 
,Correctness:,0.9000,0.9000,0,, ,Correctness:,0.2500,0.2500,0,, ,Correctness:,0.1700,0.1700,0,, ,Correctness:,0.4200,0.4200,0,, ,Correctness:,0.6900,0.6900,0,, 
,Correctness:,0.9000,0.9000,0,, ,Correctness:,0.5700,0.5700,0,, ,Correctness:,0.3600,0.3600,0,, ,Correctness:,0.5900,0.5900,0,, ,Correctness:,0.8000,0.8000,0,, 
,Correctness:,0.9300,0.9300,0,, ,Correctness:,0.2400,0.2400,0,, ,Correctness:,0.2300,0.2300,0,, ,Correctness:,0.4900,0.4900,0,, ,Correctness:,0.6800,0.6800,0,, 
,Correctness:,0.7700,0.7700,0,, ,Correctness:,0.7800,0.7800,0,, ,Correctness:,0.4300,0.4300,0,, ,Correctness:,0.5800,0.5800,0,, ,Correctness:,0.8900,0.8900,0,, 
,Correctness:,0.8600,0.8600,0,, ,Correctness:,0.5400,0.5400,0,, ,Correctness:,0.2800,0.2800,0,, ,Correctness:,0.4850,0.4850,0,, ,Correctness:,0.7550,0.7550,0,, 
,Correctness:,0.8550,0.8550,0,, ,Correctness:,0.4900,0.4900,0,, ,Correctness:,0.2850,0.2850,0,, ,Correctness:,0.5150,0.5150,0,, ,Correctness:,0.7300,0.7300,0,, 
,Correctness:,0.7900,0.7900,0,, ,Correctness:,0.6050,0.6050,0,, ,Correctness:,0.5000,0.5000,0,, ,Correctness:,0.6250,0.6250,0,, ,Correctness:,0.7550,0.7550,0,, 
,Correctness:,0.8600,0.8600,0,, ,Correctness:,0.6350,0.6350,0,, ,Correctness:,0.4000,0.4000,0,, ,Correctness:,0.5700,0.5700,0,, ,Correctness:,0.7700,0.7700,0,, 
,Correctness:,0.9050,0.9050,0,, ,Correctness:,0.6750,0.6750,0,, ,Correctness:,0.2800,0.2800,0,, ,Correctness:,0.5100,0.5100,0,, ,Correctness:,0.8500,0.8500,0,, 
,Correctness:,0.8550,0.8550,0,, ,Correctness:,0.4050,0.4050,0,, ,Correctness:,0.3450,0.3450,0,, ,Correctness:,0.5550,0.5550,0,, ,Correctness:,0.7350,0.7350,0,, 
,Correctness:,0.9050,0.9050,0,, ,Correctness:,0.6700,0.6700,0,, ,Correctness:,0.2600,0.2600,0,, ,Correctness:,0.4950,0.4950,0,, ,Correctness:,0.8200,0.8200,0,, 
,Correctness:,0.8800,0.8800,0,, ,Correctness:,0.6650,0.6650,0,, ,Correctness:,0.2900,0.2900,0,, ,Correctness:,0.5200,0.5200,0,, ,Correctness:,0.7300,0.7300,0,, 
,Correctness:,0.8450,0.8450,0,, ,Correctness:,0.4950,0.4950,0,, ,Correctness:,0.3350,0.3350,0,, ,Correctness:,0.5400,0.5400,0,, ,Correctness:,0.7450,0.7450,0,, 
,Correctness:,0.9050,0.9050,0,, ,Correctness:,0.5000,0.5000,0,, ,Correctness:,0.1500,0.1500,0,, ,Correctness:,0.4650,0.4650,0,, ,Correctness:,0.7400,0.7400,0,, 
,Correctness:,0.8525,0.8525,0,, ,Correctness:,0.5175,0.5175,0,, ,Correctness:,0.3225,0.3225,0,, ,Correctness:,0.5550,0.5550,0,, ,Correctness:,0.7375,0.7375,0,, 
,Correctness:,0.9150,0.9150,0,, ,Correctness:,0.5375,0.5375,0,, ,Correctness:,0.2550,0.2550,0,, ,Correctness:,0.5225,0.5225,0,, ,Correctness:,0.7425,0.7425,0,, 
,Correctness:,0.9275,0.9275,0,, ,Correctness:,0.4875,0.4875,0,, ,Correctness:,0.1875,0.1875,0,, ,Correctness:,0.4850,0.4850,0,, ,Correctness:,0.7175,0.7175,0,, 
,Correctness:,0.8675,0.8675,0,, ,Correctness:,0.5650,0.5650,0,, ,Correctness:,0.3375,0.3375,0,, ,Correctness:,0.5200,0.5200,0,, ,Correctness:,0.7700,0.7700,0,, 
,Correctness:,0.9450,0.9450,0,, ,Correctness:,0.5775,0.5775,0,, ,Correctness:,0.1425,0.1425,0,, ,Correctness:,0.4550,0.4550,0,, ,Correctness:,0.7725,0.7725,0,, 
,Correctness:,0.9125,0.9125,0,, ,Correctness:,0.5200,0.5200,0,, ,Correctness:,0.2950,0.2950,0,, ,Correctness:,0.5175,0.5175,0,, ,Correctness:,0.7850,0.7850,0,, 
,Correctness:,0.9175,0.9175,0,, ,Correctness:,0.6050,0.6050,0,, ,Correctness:,0.2775,0.2775,0,, ,Correctness:,0.5175,0.5175,0,, ,Correctness:,0.7425,0.7425,0,, 
,Correctness:,0.9025,0.9025,0,, ,Correctness:,0.6100,0.6100,0,, ,Correctness:,0.2825,0.2825,0,, ,Correctness:,0.5000,0.5000,0,, ,Correctness:,0.7500,0.7500,0,, 
,Correctness:,0.8800,0.8800,0,, ,Correctness:,0.5050,0.5050,0,, ,Correctness:,0.2575,0.2575,0,, ,Correctness:,0.5125,0.5125,0,, ,Correctness:,0.7425,0.7425,0,, 
,Correctness:,0.8050,0.8050,0,, ,Correctness:,0.6400,0.6400,0,, ,Correctness:,0.3925,0.3925,0,, ,Correctness:,0.5750,0.5750,0,, ,Correctness:,0.8025,0.8025,0,, 
,Correctness:,0.9225,0.9225,0,, ,Correctness:,0.6100,0.6100,0,, ,Correctness:,0.2925,0.2925,0,, ,Correctness:,0.5312,0.5312,0,, ,Correctness:,0.7975,0.7975,0,, 
,Correctness:,0.8738,0.8738,0,, ,Correctness:,0.5575,0.5575,0,, ,Correctness:,0.3137,0.3137,0,, ,Correctness:,0.5337,0.5337,0,, ,Correctness:,0.7338,0.7338,0,, 
,Correctness:,0.9325,0.9325,0,, ,Correctness:,0.4200,0.4200,0,, ,Correctness:,0.1475,0.1475,0,, ,Correctness:,0.4537,0.4537,0,, ,Correctness:,0.7063,0.7063,0,, 
,Correctness:,0.9050,0.9050,0,, ,Correctness:,0.6162,0.6162,0,, ,Correctness:,0.2762,0.2762,0,, ,Correctness:,0.5075,0.5075,0,, ,Correctness:,0.7937,0.7937,0,, 
,Correctness:,0.9125,0.9125,0,, ,Correctness:,0.5312,0.5312,0,, ,Correctness:,0.2762,0.2762,0,, ,Correctness:,0.5350,0.5350,0,, ,Correctness:,0.7388,0.7388,0,, 
,Correctness:,0.8575,0.8575,0,, ,Correctness:,0.5525,0.5525,0,, ,Correctness:,0.3663,0.3663,0,, ,Correctness:,0.5663,0.5663,0,, ,Correctness:,0.7350,0.7350,0,, 
,Correctness:,0.8387,0.8387,0,, ,Correctness:,0.6200,0.6200,0,, ,Correctness:,0.4113,0.4113,0,, ,Correctness:,0.5837,0.5837,0,, ,Correctness:,0.7725,0.7725,0,, 
,Correctness:,0.8462,0.8462,0,, ,Correctness:,0.5563,0.5563,0,, ,Correctness:,0.3675,0.3675,0,, ,Correctness:,0.5537,0.5537,0,, ,Correctness:,0.7812,0.7812,0,, 
,Correctness:,0.8650,0.8650,0,, ,Correctness:,0.5837,0.5837,0,, ,Correctness:,0.3900,0.3900,0,, ,Correctness:,0.5813,0.5813,0,, ,Correctness:,0.7650,0.7650,0,, 
,Correctness:,0.8812,0.8812,0,, ,Correctness:,0.5587,0.5587,0,, ,Correctness:,0.3100,0.3100,0,, ,Correctness:,0.5487,0.5487,0,, ,Correctness:,0.7600,0.7600,0,, 
,Correctness:,0.8931,0.8931,0,, ,Correctness:,0.6225,0.6225,0,, ,Correctness:,0.3287,0.3287,0,, ,Correctness:,0.5431,0.5431,0,, ,Correctness:,0.7975,0.7975,0,, 
,Correctness:,0.8625,0.8625,0,, ,Correctness:,0.5769,0.5769,0,, ,Correctness:,0.3550,0.3550,0,, ,Correctness:,0.5550,0.5550,0,, ,Correctness:,0.7819,0.7819,0,, 
,Correctness:,0.8938,0.8938,0,, ,Correctness:,0.5331,0.5331,0,, ,Correctness:,0.2906,0.2906,0,, ,Correctness:,0.5312,0.5312,0,, ,Correctness:,0.7781,0.7781,0,, 
,Correctness:,0.8712,0.8712,0,, ,Correctness:,0.6219,0.6219,0,, ,Correctness:,0.3344,0.3344,0,, ,Correctness:,0.5469,0.5469,0,, ,Correctness:,0.7662,0.7662,0,, 
,Correctness:,0.8738,0.8738,0,, ,Correctness:,0.5781,0.5781,0,, ,Correctness:,0.3412,0.3412,0,, ,Correctness:,0.5469,0.5469,0,, ,Correctness:,0.7562,0.7562,0,, 
,Correctness:,0.8750,0.8750,0,, ,Correctness:,0.6119,0.6119,0,, ,Correctness:,0.3013,0.3013,0,, ,Correctness:,0.5231,0.5231,0,, ,Correctness:,0.8087,0.8087,0,, 
,Correctness:,0.9000,0.9000,0,, ,Correctness:,0.5663,0.5663,0,, ,Correctness:,0.2750,0.2750,0,, ,Correctness:,0.5175,0.5175,0,, ,Correctness:,0.7719,0.7719,0,, 
,Correctness:,0.8931,0.8931,0,, ,Correctness:,0.5375,0.5375,0,, ,Correctness:,0.2506,0.2506,0,, ,Correctness:,0.5038,0.5038,0,, ,Correctness:,0.7462,0.7462,0,, 
,Correctness:,0.8944,0.8944,0,, ,Correctness:,0.6019,0.6019,0,, ,Correctness:,0.3175,0.3175,0,, ,Correctness:,0.5494,0.5494,0,, ,Correctness:,0.7956,0.7956,0,, 
,Correctness:,0.8831,0.8831,0,, ,Correctness:,0.5125,0.5125,0,, ,Correctness:,0.2925,0.2925,0,, ,Correctness:,0.5206,0.5206,0,, ,Correctness:,0.7500,0.7500,0,, 
Average:,0.8792,,,,, Average:,0.5485,,,,, Average:,0.2985,,,,, Average:,0.5266,,,,, Average:,0.7538,,,,, 
,Correctness:,0.9400,0.9400,0,, ,Correctness:,0.4900,0.4900,0,, ,Correctness:,0.5100,0.5100,0,, ,Correctness:,0.5200,0.5200,0,, ,Correctness:,0.8300,0.8300,0,, 
,Correctness:,0.7400,0.7400,0,, ,Correctness:,0.5200,0.5200,0,, ,Correctness:,0.5100,0.5100,0,, ,Correctness:,0.5200,0.5200,0,, ,Correctness:,0.7100,0.7100,0,, 
,Correctness:,0.9200,0.9200,0,, ,Correctness:,0.5400,0.5400,0,, ,Correctness:,0.5200,0.5200,0,, ,Correctness:,0.4900,0.4900,0,, ,Correctness:,0.8600,0.8600,0,, 
,Correctness:,0.9300,0.9300,0,, ,Correctness:,0.5700,0.5700,0,, ,Correctness:,0.5100,0.5100,0,, ,Correctness:,0.5400,0.5400,0,, ,Correctness:,0.8400,0.8400,0,, 
,Correctness:,0.9300,0.9300,0,, ,Correctness:,0.5400,0.5400,0,, ,Correctness:,0.5000,0.5000,0,, ,Correctness:,0.5200,0.5200,0,, ,Correctness:,0.8400,0.8400,0,, 
,Correctness:,0.9200,0.9200,0,, ,Correctness:,0.5400,0.5400,0,, ,Correctness:,0.5000,0.5000,0,, ,Correctness:,0.5200,0.5200,0,, ,Correctness:,0.7900,0.7900,0,, 
,Correctness:,0.9400,0.9400,0,, ,Correctness:,0.5000,0.5000,0,, ,Correctness:,0.4900,0.4900,0,, ,Correctness:,0.5100,0.5100,0,, ,Correctness:,0.8200,0.8200,0,, 
,Correctness:,0.9500,0.9500,0,, ,Correctness:,0.5400,0.5400,0,, ,Correctness:,0.5200,0.5200,0,, ,Correctness:,0.5200,0.5200,0,, ,Correctness:,0.8300,0.8300,0,, 
,Correctness:,0.8700,0.8700,0,, ,Correctness:,0.5300,0.5300,0,, ,Correctness:,0.5100,0.5100,0,, ,Correctness:,0.5300,0.5300,0,, ,Correctness:,0.8200,0.8200,0,, 
,Correctness:,0.9300,0.9300,0,, ,Correctness:,0.5200,0.5200,0,, ,Correctness:,0.5400,0.5400,0,, ,Correctness:,0.5200,0.5200,0,, ,Correctness:,0.8300,0.8300,0,, 
,Correctness:,0.8800,0.8800,0,, ,Correctness:,0.5200,0.5200,0,, ,Correctness:,0.5000,0.5000,0,, ,Correctness:,0.5050,0.5050,0,, ,Correctness:,0.8100,0.8100,0,, 
,Correctness:,0.8250,0.8250,0,, ,Correctness:,0.5300,0.5300,0,, ,Correctness:,0.5050,0.5050,0,, ,Correctness:,0.5200,0.5200,0,, ,Correctness:,0.7700,0.7700,0,, 
,Correctness:,0.9300,0.9300,0,, ,Correctness:,0.5300,0.5300,0,, ,Correctness:,0.5250,0.5250,0,, ,Correctness:,0.5150,0.5150,0,, ,Correctness:,0.8000,0.8000,0,, 
,Correctness:,0.9300,0.9300,0,, ,Correctness:,0.5000,0.5000,0,, ,Correctness:,0.5150,0.5150,0,, ,Correctness:,0.4900,0.4900,0,, ,Correctness:,0.8250,0.8250,0,, 
,Correctness:,0.9350,0.9350,0,, ,Correctness:,0.5250,0.5250,0,, ,Correctness:,0.4900,0.4900,0,, ,Correctness:,0.5050,0.5050,0,, ,Correctness:,0.8550,0.8550,0,, 
,Correctness:,0.9050,0.9050,0,, ,Correctness:,0.5200,0.5200,0,, ,Correctness:,0.5000,0.5000,0,, ,Correctness:,0.5100,0.5100,0,, ,Correctness:,0.7950,0.7950,0,, 
,Correctness:,0.9250,0.9250,0,, ,Correctness:,0.5200,0.5200,0,, ,Correctness:,0.4850,0.4850,0,, ,Correctness:,0.5000,0.5000,0,, ,Correctness:,0.8300,0.8300,0,, 
,Correctness:,0.8650,0.8650,0,, ,Correctness:,0.5100,0.5100,0,, ,Correctness:,0.4850,0.4850,0,, ,Correctness:,0.5000,0.5000,0,, ,Correctness:,0.8050,0.8050,0,, 
,Correctness:,0.8750,0.8750,0,, ,Correctness:,0.5150,0.5150,0,, ,Correctness:,0.4900,0.4900,0,, ,Correctness:,0.5000,0.5000,0,, ,Correctness:,0.7900,0.7900,0,, 
,Correctness:,0.9500,0.9500,0,, ,Correctness:,0.5500,0.5500,0,, ,Correctness:,0.5300,0.5300,0,, ,Correctness:,0.5450,0.5450,0,, ,Correctness:,0.8650,0.8650,0,, 
,Correctness:,0.9000,0.9000,0,, ,Correctness:,0.5450,0.5450,0,, ,Correctness:,0.5225,0.5225,0,, ,Correctness:,0.5250,0.5250,0,, ,Correctness:,0.8125,0.8125,0,, 
,Correctness:,0.9075,0.9075,0,, ,Correctness:,0.5150,0.5150,0,, ,Correctness:,0.5025,0.5025,0,, ,Correctness:,0.5125,0.5125,0,, ,Correctness:,0.8325,0.8325,0,, 
,Correctness:,0.9425,0.9425,0,, ,Correctness:,0.5350,0.5350,0,, ,Correctness:,0.4925,0.4925,0,, ,Correctness:,0.5150,0.5150,0,, ,Correctness:,0.8225,0.8225,0,, 
,Correctness:,0.9075,0.9075,0,, ,Correctness:,0.5200,0.5200,0,, ,Correctness:,0.5050,0.5050,0,, ,Correctness:,0.5100,0.5100,0,, ,Correctness:,0.8200,0.8200,0,, 
,Correctness:,0.9050,0.9050,0,, ,Correctness:,0.5325,0.5325,0,, ,Correctness:,0.4975,0.4975,0,, ,Correctness:,0.5075,0.5075,0,, ,Correctness:,0.8300,0.8300,0,, 
,Correctness:,0.9525,0.9525,0,, ,Correctness:,0.5275,0.5275,0,, ,Correctness:,0.5225,0.5225,0,, ,Correctness:,0.5200,0.5200,0,, ,Correctness:,0.8325,0.8325,0,, 
,Correctness:,0.9400,0.9400,0,, ,Correctness:,0.5275,0.5275,0,, ,Correctness:,0.5125,0.5125,0,, ,Correctness:,0.5200,0.5200,0,, ,Correctness:,0.8400,0.8400,0,, 
,Correctness:,0.9025,0.9025,0,, ,Correctness:,0.5375,0.5375,0,, ,Correctness:,0.5000,0.5000,0,, ,Correctness:,0.5200,0.5200,0,, ,Correctness:,0.8100,0.8100,0,, 
,Correctness:,0.8950,0.8950,0,, ,Correctness:,0.5225,0.5225,0,, ,Correctness:,0.5125,0.5125,0,, ,Correctness:,0.5125,0.5125,0,, ,Correctness:,0.8075,0.8075,0,, 
,Correctness:,0.9075,0.9075,0,, ,Correctness:,0.5150,0.5150,0,, ,Correctness:,0.5150,0.5150,0,, ,Correctness:,0.5150,0.5150,0,, ,Correctness:,0.7925,0.7925,0,, 
,Correctness:,0.9050,0.9050,0,, ,Correctness:,0.5200,0.5200,0,, ,Correctness:,0.4950,0.4950,0,, ,Correctness:,0.5100,0.5100,0,, ,Correctness:,0.8375,0.8375,0,, 
,Correctness:,0.8988,0.8988,0,, ,Correctness:,0.5300,0.5300,0,, ,Correctness:,0.5175,0.5175,0,, ,Correctness:,0.5138,0.5138,0,, ,Correctness:,0.8200,0.8200,0,, 
,Correctness:,0.9587,0.9587,0,, ,Correctness:,0.5350,0.5350,0,, ,Correctness:,0.4925,0.4925,0,, ,Correctness:,0.5112,0.5112,0,, ,Correctness:,0.8187,0.8187,0,, 
,Correctness:,0.9163,0.9163,0,, ,Correctness:,0.5238,0.5238,0,, ,Correctness:,0.5062,0.5062,0,, ,Correctness:,0.5062,0.5062,0,, ,Correctness:,0.8488,0.8488,0,, 
,Correctness:,0.9513,0.9513,0,, ,Correctness:,0.5300,0.5300,0,, ,Correctness:,0.5050,0.5050,0,, ,Correctness:,0.5100,0.5100,0,, ,Correctness:,0.8287,0.8287,0,, 
,Correctness:,0.9137,0.9137,0,, ,Correctness:,0.5225,0.5225,0,, ,Correctness:,0.5125,0.5125,0,, ,Correctness:,0.5150,0.5150,0,, ,Correctness:,0.8175,0.8175,0,, 
,Correctness:,0.8875,0.8875,0,, ,Correctness:,0.5288,0.5288,0,, ,Correctness:,0.5238,0.5238,0,, ,Correctness:,0.5250,0.5250,0,, ,Correctness:,0.8137,0.8137,0,, 
,Correctness:,0.9100,0.9100,0,, ,Correctness:,0.5200,0.5200,0,, ,Correctness:,0.5175,0.5175,0,, ,Correctness:,0.5088,0.5088,0,, ,Correctness:,0.8150,0.8150,0,, 
,Correctness:,0.9012,0.9012,0,, ,Correctness:,0.5275,0.5275,0,, ,Correctness:,0.5175,0.5175,0,, ,Correctness:,0.5150,0.5150,0,, ,Correctness:,0.8313,0.8313,0,, 
,Correctness:,0.9200,0.9200,0,, ,Correctness:,0.5200,0.5200,0,, ,Correctness:,0.5150,0.5150,0,, ,Correctness:,0.5075,0.5075,0,, ,Correctness:,0.8287,0.8287,0,, 
,Correctness:,0.9213,0.9213,0,, ,Correctness:,0.5256,0.5256,0,, ,Correctness:,0.5144,0.5144,0,, ,Correctness:,0.5119,0.5119,0,, ,Correctness:,0.8400,0.8400,0,, 
,Correctness:,0.9094,0.9094,0,, ,Correctness:,0.5262,0.5262,0,, ,Correctness:,0.5188,0.5188,0,, ,Correctness:,0.5131,0.5131,0,, ,Correctness:,0.8331,0.8331,0,, 
,Correctness:,0.9387,0.9387,0,, ,Correctness:,0.5262,0.5262,0,, ,Correctness:,0.5019,0.5019,0,, ,Correctness:,0.5138,0.5138,0,, ,Correctness:,0.8256,0.8256,0,, 
,Correctness:,0.9125,0.9125,0,, ,Correctness:,0.5194,0.5194,0,, ,Correctness:,0.5125,0.5125,0,, ,Correctness:,0.5075,0.5075,0,, ,Correctness:,0.8219,0.8219,0,, 
,Correctness:,0.9106,0.9106,0,, ,Correctness:,0.5244,0.5244,0,, ,Correctness:,0.5019,0.5019,0,, ,Correctness:,0.5119,0.5119,0,, ,Correctness:,0.8237,0.8237,0,, 
,Correctness:,0.9187,0.9187,0,, ,Correctness:,0.5238,0.5238,0,, ,Correctness:,0.5062,0.5062,0,, ,Correctness:,0.5119,0.5119,0,, ,Correctness:,0.8337,0.8337,0,, 
,Correctness:,0.9269,0.9269,0,, ,Correctness:,0.5269,0.5269,0,, ,Correctness:,0.4988,0.4988,0,, ,Correctness:,0.5112,0.5112,0,, ,Correctness:,0.8325,0.8325,0,, 
,Correctness:,0.9294,0.9294,0,, ,Correctness:,0.5256,0.5256,0,, ,Correctness:,0.5088,0.5088,0,, ,Correctness:,0.5094,0.5094,0,, ,Correctness:,0.8181,0.8181,0,, 
,Correctness:,0.9375,0.9375,0,, ,Correctness:,0.5244,0.5244,0,, ,Correctness:,0.5075,0.5075,0,, ,Correctness:,0.5175,0.5175,0,, ,Correctness:,0.8400,0.8400,0,, 
,Correctness:,0.9019,0.9019,0,, ,Correctness:,0.5288,0.5288,0,, ,Correctness:,0.5050,0.5050,0,, ,Correctness:,0.5144,0.5144,0,, ,Correctness:,0.8150,0.8150,0,, 
Average:,0.9124,,,,, Average:,0.5259,,,,, Average:,0.5079,,,,, Average:,0.5137,,,,, Average:,0.8212,,,,, 
