,Correctness:,0.8400,0.8400,0,, ,Correctness:,0.8100,0.8100,0,, ,Correctness:,0.8100,0.8100,0,, ,Correctness:,0.8100,0.8100,0,, ,Correctness:,0.8300,0.8300,0,, 
,Correctness:,0.9100,0.9100,0,, ,Correctness:,0.9100,0.9100,0,, ,Correctness:,0.9100,0.9100,0,, ,Correctness:,0.9500,0.9500,0,, ,Correctness:,0.9100,0.9100,0,, 
,Correctness:,0.9300,0.9300,0,, ,Correctness:,0.9600,0.9600,0,, ,Correctness:,0.9600,0.9600,0,, ,Correctness:,0.9600,0.9600,0,, ,Correctness:,0.9200,0.9200,0,, 
,Correctness:,0.8000,0.8000,0,, ,Correctness:,0.8100,0.8100,0,, ,Correctness:,0.8600,0.8600,0,, ,Correctness:,0.8600,0.8600,0,, ,Correctness:,0.8400,0.8400,0,, 
,Correctness:,0.8300,0.8300,0,, ,Correctness:,0.9200,0.9200,0,, ,Correctness:,0.9200,0.9200,0,, ,Correctness:,0.9200,0.9200,0,, ,Correctness:,0.9200,0.9200,0,, 
,Correctness:,0.8900,0.8900,0,, ,Correctness:,0.9300,0.9300,0,, ,Correctness:,0.9100,0.9100,0,, ,Correctness:,0.9100,0.9100,0,, ,Correctness:,0.9300,0.9300,0,, 
,Correctness:,0.7000,0.7000,0,, ,Correctness:,0.7200,0.7200,0,, ,Correctness:,0.7200,0.7200,0,, ,Correctness:,0.7200,0.7200,0,, ,Correctness:,0.7200,0.7200,0,, 
,Correctness:,0.8400,0.8400,0,, ,Correctness:,0.9100,0.9100,0,, ,Correctness:,0.8600,0.8600,0,, ,Correctness:,0.8600,0.8600,0,, ,Correctness:,0.9100,0.9100,0,, 
,Correctness:,0.8400,0.8400,0,, ,Correctness:,0.8700,0.8700,0,, ,Correctness:,0.8900,0.8900,0,, ,Correctness:,0.8900,0.8900,0,, ,Correctness:,0.8700,0.8700,0,, 
,Correctness:,0.9900,0.9900,0,, ,Correctness:,0.9900,0.9900,0,, ,Correctness:,0.9900,0.9900,0,, ,Correctness:,0.9900,0.9900,0,, ,Correctness:,0.9900,0.9900,0,, 
,Correctness:,0.8700,0.8700,0,, ,Correctness:,0.9100,0.9100,0,, ,Correctness:,0.9250,0.9250,0,, ,Correctness:,0.9450,0.9450,0,, ,Correctness:,0.9250,0.9250,0,, 
,Correctness:,0.9250,0.9250,0,, ,Correctness:,0.9350,0.9350,0,, ,Correctness:,0.9350,0.9350,0,, ,Correctness:,0.9250,0.9250,0,, ,Correctness:,0.9350,0.9350,0,, 
,Correctness:,0.9350,0.9350,0,, ,Correctness:,0.9150,0.9150,0,, ,Correctness:,0.9250,0.9250,0,, ,Correctness:,0.9450,0.9450,0,, ,Correctness:,0.9250,0.9250,0,, 
,Correctness:,0.9350,0.9350,0,, ,Correctness:,0.9800,0.9800,0,, ,Correctness:,0.9650,0.9650,0,, ,Correctness:,0.9650,0.9650,0,, ,Correctness:,0.9450,0.9450,0,, 
,Correctness:,0.8900,0.8900,0,, ,Correctness:,0.9100,0.9100,0,, ,Correctness:,0.9100,0.9100,0,, ,Correctness:,0.9100,0.9100,0,, ,Correctness:,0.9000,0.9000,0,, 
,Correctness:,0.9200,0.9200,0,, ,Correctness:,0.9300,0.9300,0,, ,Correctness:,0.9300,0.9300,0,, ,Correctness:,0.9300,0.9300,0,, ,Correctness:,0.9100,0.9100,0,, 
,Correctness:,0.9600,0.9600,0,, ,Correctness:,0.9500,0.9500,0,, ,Correctness:,0.9600,0.9600,0,, ,Correctness:,0.9400,0.9400,0,, ,Correctness:,0.9500,0.9500,0,, 
,Correctness:,0.8850,0.8850,0,, ,Correctness:,0.8750,0.8750,0,, ,Correctness:,0.9200,0.9200,0,, ,Correctness:,0.9200,0.9200,0,, ,Correctness:,0.9350,0.9350,0,, 
,Correctness:,0.8950,0.8950,0,, ,Correctness:,0.8700,0.8700,0,, ,Correctness:,0.8700,0.8700,0,, ,Correctness:,0.8800,0.8800,0,, ,Correctness:,0.8250,0.8250,0,, 
,Correctness:,0.8450,0.8450,0,, ,Correctness:,0.8750,0.8750,0,, ,Correctness:,0.8900,0.8900,0,, ,Correctness:,0.8800,0.8800,0,, ,Correctness:,0.8900,0.8900,0,, 
,Correctness:,0.9450,0.9450,0,, ,Correctness:,0.9425,0.9425,0,, ,Correctness:,0.9550,0.9550,0,, ,Correctness:,0.9550,0.9550,0,, ,Correctness:,0.9225,0.9225,0,, 
,Correctness:,0.8900,0.8900,0,, ,Correctness:,0.9200,0.9200,0,, ,Correctness:,0.9100,0.9100,0,, ,Correctness:,0.9050,0.9050,0,, ,Correctness:,0.9150,0.9150,0,, 
,Correctness:,0.9225,0.9225,0,, ,Correctness:,0.9325,0.9325,0,, ,Correctness:,0.9450,0.9450,0,, ,Correctness:,0.9450,0.9450,0,, ,Correctness:,0.9350,0.9350,0,, 
,Correctness:,0.8875,0.8875,0,, ,Correctness:,0.8800,0.8800,0,, ,Correctness:,0.8575,0.8575,0,, ,Correctness:,0.8575,0.8575,0,, ,Correctness:,0.8900,0.8900,0,, 
,Correctness:,0.8700,0.8700,0,, ,Correctness:,0.8950,0.8950,0,, ,Correctness:,0.8800,0.8800,0,, ,Correctness:,0.9000,0.9000,0,, ,Correctness:,0.9100,0.9100,0,, 
,Correctness:,0.8575,0.8575,0,, ,Correctness:,0.8725,0.8725,0,, ,Correctness:,0.8725,0.8725,0,, ,Correctness:,0.8825,0.8825,0,, ,Correctness:,0.8600,0.8600,0,, 
,Correctness:,0.9150,0.9150,0,, ,Correctness:,0.9275,0.9275,0,, ,Correctness:,0.9425,0.9425,0,, ,Correctness:,0.9325,0.9325,0,, ,Correctness:,0.9300,0.9300,0,, 
,Correctness:,0.9450,0.9450,0,, ,Correctness:,0.9650,0.9650,0,, ,Correctness:,0.9700,0.9700,0,, ,Correctness:,0.9700,0.9700,0,, ,Correctness:,0.9500,0.9500,0,, 
,Correctness:,0.9325,0.9325,0,, ,Correctness:,0.9125,0.9125,0,, ,Correctness:,0.9125,0.9125,0,, ,Correctness:,0.9175,0.9175,0,, ,Correctness:,0.9225,0.9225,0,, 
,Correctness:,0.8950,0.8950,0,, ,Correctness:,0.9250,0.9250,0,, ,Correctness:,0.9175,0.9175,0,, ,Correctness:,0.9025,0.9025,0,, ,Correctness:,0.9175,0.9175,0,, 
,Correctness:,0.8900,0.8900,0,, ,Correctness:,0.9137,0.9137,0,, ,Correctness:,0.9213,0.9213,0,, ,Correctness:,0.9187,0.9187,0,, ,Correctness:,0.9237,0.9237,0,, 
,Correctness:,0.8638,0.8638,0,, ,Correctness:,0.8850,0.8850,0,, ,Correctness:,0.8975,0.8975,0,, ,Correctness:,0.8925,0.8925,0,, ,Correctness:,0.8862,0.8862,0,, 
,Correctness:,0.8650,0.8650,0,, ,Correctness:,0.8850,0.8850,0,, ,Correctness:,0.9025,0.9025,0,, ,Correctness:,0.9025,0.9025,0,, ,Correctness:,0.8775,0.8775,0,, 
,Correctness:,0.8925,0.8925,0,, ,Correctness:,0.9050,0.9050,0,, ,Correctness:,0.9075,0.9075,0,, ,Correctness:,0.9075,0.9075,0,, ,Correctness:,0.9050,0.9050,0,, 
,Correctness:,0.9137,0.9137,0,, ,Correctness:,0.9125,0.9125,0,, ,Correctness:,0.9300,0.9300,0,, ,Correctness:,0.9250,0.9250,0,, ,Correctness:,0.9163,0.9163,0,, 
,Correctness:,0.9000,0.9000,0,, ,Correctness:,0.9337,0.9337,0,, ,Correctness:,0.9287,0.9287,0,, ,Correctness:,0.9337,0.9337,0,, ,Correctness:,0.9287,0.9287,0,, 
,Correctness:,0.9125,0.9125,0,, ,Correctness:,0.9075,0.9075,0,, ,Correctness:,0.9200,0.9200,0,, ,Correctness:,0.9225,0.9225,0,, ,Correctness:,0.9225,0.9225,0,, 
,Correctness:,0.9038,0.9038,0,, ,Correctness:,0.9187,0.9187,0,, ,Correctness:,0.9137,0.9137,0,, ,Correctness:,0.9137,0.9137,0,, ,Correctness:,0.9062,0.9062,0,, 
,Correctness:,0.9050,0.9050,0,, ,Correctness:,0.9213,0.9213,0,, ,Correctness:,0.9287,0.9287,0,, ,Correctness:,0.9313,0.9313,0,, ,Correctness:,0.9012,0.9012,0,, 
,Correctness:,0.8975,0.8975,0,, ,Correctness:,0.9187,0.9187,0,, ,Correctness:,0.9150,0.9150,0,, ,Correctness:,0.9175,0.9175,0,, ,Correctness:,0.9187,0.9187,0,, 
,Correctness:,0.9106,0.9106,0,, ,Correctness:,0.9350,0.9350,0,, ,Correctness:,0.9337,0.9337,0,, ,Correctness:,0.9337,0.9337,0,, ,Correctness:,0.9131,0.9131,0,, 
,Correctness:,0.9050,0.9050,0,, ,Correctness:,0.9363,0.9363,0,, ,Correctness:,0.9381,0.9381,0,, ,Correctness:,0.9369,0.9369,0,, ,Correctness:,0.9331,0.9331,0,, 
,Correctness:,0.8981,0.8981,0,, ,Correctness:,0.8994,0.8994,0,, ,Correctness:,0.9113,0.9113,0,, ,Correctness:,0.9125,0.9125,0,, ,Correctness:,0.9019,0.9019,0,, 
,Correctness:,0.8988,0.8988,0,, ,Correctness:,0.9206,0.9206,0,, ,Correctness:,0.9169,0.9169,0,, ,Correctness:,0.9169,0.9169,0,, ,Correctness:,0.9181,0.9181,0,, 
,Correctness:,0.8731,0.8731,0,, ,Correctness:,0.8944,0.8944,0,, ,Correctness:,0.9106,0.9106,0,, ,Correctness:,0.9081,0.9081,0,, ,Correctness:,0.8875,0.8875,0,, 
,Correctness:,0.9038,0.9038,0,, ,Correctness:,0.9156,0.9156,0,, ,Correctness:,0.9237,0.9237,0,, ,Correctness:,0.9225,0.9225,0,, ,Correctness:,0.9169,0.9169,0,, 
,Correctness:,0.8994,0.8994,0,, ,Correctness:,0.9012,0.9012,0,, ,Correctness:,0.9094,0.9094,0,, ,Correctness:,0.9131,0.9131,0,, ,Correctness:,0.8981,0.8981,0,, 
,Correctness:,0.8969,0.8969,0,, ,Correctness:,0.9119,0.9119,0,, ,Correctness:,0.9200,0.9200,0,, ,Correctness:,0.9187,0.9187,0,, ,Correctness:,0.9075,0.9075,0,, 
,Correctness:,0.9025,0.9025,0,, ,Correctness:,0.9144,0.9144,0,, ,Correctness:,0.9231,0.9231,0,, ,Correctness:,0.9194,0.9194,0,, ,Correctness:,0.9075,0.9075,0,, 
,Correctness:,0.8969,0.8969,0,, ,Correctness:,0.9106,0.9106,0,, ,Correctness:,0.9150,0.9150,0,, ,Correctness:,0.9125,0.9125,0,, ,Correctness:,0.9144,0.9144,0,, 
Average:,0.8924,,,,, Average:,0.9079,,,,, Average:,0.9118,,,,, Average:,0.9127,,,,, Average:,0.9063,,,,, 
,Correctness:,0.8100,0.8100,0,, ,Correctness:,0.8300,0.8300,0,, ,Correctness:,0.8100,0.8100,0,, ,Correctness:,0.8300,0.8300,0,, ,Correctness:,0.8300,0.8300,0,, 
,Correctness:,0.9500,0.9500,0,, ,Correctness:,0.9000,0.9000,0,, ,Correctness:,0.9100,0.9100,0,, ,Correctness:,0.9100,0.9100,0,, ,Correctness:,0.9000,0.9000,0,, 
,Correctness:,0.9600,0.9600,0,, ,Correctness:,0.9300,0.9300,0,, ,Correctness:,0.9600,0.9600,0,, ,Correctness:,0.9500,0.9500,0,, ,Correctness:,0.9300,0.9300,0,, 
,Correctness:,0.8800,0.8800,0,, ,Correctness:,0.8200,0.8200,0,, ,Correctness:,0.8100,0.8100,0,, ,Correctness:,0.8000,0.8000,0,, ,Correctness:,0.8200,0.8200,0,, 
,Correctness:,0.9200,0.9200,0,, ,Correctness:,0.9000,0.9000,0,, ,Correctness:,0.9200,0.9200,0,, ,Correctness:,0.8800,0.8800,0,, ,Correctness:,0.9000,0.9000,0,, 
,Correctness:,0.9100,0.9100,0,, ,Correctness:,0.8700,0.8700,0,, ,Correctness:,0.9100,0.9100,0,, ,Correctness:,0.8700,0.8700,0,, ,Correctness:,0.8700,0.8700,0,, 
,Correctness:,0.7000,0.7000,0,, ,Correctness:,0.7400,0.7400,0,, ,Correctness:,0.7200,0.7200,0,, ,Correctness:,0.7000,0.7000,0,, ,Correctness:,0.7400,0.7400,0,, 
,Correctness:,0.7800,0.7800,0,, ,Correctness:,0.8200,0.8200,0,, ,Correctness:,0.8200,0.8200,0,, ,Correctness:,0.8000,0.8000,0,, ,Correctness:,0.8600,0.8600,0,, 
,Correctness:,0.8900,0.8900,0,, ,Correctness:,0.8600,0.8600,0,, ,Correctness:,0.8600,0.8600,0,, ,Correctness:,0.8700,0.8700,0,, ,Correctness:,0.8700,0.8700,0,, 
,Correctness:,0.9900,0.9900,0,, ,Correctness:,0.9800,0.9800,0,, ,Correctness:,0.9900,0.9900,0,, ,Correctness:,0.9900,0.9900,0,, ,Correctness:,0.9900,0.9900,0,, 
,Correctness:,0.9300,0.9300,0,, ,Correctness:,0.8850,0.8850,0,, ,Correctness:,0.9450,0.9450,0,, ,Correctness:,0.8950,0.8950,0,, ,Correctness:,0.8850,0.8850,0,, 
,Correctness:,0.9250,0.9250,0,, ,Correctness:,0.9450,0.9450,0,, ,Correctness:,0.9350,0.9350,0,, ,Correctness:,0.9350,0.9350,0,, ,Correctness:,0.9450,0.9450,0,, 
,Correctness:,0.9250,0.9250,0,, ,Correctness:,0.9250,0.9250,0,, ,Correctness:,0.9250,0.9250,0,, ,Correctness:,0.9350,0.9350,0,, ,Correctness:,0.9250,0.9250,0,, 
,Correctness:,0.9800,0.9800,0,, ,Correctness:,0.9650,0.9650,0,, ,Correctness:,0.9650,0.9650,0,, ,Correctness:,0.9550,0.9550,0,, ,Correctness:,0.9550,0.9550,0,, 
,Correctness:,0.9100,0.9100,0,, ,Correctness:,0.9000,0.9000,0,, ,Correctness:,0.9100,0.9100,0,, ,Correctness:,0.9000,0.9000,0,, ,Correctness:,0.9000,0.9000,0,, 
,Correctness:,0.9300,0.9300,0,, ,Correctness:,0.9300,0.9300,0,, ,Correctness:,0.9300,0.9300,0,, ,Correctness:,0.9300,0.9300,0,, ,Correctness:,0.9300,0.9300,0,, 
,Correctness:,0.9400,0.9400,0,, ,Correctness:,0.9400,0.9400,0,, ,Correctness:,0.9600,0.9600,0,, ,Correctness:,0.9600,0.9600,0,, ,Correctness:,0.9300,0.9300,0,, 
,Correctness:,0.9100,0.9100,0,, ,Correctness:,0.9300,0.9300,0,, ,Correctness:,0.9250,0.9250,0,, ,Correctness:,0.9300,0.9300,0,, ,Correctness:,0.9300,0.9300,0,, 
,Correctness:,0.8950,0.8950,0,, ,Correctness:,0.8500,0.8500,0,, ,Correctness:,0.8700,0.8700,0,, ,Correctness:,0.8700,0.8700,0,, ,Correctness:,0.8500,0.8500,0,, 
,Correctness:,0.8800,0.8800,0,, ,Correctness:,0.8700,0.8700,0,, ,Correctness:,0.8750,0.8750,0,, ,Correctness:,0.8800,0.8800,0,, ,Correctness:,0.8700,0.8700,0,, 
,Correctness:,0.9550,0.9550,0,, ,Correctness:,0.9225,0.9225,0,, ,Correctness:,0.9375,0.9375,0,, ,Correctness:,0.9300,0.9300,0,, ,Correctness:,0.9350,0.9350,0,, 
,Correctness:,0.9050,0.9050,0,, ,Correctness:,0.8850,0.8850,0,, ,Correctness:,0.9000,0.9000,0,, ,Correctness:,0.8900,0.8900,0,, ,Correctness:,0.8850,0.8850,0,, 
,Correctness:,0.9625,0.9625,0,, ,Correctness:,0.9150,0.9150,0,, ,Correctness:,0.9300,0.9300,0,, ,Correctness:,0.9200,0.9200,0,, ,Correctness:,0.9100,0.9100,0,, 
,Correctness:,0.8650,0.8650,0,, ,Correctness:,0.8575,0.8575,0,, ,Correctness:,0.8675,0.8675,0,, ,Correctness:,0.8725,0.8725,0,, ,Correctness:,0.8675,0.8675,0,, 
,Correctness:,0.8850,0.8850,0,, ,Correctness:,0.8925,0.8925,0,, ,Correctness:,0.9025,0.9025,0,, ,Correctness:,0.9050,0.9050,0,, ,Correctness:,0.8900,0.8900,0,, 
,Correctness:,0.8825,0.8825,0,, ,Correctness:,0.8625,0.8625,0,, ,Correctness:,0.8725,0.8725,0,, ,Correctness:,0.8525,0.8525,0,, ,Correctness:,0.8725,0.8725,0,, 
,Correctness:,0.9300,0.9300,0,, ,Correctness:,0.9325,0.9325,0,, ,Correctness:,0.9200,0.9200,0,, ,Correctness:,0.9425,0.9425,0,, ,Correctness:,0.9325,0.9325,0,, 
,Correctness:,0.9700,0.9700,0,, ,Correctness:,0.9450,0.9450,0,, ,Correctness:,0.9600,0.9600,0,, ,Correctness:,0.9450,0.9450,0,, ,Correctness:,0.9450,0.9450,0,, 
,Correctness:,0.9175,0.9175,0,, ,Correctness:,0.9100,0.9100,0,, ,Correctness:,0.9400,0.9400,0,, ,Correctness:,0.9250,0.9250,0,, ,Correctness:,0.8975,0.8975,0,, 
,Correctness:,0.9250,0.9250,0,, ,Correctness:,0.8975,0.8975,0,, ,Correctness:,0.9100,0.9100,0,, ,Correctness:,0.9075,0.9075,0,, ,Correctness:,0.8975,0.8975,0,, 
,Correctness:,0.9150,0.9150,0,, ,Correctness:,0.8888,0.8888,0,, ,Correctness:,0.8988,0.8988,0,, ,Correctness:,0.8938,0.8938,0,, ,Correctness:,0.8925,0.8925,0,, 
,Correctness:,0.8938,0.8938,0,, ,Correctness:,0.8313,0.8313,0,, ,Correctness:,0.8812,0.8812,0,, ,Correctness:,0.8675,0.8675,0,, ,Correctness:,0.8413,0.8413,0,, 
,Correctness:,0.9025,0.9025,0,, ,Correctness:,0.8712,0.8712,0,, ,Correctness:,0.8900,0.8900,0,, ,Correctness:,0.8725,0.8725,0,, ,Correctness:,0.8738,0.8738,0,, 
,Correctness:,0.9025,0.9025,0,, ,Correctness:,0.8950,0.8950,0,, ,Correctness:,0.8975,0.8975,0,, ,Correctness:,0.8850,0.8850,0,, ,Correctness:,0.8950,0.8950,0,, 
,Correctness:,0.9400,0.9400,0,, ,Correctness:,0.9113,0.9113,0,, ,Correctness:,0.9175,0.9175,0,, ,Correctness:,0.9150,0.9150,0,, ,Correctness:,0.9175,0.9175,0,, 
,Correctness:,0.9337,0.9337,0,, ,Correctness:,0.8925,0.8925,0,, ,Correctness:,0.9150,0.9150,0,, ,Correctness:,0.9113,0.9113,0,, ,Correctness:,0.9000,0.9000,0,, 
,Correctness:,0.9075,0.9075,0,, ,Correctness:,0.9038,0.9038,0,, ,Correctness:,0.9137,0.9137,0,, ,Correctness:,0.9125,0.9125,0,, ,Correctness:,0.8988,0.8988,0,, 
,Correctness:,0.9313,0.9313,0,, ,Correctness:,0.9000,0.9000,0,, ,Correctness:,0.9087,0.9087,0,, ,Correctness:,0.9038,0.9038,0,, ,Correctness:,0.8988,0.8988,0,, 
,Correctness:,0.9225,0.9225,0,, ,Correctness:,0.9137,0.9137,0,, ,Correctness:,0.9275,0.9275,0,, ,Correctness:,0.9038,0.9038,0,, ,Correctness:,0.9137,0.9137,0,, 
,Correctness:,0.9163,0.9163,0,, ,Correctness:,0.8975,0.8975,0,, ,Correctness:,0.9237,0.9237,0,, ,Correctness:,0.9000,0.9000,0,, ,Correctness:,0.8950,0.8950,0,, 
,Correctness:,0.9331,0.9331,0,, ,Correctness:,0.9062,0.9062,0,, ,Correctness:,0.9300,0.9300,0,, ,Correctness:,0.9075,0.9075,0,, ,Correctness:,0.9038,0.9038,0,, 
,Correctness:,0.9369,0.9369,0,, ,Correctness:,0.9025,0.9025,0,, ,Correctness:,0.9119,0.9119,0,, ,Correctness:,0.9056,0.9056,0,, ,Correctness:,0.9044,0.9044,0,, 
,Correctness:,0.9075,0.9075,0,, ,Correctness:,0.9031,0.9031,0,, ,Correctness:,0.9062,0.9062,0,, ,Correctness:,0.8962,0.8962,0,, ,Correctness:,0.8988,0.8988,0,, 
,Correctness:,0.9137,0.9137,0,, ,Correctness:,0.9025,0.9025,0,, ,Correctness:,0.9163,0.9163,0,, ,Correctness:,0.9100,0.9100,0,, ,Correctness:,0.9087,0.9087,0,, 
,Correctness:,0.8944,0.8944,0,, ,Correctness:,0.8825,0.8825,0,, ,Correctness:,0.8862,0.8862,0,, ,Correctness:,0.8931,0.8931,0,, ,Correctness:,0.8856,0.8856,0,, 
,Correctness:,0.9113,0.9113,0,, ,Correctness:,0.9119,0.9119,0,, ,Correctness:,0.9175,0.9175,0,, ,Correctness:,0.9075,0.9075,0,, ,Correctness:,0.9094,0.9094,0,, 
,Correctness:,0.9038,0.9038,0,, ,Correctness:,0.8912,0.8912,0,, ,Correctness:,0.8962,0.8962,0,, ,Correctness:,0.8925,0.8925,0,, ,Correctness:,0.8969,0.8969,0,, 
,Correctness:,0.9181,0.9181,0,, ,Correctness:,0.8956,0.8956,0,, ,Correctness:,0.9113,0.9113,0,, ,Correctness:,0.8938,0.8938,0,, ,Correctness:,0.8975,0.8975,0,, 
,Correctness:,0.9181,0.9181,0,, ,Correctness:,0.8912,0.8912,0,, ,Correctness:,0.9100,0.9100,0,, ,Correctness:,0.8981,0.8981,0,, ,Correctness:,0.8888,0.8888,0,, 
,Correctness:,0.9175,0.9175,0,, ,Correctness:,0.8956,0.8956,0,, ,Correctness:,0.9125,0.9125,0,, ,Correctness:,0.9038,0.9038,0,, ,Correctness:,0.8962,0.8962,0,, 
Average:,0.9106,,,,, Average:,0.8940,,,,, Average:,0.9052,,,,, Average:,0.8971,,,,, Average:,0.8956,,,,, 
,Correctness:,0.8100,0.8100,0,, ,Correctness:,0.8100,0.8100,0,, ,Correctness:,0.8400,0.8400,0,, ,Correctness:,0.8100,0.8100,0,, ,Correctness:,0.8100,0.8100,0,, 
,Correctness:,0.9100,0.9100,0,, ,Correctness:,0.9100,0.9100,0,, ,Correctness:,0.9500,0.9500,0,, ,Correctness:,0.9500,0.9500,0,, ,Correctness:,0.9100,0.9100,0,, 
,Correctness:,0.9600,0.9600,0,, ,Correctness:,0.9300,0.9300,0,, ,Correctness:,0.9300,0.9300,0,, ,Correctness:,0.9600,0.9600,0,, ,Correctness:,0.9400,0.9400,0,, 
,Correctness:,0.8600,0.8600,0,, ,Correctness:,0.8000,0.8000,0,, ,Correctness:,0.8200,0.8200,0,, ,Correctness:,0.8800,0.8800,0,, ,Correctness:,0.8600,0.8600,0,, 
,Correctness:,0.9200,0.9200,0,, ,Correctness:,0.9000,0.9000,0,, ,Correctness:,0.8800,0.8800,0,, ,Correctness:,0.9200,0.9200,0,, ,Correctness:,0.9200,0.9200,0,, 
,Correctness:,0.9100,0.9100,0,, ,Correctness:,0.8900,0.8900,0,, ,Correctness:,0.8900,0.8900,0,, ,Correctness:,0.9100,0.9100,0,, ,Correctness:,0.9100,0.9100,0,, 
,Correctness:,0.7200,0.7200,0,, ,Correctness:,0.7300,0.7300,0,, ,Correctness:,0.7900,0.7900,0,, ,Correctness:,0.7600,0.7600,0,, ,Correctness:,0.7200,0.7200,0,, 
,Correctness:,0.8600,0.8600,0,, ,Correctness:,0.8600,0.8600,0,, ,Correctness:,0.8000,0.8000,0,, ,Correctness:,0.8200,0.8200,0,, ,Correctness:,0.7800,0.7800,0,, 
,Correctness:,0.8900,0.8900,0,, ,Correctness:,0.8500,0.8500,0,, ,Correctness:,0.8600,0.8600,0,, ,Correctness:,0.8900,0.8900,0,, ,Correctness:,0.8600,0.8600,0,, 
,Correctness:,0.9900,0.9900,0,, ,Correctness:,0.9900,0.9900,0,, ,Correctness:,0.9800,0.9800,0,, ,Correctness:,0.9900,0.9900,0,, ,Correctness:,0.9800,0.9800,0,, 
,Correctness:,0.9250,0.9250,0,, ,Correctness:,0.8950,0.8950,0,, ,Correctness:,0.8950,0.8950,0,, ,Correctness:,0.9250,0.9250,0,, ,Correctness:,0.9300,0.9300,0,, 
,Correctness:,0.9350,0.9350,0,, ,Correctness:,0.9350,0.9350,0,, ,Correctness:,0.9450,0.9450,0,, ,Correctness:,0.9250,0.9250,0,, ,Correctness:,0.9350,0.9350,0,, 
,Correctness:,0.9450,0.9450,0,, ,Correctness:,0.9250,0.9250,0,, ,Correctness:,0.9050,0.9050,0,, ,Correctness:,0.9450,0.9450,0,, ,Correctness:,0.9250,0.9250,0,, 
,Correctness:,0.9650,0.9650,0,, ,Correctness:,0.9450,0.9450,0,, ,Correctness:,0.9550,0.9550,0,, ,Correctness:,0.9650,0.9650,0,, ,Correctness:,0.9650,0.9650,0,, 
,Correctness:,0.9100,0.9100,0,, ,Correctness:,0.9000,0.9000,0,, ,Correctness:,0.8900,0.8900,0,, ,Correctness:,0.9100,0.9100,0,, ,Correctness:,0.9000,0.9000,0,, 
,Correctness:,0.9300,0.9300,0,, ,Correctness:,0.9200,0.9200,0,, ,Correctness:,0.9300,0.9300,0,, ,Correctness:,0.9300,0.9300,0,, ,Correctness:,0.9100,0.9100,0,, 
,Correctness:,0.9600,0.9600,0,, ,Correctness:,0.9500,0.9500,0,, ,Correctness:,0.9400,0.9400,0,, ,Correctness:,0.9400,0.9400,0,, ,Correctness:,0.9600,0.9600,0,, 
,Correctness:,0.9350,0.9350,0,, ,Correctness:,0.9200,0.9200,0,, ,Correctness:,0.9300,0.9300,0,, ,Correctness:,0.9400,0.9400,0,, ,Correctness:,0.9100,0.9100,0,, 
,Correctness:,0.8700,0.8700,0,, ,Correctness:,0.8600,0.8600,0,, ,Correctness:,0.8600,0.8600,0,, ,Correctness:,0.8700,0.8700,0,, ,Correctness:,0.9050,0.9050,0,, 
,Correctness:,0.8900,0.8900,0,, ,Correctness:,0.8800,0.8800,0,, ,Correctness:,0.8700,0.8700,0,, ,Correctness:,0.8800,0.8800,0,, ,Correctness:,0.8900,0.8900,0,, 
,Correctness:,0.9450,0.9450,0,, ,Correctness:,0.9400,0.9400,0,, ,Correctness:,0.9350,0.9350,0,, ,Correctness:,0.9450,0.9450,0,, ,Correctness:,0.9450,0.9450,0,, 
,Correctness:,0.9100,0.9100,0,, ,Correctness:,0.9100,0.9100,0,, ,Correctness:,0.8900,0.8900,0,, ,Correctness:,0.8950,0.8950,0,, ,Correctness:,0.9050,0.9050,0,, 
,Correctness:,0.9350,0.9350,0,, ,Correctness:,0.9200,0.9200,0,, ,Correctness:,0.9150,0.9150,0,, ,Correctness:,0.9525,0.9525,0,, ,Correctness:,0.9450,0.9450,0,, 
,Correctness:,0.8775,0.8775,0,, ,Correctness:,0.8725,0.8725,0,, ,Correctness:,0.8650,0.8650,0,, ,Correctness:,0.8600,0.8600,0,, ,Correctness:,0.8700,0.8700,0,, 
,Correctness:,0.9100,0.9100,0,, ,Correctness:,0.8900,0.8900,0,, ,Correctness:,0.8675,0.8675,0,, ,Correctness:,0.9100,0.9100,0,, ,Correctness:,0.8900,0.8900,0,, 
,Correctness:,0.8725,0.8725,0,, ,Correctness:,0.8625,0.8625,0,, ,Correctness:,0.8725,0.8725,0,, ,Correctness:,0.8825,0.8825,0,, ,Correctness:,0.8725,0.8725,0,, 
,Correctness:,0.9425,0.9425,0,, ,Correctness:,0.9425,0.9425,0,, ,Correctness:,0.9325,0.9325,0,, ,Correctness:,0.9325,0.9325,0,, ,Correctness:,0.9375,0.9375,0,, 
,Correctness:,0.9700,0.9700,0,, ,Correctness:,0.9350,0.9350,0,, ,Correctness:,0.9500,0.9500,0,, ,Correctness:,0.9700,0.9700,0,, ,Correctness:,0.9650,0.9650,0,, 
,Correctness:,0.9225,0.9225,0,, ,Correctness:,0.9150,0.9150,0,, ,Correctness:,0.9050,0.9050,0,, ,Correctness:,0.9275,0.9275,0,, ,Correctness:,0.9075,0.9075,0,, 
,Correctness:,0.9175,0.9175,0,, ,Correctness:,0.9025,0.9025,0,, ,Correctness:,0.8975,0.8975,0,, ,Correctness:,0.9025,0.9025,0,, ,Correctness:,0.9250,0.9250,0,, 
,Correctness:,0.9213,0.9213,0,, ,Correctness:,0.9163,0.9163,0,, ,Correctness:,0.8925,0.8925,0,, ,Correctness:,0.9175,0.9175,0,, ,Correctness:,0.9012,0.9012,0,, 
,Correctness:,0.8850,0.8850,0,, ,Correctness:,0.8575,0.8575,0,, ,Correctness:,0.8650,0.8650,0,, ,Correctness:,0.8712,0.8712,0,, ,Correctness:,0.8938,0.8938,0,, 
,Correctness:,0.8950,0.8950,0,, ,Correctness:,0.8575,0.8575,0,, ,Correctness:,0.8775,0.8775,0,, ,Correctness:,0.8975,0.8975,0,, ,Correctness:,0.9075,0.9075,0,, 
,Correctness:,0.9025,0.9025,0,, ,Correctness:,0.8975,0.8975,0,, ,Correctness:,0.8950,0.8950,0,, ,Correctness:,0.8975,0.8975,0,, ,Correctness:,0.9025,0.9025,0,, 
,Correctness:,0.9300,0.9300,0,, ,Correctness:,0.9200,0.9200,0,, ,Correctness:,0.9100,0.9100,0,, ,Correctness:,0.9250,0.9250,0,, ,Correctness:,0.9325,0.9325,0,, 
,Correctness:,0.9287,0.9287,0,, ,Correctness:,0.9137,0.9137,0,, ,Correctness:,0.9025,0.9025,0,, ,Correctness:,0.9287,0.9287,0,, ,Correctness:,0.9087,0.9087,0,, 
,Correctness:,0.9200,0.9200,0,, ,Correctness:,0.9175,0.9175,0,, ,Correctness:,0.9075,0.9075,0,, ,Correctness:,0.9175,0.9175,0,, ,Correctness:,0.9025,0.9025,0,, 
,Correctness:,0.9087,0.9087,0,, ,Correctness:,0.9038,0.9038,0,, ,Correctness:,0.8950,0.8950,0,, ,Correctness:,0.9087,0.9087,0,, ,Correctness:,0.9125,0.9125,0,, 
,Correctness:,0.9113,0.9113,0,, ,Correctness:,0.8938,0.8938,0,, ,Correctness:,0.9087,0.9087,0,, ,Correctness:,0.9163,0.9163,0,, ,Correctness:,0.9363,0.9363,0,, 
,Correctness:,0.9150,0.9150,0,, ,Correctness:,0.8975,0.8975,0,, ,Correctness:,0.8950,0.8950,0,, ,Correctness:,0.9175,0.9175,0,, ,Correctness:,0.9137,0.9137,0,, 
,Correctness:,0.9306,0.9306,0,, ,Correctness:,0.9038,0.9038,0,, ,Correctness:,0.9062,0.9062,0,, ,Correctness:,0.9269,0.9269,0,, ,Correctness:,0.9331,0.9331,0,, 
,Correctness:,0.9281,0.9281,0,, ,Correctness:,0.9056,0.9056,0,, ,Correctness:,0.9019,0.9019,0,, ,Correctness:,0.9281,0.9281,0,, ,Correctness:,0.9275,0.9275,0,, 
,Correctness:,0.9075,0.9075,0,, ,Correctness:,0.8900,0.8900,0,, ,Correctness:,0.8912,0.8912,0,, ,Correctness:,0.9150,0.9150,0,, ,Correctness:,0.9081,0.9081,0,, 
,Correctness:,0.9187,0.9187,0,, ,Correctness:,0.9125,0.9125,0,, ,Correctness:,0.9075,0.9075,0,, ,Correctness:,0.9181,0.9181,0,, ,Correctness:,0.9150,0.9150,0,, 
,Correctness:,0.9056,0.9056,0,, ,Correctness:,0.8931,0.8931,0,, ,Correctness:,0.8856,0.8856,0,, ,Correctness:,0.8906,0.8906,0,, ,Correctness:,0.8962,0.8962,0,, 
,Correctness:,0.9219,0.9219,0,, ,Correctness:,0.9075,0.9075,0,, ,Correctness:,0.9125,0.9125,0,, ,Correctness:,0.9250,0.9250,0,, ,Correctness:,0.9144,0.9144,0,, 
,Correctness:,0.9113,0.9113,0,, ,Correctness:,0.8981,0.8981,0,, ,Correctness:,0.8944,0.8944,0,, ,Correctness:,0.9081,0.9081,0,, ,Correctness:,0.9050,0.9050,0,, 
,Correctness:,0.9144,0.9144,0,, ,Correctness:,0.8956,0.8956,0,, ,Correctness:,0.8962,0.8962,0,, ,Correctness:,0.9050,0.9050,0,, ,Correctness:,0.9206,0.9206,0,, 
,Correctness:,0.9087,0.9087,0,, ,Correctness:,0.8969,0.8969,0,, ,Correctness:,0.9019,0.9019,0,, ,Correctness:,0.9069,0.9069,0,, ,Correctness:,0.9263,0.9263,0,, 
,Correctness:,0.9163,0.9163,0,, ,Correctness:,0.9025,0.9025,0,, ,Correctness:,0.8950,0.8950,0,, ,Correctness:,0.9137,0.9137,0,, ,Correctness:,0.9187,0.9187,0,, 
Average:,0.9116,,,,, Average:,0.8974,,,,, Average:,0.8966,,,,, Average:,0.9106,,,,, Average:,0.9072,,,,, 
,Correctness:,0.8300,0.8300,0,, ,Correctness:,0.8100,0.8100,0,, ,Correctness:,0.8100,0.8100,0,, ,Correctness:,0.8100,0.8100,0,, ,Correctness:,0.8300,0.8300,0,, 
,Correctness:,0.9100,0.9100,0,, ,Correctness:,0.9100,0.9100,0,, ,Correctness:,0.9100,0.9100,0,, ,Correctness:,0.9100,0.9100,0,, ,Correctness:,0.9100,0.9100,0,, 
,Correctness:,0.9300,0.9300,0,, ,Correctness:,0.9600,0.9600,0,, ,Correctness:,0.9600,0.9600,0,, ,Correctness:,0.9400,0.9400,0,, ,Correctness:,0.9400,0.9400,0,, 
,Correctness:,0.8000,0.8000,0,, ,Correctness:,0.8600,0.8600,0,, ,Correctness:,0.8600,0.8600,0,, ,Correctness:,0.8600,0.8600,0,, ,Correctness:,0.7900,0.7900,0,, 
,Correctness:,0.8800,0.8800,0,, ,Correctness:,0.9200,0.9200,0,, ,Correctness:,0.9200,0.9200,0,, ,Correctness:,0.9200,0.9200,0,, ,Correctness:,0.9200,0.9200,0,, 
,Correctness:,0.8700,0.8700,0,, ,Correctness:,0.9100,0.9100,0,, ,Correctness:,0.8600,0.8600,0,, ,Correctness:,0.9100,0.9100,0,, ,Correctness:,0.9100,0.9100,0,, 
,Correctness:,0.7000,0.7000,0,, ,Correctness:,0.7200,0.7200,0,, ,Correctness:,0.7200,0.7200,0,, ,Correctness:,0.7200,0.7200,0,, ,Correctness:,0.7200,0.7200,0,, 
,Correctness:,0.8600,0.8600,0,, ,Correctness:,0.8200,0.8200,0,, ,Correctness:,0.8600,0.8600,0,, ,Correctness:,0.8200,0.8200,0,, ,Correctness:,0.8600,0.8600,0,, 
,Correctness:,0.8400,0.8400,0,, ,Correctness:,0.8900,0.8900,0,, ,Correctness:,0.8900,0.8900,0,, ,Correctness:,0.8900,0.8900,0,, ,Correctness:,0.8900,0.8900,0,, 
,Correctness:,0.9900,0.9900,0,, ,Correctness:,0.9900,0.9900,0,, ,Correctness:,0.9900,0.9900,0,, ,Correctness:,0.9900,0.9900,0,, ,Correctness:,0.9900,0.9900,0,, 
,Correctness:,0.8850,0.8850,0,, ,Correctness:,0.9450,0.9450,0,, ,Correctness:,0.9100,0.9100,0,, ,Correctness:,0.8800,0.8800,0,, ,Correctness:,0.9300,0.9300,0,, 
,Correctness:,0.9250,0.9250,0,, ,Correctness:,0.9250,0.9250,0,, ,Correctness:,0.9100,0.9100,0,, ,Correctness:,0.9250,0.9250,0,, ,Correctness:,0.9350,0.9350,0,, 
,Correctness:,0.9350,0.9350,0,, ,Correctness:,0.9250,0.9250,0,, ,Correctness:,0.9450,0.9450,0,, ,Correctness:,0.9350,0.9350,0,, ,Correctness:,0.9250,0.9250,0,, 
,Correctness:,0.9450,0.9450,0,, ,Correctness:,0.9550,0.9550,0,, ,Correctness:,0.9800,0.9800,0,, ,Correctness:,0.9550,0.9550,0,, ,Correctness:,0.9800,0.9800,0,, 
,Correctness:,0.9000,0.9000,0,, ,Correctness:,0.9100,0.9100,0,, ,Correctness:,0.9100,0.9100,0,, ,Correctness:,0.9100,0.9100,0,, ,Correctness:,0.9000,0.9000,0,, 
,Correctness:,0.9300,0.9300,0,, ,Correctness:,0.9300,0.9300,0,, ,Correctness:,0.9300,0.9300,0,, ,Correctness:,0.9300,0.9300,0,, ,Correctness:,0.9100,0.9100,0,, 
,Correctness:,0.9500,0.9500,0,, ,Correctness:,0.9600,0.9600,0,, ,Correctness:,0.9600,0.9600,0,, ,Correctness:,0.9600,0.9600,0,, ,Correctness:,0.9600,0.9600,0,, 
,Correctness:,0.9300,0.9300,0,, ,Correctness:,0.9250,0.9250,0,, ,Correctness:,0.9100,0.9100,0,, ,Correctness:,0.8900,0.8900,0,, ,Correctness:,0.8900,0.8900,0,, 
,Correctness:,0.8700,0.8700,0,, ,Correctness:,0.8850,0.8850,0,, ,Correctness:,0.8700,0.8700,0,, ,Correctness:,0.8850,0.8850,0,, ,Correctness:,0.8700,0.8700,0,, 
,Correctness:,0.8700,0.8700,0,, ,Correctness:,0.8800,0.8800,0,, ,Correctness:,0.8750,0.8750,0,, ,Correctness:,0.8900,0.8900,0,, ,Correctness:,0.8900,0.8900,0,, 
,Correctness:,0.9400,0.9400,0,, ,Correctness:,0.9550,0.9550,0,, ,Correctness:,0.9475,0.9475,0,, ,Correctness:,0.9450,0.9450,0,, ,Correctness:,0.9475,0.9475,0,, 
,Correctness:,0.8900,0.8900,0,, ,Correctness:,0.9000,0.9000,0,, ,Correctness:,0.9100,0.9100,0,, ,Correctness:,0.9000,0.9000,0,, ,Correctness:,0.9050,0.9050,0,, 
,Correctness:,0.9075,0.9075,0,, ,Correctness:,0.9450,0.9450,0,, ,Correctness:,0.9525,0.9525,0,, ,Correctness:,0.9600,0.9600,0,, ,Correctness:,0.9325,0.9325,0,, 
,Correctness:,0.8875,0.8875,0,, ,Correctness:,0.8775,0.8775,0,, ,Correctness:,0.8850,0.8850,0,, ,Correctness:,0.8775,0.8775,0,, ,Correctness:,0.8650,0.8650,0,, 
,Correctness:,0.9000,0.9000,0,, ,Correctness:,0.9100,0.9100,0,, ,Correctness:,0.8725,0.8725,0,, ,Correctness:,0.9025,0.9025,0,, ,Correctness:,0.9100,0.9100,0,, 
,Correctness:,0.8675,0.8675,0,, ,Correctness:,0.8775,0.8775,0,, ,Correctness:,0.8600,0.8600,0,, ,Correctness:,0.8775,0.8775,0,, ,Correctness:,0.8725,0.8725,0,, 
,Correctness:,0.9325,0.9325,0,, ,Correctness:,0.9375,0.9375,0,, ,Correctness:,0.9275,0.9275,0,, ,Correctness:,0.9100,0.9100,0,, ,Correctness:,0.9300,0.9300,0,, 
,Correctness:,0.9400,0.9400,0,, ,Correctness:,0.9650,0.9650,0,, ,Correctness:,0.9700,0.9700,0,, ,Correctness:,0.9425,0.9425,0,, ,Correctness:,0.9450,0.9450,0,, 
,Correctness:,0.9200,0.9200,0,, ,Correctness:,0.9125,0.9125,0,, ,Correctness:,0.9125,0.9125,0,, ,Correctness:,0.9400,0.9400,0,, ,Correctness:,0.8975,0.8975,0,, 
,Correctness:,0.8925,0.8925,0,, ,Correctness:,0.9025,0.9025,0,, ,Correctness:,0.9125,0.9125,0,, ,Correctness:,0.9100,0.9100,0,, ,Correctness:,0.9250,0.9250,0,, 
,Correctness:,0.8950,0.8950,0,, ,Correctness:,0.9237,0.9237,0,, ,Correctness:,0.9050,0.9050,0,, ,Correctness:,0.9187,0.9187,0,, ,Correctness:,0.9000,0.9000,0,, 
,Correctness:,0.8625,0.8625,0,, ,Correctness:,0.8912,0.8912,0,, ,Correctness:,0.8712,0.8712,0,, ,Correctness:,0.8788,0.8788,0,, ,Correctness:,0.8712,0.8712,0,, 
,Correctness:,0.8775,0.8775,0,, ,Correctness:,0.9025,0.9025,0,, ,Correctness:,0.8950,0.8950,0,, ,Correctness:,0.8888,0.8888,0,, ,Correctness:,0.9125,0.9125,0,, 
,Correctness:,0.8875,0.8875,0,, ,Correctness:,0.9000,0.9000,0,, ,Correctness:,0.8988,0.8988,0,, ,Correctness:,0.8950,0.8950,0,, ,Correctness:,0.9075,0.9075,0,, 
,Correctness:,0.9275,0.9275,0,, ,Correctness:,0.9350,0.9350,0,, ,Correctness:,0.9187,0.9187,0,, ,Correctness:,0.9313,0.9313,0,, ,Correctness:,0.9250,0.9250,0,, 
,Correctness:,0.9025,0.9025,0,, ,Correctness:,0.9287,0.9287,0,, ,Correctness:,0.9287,0.9287,0,, ,Correctness:,0.9200,0.9200,0,, ,Correctness:,0.9025,0.9025,0,, 
,Correctness:,0.9125,0.9125,0,, ,Correctness:,0.9175,0.9175,0,, ,Correctness:,0.9075,0.9075,0,, ,Correctness:,0.9163,0.9163,0,, ,Correctness:,0.9038,0.9038,0,, 
,Correctness:,0.9038,0.9038,0,, ,Correctness:,0.9113,0.9113,0,, ,Correctness:,0.9175,0.9175,0,, ,Correctness:,0.9113,0.9113,0,, ,Correctness:,0.9137,0.9137,0,, 
,Correctness:,0.9163,0.9163,0,, ,Correctness:,0.9313,0.9313,0,, ,Correctness:,0.9125,0.9125,0,, ,Correctness:,0.9137,0.9137,0,, ,Correctness:,0.9350,0.9350,0,, 
,Correctness:,0.8975,0.8975,0,, ,Correctness:,0.9225,0.9225,0,, ,Correctness:,0.9125,0.9125,0,, ,Correctness:,0.9187,0.9187,0,, ,Correctness:,0.9163,0.9163,0,, 
,Correctness:,0.9087,0.9087,0,, ,Correctness:,0.9350,0.9350,0,, ,Correctness:,0.9263,0.9263,0,, ,Correctness:,0.9269,0.9269,0,, ,Correctness:,0.9319,0.9319,0,, 
,Correctness:,0.9069,0.9069,0,, ,Correctness:,0.9225,0.9225,0,, ,Correctness:,0.9256,0.9256,0,, ,Correctness:,0.9156,0.9156,0,, ,Correctness:,0.9287,0.9287,0,, 
,Correctness:,0.9012,0.9012,0,, ,Correctness:,0.9069,0.9069,0,, ,Correctness:,0.9044,0.9044,0,, ,Correctness:,0.9106,0.9106,0,, ,Correctness:,0.9106,0.9106,0,, 
,Correctness:,0.9100,0.9100,0,, ,Correctness:,0.9200,0.9200,0,, ,Correctness:,0.9144,0.9144,0,, ,Correctness:,0.9113,0.9113,0,, ,Correctness:,0.9194,0.9194,0,, 
,Correctness:,0.8856,0.8856,0,, ,Correctness:,0.8950,0.8950,0,, ,Correctness:,0.9012,0.9012,0,, ,Correctness:,0.8844,0.8844,0,, ,Correctness:,0.9044,0.9044,0,, 
,Correctness:,0.9062,0.9062,0,, ,Correctness:,0.9200,0.9200,0,, ,Correctness:,0.9163,0.9163,0,, ,Correctness:,0.9137,0.9137,0,, ,Correctness:,0.9187,0.9187,0,, 
,Correctness:,0.9019,0.9019,0,, ,Correctness:,0.9125,0.9125,0,, ,Correctness:,0.9006,0.9006,0,, ,Correctness:,0.9081,0.9081,0,, ,Correctness:,0.9075,0.9075,0,, 
,Correctness:,0.8956,0.8956,0,, ,Correctness:,0.9150,0.9150,0,, ,Correctness:,0.9137,0.9137,0,, ,Correctness:,0.9044,0.9044,0,, ,Correctness:,0.9175,0.9175,0,, 
,Correctness:,0.8969,0.8969,0,, ,Correctness:,0.9219,0.9219,0,, ,Correctness:,0.9131,0.9131,0,, ,Correctness:,0.9113,0.9113,0,, ,Correctness:,0.9175,0.9175,0,, 
,Correctness:,0.8975,0.8975,0,, ,Correctness:,0.9156,0.9156,0,, ,Correctness:,0.9169,0.9169,0,, ,Correctness:,0.9081,0.9081,0,, ,Correctness:,0.9194,0.9194,0,, 
Average:,0.8964,,,,, Average:,0.9108,,,,, Average:,0.9066,,,,, Average:,0.9056,,,,, Average:,0.9069,,,,, 
,Correctness:,0.8100,0.8100,0,, ,Correctness:,0.8100,0.8100,0,, ,Correctness:,0.8100,0.8100,0,, ,Correctness:,0.8100,0.8100,0,, ,Correctness:,0.8300,0.8300,0,, 
,Correctness:,0.9100,0.9100,0,, ,Correctness:,0.9100,0.9100,0,, ,Correctness:,0.9100,0.9100,0,, ,Correctness:,0.9100,0.9100,0,, ,Correctness:,0.9500,0.9500,0,, 
,Correctness:,0.9500,0.9500,0,, ,Correctness:,0.9600,0.9600,0,, ,Correctness:,0.9600,0.9600,0,, ,Correctness:,0.9600,0.9600,0,, ,Correctness:,0.9100,0.9100,0,, 
,Correctness:,0.8000,0.8000,0,, ,Correctness:,0.8600,0.8600,0,, ,Correctness:,0.8100,0.8100,0,, ,Correctness:,0.8400,0.8400,0,, ,Correctness:,0.8200,0.8200,0,, 
,Correctness:,0.9000,0.9000,0,, ,Correctness:,0.9200,0.9200,0,, ,Correctness:,0.9200,0.9200,0,, ,Correctness:,0.9200,0.9200,0,, ,Correctness:,0.9000,0.9000,0,, 
,Correctness:,0.8700,0.8700,0,, ,Correctness:,0.9100,0.9100,0,, ,Correctness:,0.9100,0.9100,0,, ,Correctness:,0.9100,0.9100,0,, ,Correctness:,0.8900,0.8900,0,, 
,Correctness:,0.7000,0.7000,0,, ,Correctness:,0.7200,0.7200,0,, ,Correctness:,0.7200,0.7200,0,, ,Correctness:,0.7200,0.7200,0,, ,Correctness:,0.7600,0.7600,0,, 
,Correctness:,0.8200,0.8200,0,, ,Correctness:,0.8600,0.8600,0,, ,Correctness:,0.9100,0.9100,0,, ,Correctness:,0.8600,0.8600,0,, ,Correctness:,0.8600,0.8600,0,, 
,Correctness:,0.8400,0.8400,0,, ,Correctness:,0.8900,0.8900,0,, ,Correctness:,0.8900,0.8900,0,, ,Correctness:,0.8900,0.8900,0,, ,Correctness:,0.8400,0.8400,0,, 
,Correctness:,0.9900,0.9900,0,, ,Correctness:,0.9900,0.9900,0,, ,Correctness:,0.9900,0.9900,0,, ,Correctness:,0.9900,0.9900,0,, ,Correctness:,0.9800,0.9800,0,, 
,Correctness:,0.8950,0.8950,0,, ,Correctness:,0.9300,0.9300,0,, ,Correctness:,0.9250,0.9250,0,, ,Correctness:,0.9300,0.9300,0,, ,Correctness:,0.8850,0.8850,0,, 
,Correctness:,0.9350,0.9350,0,, ,Correctness:,0.9100,0.9100,0,, ,Correctness:,0.9350,0.9350,0,, ,Correctness:,0.9350,0.9350,0,, ,Correctness:,0.9250,0.9250,0,, 
,Correctness:,0.9450,0.9450,0,, ,Correctness:,0.9250,0.9250,0,, ,Correctness:,0.9450,0.9450,0,, ,Correctness:,0.9250,0.9250,0,, ,Correctness:,0.9150,0.9150,0,, 
,Correctness:,0.9650,0.9650,0,, ,Correctness:,0.9800,0.9800,0,, ,Correctness:,0.9800,0.9800,0,, ,Correctness:,0.9800,0.9800,0,, ,Correctness:,0.9450,0.9450,0,, 
,Correctness:,0.9000,0.9000,0,, ,Correctness:,0.9100,0.9100,0,, ,Correctness:,0.9100,0.9100,0,, ,Correctness:,0.9100,0.9100,0,, ,Correctness:,0.9000,0.9000,0,, 
,Correctness:,0.9200,0.9200,0,, ,Correctness:,0.9300,0.9300,0,, ,Correctness:,0.9300,0.9300,0,, ,Correctness:,0.9300,0.9300,0,, ,Correctness:,0.9300,0.9300,0,, 
,Correctness:,0.9600,0.9600,0,, ,Correctness:,0.9600,0.9600,0,, ,Correctness:,0.9600,0.9600,0,, ,Correctness:,0.9600,0.9600,0,, ,Correctness:,0.9200,0.9200,0,, 
,Correctness:,0.9300,0.9300,0,, ,Correctness:,0.9100,0.9100,0,, ,Correctness:,0.9000,0.9000,0,, ,Correctness:,0.9100,0.9100,0,, ,Correctness:,0.9200,0.9200,0,, 
,Correctness:,0.8700,0.8700,0,, ,Correctness:,0.8700,0.8700,0,, ,Correctness:,0.8700,0.8700,0,, ,Correctness:,0.8700,0.8700,0,, ,Correctness:,0.8700,0.8700,0,, 
,Correctness:,0.8800,0.8800,0,, ,Correctness:,0.8750,0.8750,0,, ,Correctness:,0.8900,0.8900,0,, ,Correctness:,0.8750,0.8750,0,, ,Correctness:,0.8600,0.8600,0,, 
,Correctness:,0.9450,0.9450,0,, ,Correctness:,0.9475,0.9475,0,, ,Correctness:,0.9475,0.9475,0,, ,Correctness:,0.9475,0.9475,0,, ,Correctness:,0.9300,0.9300,0,, 
,Correctness:,0.8900,0.8900,0,, ,Correctness:,0.9100,0.9100,0,, ,Correctness:,0.9100,0.9100,0,, ,Correctness:,0.9100,0.9100,0,, ,Correctness:,0.9000,0.9000,0,, 
,Correctness:,0.9200,0.9200,0,, ,Correctness:,0.9625,0.9625,0,, ,Correctness:,0.9225,0.9225,0,, ,Correctness:,0.9450,0.9450,0,, ,Correctness:,0.9200,0.9200,0,, 
,Correctness:,0.8675,0.8675,0,, ,Correctness:,0.8650,0.8650,0,, ,Correctness:,0.8850,0.8850,0,, ,Correctness:,0.8650,0.8650,0,, ,Correctness:,0.8650,0.8650,0,, 
,Correctness:,0.9050,0.9050,0,, ,Correctness:,0.8800,0.8800,0,, ,Correctness:,0.8950,0.8950,0,, ,Correctness:,0.8800,0.8800,0,, ,Correctness:,0.8925,0.8925,0,, 
,Correctness:,0.8525,0.8525,0,, ,Correctness:,0.8725,0.8725,0,, ,Correctness:,0.8600,0.8600,0,, ,Correctness:,0.8725,0.8725,0,, ,Correctness:,0.8775,0.8775,0,, 
,Correctness:,0.9425,0.9425,0,, ,Correctness:,0.9125,0.9125,0,, ,Correctness:,0.9350,0.9350,0,, ,Correctness:,0.9125,0.9125,0,, ,Correctness:,0.9225,0.9225,0,, 
,Correctness:,0.9450,0.9450,0,, ,Correctness:,0.9700,0.9700,0,, ,Correctness:,0.9600,0.9600,0,, ,Correctness:,0.9700,0.9700,0,, ,Correctness:,0.9350,0.9350,0,, 
,Correctness:,0.9250,0.9250,0,, ,Correctness:,0.9125,0.9125,0,, ,Correctness:,0.9125,0.9125,0,, ,Correctness:,0.9125,0.9125,0,, ,Correctness:,0.9200,0.9200,0,, 
,Correctness:,0.8975,0.8975,0,, ,Correctness:,0.9250,0.9250,0,, ,Correctness:,0.9175,0.9175,0,, ,Correctness:,0.9250,0.9250,0,, ,Correctness:,0.9025,0.9025,0,, 
,Correctness:,0.8950,0.8950,0,, ,Correctness:,0.9175,0.9175,0,, ,Correctness:,0.9012,0.9012,0,, ,Correctness:,0.9175,0.9175,0,, ,Correctness:,0.9225,0.9225,0,, 
,Correctness:,0.8650,0.8650,0,, ,Correctness:,0.8800,0.8800,0,, ,Correctness:,0.8825,0.8825,0,, ,Correctness:,0.8912,0.8912,0,, ,Correctness:,0.8450,0.8450,0,, 
,Correctness:,0.8700,0.8700,0,, ,Correctness:,0.9025,0.9025,0,, ,Correctness:,0.8900,0.8900,0,, ,Correctness:,0.9075,0.9075,0,, ,Correctness:,0.8575,0.8575,0,, 
,Correctness:,0.8900,0.8900,0,, ,Correctness:,0.9075,0.9075,0,, ,Correctness:,0.9025,0.9025,0,, ,Correctness:,0.9075,0.9075,0,, ,Correctness:,0.9100,0.9100,0,, 
,Correctness:,0.9200,0.9200,0,, ,Correctness:,0.9337,0.9337,0,, ,Correctness:,0.9225,0.9225,0,, ,Correctness:,0.9337,0.9337,0,, ,Correctness:,0.9175,0.9175,0,, 
,Correctness:,0.9113,0.9113,0,, ,Correctness:,0.9287,0.9287,0,, ,Correctness:,0.9287,0.9287,0,, ,Correctness:,0.9287,0.9287,0,, ,Correctness:,0.9200,0.9200,0,, 
,Correctness:,0.9125,0.9125,0,, ,Correctness:,0.9050,0.9050,0,, ,Correctness:,0.9213,0.9213,0,, ,Correctness:,0.9075,0.9075,0,, ,Correctness:,0.9250,0.9250,0,, 
,Correctness:,0.9062,0.9062,0,, ,Correctness:,0.9237,0.9237,0,, ,Correctness:,0.9087,0.9087,0,, ,Correctness:,0.9237,0.9237,0,, ,Correctness:,0.8950,0.8950,0,, 
,Correctness:,0.9038,0.9038,0,, ,Correctness:,0.9213,0.9213,0,, ,Correctness:,0.9187,0.9187,0,, ,Correctness:,0.9287,0.9287,0,, ,Correctness:,0.9062,0.9062,0,, 
,Correctness:,0.8975,0.8975,0,, ,Correctness:,0.9200,0.9200,0,, ,Correctness:,0.9187,0.9187,0,, ,Correctness:,0.9213,0.9213,0,, ,Correctness:,0.8975,0.8975,0,, 
,Correctness:,0.9075,0.9075,0,, ,Correctness:,0.9369,0.9369,0,, ,Correctness:,0.9169,0.9169,0,, ,Correctness:,0.9369,0.9369,0,, ,Correctness:,0.9075,0.9075,0,, 
,Correctness:,0.9094,0.9094,0,, ,Correctness:,0.9313,0.9313,0,, ,Correctness:,0.9319,0.9319,0,, ,Correctness:,0.9344,0.9344,0,, ,Correctness:,0.9094,0.9094,0,, 
,Correctness:,0.8962,0.8962,0,, ,Correctness:,0.9075,0.9075,0,, ,Correctness:,0.9012,0.9012,0,, ,Correctness:,0.9069,0.9069,0,, ,Correctness:,0.8925,0.8925,0,, 
,Correctness:,0.9081,0.9081,0,, ,Correctness:,0.9137,0.9137,0,, ,Correctness:,0.9187,0.9187,0,, ,Correctness:,0.9163,0.9163,0,, ,Correctness:,0.9113,0.9113,0,, 
,Correctness:,0.8906,0.8906,0,, ,Correctness:,0.8925,0.8925,0,, ,Correctness:,0.9019,0.9019,0,, ,Correctness:,0.9012,0.9012,0,, ,Correctness:,0.8856,0.8856,0,, 
,Correctness:,0.9113,0.9113,0,, ,Correctness:,0.9144,0.9144,0,, ,Correctness:,0.9219,0.9219,0,, ,Correctness:,0.9156,0.9156,0,, ,Correctness:,0.9075,0.9075,0,, 
,Correctness:,0.8969,0.8969,0,, ,Correctness:,0.9031,0.9031,0,, ,Correctness:,0.9087,0.9087,0,, ,Correctness:,0.9075,0.9075,0,, ,Correctness:,0.9031,0.9031,0,, 
,Correctness:,0.8919,0.8919,0,, ,Correctness:,0.9194,0.9194,0,, ,Correctness:,0.9125,0.9125,0,, ,Correctness:,0.9237,0.9237,0,, ,Correctness:,0.8994,0.8994,0,, 
,Correctness:,0.8969,0.8969,0,, ,Correctness:,0.9219,0.9219,0,, ,Correctness:,0.9125,0.9125,0,, ,Correctness:,0.9219,0.9219,0,, ,Correctness:,0.8944,0.8944,0,, 
,Correctness:,0.9025,0.9025,0,, ,Correctness:,0.9187,0.9187,0,, ,Correctness:,0.9163,0.9163,0,, ,Correctness:,0.9187,0.9187,0,, ,Correctness:,0.9012,0.9012,0,, 
Average:,0.8973,,,,, Average:,0.9097,,,,, Average:,0.9092,,,,, Average:,0.9105,,,,, Average:,0.8977,,,,, 
,Correctness:,0.8300,0.8300,0,, ,Correctness:,0.8300,0.8300,0,, ,Correctness:,0.8100,0.8100,0,, ,Correctness:,0.8100,0.8100,0,, ,Correctness:,0.8500,0.8500,0,, 
,Correctness:,0.9100,0.9100,0,, ,Correctness:,0.9100,0.9100,0,, ,Correctness:,0.9100,0.9100,0,, ,Correctness:,0.9100,0.9100,0,, ,Correctness:,0.8600,0.8600,0,, 
,Correctness:,0.9300,0.9300,0,, ,Correctness:,0.9400,0.9400,0,, ,Correctness:,0.9600,0.9600,0,, ,Correctness:,0.9600,0.9600,0,, ,Correctness:,0.9300,0.9300,0,, 
,Correctness:,0.8000,0.8000,0,, ,Correctness:,0.8100,0.8100,0,, ,Correctness:,0.8600,0.8600,0,, ,Correctness:,0.8100,0.8100,0,, ,Correctness:,0.8400,0.8400,0,, 
,Correctness:,0.9000,0.9000,0,, ,Correctness:,0.9200,0.9200,0,, ,Correctness:,0.9200,0.9200,0,, ,Correctness:,0.9200,0.9200,0,, ,Correctness:,0.9000,0.9000,0,, 
,Correctness:,0.8700,0.8700,0,, ,Correctness:,0.9100,0.9100,0,, ,Correctness:,0.9300,0.9300,0,, ,Correctness:,0.9100,0.9100,0,, ,Correctness:,0.8700,0.8700,0,, 
,Correctness:,0.7000,0.7000,0,, ,Correctness:,0.7200,0.7200,0,, ,Correctness:,0.7200,0.7200,0,, ,Correctness:,0.7200,0.7200,0,, ,Correctness:,0.7200,0.7200,0,, 
,Correctness:,0.8400,0.8400,0,, ,Correctness:,0.8600,0.8600,0,, ,Correctness:,0.8600,0.8600,0,, ,Correctness:,0.8600,0.8600,0,, ,Correctness:,0.8200,0.8200,0,, 
,Correctness:,0.8400,0.8400,0,, ,Correctness:,0.8900,0.8900,0,, ,Correctness:,0.8700,0.8700,0,, ,Correctness:,0.8600,0.8600,0,, ,Correctness:,0.8700,0.8700,0,, 
,Correctness:,0.9900,0.9900,0,, ,Correctness:,0.9900,0.9900,0,, ,Correctness:,0.9900,0.9900,0,, ,Correctness:,0.9900,0.9900,0,, ,Correctness:,0.9900,0.9900,0,, 
,Correctness:,0.8850,0.8850,0,, ,Correctness:,0.9300,0.9300,0,, ,Correctness:,0.9150,0.9150,0,, ,Correctness:,0.9450,0.9450,0,, ,Correctness:,0.8850,0.8850,0,, 
,Correctness:,0.9350,0.9350,0,, ,Correctness:,0.9250,0.9250,0,, ,Correctness:,0.9250,0.9250,0,, ,Correctness:,0.9350,0.9350,0,, ,Correctness:,0.9550,0.9550,0,, 
,Correctness:,0.9450,0.9450,0,, ,Correctness:,0.9250,0.9250,0,, ,Correctness:,0.9250,0.9250,0,, ,Correctness:,0.9450,0.9450,0,, ,Correctness:,0.9150,0.9150,0,, 
,Correctness:,0.9650,0.9650,0,, ,Correctness:,0.9700,0.9700,0,, ,Correctness:,0.9450,0.9450,0,, ,Correctness:,0.9800,0.9800,0,, ,Correctness:,0.9550,0.9550,0,, 
,Correctness:,0.9000,0.9000,0,, ,Correctness:,0.9000,0.9000,0,, ,Correctness:,0.9100,0.9100,0,, ,Correctness:,0.9100,0.9100,0,, ,Correctness:,0.9050,0.9050,0,, 
,Correctness:,0.9300,0.9300,0,, ,Correctness:,0.9100,0.9100,0,, ,Correctness:,0.9300,0.9300,0,, ,Correctness:,0.9300,0.9300,0,, ,Correctness:,0.9200,0.9200,0,, 
,Correctness:,0.9400,0.9400,0,, ,Correctness:,0.9600,0.9600,0,, ,Correctness:,0.9500,0.9500,0,, ,Correctness:,0.9600,0.9600,0,, ,Correctness:,0.9200,0.9200,0,, 
,Correctness:,0.9300,0.9300,0,, ,Correctness:,0.8950,0.8950,0,, ,Correctness:,0.9100,0.9100,0,, ,Correctness:,0.8950,0.8950,0,, ,Correctness:,0.9300,0.9300,0,, 
,Correctness:,0.8500,0.8500,0,, ,Correctness:,0.8700,0.8700,0,, ,Correctness:,0.8700,0.8700,0,, ,Correctness:,0.8700,0.8700,0,, ,Correctness:,0.8300,0.8300,0,, 
,Correctness:,0.8800,0.8800,0,, ,Correctness:,0.8650,0.8650,0,, ,Correctness:,0.9050,0.9050,0,, ,Correctness:,0.8750,0.8750,0,, ,Correctness:,0.8800,0.8800,0,, 
,Correctness:,0.9500,0.9500,0,, ,Correctness:,0.9475,0.9475,0,, ,Correctness:,0.9400,0.9400,0,, ,Correctness:,0.9475,0.9475,0,, ,Correctness:,0.9250,0.9250,0,, 
,Correctness:,0.8900,0.8900,0,, ,Correctness:,0.9050,0.9050,0,, ,Correctness:,0.9200,0.9200,0,, ,Correctness:,0.9100,0.9100,0,, ,Correctness:,0.8725,0.8725,0,, 
,Correctness:,0.9150,0.9150,0,, ,Correctness:,0.9325,0.9325,0,, ,Correctness:,0.9325,0.9325,0,, ,Correctness:,0.9325,0.9325,0,, ,Correctness:,0.9100,0.9100,0,, 
,Correctness:,0.8725,0.8725,0,, ,Correctness:,0.8950,0.8950,0,, ,Correctness:,0.8675,0.8675,0,, ,Correctness:,0.8775,0.8775,0,, ,Correctness:,0.8875,0.8875,0,, 
,Correctness:,0.9000,0.9000,0,, ,Correctness:,0.9100,0.9100,0,, ,Correctness:,0.9050,0.9050,0,, ,Correctness:,0.8950,0.8950,0,, ,Correctness:,0.8900,0.8900,0,, 
,Correctness:,0.8575,0.8575,0,, ,Correctness:,0.8775,0.8775,0,, ,Correctness:,0.8775,0.8775,0,, ,Correctness:,0.8725,0.8725,0,, ,Correctness:,0.8625,0.8625,0,, 
,Correctness:,0.9375,0.9375,0,, ,Correctness:,0.9175,0.9175,0,, ,Correctness:,0.9300,0.9300,0,, ,Correctness:,0.9275,0.9275,0,, ,Correctness:,0.9425,0.9425,0,, 
,Correctness:,0.9450,0.9450,0,, ,Correctness:,0.9450,0.9450,0,, ,Correctness:,0.9600,0.9600,0,, ,Correctness:,0.9600,0.9600,0,, ,Correctness:,0.9275,0.9275,0,, 
,Correctness:,0.9250,0.9250,0,, ,Correctness:,0.9075,0.9075,0,, ,Correctness:,0.9225,0.9225,0,, ,Correctness:,0.9125,0.9125,0,, ,Correctness:,0.9150,0.9150,0,, 
,Correctness:,0.8975,0.8975,0,, ,Correctness:,0.9250,0.9250,0,, ,Correctness:,0.9025,0.9025,0,, ,Correctness:,0.9100,0.9100,0,, ,Correctness:,0.9075,0.9075,0,, 
,Correctness:,0.8975,0.8975,0,, ,Correctness:,0.9025,0.9025,0,, ,Correctness:,0.9413,0.9413,0,, ,Correctness:,0.9038,0.9038,0,, ,Correctness:,0.8862,0.8862,0,, 
,Correctness:,0.8675,0.8675,0,, ,Correctness:,0.8900,0.8900,0,, ,Correctness:,0.8675,0.8675,0,, ,Correctness:,0.8862,0.8862,0,, ,Correctness:,0.8612,0.8612,0,, 
,Correctness:,0.8750,0.8750,0,, ,Correctness:,0.9125,0.9125,0,, ,Correctness:,0.8825,0.8825,0,, ,Correctness:,0.8900,0.8900,0,, ,Correctness:,0.8850,0.8850,0,, 
,Correctness:,0.8900,0.8900,0,, ,Correctness:,0.9050,0.9050,0,, ,Correctness:,0.8975,0.8975,0,, ,Correctness:,0.8975,0.8975,0,, ,Correctness:,0.8888,0.8888,0,, 
,Correctness:,0.9200,0.9200,0,, ,Correctness:,0.9300,0.9300,0,, ,Correctness:,0.9350,0.9350,0,, ,Correctness:,0.9163,0.9163,0,, ,Correctness:,0.9100,0.9100,0,, 
,Correctness:,0.9087,0.9087,0,, ,Correctness:,0.9075,0.9075,0,, ,Correctness:,0.9387,0.9387,0,, ,Correctness:,0.9287,0.9287,0,, ,Correctness:,0.8875,0.8875,0,, 
,Correctness:,0.9075,0.9075,0,, ,Correctness:,0.9012,0.9012,0,, ,Correctness:,0.9225,0.9225,0,, ,Correctness:,0.9250,0.9250,0,, ,Correctness:,0.8962,0.8962,0,, 
,Correctness:,0.9012,0.9012,0,, ,Correctness:,0.9213,0.9213,0,, ,Correctness:,0.9062,0.9062,0,, ,Correctness:,0.9087,0.9087,0,, ,Correctness:,0.8950,0.8950,0,, 
,Correctness:,0.9087,0.9087,0,, ,Correctness:,0.9363,0.9363,0,, ,Correctness:,0.9000,0.9000,0,, ,Correctness:,0.9237,0.9237,0,, ,Correctness:,0.9087,0.9087,0,, 
,Correctness:,0.8925,0.8925,0,, ,Correctness:,0.9213,0.9213,0,, ,Correctness:,0.9137,0.9137,0,, ,Correctness:,0.9187,0.9187,0,, ,Correctness:,0.8950,0.8950,0,, 
,Correctness:,0.9062,0.9062,0,, ,Correctness:,0.9356,0.9356,0,, ,Correctness:,0.9344,0.9344,0,, ,Correctness:,0.9244,0.9244,0,, ,Correctness:,0.9019,0.9019,0,, 
,Correctness:,0.9069,0.9069,0,, ,Correctness:,0.9281,0.9281,0,, ,Correctness:,0.9325,0.9325,0,, ,Correctness:,0.9313,0.9313,0,, ,Correctness:,0.9094,0.9094,0,, 
,Correctness:,0.8962,0.8962,0,, ,Correctness:,0.9113,0.9113,0,, ,Correctness:,0.9038,0.9038,0,, ,Correctness:,0.9031,0.9031,0,, ,Correctness:,0.8931,0.8931,0,, 
,Correctness:,0.9113,0.9113,0,, ,Correctness:,0.9263,0.9263,0,, ,Correctness:,0.9150,0.9150,0,, ,Correctness:,0.9200,0.9200,0,, ,Correctness:,0.8994,0.8994,0,, 
,Correctness:,0.8894,0.8894,0,, ,Correctness:,0.8931,0.8931,0,, ,Correctness:,0.8938,0.8938,0,, ,Correctness:,0.8981,0.8981,0,, ,Correctness:,0.8919,0.8919,0,, 
,Correctness:,0.9087,0.9087,0,, ,Correctness:,0.9231,0.9231,0,, ,Correctness:,0.9150,0.9150,0,, ,Correctness:,0.9175,0.9175,0,, ,Correctness:,0.9069,0.9069,0,, 
,Correctness:,0.8969,0.8969,0,, ,Correctness:,0.9150,0.9150,0,, ,Correctness:,0.9113,0.9113,0,, ,Correctness:,0.9094,0.9094,0,, ,Correctness:,0.8912,0.8912,0,, 
,Correctness:,0.8975,0.8975,0,, ,Correctness:,0.9181,0.9181,0,, ,Correctness:,0.9081,0.9081,0,, ,Correctness:,0.9038,0.9038,0,, ,Correctness:,0.8931,0.8931,0,, 
,Correctness:,0.8944,0.8944,0,, ,Correctness:,0.9231,0.9231,0,, ,Correctness:,0.9075,0.9075,0,, ,Correctness:,0.9156,0.9156,0,, ,Correctness:,0.8988,0.8988,0,, 
,Correctness:,0.8975,0.8975,0,, ,Correctness:,0.9106,0.9106,0,, ,Correctness:,0.9175,0.9175,0,, ,Correctness:,0.9137,0.9137,0,, ,Correctness:,0.8969,0.8969,0,, 
Average:,0.8967,,,,, Average:,0.9081,,,,, Average:,0.9083,,,,, Average:,0.9075,,,,, Average:,0.8936,,,,, 
,Correctness:,0.8500,0.8500,0,, ,Correctness:,0.8100,0.8100,0,, ,Correctness:,0.8400,0.8400,0,, ,Correctness:,0.8300,0.8300,0,, ,Correctness:,0.8500,0.8500,0,, 
,Correctness:,0.9100,0.9100,0,, ,Correctness:,0.9100,0.9100,0,, ,Correctness:,0.9500,0.9500,0,, ,Correctness:,0.9100,0.9100,0,, ,Correctness:,0.9500,0.9500,0,, 
,Correctness:,0.9300,0.9300,0,, ,Correctness:,0.9400,0.9400,0,, ,Correctness:,0.9600,0.9600,0,, ,Correctness:,0.9100,0.9100,0,, ,Correctness:,0.9300,0.9300,0,, 
,Correctness:,0.8000,0.8000,0,, ,Correctness:,0.8600,0.8600,0,, ,Correctness:,0.8800,0.8800,0,, ,Correctness:,0.8000,0.8000,0,, ,Correctness:,0.8200,0.8200,0,, 
,Correctness:,0.8800,0.8800,0,, ,Correctness:,0.9200,0.9200,0,, ,Correctness:,0.9000,0.9000,0,, ,Correctness:,0.9000,0.9000,0,, ,Correctness:,0.8800,0.8800,0,, 
,Correctness:,0.8700,0.8700,0,, ,Correctness:,0.9100,0.9100,0,, ,Correctness:,0.9300,0.9300,0,, ,Correctness:,0.8700,0.8700,0,, ,Correctness:,0.8700,0.8700,0,, 
,Correctness:,0.7500,0.7500,0,, ,Correctness:,0.7200,0.7200,0,, ,Correctness:,0.7600,0.7600,0,, ,Correctness:,0.7000,0.7000,0,, ,Correctness:,0.7700,0.7700,0,, 
,Correctness:,0.8600,0.8600,0,, ,Correctness:,0.8200,0.8200,0,, ,Correctness:,0.8000,0.8000,0,, ,Correctness:,0.8400,0.8400,0,, ,Correctness:,0.8400,0.8400,0,, 
,Correctness:,0.8400,0.8400,0,, ,Correctness:,0.8900,0.8900,0,, ,Correctness:,0.8900,0.8900,0,, ,Correctness:,0.8400,0.8400,0,, ,Correctness:,0.8600,0.8600,0,, 
,Correctness:,0.9900,0.9900,0,, ,Correctness:,0.9900,0.9900,0,, ,Correctness:,0.9900,0.9900,0,, ,Correctness:,0.9800,0.9800,0,, ,Correctness:,0.9800,0.9800,0,, 
,Correctness:,0.8850,0.8850,0,, ,Correctness:,0.9450,0.9450,0,, ,Correctness:,0.8900,0.8900,0,, ,Correctness:,0.8950,0.8950,0,, ,Correctness:,0.8850,0.8850,0,, 
,Correctness:,0.9450,0.9450,0,, ,Correctness:,0.9250,0.9250,0,, ,Correctness:,0.9350,0.9350,0,, ,Correctness:,0.9450,0.9450,0,, ,Correctness:,0.9450,0.9450,0,, 
,Correctness:,0.9050,0.9050,0,, ,Correctness:,0.9250,0.9250,0,, ,Correctness:,0.9350,0.9350,0,, ,Correctness:,0.9050,0.9050,0,, ,Correctness:,0.9150,0.9150,0,, 
,Correctness:,0.9250,0.9250,0,, ,Correctness:,0.9550,0.9550,0,, ,Correctness:,0.9650,0.9650,0,, ,Correctness:,0.9550,0.9550,0,, ,Correctness:,0.9450,0.9450,0,, 
,Correctness:,0.9000,0.9000,0,, ,Correctness:,0.9100,0.9100,0,, ,Correctness:,0.9000,0.9000,0,, ,Correctness:,0.8900,0.8900,0,, ,Correctness:,0.9000,0.9000,0,, 
,Correctness:,0.9400,0.9400,0,, ,Correctness:,0.9300,0.9300,0,, ,Correctness:,0.9300,0.9300,0,, ,Correctness:,0.9100,0.9100,0,, ,Correctness:,0.9400,0.9400,0,, 
,Correctness:,0.9300,0.9300,0,, ,Correctness:,0.9600,0.9600,0,, ,Correctness:,0.9300,0.9300,0,, ,Correctness:,0.9500,0.9500,0,, ,Correctness:,0.9300,0.9300,0,, 
,Correctness:,0.9300,0.9300,0,, ,Correctness:,0.9400,0.9400,0,, ,Correctness:,0.9400,0.9400,0,, ,Correctness:,0.9300,0.9300,0,, ,Correctness:,0.9300,0.9300,0,, 
,Correctness:,0.8400,0.8400,0,, ,Correctness:,0.8700,0.8700,0,, ,Correctness:,0.8700,0.8700,0,, ,Correctness:,0.8700,0.8700,0,, ,Correctness:,0.8500,0.8500,0,, 
,Correctness:,0.8700,0.8700,0,, ,Correctness:,0.8800,0.8800,0,, ,Correctness:,0.8800,0.8800,0,, ,Correctness:,0.8800,0.8800,0,, ,Correctness:,0.8700,0.8700,0,, 
,Correctness:,0.9300,0.9300,0,, ,Correctness:,0.9450,0.9450,0,, ,Correctness:,0.9450,0.9450,0,, ,Correctness:,0.9300,0.9300,0,, ,Correctness:,0.9175,0.9175,0,, 
,Correctness:,0.8950,0.8950,0,, ,Correctness:,0.9000,0.9000,0,, ,Correctness:,0.8950,0.8950,0,, ,Correctness:,0.8850,0.8850,0,, ,Correctness:,0.8900,0.8900,0,, 
,Correctness:,0.9150,0.9150,0,, ,Correctness:,0.9450,0.9450,0,, ,Correctness:,0.9475,0.9475,0,, ,Correctness:,0.9150,0.9150,0,, ,Correctness:,0.9100,0.9100,0,, 
,Correctness:,0.8875,0.8875,0,, ,Correctness:,0.8775,0.8775,0,, ,Correctness:,0.8650,0.8650,0,, ,Correctness:,0.8925,0.8925,0,, ,Correctness:,0.8700,0.8700,0,, 
,Correctness:,0.8850,0.8850,0,, ,Correctness:,0.9100,0.9100,0,, ,Correctness:,0.8900,0.8900,0,, ,Correctness:,0.8975,0.8975,0,, ,Correctness:,0.8825,0.8825,0,, 
,Correctness:,0.8675,0.8675,0,, ,Correctness:,0.8775,0.8775,0,, ,Correctness:,0.8825,0.8825,0,, ,Correctness:,0.8525,0.8525,0,, ,Correctness:,0.8725,0.8725,0,, 
,Correctness:,0.9325,0.9325,0,, ,Correctness:,0.9325,0.9325,0,, ,Correctness:,0.9375,0.9375,0,, ,Correctness:,0.9325,0.9325,0,, ,Correctness:,0.9375,0.9375,0,, 
,Correctness:,0.9350,0.9350,0,, ,Correctness:,0.9550,0.9550,0,, ,Correctness:,0.9750,0.9750,0,, ,Correctness:,0.9300,0.9300,0,, ,Correctness:,0.9450,0.9450,0,, 
,Correctness:,0.9100,0.9100,0,, ,Correctness:,0.9225,0.9225,0,, ,Correctness:,0.9075,0.9075,0,, ,Correctness:,0.9200,0.9200,0,, ,Correctness:,0.9100,0.9100,0,, 
,Correctness:,0.9025,0.9025,0,, ,Correctness:,0.9025,0.9025,0,, ,Correctness:,0.8850,0.8850,0,, ,Correctness:,0.9075,0.9075,0,, ,Correctness:,0.9075,0.9075,0,, 
,Correctness:,0.9038,0.9038,0,, ,Correctness:,0.9187,0.9187,0,, ,Correctness:,0.9087,0.9087,0,, ,Correctness:,0.8900,0.8900,0,, ,Correctness:,0.9050,0.9050,0,, 
,Correctness:,0.8650,0.8650,0,, ,Correctness:,0.8975,0.8975,0,, ,Correctness:,0.8762,0.8762,0,, ,Correctness:,0.8725,0.8725,0,, ,Correctness:,0.8525,0.8525,0,, 
,Correctness:,0.8725,0.8725,0,, ,Correctness:,0.8925,0.8925,0,, ,Correctness:,0.9025,0.9025,0,, ,Correctness:,0.8825,0.8825,0,, ,Correctness:,0.8800,0.8800,0,, 
,Correctness:,0.8900,0.8900,0,, ,Correctness:,0.9000,0.9000,0,, ,Correctness:,0.9000,0.9000,0,, ,Correctness:,0.8875,0.8875,0,, ,Correctness:,0.8900,0.8900,0,, 
,Correctness:,0.9225,0.9225,0,, ,Correctness:,0.9350,0.9350,0,, ,Correctness:,0.9237,0.9237,0,, ,Correctness:,0.9125,0.9125,0,, ,Correctness:,0.9100,0.9100,0,, 
,Correctness:,0.9038,0.9038,0,, ,Correctness:,0.9287,0.9287,0,, ,Correctness:,0.9287,0.9287,0,, ,Correctness:,0.8975,0.8975,0,, ,Correctness:,0.9050,0.9050,0,, 
,Correctness:,0.9100,0.9100,0,, ,Correctness:,0.9225,0.9225,0,, ,Correctness:,0.9100,0.9100,0,, ,Correctness:,0.9025,0.9025,0,, ,Correctness:,0.9025,0.9025,0,, 
,Correctness:,0.9038,0.9038,0,, ,Correctness:,0.9113,0.9113,0,, ,Correctness:,0.9113,0.9113,0,, ,Correctness:,0.8925,0.8925,0,, ,Correctness:,0.8925,0.8925,0,, 
,Correctness:,0.9163,0.9163,0,, ,Correctness:,0.9213,0.9213,0,, ,Correctness:,0.9263,0.9263,0,, ,Correctness:,0.9087,0.9087,0,, ,Correctness:,0.9038,0.9038,0,, 
,Correctness:,0.9000,0.9000,0,, ,Correctness:,0.9225,0.9225,0,, ,Correctness:,0.9113,0.9113,0,, ,Correctness:,0.8950,0.8950,0,, ,Correctness:,0.8975,0.8975,0,, 
,Correctness:,0.9050,0.9050,0,, ,Correctness:,0.9313,0.9313,0,, ,Correctness:,0.9294,0.9294,0,, ,Correctness:,0.9062,0.9062,0,, ,Correctness:,0.9012,0.9012,0,, 
,Correctness:,0.8981,0.8981,0,, ,Correctness:,0.9269,0.9269,0,, ,Correctness:,0.9206,0.9206,0,, ,Correctness:,0.9094,0.9094,0,, ,Correctness:,0.9019,0.9019,0,, 
,Correctness:,0.9012,0.9012,0,, ,Correctness:,0.9125,0.9125,0,, ,Correctness:,0.9062,0.9062,0,, ,Correctness:,0.8975,0.8975,0,, ,Correctness:,0.8962,0.8962,0,, 
,Correctness:,0.9038,0.9038,0,, ,Correctness:,0.9244,0.9244,0,, ,Correctness:,0.9156,0.9156,0,, ,Correctness:,0.9075,0.9075,0,, ,Correctness:,0.9075,0.9075,0,, 
,Correctness:,0.8881,0.8881,0,, ,Correctness:,0.8956,0.8956,0,, ,Correctness:,0.8862,0.8862,0,, ,Correctness:,0.8906,0.8906,0,, ,Correctness:,0.8894,0.8894,0,, 
,Correctness:,0.9038,0.9038,0,, ,Correctness:,0.9200,0.9200,0,, ,Correctness:,0.9181,0.9181,0,, ,Correctness:,0.9087,0.9087,0,, ,Correctness:,0.9100,0.9100,0,, 
,Correctness:,0.8969,0.8969,0,, ,Correctness:,0.9106,0.9106,0,, ,Correctness:,0.9081,0.9081,0,, ,Correctness:,0.8944,0.8944,0,, ,Correctness:,0.8900,0.8900,0,, 
,Correctness:,0.8981,0.8981,0,, ,Correctness:,0.9125,0.9125,0,, ,Correctness:,0.8994,0.8994,0,, ,Correctness:,0.8975,0.8975,0,, ,Correctness:,0.8969,0.8969,0,, 
,Correctness:,0.8956,0.8956,0,, ,Correctness:,0.9131,0.9131,0,, ,Correctness:,0.9144,0.9144,0,, ,Correctness:,0.9006,0.9006,0,, ,Correctness:,0.8931,0.8931,0,, 
,Correctness:,0.8950,0.8950,0,, ,Correctness:,0.9125,0.9125,0,, ,Correctness:,0.9175,0.9175,0,, ,Correctness:,0.8988,0.8988,0,, ,Correctness:,0.8975,0.8975,0,, 
Average:,0.8957,,,,, Average:,0.9097,,,,, Average:,0.9084,,,,, Average:,0.8945,,,,, Average:,0.8965,,,,, 
,Correctness:,0.8100,0.8100,0,, ,Correctness:,0.8500,0.8500,0,, ,Correctness:,0.8100,0.8100,0,, ,Correctness:,0.8300,0.8300,0,, ,Correctness:,0.7900,0.7900,0,, 
,Correctness:,0.9100,0.9100,0,, ,Correctness:,0.9500,0.9500,0,, ,Correctness:,0.9100,0.9100,0,, ,Correctness:,0.9000,0.9000,0,, ,Correctness:,0.9100,0.9100,0,, 
,Correctness:,0.9600,0.9600,0,, ,Correctness:,0.9100,0.9100,0,, ,Correctness:,0.9600,0.9600,0,, ,Correctness:,0.9300,0.9300,0,, ,Correctness:,0.9300,0.9300,0,, 
,Correctness:,0.8600,0.8600,0,, ,Correctness:,0.8200,0.8200,0,, ,Correctness:,0.8600,0.8600,0,, ,Correctness:,0.8200,0.8200,0,, ,Correctness:,0.8000,0.8000,0,, 
,Correctness:,0.9200,0.9200,0,, ,Correctness:,0.8500,0.8500,0,, ,Correctness:,0.9200,0.9200,0,, ,Correctness:,0.9000,0.9000,0,, ,Correctness:,0.9000,0.9000,0,, 
,Correctness:,0.9100,0.9100,0,, ,Correctness:,0.8900,0.8900,0,, ,Correctness:,0.9100,0.9100,0,, ,Correctness:,0.8700,0.8700,0,, ,Correctness:,0.8700,0.8700,0,, 
,Correctness:,0.7200,0.7200,0,, ,Correctness:,0.7900,0.7900,0,, ,Correctness:,0.7200,0.7200,0,, ,Correctness:,0.7400,0.7400,0,, ,Correctness:,0.7000,0.7000,0,, 
,Correctness:,0.8200,0.8200,0,, ,Correctness:,0.8600,0.8600,0,, ,Correctness:,0.8600,0.8600,0,, ,Correctness:,0.8200,0.8200,0,, ,Correctness:,0.8200,0.8200,0,, 
,Correctness:,0.8900,0.8900,0,, ,Correctness:,0.8400,0.8400,0,, ,Correctness:,0.8900,0.8900,0,, ,Correctness:,0.8600,0.8600,0,, ,Correctness:,0.8400,0.8400,0,, 
,Correctness:,0.9900,0.9900,0,, ,Correctness:,0.9800,0.9800,0,, ,Correctness:,0.9900,0.9900,0,, ,Correctness:,0.9800,0.9800,0,, ,Correctness:,0.9800,0.9800,0,, 
,Correctness:,0.8900,0.8900,0,, ,Correctness:,0.8850,0.8850,0,, ,Correctness:,0.9100,0.9100,0,, ,Correctness:,0.8850,0.8850,0,, ,Correctness:,0.9050,0.9050,0,, 
,Correctness:,0.9350,0.9350,0,, ,Correctness:,0.9450,0.9450,0,, ,Correctness:,0.9350,0.9350,0,, ,Correctness:,0.9450,0.9450,0,, ,Correctness:,0.9250,0.9250,0,, 
,Correctness:,0.9450,0.9450,0,, ,Correctness:,0.9050,0.9050,0,, ,Correctness:,0.9450,0.9450,0,, ,Correctness:,0.9250,0.9250,0,, ,Correctness:,0.9250,0.9250,0,, 
,Correctness:,0.9650,0.9650,0,, ,Correctness:,0.9450,0.9450,0,, ,Correctness:,0.9650,0.9650,0,, ,Correctness:,0.9600,0.9600,0,, ,Correctness:,0.9550,0.9550,0,, 
,Correctness:,0.9100,0.9100,0,, ,Correctness:,0.9050,0.9050,0,, ,Correctness:,0.9100,0.9100,0,, ,Correctness:,0.9000,0.9000,0,, ,Correctness:,0.9000,0.9000,0,, 
,Correctness:,0.9300,0.9300,0,, ,Correctness:,0.9300,0.9300,0,, ,Correctness:,0.9300,0.9300,0,, ,Correctness:,0.9300,0.9300,0,, ,Correctness:,0.9200,0.9200,0,, 
,Correctness:,0.9600,0.9600,0,, ,Correctness:,0.9200,0.9200,0,, ,Correctness:,0.9600,0.9600,0,, ,Correctness:,0.9300,0.9300,0,, ,Correctness:,0.9600,0.9600,0,, 
,Correctness:,0.9250,0.9250,0,, ,Correctness:,0.9150,0.9150,0,, ,Correctness:,0.9350,0.9350,0,, ,Correctness:,0.9300,0.9300,0,, ,Correctness:,0.9200,0.9200,0,, 
,Correctness:,0.8700,0.8700,0,, ,Correctness:,0.8500,0.8500,0,, ,Correctness:,0.8700,0.8700,0,, ,Correctness:,0.8700,0.8700,0,, ,Correctness:,0.8900,0.8900,0,, 
,Correctness:,0.8900,0.8900,0,, ,Correctness:,0.8700,0.8700,0,, ,Correctness:,0.8900,0.8900,0,, ,Correctness:,0.8550,0.8550,0,, ,Correctness:,0.8700,0.8700,0,, 
,Correctness:,0.9450,0.9450,0,, ,Correctness:,0.9125,0.9125,0,, ,Correctness:,0.9550,0.9550,0,, ,Correctness:,0.9400,0.9400,0,, ,Correctness:,0.9450,0.9450,0,, 
,Correctness:,0.9000,0.9000,0,, ,Correctness:,0.8875,0.8875,0,, ,Correctness:,0.9100,0.9100,0,, ,Correctness:,0.8725,0.8725,0,, ,Correctness:,0.8900,0.8900,0,, 
,Correctness:,0.9525,0.9525,0,, ,Correctness:,0.9075,0.9075,0,, ,Correctness:,0.9350,0.9350,0,, ,Correctness:,0.9100,0.9100,0,, ,Correctness:,0.9250,0.9250,0,, 
,Correctness:,0.8675,0.8675,0,, ,Correctness:,0.8575,0.8575,0,, ,Correctness:,0.8775,0.8775,0,, ,Correctness:,0.8625,0.8625,0,, ,Correctness:,0.8750,0.8750,0,, 
,Correctness:,0.9100,0.9100,0,, ,Correctness:,0.8750,0.8750,0,, ,Correctness:,0.9100,0.9100,0,, ,Correctness:,0.8875,0.8875,0,, ,Correctness:,0.9025,0.9025,0,, 
,Correctness:,0.8725,0.8725,0,, ,Correctness:,0.8550,0.8550,0,, ,Correctness:,0.8725,0.8725,0,, ,Correctness:,0.8675,0.8675,0,, ,Correctness:,0.8575,0.8575,0,, 
,Correctness:,0.9425,0.9425,0,, ,Correctness:,0.9275,0.9275,0,, ,Correctness:,0.9425,0.9425,0,, ,Correctness:,0.9325,0.9325,0,, ,Correctness:,0.9325,0.9325,0,, 
,Correctness:,0.9475,0.9475,0,, ,Correctness:,0.9325,0.9325,0,, ,Correctness:,0.9700,0.9700,0,, ,Correctness:,0.9350,0.9350,0,, ,Correctness:,0.9400,0.9400,0,, 
,Correctness:,0.9225,0.9225,0,, ,Correctness:,0.9025,0.9025,0,, ,Correctness:,0.9125,0.9125,0,, ,Correctness:,0.9325,0.9325,0,, ,Correctness:,0.9250,0.9250,0,, 
,Correctness:,0.9025,0.9025,0,, ,Correctness:,0.9025,0.9025,0,, ,Correctness:,0.9025,0.9025,0,, ,Correctness:,0.8975,0.8975,0,, ,Correctness:,0.8975,0.8975,0,, 
,Correctness:,0.9163,0.9163,0,, ,Correctness:,0.9137,0.9137,0,, ,Correctness:,0.9075,0.9075,0,, ,Correctness:,0.8938,0.8938,0,, ,Correctness:,0.9000,0.9000,0,, 
,Correctness:,0.8812,0.8812,0,, ,Correctness:,0.8450,0.8450,0,, ,Correctness:,0.8788,0.8788,0,, ,Correctness:,0.8213,0.8213,0,, ,Correctness:,0.8675,0.8675,0,, 
,Correctness:,0.8900,0.8900,0,, ,Correctness:,0.8538,0.8538,0,, ,Correctness:,0.8950,0.8950,0,, ,Correctness:,0.8800,0.8800,0,, ,Correctness:,0.8725,0.8725,0,, 
,Correctness:,0.8925,0.8925,0,, ,Correctness:,0.8962,0.8962,0,, ,Correctness:,0.9075,0.9075,0,, ,Correctness:,0.8938,0.8938,0,, ,Correctness:,0.8925,0.8925,0,, 
,Correctness:,0.9300,0.9300,0,, ,Correctness:,0.9062,0.9062,0,, ,Correctness:,0.9263,0.9263,0,, ,Correctness:,0.9125,0.9125,0,, ,Correctness:,0.9250,0.9250,0,, 
,Correctness:,0.9237,0.9237,0,, ,Correctness:,0.8962,0.8962,0,, ,Correctness:,0.9287,0.9287,0,, ,Correctness:,0.8888,0.8888,0,, ,Correctness:,0.9150,0.9150,0,, 
,Correctness:,0.9200,0.9200,0,, ,Correctness:,0.9150,0.9150,0,, ,Correctness:,0.9125,0.9125,0,, ,Correctness:,0.8988,0.8988,0,, ,Correctness:,0.9175,0.9175,0,, 
,Correctness:,0.9087,0.9087,0,, ,Correctness:,0.8925,0.8925,0,, ,Correctness:,0.9087,0.9087,0,, ,Correctness:,0.8912,0.8912,0,, ,Correctness:,0.9075,0.9075,0,, 
,Correctness:,0.9087,0.9087,0,, ,Correctness:,0.8900,0.8900,0,, ,Correctness:,0.9237,0.9237,0,, ,Correctness:,0.9025,0.9025,0,, ,Correctness:,0.9087,0.9087,0,, 
,Correctness:,0.9200,0.9200,0,, ,Correctness:,0.8912,0.8912,0,, ,Correctness:,0.9150,0.9150,0,, ,Correctness:,0.8950,0.8950,0,, ,Correctness:,0.9000,0.9000,0,, 
,Correctness:,0.9213,0.9213,0,, ,Correctness:,0.9000,0.9000,0,, ,Correctness:,0.9319,0.9319,0,, ,Correctness:,0.9056,0.9056,0,, ,Correctness:,0.9113,0.9113,0,, 
,Correctness:,0.9225,0.9225,0,, ,Correctness:,0.9025,0.9025,0,, ,Correctness:,0.9337,0.9337,0,, ,Correctness:,0.9062,0.9062,0,, ,Correctness:,0.9094,0.9094,0,, 
,Correctness:,0.9069,0.9069,0,, ,Correctness:,0.8969,0.8969,0,, ,Correctness:,0.9050,0.9050,0,, ,Correctness:,0.8981,0.8981,0,, ,Correctness:,0.9000,0.9000,0,, 
,Correctness:,0.9163,0.9163,0,, ,Correctness:,0.8975,0.8975,0,, ,Correctness:,0.9200,0.9200,0,, ,Correctness:,0.8994,0.8994,0,, ,Correctness:,0.9150,0.9150,0,, 
,Correctness:,0.8944,0.8944,0,, ,Correctness:,0.8844,0.8844,0,, ,Correctness:,0.8994,0.8994,0,, ,Correctness:,0.8862,0.8862,0,, ,Correctness:,0.8881,0.8881,0,, 
,Correctness:,0.9169,0.9169,0,, ,Correctness:,0.8975,0.8975,0,, ,Correctness:,0.9156,0.9156,0,, ,Correctness:,0.9044,0.9044,0,, ,Correctness:,0.9100,0.9100,0,, 
,Correctness:,0.9069,0.9069,0,, ,Correctness:,0.8894,0.8894,0,, ,Correctness:,0.9087,0.9087,0,, ,Correctness:,0.8888,0.8888,0,, ,Correctness:,0.9006,0.9006,0,, 
,Correctness:,0.9000,0.9000,0,, ,Correctness:,0.8888,0.8888,0,, ,Correctness:,0.9163,0.9163,0,, ,Correctness:,0.8919,0.8919,0,, ,Correctness:,0.8962,0.8962,0,, 
,Correctness:,0.9081,0.9081,0,, ,Correctness:,0.8888,0.8888,0,, ,Correctness:,0.9156,0.9156,0,, ,Correctness:,0.8875,0.8875,0,, ,Correctness:,0.8994,0.8994,0,, 
,Correctness:,0.9181,0.9181,0,, ,Correctness:,0.8969,0.8969,0,, ,Correctness:,0.9219,0.9219,0,, ,Correctness:,0.9006,0.9006,0,, ,Correctness:,0.9012,0.9012,0,, 
Average:,0.9075,,,,, Average:,0.8923,,,,, Average:,0.9108,,,,, Average:,0.8933,,,,, Average:,0.8967,,,,, 
,Correctness:,0.8100,0.8100,0,, ,Correctness:,0.8400,0.8400,0,, ,Correctness:,0.8300,0.8300,0,, ,Correctness:,0.8400,0.8400,0,, ,Correctness:,0.8100,0.8100,0,, 
,Correctness:,0.9100,0.9100,0,, ,Correctness:,0.9100,0.9100,0,, ,Correctness:,0.9500,0.9500,0,, ,Correctness:,0.9100,0.9100,0,, ,Correctness:,0.9100,0.9100,0,, 
,Correctness:,0.9600,0.9600,0,, ,Correctness:,0.9400,0.9400,0,, ,Correctness:,0.9300,0.9300,0,, ,Correctness:,0.9600,0.9600,0,, ,Correctness:,0.9500,0.9500,0,, 
,Correctness:,0.8600,0.8600,0,, ,Correctness:,0.8600,0.8600,0,, ,Correctness:,0.8400,0.8400,0,, ,Correctness:,0.8600,0.8600,0,, ,Correctness:,0.8000,0.8000,0,, 
,Correctness:,0.9200,0.9200,0,, ,Correctness:,0.9200,0.9200,0,, ,Correctness:,0.9000,0.9000,0,, ,Correctness:,0.9000,0.9000,0,, ,Correctness:,0.9000,0.9000,0,, 
,Correctness:,0.9100,0.9100,0,, ,Correctness:,0.9300,0.9300,0,, ,Correctness:,0.8700,0.8700,0,, ,Correctness:,0.9300,0.9300,0,, ,Correctness:,0.8700,0.8700,0,, 
,Correctness:,0.7200,0.7200,0,, ,Correctness:,0.7200,0.7200,0,, ,Correctness:,0.7000,0.7000,0,, ,Correctness:,0.7200,0.7200,0,, ,Correctness:,0.7000,0.7000,0,, 
,Correctness:,0.8200,0.8200,0,, ,Correctness:,0.8200,0.8200,0,, ,Correctness:,0.8200,0.8200,0,, ,Correctness:,0.8400,0.8400,0,, ,Correctness:,0.8200,0.8200,0,, 
,Correctness:,0.8900,0.8900,0,, ,Correctness:,0.8600,0.8600,0,, ,Correctness:,0.8600,0.8600,0,, ,Correctness:,0.8600,0.8600,0,, ,Correctness:,0.8400,0.8400,0,, 
,Correctness:,0.9900,0.9900,0,, ,Correctness:,0.9900,0.9900,0,, ,Correctness:,0.9800,0.9800,0,, ,Correctness:,0.9800,0.9800,0,, ,Correctness:,0.9800,0.9800,0,, 
,Correctness:,0.9250,0.9250,0,, ,Correctness:,0.9250,0.9250,0,, ,Correctness:,0.8950,0.8950,0,, ,Correctness:,0.9250,0.9250,0,, ,Correctness:,0.8950,0.8950,0,, 
,Correctness:,0.9350,0.9350,0,, ,Correctness:,0.9350,0.9350,0,, ,Correctness:,0.9350,0.9350,0,, ,Correctness:,0.9350,0.9350,0,, ,Correctness:,0.9350,0.9350,0,, 
,Correctness:,0.9450,0.9450,0,, ,Correctness:,0.9250,0.9250,0,, ,Correctness:,0.9350,0.9350,0,, ,Correctness:,0.9450,0.9450,0,, ,Correctness:,0.9450,0.9450,0,, 
,Correctness:,0.9800,0.9800,0,, ,Correctness:,0.9550,0.9550,0,, ,Correctness:,0.9550,0.9550,0,, ,Correctness:,0.9650,0.9650,0,, ,Correctness:,0.9650,0.9650,0,, 
,Correctness:,0.9100,0.9100,0,, ,Correctness:,0.8900,0.8900,0,, ,Correctness:,0.8900,0.8900,0,, ,Correctness:,0.9000,0.9000,0,, ,Correctness:,0.9000,0.9000,0,, 
,Correctness:,0.9300,0.9300,0,, ,Correctness:,0.9200,0.9200,0,, ,Correctness:,0.9000,0.9000,0,, ,Correctness:,0.9300,0.9300,0,, ,Correctness:,0.9200,0.9200,0,, 
,Correctness:,0.9600,0.9600,0,, ,Correctness:,0.9500,0.9500,0,, ,Correctness:,0.9500,0.9500,0,, ,Correctness:,0.9600,0.9600,0,, ,Correctness:,0.9600,0.9600,0,, 
,Correctness:,0.9150,0.9150,0,, ,Correctness:,0.9400,0.9400,0,, ,Correctness:,0.9300,0.9300,0,, ,Correctness:,0.9200,0.9200,0,, ,Correctness:,0.9300,0.9300,0,, 
,Correctness:,0.8700,0.8700,0,, ,Correctness:,0.8700,0.8700,0,, ,Correctness:,0.8700,0.8700,0,, ,Correctness:,0.8700,0.8700,0,, ,Correctness:,0.8700,0.8700,0,, 
,Correctness:,0.8750,0.8750,0,, ,Correctness:,0.9000,0.9000,0,, ,Correctness:,0.8700,0.8700,0,, ,Correctness:,0.8900,0.8900,0,, ,Correctness:,0.8800,0.8800,0,, 
,Correctness:,0.9475,0.9475,0,, ,Correctness:,0.9400,0.9400,0,, ,Correctness:,0.9350,0.9350,0,, ,Correctness:,0.9550,0.9550,0,, ,Correctness:,0.9450,0.9450,0,, 
,Correctness:,0.9000,0.9000,0,, ,Correctness:,0.8950,0.8950,0,, ,Correctness:,0.8800,0.8800,0,, ,Correctness:,0.9150,0.9150,0,, ,Correctness:,0.8900,0.8900,0,, 
,Correctness:,0.9475,0.9475,0,, ,Correctness:,0.9400,0.9400,0,, ,Correctness:,0.9200,0.9200,0,, ,Correctness:,0.9350,0.9350,0,, ,Correctness:,0.9200,0.9200,0,, 
,Correctness:,0.8675,0.8675,0,, ,Correctness:,0.9025,0.9025,0,, ,Correctness:,0.8650,0.8650,0,, ,Correctness:,0.8750,0.8750,0,, ,Correctness:,0.8650,0.8650,0,, 
,Correctness:,0.9025,0.9025,0,, ,Correctness:,0.9000,0.9000,0,, ,Correctness:,0.9025,0.9025,0,, ,Correctness:,0.8625,0.8625,0,, ,Correctness:,0.9025,0.9025,0,, 
,Correctness:,0.8725,0.8725,0,, ,Correctness:,0.8775,0.8775,0,, ,Correctness:,0.8575,0.8575,0,, ,Correctness:,0.8725,0.8725,0,, ,Correctness:,0.8525,0.8525,0,, 
,Correctness:,0.9275,0.9275,0,, ,Correctness:,0.9175,0.9175,0,, ,Correctness:,0.9275,0.9275,0,, ,Correctness:,0.9375,0.9375,0,, ,Correctness:,0.9425,0.9425,0,, 
,Correctness:,0.9600,0.9600,0,, ,Correctness:,0.9500,0.9500,0,, ,Correctness:,0.9450,0.9450,0,, ,Correctness:,0.9650,0.9650,0,, ,Correctness:,0.9450,0.9450,0,, 
,Correctness:,0.9300,0.9300,0,, ,Correctness:,0.9125,0.9125,0,, ,Correctness:,0.9250,0.9250,0,, ,Correctness:,0.9075,0.9075,0,, ,Correctness:,0.9250,0.9250,0,, 
,Correctness:,0.9100,0.9100,0,, ,Correctness:,0.9175,0.9175,0,, ,Correctness:,0.8975,0.8975,0,, ,Correctness:,0.8975,0.8975,0,, ,Correctness:,0.8975,0.8975,0,, 
,Correctness:,0.9062,0.9062,0,, ,Correctness:,0.9087,0.9087,0,, ,Correctness:,0.8925,0.8925,0,, ,Correctness:,0.9125,0.9125,0,, ,Correctness:,0.8950,0.8950,0,, 
,Correctness:,0.8762,0.8762,0,, ,Correctness:,0.9075,0.9075,0,, ,Correctness:,0.8650,0.8650,0,, ,Correctness:,0.8925,0.8925,0,, ,Correctness:,0.8650,0.8650,0,, 
,Correctness:,0.8900,0.8900,0,, ,Correctness:,0.9050,0.9050,0,, ,Correctness:,0.8825,0.8825,0,, ,Correctness:,0.8950,0.8950,0,, ,Correctness:,0.8700,0.8700,0,, 
,Correctness:,0.8925,0.8925,0,, ,Correctness:,0.8900,0.8900,0,, ,Correctness:,0.9000,0.9000,0,, ,Correctness:,0.9025,0.9025,0,, ,Correctness:,0.8900,0.8900,0,, 
,Correctness:,0.9163,0.9163,0,, ,Correctness:,0.9325,0.9325,0,, ,Correctness:,0.9175,0.9175,0,, ,Correctness:,0.9425,0.9425,0,, ,Correctness:,0.9200,0.9200,0,, 
,Correctness:,0.9150,0.9150,0,, ,Correctness:,0.9163,0.9163,0,, ,Correctness:,0.9025,0.9025,0,, ,Correctness:,0.9250,0.9250,0,, ,Correctness:,0.9100,0.9100,0,, 
,Correctness:,0.9200,0.9200,0,, ,Correctness:,0.9000,0.9000,0,, ,Correctness:,0.9075,0.9075,0,, ,Correctness:,0.9225,0.9225,0,, ,Correctness:,0.9125,0.9125,0,, 
,Correctness:,0.9087,0.9087,0,, ,Correctness:,0.9062,0.9062,0,, ,Correctness:,0.9025,0.9025,0,, ,Correctness:,0.9075,0.9075,0,, ,Correctness:,0.9050,0.9050,0,, 
,Correctness:,0.9187,0.9187,0,, ,Correctness:,0.9237,0.9237,0,, ,Correctness:,0.9163,0.9163,0,, ,Correctness:,0.9163,0.9163,0,, ,Correctness:,0.9038,0.9038,0,, 
,Correctness:,0.9237,0.9237,0,, ,Correctness:,0.9050,0.9050,0,, ,Correctness:,0.8950,0.8950,0,, ,Correctness:,0.9125,0.9125,0,, ,Correctness:,0.8975,0.8975,0,, 
,Correctness:,0.9275,0.9275,0,, ,Correctness:,0.9250,0.9250,0,, ,Correctness:,0.9087,0.9087,0,, ,Correctness:,0.9237,0.9237,0,, ,Correctness:,0.9075,0.9075,0,, 
,Correctness:,0.9194,0.9194,0,, ,Correctness:,0.9294,0.9294,0,, ,Correctness:,0.9181,0.9181,0,, ,Correctness:,0.9206,0.9206,0,, ,Correctness:,0.9094,0.9094,0,, 
,Correctness:,0.9031,0.9031,0,, ,Correctness:,0.9100,0.9100,0,, ,Correctness:,0.9000,0.9000,0,, ,Correctness:,0.9050,0.9050,0,, ,Correctness:,0.8962,0.8962,0,, 
,Correctness:,0.9119,0.9119,0,, ,Correctness:,0.9169,0.9169,0,, ,Correctness:,0.9038,0.9038,0,, ,Correctness:,0.9219,0.9219,0,, ,Correctness:,0.9125,0.9125,0,, 
,Correctness:,0.8881,0.8881,0,, ,Correctness:,0.8894,0.8894,0,, ,Correctness:,0.8881,0.8881,0,, ,Correctness:,0.8969,0.8969,0,, ,Correctness:,0.8906,0.8906,0,, 
,Correctness:,0.9194,0.9194,0,, ,Correctness:,0.9200,0.9200,0,, ,Correctness:,0.9175,0.9175,0,, ,Correctness:,0.9163,0.9163,0,, ,Correctness:,0.9113,0.9113,0,, 
,Correctness:,0.9019,0.9019,0,, ,Correctness:,0.9069,0.9069,0,, ,Correctness:,0.8969,0.8969,0,, ,Correctness:,0.9144,0.9144,0,, ,Correctness:,0.8969,0.8969,0,, 
,Correctness:,0.9031,0.9031,0,, ,Correctness:,0.9062,0.9062,0,, ,Correctness:,0.9038,0.9038,0,, ,Correctness:,0.9038,0.9038,0,, ,Correctness:,0.8962,0.8962,0,, 
,Correctness:,0.9131,0.9131,0,, ,Correctness:,0.9244,0.9244,0,, ,Correctness:,0.8969,0.8969,0,, ,Correctness:,0.9213,0.9213,0,, ,Correctness:,0.8969,0.8969,0,, 
,Correctness:,0.9156,0.9156,0,, ,Correctness:,0.9175,0.9175,0,, ,Correctness:,0.9012,0.9012,0,, ,Correctness:,0.9163,0.9163,0,, ,Correctness:,0.9025,0.9025,0,, 
Average:,0.9074,,,,, Average:,0.9079,,,,, Average:,0.8976,,,,, Average:,0.9086,,,,, Average:,0.8971,,,,, 
,Correctness:,0.8300,0.8300,0,, ,Correctness:,0.8300,0.8300,0,, ,Correctness:,0.8300,0.8300,0,, ,Correctness:,0.8200,0.8200,0,, ,Correctness:,0.8100,0.8100,0,, 
,Correctness:,0.9100,0.9100,0,, ,Correctness:,0.9100,0.9100,0,, ,Correctness:,0.9100,0.9100,0,, ,Correctness:,0.9100,0.9100,0,, ,Correctness:,0.9100,0.9100,0,, 
,Correctness:,0.9300,0.9300,0,, ,Correctness:,0.9400,0.9400,0,, ,Correctness:,0.9400,0.9400,0,, ,Correctness:,0.9400,0.9400,0,, ,Correctness:,0.9600,0.9600,0,, 
,Correctness:,0.8000,0.8000,0,, ,Correctness:,0.8600,0.8600,0,, ,Correctness:,0.8600,0.8600,0,, ,Correctness:,0.8600,0.8600,0,, ,Correctness:,0.8600,0.8600,0,, 
,Correctness:,0.9000,0.9000,0,, ,Correctness:,0.9200,0.9200,0,, ,Correctness:,0.9200,0.9200,0,, ,Correctness:,0.9000,0.9000,0,, ,Correctness:,0.9200,0.9200,0,, 
,Correctness:,0.8700,0.8700,0,, ,Correctness:,0.9100,0.9100,0,, ,Correctness:,0.9100,0.9100,0,, ,Correctness:,0.9500,0.9500,0,, ,Correctness:,0.9100,0.9100,0,, 
,Correctness:,0.7000,0.7000,0,, ,Correctness:,0.7200,0.7200,0,, ,Correctness:,0.7200,0.7200,0,, ,Correctness:,0.8500,0.8500,0,, ,Correctness:,0.7200,0.7200,0,, 
,Correctness:,0.8200,0.8200,0,, ,Correctness:,0.8200,0.8200,0,, ,Correctness:,0.9100,0.9100,0,, ,Correctness:,0.8400,0.8400,0,, ,Correctness:,0.8600,0.8600,0,, 
,Correctness:,0.8400,0.8400,0,, ,Correctness:,0.8600,0.8600,0,, ,Correctness:,0.8600,0.8600,0,, ,Correctness:,0.8400,0.8400,0,, ,Correctness:,0.8900,0.8900,0,, 
,Correctness:,0.9800,0.9800,0,, ,Correctness:,0.9800,0.9800,0,, ,Correctness:,0.9900,0.9900,0,, ,Correctness:,0.9800,0.9800,0,, ,Correctness:,0.9900,0.9900,0,, 
,Correctness:,0.8850,0.8850,0,, ,Correctness:,0.9250,0.9250,0,, ,Correctness:,0.9250,0.9250,0,, ,Correctness:,0.8900,0.8900,0,, ,Correctness:,0.9250,0.9250,0,, 
,Correctness:,0.9350,0.9350,0,, ,Correctness:,0.9350,0.9350,0,, ,Correctness:,0.9350,0.9350,0,, ,Correctness:,0.9350,0.9350,0,, ,Correctness:,0.9350,0.9350,0,, 
,Correctness:,0.9450,0.9450,0,, ,Correctness:,0.9450,0.9450,0,, ,Correctness:,0.9250,0.9250,0,, ,Correctness:,0.9200,0.9200,0,, ,Correctness:,0.9450,0.9450,0,, 
,Correctness:,0.9650,0.9650,0,, ,Correctness:,0.9650,0.9650,0,, ,Correctness:,0.9650,0.9650,0,, ,Correctness:,0.9450,0.9450,0,, ,Correctness:,0.9650,0.9650,0,, 
,Correctness:,0.9000,0.9000,0,, ,Correctness:,0.9000,0.9000,0,, ,Correctness:,0.9000,0.9000,0,, ,Correctness:,0.9000,0.9000,0,, ,Correctness:,0.9100,0.9100,0,, 
,Correctness:,0.9300,0.9300,0,, ,Correctness:,0.9100,0.9100,0,, ,Correctness:,0.9100,0.9100,0,, ,Correctness:,0.9300,0.9300,0,, ,Correctness:,0.9300,0.9300,0,, 
,Correctness:,0.9500,0.9500,0,, ,Correctness:,0.9600,0.9600,0,, ,Correctness:,0.9600,0.9600,0,, ,Correctness:,0.9500,0.9500,0,, ,Correctness:,0.9600,0.9600,0,, 
,Correctness:,0.9300,0.9300,0,, ,Correctness:,0.9550,0.9550,0,, ,Correctness:,0.9050,0.9050,0,, ,Correctness:,0.9050,0.9050,0,, ,Correctness:,0.9200,0.9200,0,, 
,Correctness:,0.8600,0.8600,0,, ,Correctness:,0.8700,0.8700,0,, ,Correctness:,0.8700,0.8700,0,, ,Correctness:,0.8500,0.8500,0,, ,Correctness:,0.8700,0.8700,0,, 
,Correctness:,0.8800,0.8800,0,, ,Correctness:,0.8900,0.8900,0,, ,Correctness:,0.9100,0.9100,0,, ,Correctness:,0.8900,0.8900,0,, ,Correctness:,0.8900,0.8900,0,, 
,Correctness:,0.9500,0.9500,0,, ,Correctness:,0.9350,0.9350,0,, ,Correctness:,0.9475,0.9475,0,, ,Correctness:,0.9350,0.9350,0,, ,Correctness:,0.9550,0.9550,0,, 
,Correctness:,0.8900,0.8900,0,, ,Correctness:,0.8950,0.8950,0,, ,Correctness:,0.9050,0.9050,0,, ,Correctness:,0.9200,0.9200,0,, ,Correctness:,0.9100,0.9100,0,, 
,Correctness:,0.9150,0.9150,0,, ,Correctness:,0.9350,0.9350,0,, ,Correctness:,0.9325,0.9325,0,, ,Correctness:,0.9525,0.9525,0,, ,Correctness:,0.9450,0.9450,0,, 
,Correctness:,0.8675,0.8675,0,, ,Correctness:,0.8600,0.8600,0,, ,Correctness:,0.8775,0.8775,0,, ,Correctness:,0.8700,0.8700,0,, ,Correctness:,0.8775,0.8775,0,, 
,Correctness:,0.8975,0.8975,0,, ,Correctness:,0.8975,0.8975,0,, ,Correctness:,0.9000,0.9000,0,, ,Correctness:,0.8550,0.8550,0,, ,Correctness:,0.9100,0.9100,0,, 
,Correctness:,0.8575,0.8575,0,, ,Correctness:,0.8600,0.8600,0,, ,Correctness:,0.8725,0.8725,0,, ,Correctness:,0.8725,0.8725,0,, ,Correctness:,0.8725,0.8725,0,, 
,Correctness:,0.9375,0.9375,0,, ,Correctness:,0.9375,0.9375,0,, ,Correctness:,0.9300,0.9300,0,, ,Correctness:,0.9400,0.9400,0,, ,Correctness:,0.9425,0.9425,0,, 
,Correctness:,0.9450,0.9450,0,, ,Correctness:,0.9550,0.9550,0,, ,Correctness:,0.9550,0.9550,0,, ,Correctness:,0.9700,0.9700,0,, ,Correctness:,0.9600,0.9600,0,, 
,Correctness:,0.9250,0.9250,0,, ,Correctness:,0.9175,0.9175,0,, ,Correctness:,0.9075,0.9075,0,, ,Correctness:,0.8975,0.8975,0,, ,Correctness:,0.9125,0.9125,0,, 
,Correctness:,0.8975,0.8975,0,, ,Correctness:,0.9025,0.9025,0,, ,Correctness:,0.9175,0.9175,0,, ,Correctness:,0.8975,0.8975,0,, ,Correctness:,0.9175,0.9175,0,, 
,Correctness:,0.8950,0.8950,0,, ,Correctness:,0.9075,0.9075,0,, ,Correctness:,0.9000,0.9000,0,, ,Correctness:,0.9375,0.9375,0,, ,Correctness:,0.9163,0.9163,0,, 
,Correctness:,0.8650,0.8650,0,, ,Correctness:,0.8950,0.8950,0,, ,Correctness:,0.8950,0.8950,0,, ,Correctness:,0.8762,0.8762,0,, ,Correctness:,0.8975,0.8975,0,, 
,Correctness:,0.8750,0.8750,0,, ,Correctness:,0.8950,0.8950,0,, ,Correctness:,0.9000,0.9000,0,, ,Correctness:,0.8825,0.8825,0,, ,Correctness:,0.8900,0.8900,0,, 
,Correctness:,0.8900,0.8900,0,, ,Correctness:,0.8975,0.8975,0,, ,Correctness:,0.9025,0.9025,0,, ,Correctness:,0.9025,0.9025,0,, ,Correctness:,0.9025,0.9025,0,, 
,Correctness:,0.9200,0.9200,0,, ,Correctness:,0.9275,0.9275,0,, ,Correctness:,0.9213,0.9213,0,, ,Correctness:,0.9375,0.9375,0,, ,Correctness:,0.9237,0.9237,0,, 
,Correctness:,0.9075,0.9075,0,, ,Correctness:,0.9175,0.9175,0,, ,Correctness:,0.9100,0.9100,0,, ,Correctness:,0.9250,0.9250,0,, ,Correctness:,0.9287,0.9287,0,, 
,Correctness:,0.9075,0.9075,0,, ,Correctness:,0.9137,0.9137,0,, ,Correctness:,0.9175,0.9175,0,, ,Correctness:,0.9087,0.9087,0,, ,Correctness:,0.9250,0.9250,0,, 
,Correctness:,0.9050,0.9050,0,, ,Correctness:,0.9075,0.9075,0,, ,Correctness:,0.9087,0.9087,0,, ,Correctness:,0.9150,0.9150,0,, ,Correctness:,0.9087,0.9087,0,, 
,Correctness:,0.9038,0.9038,0,, ,Correctness:,0.9113,0.9113,0,, ,Correctness:,0.9313,0.9313,0,, ,Correctness:,0.9012,0.9012,0,, ,Correctness:,0.9237,0.9237,0,, 
,Correctness:,0.8950,0.8950,0,, ,Correctness:,0.9175,0.9175,0,, ,Correctness:,0.9187,0.9187,0,, ,Correctness:,0.9125,0.9125,0,, ,Correctness:,0.9150,0.9150,0,, 
,Correctness:,0.9062,0.9062,0,, ,Correctness:,0.9206,0.9206,0,, ,Correctness:,0.9275,0.9275,0,, ,Correctness:,0.9263,0.9263,0,, ,Correctness:,0.9287,0.9287,0,, 
,Correctness:,0.9094,0.9094,0,, ,Correctness:,0.9331,0.9331,0,, ,Correctness:,0.9325,0.9325,0,, ,Correctness:,0.9187,0.9187,0,, ,Correctness:,0.9344,0.9344,0,, 
,Correctness:,0.8988,0.8988,0,, ,Correctness:,0.9087,0.9087,0,, ,Correctness:,0.9056,0.9056,0,, ,Correctness:,0.8981,0.8981,0,, ,Correctness:,0.9044,0.9044,0,, 
,Correctness:,0.9081,0.9081,0,, ,Correctness:,0.9200,0.9200,0,, ,Correctness:,0.9225,0.9225,0,, ,Correctness:,0.9213,0.9213,0,, ,Correctness:,0.9219,0.9219,0,, 
,Correctness:,0.8919,0.8919,0,, ,Correctness:,0.8950,0.8950,0,, ,Correctness:,0.8962,0.8962,0,, ,Correctness:,0.8888,0.8888,0,, ,Correctness:,0.9069,0.9069,0,, 
,Correctness:,0.9075,0.9075,0,, ,Correctness:,0.9175,0.9175,0,, ,Correctness:,0.9250,0.9250,0,, ,Correctness:,0.9137,0.9137,0,, ,Correctness:,0.9237,0.9237,0,, 
,Correctness:,0.8969,0.8969,0,, ,Correctness:,0.9075,0.9075,0,, ,Correctness:,0.9075,0.9075,0,, ,Correctness:,0.9150,0.9150,0,, ,Correctness:,0.9131,0.9131,0,, 
,Correctness:,0.8988,0.8988,0,, ,Correctness:,0.9100,0.9100,0,, ,Correctness:,0.9137,0.9137,0,, ,Correctness:,0.9050,0.9050,0,, ,Correctness:,0.9137,0.9137,0,, 
,Correctness:,0.8956,0.8956,0,, ,Correctness:,0.9094,0.9094,0,, ,Correctness:,0.9181,0.9181,0,, ,Correctness:,0.9200,0.9200,0,, ,Correctness:,0.9206,0.9206,0,, 
,Correctness:,0.9025,0.9025,0,, ,Correctness:,0.9187,0.9187,0,, ,Correctness:,0.9150,0.9150,0,, ,Correctness:,0.9206,0.9206,0,, ,Correctness:,0.9125,0.9125,0,, 
Average:,0.8964,,,,, Average:,0.9066,,,,, Average:,0.9094,,,,, Average:,0.9068,,,,, Average:,0.9119,,,,, 
