	Correctness:	0.8500
	Correctness:	0.9300
	Correctness:	0.8700
	Correctness:	0.7600
	Correctness:	0.9000
	Correctness:	0.9000
	Correctness:	0.7200
	Correctness:	0.8600
	Correctness:	0.9200
	Correctness:	0.9400
	Correctness:	0.9050
	Correctness:	0.9200
	Correctness:	0.8850
	Correctness:	0.9350
	Correctness:	0.9000
	Correctness:	0.8950
	Correctness:	0.8800
	Correctness:	0.8550
	Correctness:	0.9350
	Correctness:	0.9350
	Correctness:	0.8650
	Correctness:	0.9075
	Correctness:	0.9250
	Correctness:	0.9250
	Correctness:	0.8525
	Correctness:	0.9300
	Correctness:	0.8975
	Correctness:	0.8650
	Correctness:	0.9000
	Correctness:	0.9000
	Correctness:	0.8975
	Correctness:	0.8938
	Correctness:	0.8625
	Correctness:	0.8888
	Correctness:	0.9062
	Correctness:	0.8962
	Correctness:	0.8775
	Correctness:	0.8850
	Correctness:	0.9163
	Correctness:	0.9075
	Correctness:	0.9069
	Correctness:	0.9106
	Correctness:	0.8988
	Correctness:	0.8944
	Correctness:	0.9137
	Correctness:	0.8825
	Correctness:	0.8994
	Correctness:	0.9113
	Correctness:	0.9069
	Correctness:	0.8956
Average:	0.8923
	Correctness:	0.1200
	Correctness:	0.0900
	Correctness:	0.1400
	Correctness:	0.1700
	Correctness:	0.0800
	Correctness:	0.1100
	Correctness:	0.2900
	Correctness:	0.1400
	Correctness:	0.0700
	Correctness:	0.0700
	Correctness:	0.0900
	Correctness:	0.0650
	Correctness:	0.1100
	Correctness:	0.0700
	Correctness:	0.0750
	Correctness:	0.0900
	Correctness:	0.1050
	Correctness:	0.1400
	Correctness:	0.0500
	Correctness:	0.0500
	Correctness:	0.1150
	Correctness:	0.0900
	Correctness:	0.0725
	Correctness:	0.0625
	Correctness:	0.1350
	Correctness:	0.0625
	Correctness:	0.0800
	Correctness:	0.1125
	Correctness:	0.0875
	Correctness:	0.1050
	Correctness:	0.0900
	Correctness:	0.1113
	Correctness:	0.1250
	Correctness:	0.0988
	Correctness:	0.0825
	Correctness:	0.0875
	Correctness:	0.1075
	Correctness:	0.0975
	Correctness:	0.0725
	Correctness:	0.0850
	Correctness:	0.0856
	Correctness:	0.0838
	Correctness:	0.0906
	Correctness:	0.0925
	Correctness:	0.0769
	Correctness:	0.1119
	Correctness:	0.0900
	Correctness:	0.0819
	Correctness:	0.0806
	Correctness:	0.1013
Average:	0.0980
	Correctness:	0.1400
	Correctness:	0.0900
	Correctness:	0.1400
	Correctness:	0.2100
	Correctness:	0.0800
	Correctness:	0.1100
	Correctness:	0.2900
	Correctness:	0.1600
	Correctness:	0.0900
	Correctness:	0.0700
	Correctness:	0.1000
	Correctness:	0.0850
	Correctness:	0.1200
	Correctness:	0.0700
	Correctness:	0.0950
	Correctness:	0.1100
	Correctness:	0.1250
	Correctness:	0.1400
	Correctness:	0.0700
	Correctness:	0.0500
	Correctness:	0.1300
	Correctness:	0.0950
	Correctness:	0.0725
	Correctness:	0.0675
	Correctness:	0.1450
	Correctness:	0.0725
	Correctness:	0.1050
	Correctness:	0.1325
	Correctness:	0.1025
	Correctness:	0.1025
	Correctness:	0.1050
	Correctness:	0.1087
	Correctness:	0.1350
	Correctness:	0.1087
	Correctness:	0.0950
	Correctness:	0.1000
	Correctness:	0.1200
	Correctness:	0.1125
	Correctness:	0.0850
	Correctness:	0.0975
	Correctness:	0.0944
	Correctness:	0.0887
	Correctness:	0.1006
	Correctness:	0.1050
	Correctness:	0.0869
	Correctness:	0.1181
	Correctness:	0.1013
	Correctness:	0.0894
	Correctness:	0.0938
	Correctness:	0.1050
Average:	0.1084
	Correctness:	0.8700
	Correctness:	0.9300
	Correctness:	0.8700
	Correctness:	0.8000
	Correctness:	0.9000
	Correctness:	0.9000
	Correctness:	0.7200
	Correctness:	0.8800
	Correctness:	0.9400
	Correctness:	0.9400
	Correctness:	0.9150
	Correctness:	0.9400
	Correctness:	0.8950
	Correctness:	0.9350
	Correctness:	0.9200
	Correctness:	0.9150
	Correctness:	0.9000
	Correctness:	0.8550
	Correctness:	0.9550
	Correctness:	0.9350
	Correctness:	0.8750
	Correctness:	0.9125
	Correctness:	0.9250
	Correctness:	0.9300
	Correctness:	0.8625
	Correctness:	0.9400
	Correctness:	0.9225
	Correctness:	0.8850
	Correctness:	0.9150
	Correctness:	0.8975
	Correctness:	0.9125
	Correctness:	0.8912
	Correctness:	0.8725
	Correctness:	0.8988
	Correctness:	0.9187
	Correctness:	0.9087
	Correctness:	0.8875
	Correctness:	0.9000
	Correctness:	0.9287
	Correctness:	0.9200
	Correctness:	0.9113
	Correctness:	0.9156
	Correctness:	0.9087
	Correctness:	0.9069
	Correctness:	0.9237
	Correctness:	0.8888
	Correctness:	0.9106
	Correctness:	0.9187
	Correctness:	0.9175
	Correctness:	0.8994
Average:	0.9024
	Correctness:	0.8700
	Correctness:	0.9300
	Correctness:	0.8700
	Correctness:	0.7700
	Correctness:	0.9000
	Correctness:	0.9000
	Correctness:	0.7200
	Correctness:	0.8800
	Correctness:	0.9400
	Correctness:	0.9400
	Correctness:	0.9150
	Correctness:	0.9400
	Correctness:	0.8950
	Correctness:	0.9350
	Correctness:	0.9200
	Correctness:	0.9150
	Correctness:	0.9000
	Correctness:	0.8550
	Correctness:	0.9550
	Correctness:	0.9400
	Correctness:	0.8750
	Correctness:	0.9125
	Correctness:	0.9250
	Correctness:	0.9300
	Correctness:	0.8625
	Correctness:	0.9400
	Correctness:	0.9200
	Correctness:	0.8850
	Correctness:	0.9150
	Correctness:	0.9150
	Correctness:	0.9125
	Correctness:	0.8912
	Correctness:	0.8725
	Correctness:	0.8988
	Correctness:	0.9187
	Correctness:	0.9087
	Correctness:	0.8875
	Correctness:	0.9000
	Correctness:	0.9275
	Correctness:	0.9200
	Correctness:	0.9137
	Correctness:	0.9156
	Correctness:	0.9087
	Correctness:	0.9069
	Correctness:	0.9237
	Correctness:	0.8888
	Correctness:	0.9106
	Correctness:	0.9187
	Correctness:	0.9175
	Correctness:	0.8994
Average:	0.9022
	Correctness:	0.1200
	Correctness:	0.0900
	Correctness:	0.1400
	Correctness:	0.1700
	Correctness:	0.0800
	Correctness:	0.1100
	Correctness:	0.2900
	Correctness:	0.1400
	Correctness:	0.0700
	Correctness:	0.0700
	Correctness:	0.0900
	Correctness:	0.0650
	Correctness:	0.1100
	Correctness:	0.0700
	Correctness:	0.0750
	Correctness:	0.0900
	Correctness:	0.1050
	Correctness:	0.1400
	Correctness:	0.0500
	Correctness:	0.0500
	Correctness:	0.1150
	Correctness:	0.0900
	Correctness:	0.0725
	Correctness:	0.0625
	Correctness:	0.1350
	Correctness:	0.0625
	Correctness:	0.0800
	Correctness:	0.1125
	Correctness:	0.0875
	Correctness:	0.0875
	Correctness:	0.0900
	Correctness:	0.1113
	Correctness:	0.1250
	Correctness:	0.0988
	Correctness:	0.0825
	Correctness:	0.0875
	Correctness:	0.1075
	Correctness:	0.0975
	Correctness:	0.0725
	Correctness:	0.0850
	Correctness:	0.0856
	Correctness:	0.0838
	Correctness:	0.0906
	Correctness:	0.0925
	Correctness:	0.0769
	Correctness:	0.1119
	Correctness:	0.0900
	Correctness:	0.0819
	Correctness:	0.0806
	Correctness:	0.1013
Average:	0.0977
	Correctness:	0.8500
	Correctness:	0.9300
	Correctness:	0.8700
	Correctness:	0.7600
	Correctness:	0.9000
	Correctness:	0.9000
	Correctness:	0.7200
	Correctness:	0.8600
	Correctness:	0.9200
	Correctness:	0.9400
	Correctness:	0.9050
	Correctness:	0.9200
	Correctness:	0.8850
	Correctness:	0.9350
	Correctness:	0.9000
	Correctness:	0.8950
	Correctness:	0.8800
	Correctness:	0.8550
	Correctness:	0.9350
	Correctness:	0.9350
	Correctness:	0.8650
	Correctness:	0.9075
	Correctness:	0.9250
	Correctness:	0.9250
	Correctness:	0.8525
	Correctness:	0.9300
	Correctness:	0.8975
	Correctness:	0.8650
	Correctness:	0.9000
	Correctness:	0.9000
	Correctness:	0.8975
	Correctness:	0.8938
	Correctness:	0.8625
	Correctness:	0.8888
	Correctness:	0.9062
	Correctness:	0.8962
	Correctness:	0.8775
	Correctness:	0.8850
	Correctness:	0.9163
	Correctness:	0.9075
	Correctness:	0.9069
	Correctness:	0.9106
	Correctness:	0.8988
	Correctness:	0.8944
	Correctness:	0.9137
	Correctness:	0.8825
	Correctness:	0.8994
	Correctness:	0.9113
	Correctness:	0.9069
	Correctness:	0.8956
Average:	0.8923
