56456215522366663133362441245545615266665662456421
FFFFFFFFFFFFLLLLFFFFFFFFFFFFFFFFFFFFFLLLLFFFFFFFFF
65352541456666616655662216515525621253242465441315
LFFFFFFFFFFLLLLLLLFFFFFFFFFFFFFFFFFFFFFFFFFFFFFFFF
25262236666666352362626113123161666666664622115234
FFFFFFFFLLLLLLFFFFFFLLLFFFFFFFFFLLLLLLLLFFFFFFFFFF
54255534624366512613346136221535665636523165652266
FFFFFFFFFFFFFFFFFFFFFFFFFFFFFFFFFFFFFFFFFFFFFFFFFF
11624351243214435531256646342411161255441366635252
FFFFFFFFFFFFFFFFFFFFFFFFFFFFFFFFFFFFFFFFFFLLLLLLLL
31535132411152421255451665666623456364616662546333
FFFFFFFFFFFFFFFFFFFFFFFLLLLLLLLFFFLLLLLLLLFFFFFFFF
35623433446355423466663255553166521166466666666416
FFFFFFFFFFFFFFFFFFFFFFFFFFFFFFFFFFFFLLFLLLLLLLLLFF
15665662531316224255631612341524126112236654165343
FFFLLLLFFFFFFFFFFFFFFFFFFFFFFFFFFFFFFFFLLLFFFFFFFF
35135563266665666666231565156623234264116346366666
FFFFFFLFFFFLLLLLLLLLFFFFFFFFFFFFFFFFFFFFFFFLLLLLLF
26226636465112162112163653144154613224515562151233
FFFFFFFFFFFFFFFFFFFFFFFFFFFFFFFFFFFFFFFFFFFFFFFFFF
15322364216656652464544625666541354622113352564432
FFFFFFFFFFLLLLLFFFFFFFFFFFFLLFFFFFFFFFFFFFFFFFFFFF
64412113666626355651266166666666666666666344653633
FFFFFFFFFLLLLLFFFFFFFLLLLLLLLLLLLLLLLLLLLLLFFFFFFF
41526465633336266666666666666466642444654132163253
FFFFFFLFFFFFFFLLLLLLLLLLLLLLLLLLLFFFFFFFFFFFFFFFFF
64626233416566666561366662466664136511666613265245
FFFFFFFFFFFFLLLLLLLLLLLLLLLLLLFFFFFFFFLLLLFFFFFFFL
51126656222165133512366611641666626466166666354636
FFFFFFFFFFFFFFFFFFFFFFFFFFFFFLLLLLLLLLLLLLLLLFFFFF
53666613166151425652444523264326624641666666662124
FFFLLLFFFFFFFFFFFFFFFFFFFFFFFFFFFFFLLFLLLLLLLLFFFF
64121444325666355263243555566664666666666666646664
FFFFFFFFFFFFLLFFFFFFFFFFFFFLLLLLLLLLLLLLLLLLLLLLLL
16635434462335114612134454312541366466644452456113
FFFFFFFFFFFFFFFFFFFFFFFFFFFFFFFFFFFFLLLFFFFFFFFFFF
66636566666662624215654661522346445623354562636356
LLLLLLLLLLLLLLFFFFFFFFFFFFFFFFFFFFFFFFFFFFFFLFLLLL
63152436666466666561466324666666666666666666261644
FFFFFFFLLLLLLLLLLFFFFFFFFFFFLLLLLLLLLLLLLLLLFFFFFF
