61325666462544132234166652315263326665646166656411113212621541151541416536266415354613312311122516666656662646666666656646435211333612532313541354463335646633415361666666616622444616662566665666461662
FFFFFFFFFFFFFFFFFFFFFLLLFFFFFFFFFLLLLLLLLLLLLLLFFFFFFFFFFFFFFFFFFFFFFFFFFFFLLFFFFFFFFFFFFFFFFFFFFFFFLLLLLLFFFLLLLLLLLLLLFFFFFFFFFFFFFFFFFFFFFFFFFFFFFFFFFFFFFFFFFFFFLLLLLLLFFFFFFFFFFLLLLLLLLLLLLLLLLLLL
53661426663365166411116666666342564154144666616126666666664466166663666662666622266666532443511326323156564222666365666366666636662662366645563332152422666666666666365666666666466653165565663616666666
FFFFFFFLLLFFFFFLLLFFFLLLLLLLLFFFFFFFFFFFFFLLLLLLLLLLLLLLLLLLLLFLLLLLLLLLLLLLLLLFFLLLLLFFFFFFFFFFFFFFFFFFFFFFFLLLLLLLLLFFFLLLLLLLLLLLLLLLFFFFFFFFFFFFFFFFLLLLLLLLLLLLLLLLLLLLLLLLLLLLFFFFFFFFLLLLLLLLLLLL
65521342463412445446123414316511344436666525436666666626651625654663463331524336652166646666556622225252421265144243431242232161541323166131561452654145351664663666666666666461666664665666626666666616
FFFFFFFFFFFFFFFFFFFFFFFFFFFFFFFFFFFFFLLLLLLFFFLLLLLLLLLLLFFFFFFFFFFFFFFFFFFFFFFFFFFFFLLLLLLLLFFFFFFFFFFFFFFFFFFFFFFFFFFFFFFFFFFFFFFFFFFFFFFFFLFFFFFFFFFFFFFLLLLLLLLLLLLLLLLLLLLLLLLLLFLLLLLLLLLLLLLLLLFF
64661311655662422512656416132524224425314511643543642436513132652666536661346116354621363612222536123632563243154244513632351244155511516324431223624115636246551524315266666666565664464666666666666666
FFFFFFFFFFFFFFFFFFFFFFFFFFFFFFFFFFFFFFFFFFFFFFFFFFFFFFFFFFFFFFLLLLLLLLLLLFFFFFFFFFFFFFFFFFFFFFFFFFFFFFFFFFFFFFFFFFFFFFFFFFFFFFFFFFFFFFFFFFFFFFFFFFFFFFFFFFFFFFFFFFFFFFFFLLLLLLLLFFFFLLLLLLLLLLLLLLLLLLLL
66231415161666666666666666342512435366666666422324426226353513363231435465563442622166634666662662631434244646516566666362153432434334663643666636666666641224466666654664255535564666263542521525411316
FFFFFFFFFFLLLLLLLLLLLLLLLLFFFFFFFFFFLLLLLLLLFFFFFFFFFFFFFFFFFFFFFFFFFFFFFFFFFFFFFFFLLLLLLLLLLLLLLLLLLFFFFFFFFLLLLLLLLLLLLFFFFFFFFFFFFFLLLLLLLLLLLLLLLLLLFFFFFFFLLLLLFFFFFFFFFFFFFFFFFFFFFFFFFFFFFFFFFFFF
