2225532366141666366666666
FFFFFFFFLLLLLLLLLLLLLLLLL
1266666646666522654563334
FFLLLLLLLLLLLFFFFFFFFFFFF
1665431554534665122562526
FFFFFFFFFFFFFFFFFFFFFFFFL
6566662626426666663226666
LLLLLLLLLLFFLLLLLFFFFLLLL
4235455313422651225666666
FFFFFFFFFFFFFFFFFFFLLLLLL
5345155316516166646314126
FFFFFFFFFFFFFFLLLFFFFFFFF
1146432661662626612616361
FFFFFFFLLLLLLLLLLLLLLLLLF
2213666665632522453123455
FFFFLLLLLLLFFFFFFFFFFFFFF
6641663236544361114236616
LLFFLLFLFFFFFFFFFFFFFFFFF
5151253436425426413351541
FFFFFFFFFFFFFFFFFFFFFFFFF
6366352666666666666666666
LLLFFFLLLLLLLLLLLLLLLLLLL
2364236666645664114645416
FFFFLLLLLLLLLLFFFFFFFFFFF
3543614453651523533431561
FFFFLFFFFFFFFFFFFFFFFFFFF
3445221243365266254566532
FFFFFFFFFFFFFFFFFFFFFFFFF
5642354112446661116666326
FFFFFFFFFFFFFFFFFFFFFFFFF
1113146452666663333555552
FFFFFFFFFFLLLLLFFFLLFFFFF
3346614416144346632534242
FFFFFFFFFFFFFFFFFFFFFFFFF
6635432564315563561253314
LLFFFFFFFFFFFFFFFFFFFFFFF
6666666666666664662345353
LLLLLLLLLLLLLLLLLLFFFFFFF
5151131366124322341336626
FFFFFFFFFFFFFFFFFFFFFFFFF
1666666666616666615656661
LLLLLLLLLLLLLLLLFFFLFLLLL
6661454143513454322312433
LLLFFFFFFFFFFFFFFFFFFFFFF
2516666666264165566666666
FFFLLLLLLLLLLFFFLLLLLLLLL
2436425166224556666666666
FFFFFFFFFFFFFFLLLLLLLLLLL
3234134555433363356663666
FFFFFFFFFFFFFFFFFLLLLLLLL
3466424531114146664654426
FLLLFFFFFFFFFFFFFFFFFFFFF
2366666661666666666456466
FLLLLLLLLLLLLLLLLLLFLLLLL
6666666531533455325111265
LLLLLLLFFFFFFFFFFFFFFFFLF
6615646663251111545261553
LLLLLLLLFFFFFFFFFFFFFFFFF
4126363663221324263522156
FFFFFFFFLFFFFFFFFFFFFFFFF
5666565336325123214635413
LLLLLLFFFFFFFFFFFFFLFFFFF
1162465216534213625566654
FFFFFFFFFFFFFFFFFFFFLLFFF
5656662426653251123322312
FFFLLLFFFFFFFFFFFFFFFFFFF
6666164466666666664626651
LLLLLLLLLLLLLLLLLLLLLLLFF
6253626565265666664156261
FLLLLLLLLFFFFFLLLLFFFFFFF
1666622666666625333154136
FLLLLLLLLLLLLLFFFFFFFFFFF
6666663666666662656616666
LLLLLLLLLLLLLLLLLLLLLLLFF
6164443562544523116222246
FFFFFFFFFFFFFFFFFFFFFFFLL
1546244664654452653421446
FFFFFFFFFFFFFFFFFFFFFFFFL
1615661412343666165666425
FFFFFFFFFFFFFLLLLLLLLLFFF
6663666666636163362452225
LLLLLLLLLLLLLFFFFFFFFFFFF
6656666666666133666664266
LLFLLLLLLLLLLFFFLLLLLFFFF
4336364252451363221634323
FFFFFFFFFFFFFFFFFFFFFFFFF
4411336662666666666663643
FFFFFFFLLLLLLLLLLLLLLLLLL
6636655255666266243555416
LLFFFFFFFFLLLLLLFFFFFFFFL
6441253524511143656633364
FFFFFFFFFFFFFFLLLFFFFFFFF
3666366466664666664261665
FFLLLLLLLLLLLLLLLLLLLLLLL
4336433665166566666364222
FFFFFFFFFFFLLLLLLLLLLFFFL
1666666666666663615513464
LLLLLLLLLLLLLLFFFFFFFFFFF
4364126244612213622433164
FFFFFFFFFFFFFFFFFFFFFFFFF
5566512155642341556246423
FFFFFFFFFFFFFFFFFFFFFFFFF
6666232545355546666666636
LLLLFFFFFFFFFFFLLLLLLLLLL
1666664666662666661666666
LLLLLLLLLLLLLLLLLLLLLLLLL
4454416651346564366646666
FFFFFFFFFFFFLFFFFLLLLLLLL
4365465364351263332125165
FFFFFFFFLFFFFFFFFFFFFFFFF
4556646666562566614241445
FFFLLLLLLLLLFFLLLFFFFFFFF
4126126453234365246231463
FFFFFFFFFFFFFFFFFFFFFFFFF
6616666666626666626666666
LLLLLLLLLLLLLLLLLLLLLLLLL
2346245136354144544314645
FLLFFFFFFFFFFFFFFFFFFFFFF
6666666666666666135331564
LLLLLLLLLLLLLLLLFFFFFFFFF
2541522332652361456514231
FFFFFFFFFFLFFFFFFFFFFFFFF
6664661666642456666664666
LLLLLLLLLLLLLFFFFLLLLLLLL
5666521615365452611513463
FFFFFFFFFFFFFFFFFFFFFFFFF
6666646666663646664522124
LLLLLLLLLLLLLLLLLLFFFFFFF
6216466613342412564233532
LLLLLLLLFFFFFFFFFFFFFFFFF
2323665245215624233324462
FFFFFFFFFFFFFFFFFFFFFFFFF
6666616666666666665664652
LLLLLLLLLLLLLLLLLLLLLFFFF
4233655465344324165114526
FFFFFFFFFFFFFFFFFFFFFFFFF
1555421513126233233622356
FFFFFFFFFFFFFFFFFFFFFFFFF
1514664241656222635166666
FFFFFFFFFFFFFFFFLLLLLLLLL
1663264666643562225232145
FFFFFFFLLLLLLFLFFFFFFFFFF
4226116662465666616666566
FFFFFFLLLLFFFFLLLLLLLLLLL
6662123241165666666662441
LLLFFFFFFFFFFLLLLLLFFFFFF
6366531534534511542611335
FFLLFFFFFFFFFFFFFFFLFFFFF
5666616664336545454666666
LLLLLFLLLFFFFFFFFFFLLLLLL
2143564121152335456533666
FFFFFFFFFFFFFFFFFFFFFFLLL
5126666666615456211551512
FFFLLLLLLLLFFFFFFFFFFFFFF
2646666666616622556263224
FLLLLLLLLLLFFFFFFFFFFFFFF
1362262415456125253661236
FFFFFFFFFFFFFFFFFFFFFFFFF
6666166361466666562666466
LLLLLLLLLLLLLLLLLLLLLLLLL
