3211232515316222245466666
FFFFFFFFFFFFFFFFFFFFFLLLL
4126666666662641512643666
FFFLLLLLLLLLFFFFFFLLLLLLL
6365624136226232355562666
LLLLLLFFFFFFFFFFFFFFLLLLL
5263423252244216615412232
FFFFFFFFFFFFFFFLLFFFFFFFF
5141116632565343533231131
FFFFFFFLLFFFFFFFFFFFFFFFF
3254215146515621325466346
FFFLLLFFFFFFFFFFFFFFFFFFF
3235462166132341116143116
FFFFFFFFFFFFFFFFFFFFFFFFF
1252511135566346126323355
LFFFFFFFFFFFFFFFFFFFFFFFF
4426165556666316656664543
FFFFFFFFFLLLFFFFFLLLLLFFF
1546163526536322166223224
FFFFFFFFFFFFFFFFFFFFFFFFF
4665335211115345645413434
LLLFFFFFFFFFFFFFFFFFFFFFF
6566543263124666312324612
LFFFFFFFFFFFFLLFFFFFFFFFF
4624231253144415533356616
FFFFFFFFFFFFFFFFFFFFFLLLL
5234426656524441366661666
FFFFFFFFFFFFFFFFFLLLLLLLL
6366665666666616666661466
LLLLLLLLLLLLLLLLLLLLLLFFF
6561666566666311162652632
LLLLLLLLLLLLLLLLLLFFFFFFF
2423311312226623313353134
FFFFFFFFFFFFFFFFFFFFFFFFF
2666663336666432515363666
LLLLLLLLLLLLLLFFFFFFFFFFF
2346346666666524661242545
FFFFFFLLLLLLFFFFFFFFFFFFF
5413462421533665666311555
FFFFFFFFFFFFFLLLLLFFFFFFF
4346156333263635144436454
FFFFFFFFFFFFFFFFFFFFFFFFF
6263163113665636626166666
LFFFFFFFFFFFFLLLLLLLLLLLL
6666255562614263646441431
LLLLFFFFFFFFFFFFFFFFFFFFF
6666615342545662132414244
LLLLLFFFFFFFFFFFFFFFFFFFF
6641166342561355133312331
LLFFFFFFFFFFFFFFFFFFFFFFF
5542122151166654424515132
FFFFFFFFFFFLLLFFFFFFFFFFF
4641633666661666666642661
FFFFFFFLLLLLLLLLLLLLLLLLL
6356366366123353635561412
FFFLFFFFFFFFFFFFFFFFLFFFF
5666512322155545266666626
FLLLFFFFFFFFFFFFFFLLLLLLL
2416652526632535131452345
FFFFFFFFFFFFFFFFFFFFFFFFF
6666656666616666666642156
LLLLLLLLLLLLLLLLLLLLFFFFF
5165223335214236666666355
FFFFFFFFFFFFFFFLLLLLLLFFF
6341643666666666651443432
LFFFLLLLLLLLLLLLLLLFFFFFF
6666656345353466642355323
LLLLLLLFFFFFFFLLLFFFFFFFF
1541261642166646413621315
FFFFFFFFFFFLLLFFFFFFFFFFF
6232516666632112566332226
LFFFFFLLLFFFFFFFFFFFFFFFF
4466666155655314626561112
LLLLLLLFFFFFFFFFFFFFFFFFF
4166665656316556524552216
FFLLFFFFFFFFFFFFFFFFFFFFF
6512332666666666165616666
FFFFFFLLLLLLLLLLLLLLLLLLL
6543535423656666666656666
FFFFFFFFFFLLLLLLLLLLLLLLL
2332612532111346665115441
FFFFFFFFFFFFFFFLLLLFFFFFF
2325656321626142564312224
FFFFFLLFFFFFFFFFFFFFFFFFF
4213441326522224426162365
LFFFFFFFFFFFFFFFFFFFFFFFF
1616142644416624336613312
FFFFFFFFFFFFFFFFFFFFFFFFF
3553143453645324363466665
FFFFFFFFFFFFFFFFFFFFFLLLL
3666512162532226626334323
FFFFFFFFFFFFFFFFFFFFFFFFF
2245616146255562166241666
FFFFFFFFFFFFFFFFFFFFFFLLL
6625654134665111622646144
LLFFFFFFFFFFFFFFFFFFFFFFF
5646612463112363262225563
FFFFFFFFFFFFFFFFFFFFFFFFF
2452255354566266655566662
FFFFFFFFFFFLLLLFFFFFLLLLL
3666666666666265664156111
LLLLLLLLLLLLLLLFFFFFFFFFF
6615462365656566666624662
FFFFFLFFFFFFLLLLLLLLFFFFF
6166633546335166616666664
LLLLLLFFFFFFFFLLLLLLLLLLL
3666456666645651433533144
LLLLLLLLLLLFFFFFFFFFFFFFF
5666366666664266232365234
LLLLLLLLLLLLLFFFFFFFFFFFF
2151452666666366636662322
FFFFFFFFFLLLLLLLLLLLLFFFF
2166266335634216633451435
FLLLLLLFFFFFFFFFFFFFFFFFF
3311113133215513142141315
FFFFFFFFFFFFFFFFFFFFFFFFF
3666646636166466646226142
FLLLLLLLLLLLLLLLLLLFFFFFF
6666616666261242525312224
LLLLLLLLLLLLFFFFFFFFFFFFF
4441325115143431326123424
FFFFFFFFFFFFFFFFFFLFFFFFF
6562662131255524315225665
LLLLLLFFFFFFFFFFFFFFFFFFF
2114525655335666326656435
FFFFFFFFFFFFFLLLLLLLLLFFF
1335351564424315142516656
FFFFFFFFFFFFFFFFFFFFFFLLL
5635666666664413255566644
FFFFLLLLLLLLLFFFFFFFLLLFL
5166666414332266666666666
FFLLLLLFFFFFFFLLLLLLLLLLL
4622151161441122232122312
FFFFFFFFFFFFFFFFFFFFFFFFF
4343625555512325621151662
FFFFFFFFFFFFFFFFFFFFFFLLL
3554161625636416646511562
FFFFFFFFFFFFFFFFFFFFFFFLF
6666666616666466666666616
LLLLLLLLLLLLLLLLLLLLLLLLL
3641656666634236666666366
FFFFFFFFLLLFFFFLLLLLLLLLL
6254534342431156636636266
LFFFFFFFFFFFFFFLLLLLLLLLL
4542112156646664542246662
FFFFFFFFFFFFLLLFFFFFLLLLL
6626262164334252312251154
LLLLLLFFFFFFFFFFFFFFFFFFF
3435345511334355253256624
FFFFFFFFFFFFFFFFFFFFFFFFF
2666666626635562346324626
LLLLLLLLLLLFFFFFFFFFFFFFF
6631434543351552366261256
FFFFFFFFFFFFFFFFFFFFLFFFF
5622644421254663255261353
FFFFFFFFFFFFFFFFFFFFFFFFF
1635463526436344365241526
FFFFFFFFFFFFFFFFFFFFFFFFF
4166632355224151441411264
FFLLLFFFFFFFFFFFFFFFFFFFF
2565666666243645354661213
LLLLLLLLLLLFFFFFFFFFFFFFF
6666266163312142664331523
LLLLLLLLLFFFFFFFFFFFFFFFF
6251426521334634666124656
FFFFFFFFFFFLLLLLLLLLFFFFF
6666666666645235136653166
LLLLLLLLLLLFFFFFFFLLFFFFL
5461666116411331626666666
FFFFFFFFFFFFFFFFFFLLLLLLL
3111366666666666366666622
FFFFFFLLLLLLLLLLLLLLLLFFF
1454125231432661666666666
FFFFFFFFFFFFFLLLLLLLLLLLL
6666636663114425434364552
LLLLLLLFFFFFFFFFFFFFFFFFF
5662515534666666666533136
FFFFFFFFFFLLLLLLLLFFFFFFF
2415246461263366446662455
FFFFFFFFLLLLFFLLLLLLLFFFF
4226656235223666666636666
FFFFFFFFFFFFFLLLLLLLLLLLL
1435466565335316666662666
FFFFFFFFFFFFFFFLLLLLLLLLL
3225356426366666666131656
FFFFFFFFFLLLLLLLLLLFFFLLL
5221221641153556645562366
FFFFFFFFFFFFFFFLLFFFFFFFF
6353366665665566522453346
FFFFFFFFFFFFFFFFFFFFFFFFF
2166666666214311536565513
FFLLLLLFFFFFFFFFFFFFFFFFF
1662265552365623125225462
LLLFFFFFFFFFFFFFFFFFFFFFF
5515535115325143334263635
FFFFFFFFFFFFFFFFFFFFFFFFF
3335542622625561144646336
FFFFFFFFFFFFFFFFFFFFFFFFF
3653145163345456466636116
FFFFFFFFFFFFFFFFFFFFFFFFF
6363565433234531134655351
FFFFFFFFFFFLFFFFFFFFFFFFF
1666616666666266666666666
LLLLLLLLLLLLLLLLLLLLLLLLL
5361442452666666666666662
FFFFFFFFFFLLLLLLLLLLLLLLF
6521364126251466366666466
FFFFFFFFFFFFFFLLLLLLLLLLL
6643643243231413436112361
LLFFFFFFFFFFFFFFFFFFFFFFF
5666666665366666163666652
FLLLLLLLLLLLFLLLLFFFFFFFF
1462641466415433656114152
FFFFFFFFFFFFFFFFFFFFFFFFF
1321412346245511655224566
FFFFFFFFFFFFFFFFFFFFFFFFF
6544641165254515664531426
FFFFFFFFFFFFFFFFFFFLLLLLL
5455136144151245633422252
FFFFFFFFFFFFFFFFFFFFFFFFF
1113251661131566666666666
FFFFFFFFFFFFFFFLLLLLLLLLL
6466666346612636666242213
FFLLLLLLLLLLLLLLLLLFFFFFF
6634434446666666653566666
FFFFFFFFFLLLLLLLLFFFLLLLL
4324656464341666364612352
FFFFFFFFFFFFFFLLLFFFFFFFF
1415645634664513556344142
FFFFFFFFFFFFFFFFFFFFFFFFF
4251435556533212666666566
FFFFFFFFFFFFFFFFLLLLLLLLL
5212526625352156336515136
FFFFFFFFFFFFFFFFFFFFFFFFF
6153621412255254364513234
FFFFLFFFFFFFFFFFFFFFFFFFF
4612411133656626666663666
FFFFFFFFFFLLLLLLLLLLLLLLL
6666641443456646656663126
LLLLLLFFFFFFFLLLLLLLLFFFF
4166321266622666566663666
FFFFFFFFLLLLLLLLLLLLLLLLL
6666442161561616615666661
FFLFFFFFFFFFFLLLFFFLLLLLL
4351351133463331226536562
FFFFFFFFFFFFFFFFFFFFFFFFF
3216444531626131615666666
FFFFFFFFFFFFFFFFFFFFLLLLL
2666626666366656665646666
LLLLLLLLLLLLLLLLLLLLLLLLL
4214153642565644565632336
FFFFFFFFFFFFFFFFFFFFFFFFF
5365116666664626435616666
FFFFFFLLLLLLLLLLLFFLLLLLL
3666616666666446666666466
LLLLLLLLLLLLLLLLLLLLLLLLL
6616616463146654553666143
LLLLLFFFFFFFFFFFFFFLLLFFF
4262546243332442256646646
FFFFFFFFFFFFFFFFFLLLLLLLL
2366463666664126666666166
LFFFFLLLLLLLFFFLLLLLLLLLL
3241611423432666626164525
FFFFFFFFFFFLLLLLLLLLLFFFF
4556662666666461516626666
FFFLLLLLLLLLLLLFFFLLLLLLL
5113523422142531266666145
FFFFFFFFFFFFFFFFFLLLLLFFF
5525154345125243656525554
FFFFFFFFFFFFFFFFFFFFFFFFF
4315546145256464665652153
FFFFFFLFFFFFFFFFFFFFFFFFF
2222536442361163553514524
FFFFFFFFFFFFFFFFFFFFFFFFF
6544221166652666166124636
FFFFFFFFFFFFFLLLLLLLFFFFF
6562311362356666666666526
LLLLFFFFFFFFLLLLLLLLLLLLL
6622666666264663316612136
LLLLLLLLFFFFFLFFFFFFFFFFL
6534522155345156266566666
FFFFFFFFFFFFFFFFLLLLLLLLL
5624453453314314322345222
FFFFFFFFFFFFFFFFFFFFFFFFF
3125361124226454312266661
FFFFFFFFFFFFFFFFFFFFFLLLL
4226315115444623343534566
FFFFFFFFFFFFFFFFFFFFFFFLL
2632646653615513331464233
FFFFFFFFFFFFFFFFFFFFFFFFF
6445256441666666616626246
FFFFFFFFFLLLLLLLLLLLLLLLL
6666615666664663666665666
LLLLLLLLLLLLLLLLLLLLLLLLL
3666666415322333246656545
FLLLLLLFFFFFFFFFFFFFFFFFF
6666666666446356666662666
LLLLLLLLLLLLLLLLLLLLLLLLL
6666666662566666666645664
LLLLLLLLLLLLLLLLLLLLLFFFF
4125644551334213133111243
FFFFFFFFFFFFFFFFFFFFFFFFF
3633134324235453326656655
FFFFFFFFFFFFFFFFFFFLLLLFF
3114165551521523226432431
FFFFFFFFFFFFFFFFFFFFFFFFF
2614636354353413252421353
FFFFFFFFFFFFFFFFFFFFFFFFF
3566663666662656612534146
FLLLLLLLLLLLLLLLLFFFFFFFF
6641514431666656143432556
FFFFFFFFFFFFFLLLFFFFFFFFF
3463235156263561531136561
FFFFFFFFLFFFFFFFFFFFFFFLL
2426651646634321365111136
FFFFFFFFFFFFFFFFFFFFFFFFF
1664253623116266212666666
FFFFFFFFFFFFFFFFFFFLLLLLL
3444246665645665666664566
FFFFFFFLLLFFFFFFLLLLLLLLL
3665665261246362256651361
LLLLLLFFFFFFFFFFFFFFFFFFF
4253521433543266426166313
FFLFFFFFFFFFFFFFFLLLLLFFF
2616366146166664653131613
LLLLLLLLLLLLLLLLFFFFFFFFF
6161443266211644344413652
FFFFFFFFFFFFFFFFFFFFFFFFF
6666666566366353211261463
LLLLLLLLLLFLLFFFFFFFFFFFF
1663663232235322336441412
FFFFFFFFFFFFFFFFFFFFFFFFF
3363156664656663666666666
FFFFFFLLLLLLLLLLLLLLLLLLL
6666666666266366666665526
LLLLLLLLLLLLLLLLLLLLFFFFF
2245636653234354264165523
FFFFFFFFFFFFFFFFFFFFFFFFF
4344612162111463611114666
FFFFFFFFFFFFFFFFFFFFFLLLL
6553316131526111116332615
FFFFFFFFFFFFFFFFFFFFFFFFF
1261424431546616666626413
FFFFFFFFFFFFFFFLLLLLFFFFF
6666216666666664666536634
LLLLLLLLLLLLLLLLLLLFFFFFF
5162666666666646666666666
FFLLLLLLLLLLLLLLLLLLLLLLL
4116366366665626666656665
FFLLLLLLLLLFFFFLLLLLLLLLF
3416566666345611634362554
FFFFFLLLLLFFFFFFFFFFFFFFF
3114254532316315431554446
FFFFFFFFFFFFFFFFFFFFFFFFF
2662466666656653234625534
LLFFFLLLLLLLLLFFFFFFFFFFF
5334263115152423246113626
FFFFFFFFFFFFFFFFFFFFFFFFF
6666462435533126113533144
LLLLLLFFFFFFFFFFFFFFFFFFF
4662323323534635164666666
FLLFFFFFFFFFFFFFLLLLLLLLL
3346153663624633242266656
FFFFFFFFFFFFFFFFFFFFLLLLL
6656666432646214666642666
LLLLLLLLLLFFFFFFFLLLLLLLL
2543411626462326566351113
FFFFFLFFFFFFFFFLLLLFFFFFF
1664352535532241153116342
FFFFFFFFFFFFFFFFFFFFFFFFF
6142661663664163163342225
FFFFLLFLLLLLFFLFFFFFFFFFF
5661255554252665662462312
FFFFFFFFFFFFFFLLLLFFFFFFF
6262443666666566115626661
LLLLLLLLLLLLLLLLFFFFFFFFF
1222156515123235362166666
FFFFFLFFFFFFFFFFFFFFLLLLL
3516665615561634515551366
FFFLLLLLFFFFFFFFFFFFFFFLL
6613114664661551525323513
LLFFFFFFFFLLFFFFFFFFFFFFF
4566664114614165336316363
FFLLLLLLFFFFFFFFFFFFFFFFF
4664666626666616663553516
FLLLLLLLLLLLLLLLLLLFFFFFF
6656566356642134316642463
LLLLLLLLLLLFFFFFFFFFFFFFF
5154644666666666616626666
FFFFFFFLLLLLLLLLLLLLLLLLL
3441551265126312215252115
FFFFFFFFFFFFFFFFFFFFFFFFF
1324153246446125435244523
FFFFFFFFFFFFFFFFFFFFFFFFF
6245315212366245623145266
FFFFFFFFFFFFFFFFFFFFFFLLL
5411513644554626332641254
FFFFFFFFFFFFFFFFFFFFFFFFL
1161241554543332142442646
FFFFFFFFFFFFFFFFFFFFFFLLL
