4553434354156244631456623
FFFFFFFFFFFFFFFFFFFFFLLLL
6646246632651426266666666
LLLLLLLLLFFFLLLLLLLLLLLLL
6466665146333121221333335
LLLLLLFFFFFFFFFFFFFFFFFFF
6665632666664666661363164
LLLLLLLLLLLLLLLLLLLFFFFFF
6661453456514634144521562
LLLFFFFFFFFFFFFFFFFFFFFFF
6622524132425666666135413
FFFFFFFFFFFFFLLLLLFFFFFFF
6465121431255341145216666
FFFFFFFFFFFFFFFFFFFFFLLLL
2124636216666662246546366
FFFFFFFFFLLLLLLLFFFFFLLLL
6666666113665666466351266
LLLLLLLLLLLLLLLLLLFFFFFFF
4225251256664153651565241
FFFFFFFFLLLLLLFFLFFFFFFFF
5463256166665666666645626
FFFFFFLLLLLLLLLLLLLLLLLLL
3234461133254216152465212
FFFFFFFFFFFFFFFFFFFFFFFFF
6356366546663261145366663
FFFFFFFFFLLLLLLFFFFFFFLLL
4366466566664264643363666
FFFLLLLLLLLLLLLLLFFFFFLLL
1532262435166366666666466
FFFFFFFFFFLLLLLLLLLLLLLLL
6616366666666636666666666
LLLLLLLLLLLLFFFFLLLLLLLLL
6666666664666366621311516
LLLLLLLLLLLLLLLLLFFFFFFFF
4646634435152534166656666
FFFLLFFFFFFFFFFFFFLLLLLLL
2316161666642312556626636
FFFFFFFLLLLFFFFFFFFFFFFFF
4666666666666666666311545
LLLLLLLLLLLLLLLLLLLFFFFFF
6343161133355666616666662
LFFFFFFFFFFFFLLLLLLLLLLLL
4552666252135645363454234
FFFLLLLFFFFFFFFFFFFFFFFFF
2335223434513245253116513
FFFFFFFFFFFFFFFFFFFFFFFFF
2215665566631635156313355
FFFFFFFLLLLFFFFFFFFFFFFFF
5153521466543366634531346
FFFFFFFFFFFFFFFLFFFFFFFFL
1124244566236556656526261
FFFFFFFFFFFFFFLLLLLFFFFFF
4666541136366323332436554
LLLLFFFFFFFLFFFFFFFFFFFFF
6466534542442444133311431
FFFFFFFFFFFFFFFFFFFFFFFFF
4432661516346234633655132
FFFFFFFFFFFFFFFFFFFFFFFFF
3116666664561565436314136
FFLLLLLLLLLLLLLLLFFFFFFFL
2616666626661266661366132
FFFLLLLLLLLLLLLLLLLLLLFFF
4523316666654331666323236
FFFFFFLLLLLFFFFFFFFFLLLLL
2456235323253334116462612
FFFFFFFFFFFFFFFFFFFFFFFFF
2451444264543566666666666
FFFFFFFFFFFFFFLLLLLLLLLLL
6661642644521241363355335
LLLLLFFFFFFFFFFFFFFFFFFFF
2132446311666663166661616
FFFFFFFFFLLLLLLLLLLLLLLLL
4654616511613453136663646
FFFFFFFFFFFFFFFFFFFLLLLLL
2341624156221561252161162
FFFFFFFFFFFFFFFFFFFFFFFFF
5464553446566616661331656
FFFFFFFFFLLLLLLLLLFFFFFFF
2566414322254146534636666
FFFFFFFFFFFFFFFFFFFLFFLLL
3651616632666666666666632
LLFFFFLLLLLLLLLLLLLLLFFFF
1343166624236661614113133
FFFFFLLLFFFFFFFFFFFFFFFLL
4165366566666532312222265
FFFFFLLLLLLLLFFFFFFFFFFFF
3624666666666366511622515
LLLLLLLLLLLLLLLLLLFFFFFFF
3625432324436616261666666
FFFFFFFFFFFFFFFFFLLLLLLLL
1166666112215634146633116
FFLLLLFFFFFFFFFFFFFFFFFFF
6331621624264515563411436
FFFFFFFFFFFFFFFFFFFFFFFFF
1665226666646466362426446
FFFFFFLLLLLLLLLLLLFFFFFFF
3332121535116666565462663
FFFFFFFFFFFFLLLLLLLLLLLLL
5454444532154446164425166
FFFFFFFFFFFFFFFFFFFFFFFLL
6666166254235566335256444
LLLLLFFFFFFFFFFFFFFFFFFFF
4614422111226331553133651
FFFFFFFFFFFFFFFFFFFFFFFFF
1115653516162463146243143
FFFFFFFFFFFFFFFFFFLFFFFFF
2261356636656663511455113
FFFFFFFFLLLLLLLFFFFFFFFFF
3366664343326411466666666
LLLLLFFFFFFFFFFFFLLLLLLLL
1355454522634312362215244
FFFFFFFFFFFFFFFFFFFFFFFFF
5162322652426613524116662
FLFFFFFFFFFFFFFFFFFFFFLLL
1412535626616666644152645
FFFFFFFLLLLLLLLLFFFFFFFFF
1515112523166115534164426
FFFFFFFFFFFFFFFFFFFFFFFFL
2666631661334565532616122
LLLLLFFFFFFFFFFFFFFFFFFFF
4666666626354412213636661
FLLLLLLFFFFFFFFFFFFLLLLLL
6363524663656213322666615
FFFFFFFFFFFFFFFFFFFLLLLLL
6564214325455651111421621
FFFFFFFFFFFFFLFFFFFFFFFFF
6362144666662664613254545
FFFFFFFLLLLLLLLFFFFFFFFFF
6621244142423321415436211
FFFFFFFFFFFFFFFFFFFFFFFFF
6666631166664643254354212
LLLLLLLLLLLFFFFFFFFFFFFFF
3142515362466666366666666
FFFFFFFFLLLLLLLLLLLLLLLLL
1621311666223414146213132
FFFFFFFFLLLFFFFFFFFFFFFFF
4254516332666646326666666
LLFFFFFFFFFLLLLLLLLLLLLLL
4142261661654322431454565
FFFFFFFFFFFFFFFFFFFFFFFFF
6656664623666464666666665
FLLLLLLLLLLLLLLLLLLLLLLLL
5616336366666652322435361
FFFFFFLFFLLLLLFFFFFFFFFFF
1441134265545621242551151
FFFFFFFFFFFFFFFFFFFFFFFFF
4424263666634641663365655
FFFFFLLLLLLFFLLLLLFFFFFFL
4215116661413621452323263
FFFFFFFFFFFFFFFFFFFFFFFFF
1114116514624442442166666
FFFFFFFFFFFFFFFFFFFFLLLLL
6614352133555266566423654
FFFFFFFFFFFFFFLLLLLFFFFFF
5432122666666136334362662
FFFFFFFLLLLLLFFFFFFFFFFFF
4146363366526555125666513
FFFLLLLLLLFFLFFFFFFFFFFFF
6666666613326566625426546
LLLLLLLFFFFFLLLLLLFFFFFFF
6612552663113554525263562
FFFFFFFFFFFFFFFFFFFFFFFFF
5241356311651646414142223
FFFFFFFFFFFFFFFFFFFFFFFFF
2631515523263311251224422
FFFFFFFFFFFFFFFFFFFFFFFFF
6251631356366232563164535
LFFFFFFFFFFFFFFFFFFFFFFFF
1432152666666666564614135
FFFFFFLLLLLLLLLLLLLFFFFFF
6663223116662666536666616
LLLFFFFFFFLLLLLLLLLLLLLLL
6155655322152324614266656
FFFFFFFFFFFFFFFFFFFFLLLLL
2614156256323643564514664
FFFFFFFFFFFFFFFFFFFFFFFFF
4266111262256114445541245
FFLFFFFFFFFFFLFFFFFFFFFFF
6366666626633351625156261
LLLLLLLFFFFFFFFFFFFFFFFFF
6363666336562325313654366
FFFFFFFFFFFFFFFFFFFFFFFFF
4114612556464352124261565
FFFFFFFFFFFFFFFFFFFFFFFFF
1655423131212466212435646
FFFFFFFFFFFFFFFFFFFFFLLLL
3116666666665662242421346
FFFLLLLLLLLLLLFFFFFFFFFFF
6666341412324642121514553
FFFFFFFFFFFFFFFFFFFFFFFFF
6636314366226656664663252
LLLLFFFFFFFFLLLLLLFFFFFFF
6116612646666154454251461
FFFFFFFFFFLLLFFFFFFFFFFFF
4326143455266666666464225
FFFLFFFFFFLLLLLLLLLFFFFFF
6636166666564435555361633
LLLLLLLLLLFFFFFFFFFFFFFFF
4666636661335516566636662
FLLLLLLLFFFFFFFFFLLLFLLLF
3113546611252621532233432
FFFFFFFFFFFFFLFFFFFFFFFFF
6666366666666366666666666
LLLLLLLLLLLLLLLLLLLLLLLLL
6612214122344252414531356
LLFFFFFFFFFFFFFFFFFFFFFFL
1262666653466412431363356
LLLLLLLLFFFLLFFFFFFFFFFFL
6666566346666666662666266
LLLLLLLLLLLLLLLLLLLLLLLLL
3243611266661352512661565
FFFFFFFFLLLLFFFFFFFFLFFFF
6666665255411653626666221
LLLLLLFFFFFFFFFFFFLLLFFFF
6666666664323156235111223
LLLLLLLLLLLFFFFFFFFFFFFFF
4452161231464263464532453
FFFFFFFFFFFFFFFFFFFFFFFFF
6666626655553344646552313
LLLLLLLLFFFFFFFFFFFFFFFFF
4163466364554426215366245
FFFFFLFFFFFFFFFFFFFFFFFFF
4642121666666665121221413
FFFFFFFLLLLLLLLFFFFFFFFFF
6115434153531215622553222
LFFFFFFFFFFLFFFFFFFFFFFFF
5224616116415416364515121
FFFFFFFFFFFFFFFFFFFFFFFFF
6666661266645663666116661
LLLLLLLLLLLLLLLLLLLLLLLLF
6666666335466463416666666
LLLLLFFFFFFFFFFFFFLLLLLLL
1263363466554665413352525
FFFFFFFFFFFFFFFFFFFFFFFFF
1462162235354434516351521
FFFFFFFFFFFFFFFFFFFFFFFFL
2352654433263653514342643
FFFFFFFFFFFFFFFFFFFFFFFFF
3114166662663166666366263
FFFFFLLLLLLLLLLLLLLLLLLLF
1556212153551251611231545
FFFFFFFFFFFFFFFFFFFFFFFFF
2315413666656666666626626
FFFFFFFLLLLLLLLLLLLLLLLLL
2536624663366666566436326
FFFLLLLLLLLLLLLLLLLLLLFFF
1223333115162353642651423
FFFFFFFFFFFFFFFFLFFFFFFFF
2266134452241426164343452
FFFFFFFFFFFFFFFFFFFFFFFFF
6532234412113142221515351
LFFFFFFFFFFFFFFFFFFFFFFFF
6666663626611364421666665
LLLLLLLLFFFFFFFFFFFLLLLLL
3164666326156646216166666
FFFFLLLLFFFFFFFFLLLFLLLLL
4552564413445213563435156
FFFFFFFFFFFFFFFFFFFFFFFFL
5555666662624162545241264
FFFLLLFFFFFFFFFFFFFFFFFFF
5132544366154344214562422
FFFFFFFFFFFFFFFFFFFFFFFFF
6636666613141555115152314
LLLLLLLLFFFFFFFFFFFFFFFFF
6665666666265533512511565
LLLLLLLLLLLLFFFFFFFFFFFFF
6666666521454636666666266
LLLLLLLFFFFFFLLLLLLLLLLLL
1411521245661656234154514
FFFFFFFFFFFFFFFFFFFFFFFFF
3266616266656642566666662
LLLLLLLLLLLLLLLLLLLLLLLLF
6266662666666343432615665
LLLLLLLLLLLLLFFFFFFFFFFFF
4214325651315155145124453
FFFFFFFFFFFFFFFFFFFFFFFFF
1536442535542452362116244
FFFFFFFFFFFFFFLFFFFFFFFFF
6666421645126656432333122
LLLLFFFFFFFFFFFFFFFFFFFFF
6621266666166664166566151
LLLLLLLLLLLLLLLLLLLFFFFFF
2335633166463221142251565
FFFFFFFFFFFFFFFFFFFFFFFFF
6666663322362312456162565
LLLLLLFFFFFFFFFFFFLLLFFFF
3146164646421622333142333
FFFFFFFFFFFFFFFFFFFFFFFFF
3133553324344663666636635
FFFFFFFFFFFFFFFFLLLLLLLFF
5563254433254446663333466
FFFFFFFFFFFFFFFFFFFFFFFLL
5144516216231666666666466
FFFFFFFFFFFFFLLLLLLLLLLLL
6636662353251616666633635
LLFFFFFFFFFFFFFLLLLLLFFFF
6166411266663361315152352
LLLLFFFFLLLLFFFFFFFFFFFFF
2253666626322351561451463
FFFFLLLLFFFFFFFFFFFFFFFFF
6166664362134456524632641
LLLLLLFFFFFFFFFFFFFFFFFFF
6135214626466662644564352
LFFFFFLLLLLLLLLLLLFFFFFFF
4446625455353213465532522
FFFFFFFFFFFFFFFFFFFFFFFFF
6666665656531435644262656
LLLLLLLLLLFLFFFFFFFFFFFFF
5635426124541341652324523
FFFFFFFFFFFFFFFFFFFFFFFLL
5632114335222154466264156
FFFFFFFFFFFFFFFFFLLLLLLLL
5354316362662456666662333
FFFFFFFFFFFFFFFFLLLLLFFFF
6256666665111442456346634
FFFLLLLLLFFFFFFFFFFFFFFFF
6652565325423566112661124
LFFFFFFFFFFFFFLLLFFFFFFFF
2142626266661521214245446
LFFFLLLLLLLLFFFFFFFFFFFFF
1523466662362566666551116
FFFLLLLLLLFFFFLLLLLFFFFFF
2264634611464326166246445
FFFFFFFFFFFFFFFFFFFFFLLFF
4166666666146666646666562
FLLLLLLLLLLLLLLLLLLLLLFFF
2534463235666646613466226
FFFFFFFFFFLLLLLLLLLLFLFFF
2141164363232164253364521
FFFFFFFFFFFFFFFFFFFFFFFFF
4125126416442664441636634
FFFFFFFFFFFFFFFFLFLLLLLFF
6665363131543244466666256
LLLFFFFFFFFFFFFFFLLLLLLFF
6561666662664526131552334
FFFFLLLFFFFFFFFLFFFFFFFFF
6642421666663666661426666
FFFFFFFLLLLLLLLLFFFFFFFLL
1665665666666666566661466
LLLLLLLLLLLLLLLLLLLLLLLLL
1216616643322636361566666
FFLLLLLLFFFFLLLLLLLLLLLLL
1615166666666666662325122
FFFFFLLLLLLLLLLLLLFFFFFFF
5155634131314213551165554
FFFFFFFFFFFFFFFFFFFFFFFFF
2664252461341455645332111
FFFFFFFFFFFFFFFFFFFFFFFFF
6341635666665621446112626
FFFFFFLLLLLLLLFFFFFFFFFFF
5542351551565111326222213
FFFFFFFFFFFFFFFFFFFFFFFFF
1642541545221365536661661
FFFFFFFFFFFFFFFFFFLLLLFFF
3166243635453314341636125
FFFFFFFFFFFFFFFFFFFFFFFFF
5253225335453133516666665
FFFFFFFFFFFFFFFFFFLLLLLLL
6666666166666615351443634
LLLLLLLLLLLLLLFFFFFFFFFFF
5412663345663125542355362
FFFFLLFFFFFFFFFFFFFFFFFFF
6636666661121656566666666
LLLLLLLLLFFFFFFFFFLLLLLLL
3121643443165452211123266
FFFFFFFFFFFFFFFFFFFFFFFLL
6666626626636615631466665
LLLLLLLLLLLLLLFFFFFFLLLLL
6624351554412466455243623
FFFFFFFFFFFFFFFFFFFFFFFFF
5631651444622655566662414
FFFFFFFFFFFFFLFFFLLLLLLLL
6666656666166662441333466
LLLLLLLLLLLLLLLFFFFFFFFFF
2155462264354232163156225
FFFFFFFFFFFFFFFFFFFFFFFFF
1364356411264415215126113
FFFFFFFFFFFFFFFFFFFFFLLFF
1662446414516554666626666
FLLFFFFFFFFFFFFLLLLLLLLLL
3665666665262632612156554
FLLLLLLLFFFFFFFFFFFFFFFFF
2561252626354341213666166
FFFFFFFFFFFFFFFFFFFFFFFLL
6661266424446563524433455
LLLFFFFFFFFFFFFFFFFFFFFFF
5522666653144351433666366
FFFLLLLLFFFFFFFFFFFLLLFLL
6626663564353566136225456
LLLLLFFFFFFFFFLLFFFFFFFFF
1144554134445135532234362
FFFFFFFFFFFFFFFFFFFFFFFFF
1221666636466161616125266
FFFFLLLLFFFFFFFFFFFFFFFLL
3654142656343264644644324
FFFFFFFFFFFFFFFFFFFFFFFFF
4241333666656666654353663
FFFFFFLLLLLLLLLLLFFFFFFFF
5454233236666611155643445
FFFFFFFLLLLLLLFFFFFFFFFFF
