26162551451221265264122455161324534513126661145611
FFFFFFFFFFFFFFFFFFFFFFFFFFFFFFFFFFFFFFFLLFFFFFFFFF
34212323254442563265666616666624363231331632264462
FFFFFFFFFFFFFFFFFFLLLLLLLLLLLLFFFFFFFFFFFFFFFFFFFF
24311456535445521433465123666666662624116164626535
FFFFFFFFFFFFFFFFFFFFFFFFFFLLLLLLLLLLFFFFFFFFFFFFFF
65344534666262666564361666662666666665666663256112
FFFFFFFFLLLLLLLLLLLFFFFLLLLLLLLLLLLLLLLLLLFFFFFFFF
63431464546122631466666661666336135454631554666166
FFFFFFFFFFFFFFFFFFFLLLLLLFFFFFFFFFFFFFFFFFFFLLLLLL
66662636666666666166652164531166365223354623626646
LLLLLLLLLLLLLLLLLLLLLFFFFFFFFLLLLLFFFFFFFFFLLLLLLL
11433452234166566266344511215235313534213513111244
FFFFFFFFFFFFLLLLLFFFFFFFFFFFFFFFFFFFFFFFFFFFFFFFFF
54611612314666666666666663662662525354621266515333
FFFFFFFFFFFLLLLLLLLLLLLLLLLLLLLFFFFFFFFFFFFFFFFFFF
56164615111156333625634666646616666643664224222633
FFFFFFFFFFFFFFFFFFFFFFFLLLLLLLLLLLLLLLLFFFFFFFFFFF
26163632423331464113345254435414115464144265661136
FFFFFFFFFFFFFFFFFFFFFFFFFFFFFFFFFFFFFFFFFFFFLLFFFF
24433425332536353365244435232142564152612562464231
FFFFFFFFFFFFFFFFFFFFFFFFFFFFFFFFFFFFFFFFFFFFFLFFFF
13444666566515433566665662614666666636666665356216
FFFFLLLLLLLFFFFFFFFLLLLLLLLLLLLLLLLLLLLLLLLFFFFFFL
63661666665624636552122241564666651145125426636636
LLLLLLLLLFFFFFFFFFFFFFFFFFFLLLLLLLLFFFFFFFFLLLLLLL
51255662415511241425615356113666666661666623666666
FFFFFFFFFFFFFFFFFFFFFFFFFFFFFLLLLLLLLLLLLLLLLLLLLL
56432626266662666666666166666666666416616463665666
FFFFFFFLLLLLLLLLLLLLLLLLLLLLLLLLLLLLLLLLLLLLLLLLLL
51652365412631612222452334634452343544224522662666
FFFFFFFFFFFFFFFFFFFFFFFFFFFFFFFFFFFFFFFFFFFFLLLLLL
13633414144643431424265434224234626352232545546225
FFFFFFFFFFFFFFFFFFFFFFFFFFFFFFFFFFFFFFFFFFFFFFFFFF
66216665662231366666555541232666666666626232136426
FFFFLLLLLLFFFFFLLLLLFFFFFFFFFLLLLLLLLLLFFFFFFFFFFL
35154314566666636645652213146654666666566666656666
FFFFFFFFFFLLLLLLLLFFFFFFFFFFFLLLLLLLLLLLLLLLLLLLLL
42666666366353243534251521256144241351431355635513
LLLLLLLLLLLFFFFFFFFFFFFFFFFFFFFFFFFFFFFFFFFFFFFFFF
15356166666626661662421162226366125425256666621534
FFFFLLLLLLLLLLLLLLLFFFFFFFFFLLLFFFFFFFFFLLLLLFFFFF
66616656626264322642314534344656535512532663422526
LLLLLLLLLLLFFFFFFFFFFFFFFFFFFFFFFFFFFFFFFFLLFFFFFF
66614666636633525121225161451324221252116434466664
LLLLLLLLLLLLFFFFFFFFFFFFFFFFFFFFFFFFFFFFFFFFFLLLLL
66626666452666656213556246665541355416353156353556
LLLLLLLLFFFLLLLLLFFFFFFFFLLLFFFFFFFFFFFFFFFFFFFFFF
65165251446661316365154641142252254543116126633113
FFFFFFFFFFFFFFFFFFFFFFFFFFFFFFFFFFFFFFFFFFFFFFFFFF
66465312625142333614464256162413162342411636223661
LLLLFFFFFFFFFFFFFFFFFFFFFFFFFFFFFFFFFFFFFFFFFFFLLF
24664564126253142236666666215166645513215524562621
FFFFFFFFFFFFFFFFFFFFLLLLLFFFFFFFFFFFFFFFFFFFFFFFFF
63443624614661213453135544512266666616366526666166
FFFFFFFFLLLLLFFFFFFFFFFLFFFFFLLLLLLLLLFFFFFLLLLLLL
53361666433213416516156365432562346123334231366641
FFFFFLLFFFFFFFFFFFFFFFFFFFFFFFFFFFFFFFFFFFFFLLFFFF
66666662666462266666661616566666666653543466536666
LLLLLLLLLLLLLLLLLLLLLLLLLLLLLLLLLLLLFFFFFFFFFFLLLL
66656546444546361515654211336326266666646362654241
LLLLLFFFFFFFFFFFFFFFFFFFFFFFFFFFFLLLLLLLLLLFFFFFFL
24512664236311546234233164666666366352664135161543
FFFFFFFFFFFFFFFFFFFFFFFFFFFLLLLLLLLLLLLLFFFFFFFFFL
22413514143531223662511433523266646343513252566353
FFFFFFFFFFFFFFFFFFFFFFFFFFFFFFLLLFLLFFFFFFFFFFLLFF
66665666666665666655115636424554321225164166541555
LLLLLLLLLLLLLLLLLLFFFFFFFFFFFFFFFFFFFFFFFFFFFFFFFF
56116666655635131622656666661126531366666666666666
LFFFLLLLLFFFFFFFFFFFFFLLLLLFFFFFFFFFLLLLLLLLLLLLLL
51124165221412143664456554454652146242413342316122
FFFFFFFFFFFFFFFFFFFFFFFFFFFFFFFFFFFFFFFFFFFFFFFFFF
26366436666661531666656666664666666416516336151532
FFFFFFLLLLLLLLFFFLLLLLLLLLLLLLLLLLLLLLFFLFFFFFFFFF
36656336646666666661254262666616666322262441543452
LLLLLLLLLLLLLLLLLLLLFFFFFLLLLLFLLLFFFFFFFFFFFFFFFF
56236636666666466364164415511561245246165146326246
FFFFLLLLLLLLLLLLLLLFFFFFFFFFFFFFFFFFFFFFFFFFFFFFFF
32524154656566656666666656662341435666666666661666
FFFFFFFFFFFFLLLLLLLFLLLLLLLLFFFFFFFLLLLLLLLLLLLLLL
36261246511316636245231666253666666666666261321141
FFFFFFFFFFFFFFFFFFFFFFFLLLLLLLLLLLLLLLLLLLLLFFFFFF
34446563352131546653536642666436131441235554216642
FFFFFFFFFFFFFFFFFFFFFFLLFFFLLFFFFFFFFFFFFFFFFFFFFF
64666161216636666666166653666624523666666666614151
LLLLLLLFFFFFFFLLLLLLFLLLLLLLLLFFFFFLLLLLLLLLLFFFFF
11162666666532126155415465344563226623666666666666
FFFFFLLLLLLFFFFFFFFFFFFFFFFFFFFFFFFFFFLLLLLLLLLLLL
34651563344214244124646666643651461641646323666666
FFFFFFFFFFFFFFFFFFFFLLLLLFFFFFFFFFFFFFLLFFFFFLLLLL
66655334166522524436665666666566666115366666621662
LLLFFFFFFFFFFLFFFFFLLLLLLLLLLLLLLLLLFFFLLLLLLFFFFF
44426161321623242314223426152423266246345464663636
FFFFFFFFFFFFFFFFFFFFFFFFFFFFFFFFFFFFFFFFFFFFFFFFLL
43215626652431356136362466666622656562516161153554
FFFFFFFFFFFFFFFFLLLLLLLLLLLLLLFFFFFFFFFFFFFFFFFFFF
62615141453162442443231552552326634564112161561343
LFFFFFFFFFFFFFFFFFFFFFFFFFFFFFFFFFFFFFFFFFFFFFFFFF
62366634653323264642554333643256216266636666566364
LLLLLFFFFFFFFFFFFFFFFFFFFFFFFFFFFFLLLLLLLLLLLLLLLL
66315546634636162264224642364666366366466632624146
LLFFFFFFFFFFFFFFFFFFFFFFFFFFLLLLLLLLLLLLLLLLLFFFFF
66356421546543352452524425521625153144116362211342
LLFFFFFFFFFFFFFFFFFFFFFFFFFFFFFFFFFFFFFFLLLLLFFFFF
36666621616666342411452443163366526115112666666616
FLLLLLFFLLLLFFFFFFFFFFFFFFFFFFFFFFFFFFFFFLLLLLLLLL
21361123125511215453556112516131143234634432563162
FFFFFFFFFFFFFFFFFFFFFFFFFFFFFFFFFFFFFFFFFFFFFFFFFF
66616666366246666463122145316636661313312146132454
LLLLLLLLLLLLLLLLLFFFFFFFFFFFLLLLFFFFFFFFFFFFFFFFFF
66666662166666464124113544245545245465462624236136
LLLLLLLLLLLLLLFFFFFFFFFFFFFFFFFFFFFFFFFLLLFFFFFFFF
46525666632616155146132623465666656246645444326363
FFFFFLLLLFFFFFFFFFFFFFFFFFFFFFLLLLLFFFFFFFFFFFFFFF
52551324554666254533666666166261666666641515226144
FFFFFFFFFFFFFFFFLFFFLLLLLFFLLLLLLLLLLLLFFFFFFFFFFF
23323243635344612541161412363266666346456636265653
FFFFFFFFLFFFFFFFFFFFFFFFFFFFFFLLLLLLLLLLLLFFFFFFFF
66553221242462462536666412626456646613312655233464
LLFFFFFFFFFFFFFFFFFLLFFFFFFFFFFLLLLLFFFFFFFFFFFFFF
52522452555454514635246435231364422322633366666662
FFFFLFFFFFFFFFFFFFFFFFLFFFFFFFFFFFFFFFFFFLLLLLLLLF
66666253166414124634635155233662646663231551535452
LLLLLLLLLLLFFFFFFFFFFFFFFFFFFFFFFFFFFFFFFFFFFFFFFF
51123163645123523233666665222533541651225266666666
FFFFFFFFFFFFFFFFFFFFLLLLLFFFFFFFFFFFFFFFFFLLLLLLLL
66666126655253315351366622254126666362535341556343
LLLLFFFFFFFFFFFFFFFFFLLLFFFFFFFLLLLLFFFFFFFFFFFFFF
54524664621123616144161642455166153555353446165336
FFFFFLLFFFFFFFFFFFFFFFFFFFFFFFFFFFFFFFFFFFFFFFFFFF
45433431466214132254331311245626543616661566666566
FFFFFFFFFFFFFFFFFFFFFFFFFFFFFFFFFFFLLLLLLLLLLLLLLL
55666466666666626666666615662566666666666663252163
FFLLLLLLLLLLLLLLLLLLLLLLLLLFFFLLLLLLLLLLLLLFFFFFFF
34312214352666321665531525255664253243254553512546
FFFFFFFFFFFFFFFFFFFFFFFFFFFFFFFFFFFFFFFFFFFFFFFFFF
66166614666235632625256422414514251665666666436666
LLLLLLLLLLLLFFFFFFFFFFLLFFFFFFFFFFFFFFLLLLLLFFLLLL
21653345346352536431256363366213663415552341643362
FFFFFFFFFFFFFFFFFFFFFFFFFFLLLFFFFFFFFFFFFFFFFFFFFF
11134524543456113111554222253614352451152664663666
FFFFFFFFFFFFFFFFFFFFFFFFFFFFFFFFFFFFFFFFLLLLLLLLLL
66621523512316626664326345124356432626453534161251
LLLLLFFFFFFFLLLLLLLFFFFFFFFFFFFFFFFFFFFFFFFFLLFFFF
11632264334244253161534442363442562355442242216666
FFFFFFFFFFFFFFFFFFFFFFFFFFFFFFFFFFFFFFFFFFFFFFFLLL
14414116364466366444662531333524666663664666666241
FFFFFFFFFFFFFFFFFFFLLLLFFFFFFFFLLLLLLLLLLLLLLLLFFF
64212412114335221515656426515532566223266666666662
FFFFFFFFFFFFFFFFFFFFFFFFFFFFFFFFFLLFFFFLLLLLLLLLLL
65553564325315444443466616663666626666666666336646
FFFFFFFFFFFFFFFFFFFFFLLLLLLLLLLLLLLLLLLLLLLLLLLLLL
56666666656416666666666666663666466466666664222522
LLLLLLLLLFFFFLLLLLLLLLLLLLLLLLLLLLLLLLLLLLLLFFFFFF
15321252666256556465651166646666121531666426615212
FFFFFFFFFFFFFFFFLLLLLFFFLLLLLLFFFFFFFFFFFFFFFFFFFF
66664666666656561664563425316445455635341234166666
LLLLLLLLLLLLLLLLLLLLLLFFFFFFFFFFFFFFFFFFFFFFFLLLLL
24666666666664256356414463244256465514216665626453
LLLLLLLLLLLLLFFFFFFFFFFFFFFFFFFFFFFFFFFFLLLLLLLFFF
31165533366666666666611226236564522122166656665661
FFLLFFFFLLLLLLLLLLLLLLFFFFFFFFFFFFFFFFFLLLFLLLLLLF
34525156635552641646661666261631143144365446413211
FFFFFFFFFFFFFFFFFLLLLLLLLLLLFFFFFFFFFFFFFFFFFFFFFF
32352662533146622211514415512116211554666136554414
FFFFFFFFFFFFFFFFFFFFFFFFFFFFFFFFFFFFFFLLLLLLFFFFFF
13166663343544534622165465415326255152666663656634
FFFLLLLLFFFFFFFFFFFFFFFFFFFFFFFFFFFFFFLLLLLLLLLLFF
66141351464346236515442526453642535563525412135465
LFFFFFFFFFFFFFFFFFFFFFFFFFFFFFFFFFFFFFFFFFFFFFFFFF
31621432362421625366425413115335234164413366665611
FFFFFFFFFFFFFFFFFFFFFFFFFFFFFFFFFFFFFFFFFFFLLLLLFF
16524565156511123263363344621532232341114141314446
FFFFFFFFFFFFFFFFFFFFFFFFFFFFFFFFFFFFFFFFFFFFFFFFFF
52334662534133114324262433565464514521533141261325
FFFFFFFFFFFFFFFFFFFFFFFFFFFFFFFFFFFFFFFFFFFFFFFFFF
56666662322442655563161156216433625135343256363662
FLLLLLFFFFFFFFLLFFFFFFFFFFFFFFFFFFFFFFFFFFFFFLLLFF
13161565224631444443113566462466562656535636222656
FFFFFFFFFFFFFFFFFFFFFFFFLLLFFFLFFFLLLLLFFFFFFFFFFF
66365411511145246666526333424652221555252624242125
FFFFFFFFFFFFFFFFLLLLLLLLFFFFFFFFFFFFFFFFFFFFFFFFFF
62141426454162343643564443454353622523351251132462
LFFFFFFFFFFFFFFFFLFFFFFFFFFFFFFFFFFFFFFFFFFFFFFFFF
16666662631664666566252114126232152454351422441626
LLLLLLLLLLLLLLLLLFLFFFFFFFFFFFFFFFFFFFFFFFFFFFFFLL
66666666366666536661656345625664632635342663666236
LLLLLLLLLLLLLLLLLLLLLLLLFFFFFFFFFFLLLFFFFLLLLLLLLL
66665513244663666143663666666666656661616366666666
LLLLFFFFFFFLLLLLLFFFLLLLLLLLLLLLLLLLLLLLLLLLLLLLLL
46631553635236525614326616666666266366666666266616
LLLFFFFFFFFFFFFFFFFFFFFFFFLLLLLLLLLLLLLLLLLLLLLLLL
14633665216321556663141126356434664145666666636461
FFFFFFFFFFFFFFFFFFLFFFFFFFFFFFFFFFFFFFLLLLLLLFFFFF
25645313526336566663634324642564513256125625466625
FFFFFFFFFFFFFLLLLLLLLFFFFFFFFFFFFFFFFFFFFFFFFFFFFF
65335111525143346665665122642346166636466666666516
FFFFFFFFFFFFFFFFFFFFFFFFFFFFFFFFLLLLLLLLLLLLLLLLLL
54456634152144261236666666666231216322543422464164
FFLLLLFFFFFFFFFFFFFLLLLLLLLLLFFFFFFFFFFFFFFFFFFFFF
