,Correctness:,0.9900,0.9900,0,, ,Correctness:,0.0200,0.9800,0,, ,Correctness:,0.5900,0.5900,0,, ,Correctness:,0.0200,0.9800,0,, ,Correctness:,0.1500,0.8500,0,, 
,Correctness:,0.8400,0.8400,0,, ,Correctness:,0.2100,0.7900,0,, ,Correctness:,0.6500,0.6500,0,, ,Correctness:,0.2000,0.8000,0,, ,Correctness:,0.1500,0.8500,0,, 
,Correctness:,0.6500,0.6500,0,, ,Correctness:,0.2200,0.7800,0,, ,Correctness:,0.8600,0.8600,0,, ,Correctness:,0.3100,0.6900,0,, ,Correctness:,0.0300,0.9700,0,, 
,Correctness:,0.8700,0.8700,0,, ,Correctness:,0.0400,0.9600,0,, ,Correctness:,0.6000,0.6000,0,, ,Correctness:,0.0800,0.9200,0,, ,Correctness:,0.1400,0.8600,0,, 
,Correctness:,0.9200,0.9200,0,, ,Correctness:,0.0700,0.9300,0,, ,Correctness:,0.4700,0.5300,0,, ,Correctness:,0.0700,0.9300,0,, ,Correctness:,0.1400,0.8600,0,, 
,Correctness:,0.9300,0.9300,0,, ,Correctness:,0.0600,0.9400,0,, ,Correctness:,0.6400,0.6400,0,, ,Correctness:,0.1000,0.9000,0,, ,Correctness:,0.0700,0.9300,0,, 
,Correctness:,0.9100,0.9100,0,, ,Correctness:,0.0800,0.9200,0,, ,Correctness:,0.5400,0.5400,0,, ,Correctness:,0.0800,0.9200,0,, ,Correctness:,0.1200,0.8800,0,, 
,Correctness:,1.0000,1.0000,0,, ,Correctness:,0.1600,0.8400,0,, ,Correctness:,0.6400,0.6400,0,, ,Correctness:,0.0700,0.9300,0,, ,Correctness:,0.1900,0.8100,0,, 
,Correctness:,0.8600,0.8600,0,, ,Correctness:,0.1400,0.8600,0,, ,Correctness:,0.5400,0.5400,0,, ,Correctness:,0.1300,0.8700,0,, ,Correctness:,0.1900,0.8100,0,, 
,Correctness:,0.5600,0.5600,0,, ,Correctness:,0.2700,0.7300,0,, ,Correctness:,0.6400,0.6400,0,, ,Correctness:,0.2900,0.7100,0,, ,Correctness:,0.2500,0.7500,0,, 
,Correctness:,0.8950,0.8950,0,, ,Correctness:,0.0950,0.9050,0,, ,Correctness:,0.6350,0.6350,0,, ,Correctness:,0.1250,0.8750,0,, ,Correctness:,0.1250,0.8750,0,, 
,Correctness:,0.8850,0.8850,0,, ,Correctness:,0.1250,0.8750,0,, ,Correctness:,0.7650,0.7650,0,, ,Correctness:,0.1300,0.8700,0,, ,Correctness:,0.1200,0.8800,0,, 
,Correctness:,0.9150,0.9150,0,, ,Correctness:,0.1150,0.8850,0,, ,Correctness:,0.6250,0.6250,0,, ,Correctness:,0.0850,0.9150,0,, ,Correctness:,0.1650,0.8350,0,, 
,Correctness:,0.8950,0.8950,0,, ,Correctness:,0.0950,0.9050,0,, ,Correctness:,0.6650,0.6650,0,, ,Correctness:,0.0550,0.9450,0,, ,Correctness:,0.1550,0.8450,0,, 
,Correctness:,0.9100,0.9100,0,, ,Correctness:,0.1250,0.8750,0,, ,Correctness:,0.6400,0.6400,0,, ,Correctness:,0.1450,0.8550,0,, ,Correctness:,0.1750,0.8250,0,, 
,Correctness:,0.8900,0.8900,0,, ,Correctness:,0.0900,0.9100,0,, ,Correctness:,0.7300,0.7300,0,, ,Correctness:,0.0900,0.9100,0,, ,Correctness:,0.1300,0.8700,0,, 
,Correctness:,0.9600,0.9600,0,, ,Correctness:,0.0800,0.9200,0,, ,Correctness:,0.4650,0.5350,0,, ,Correctness:,0.1100,0.8900,0,, ,Correctness:,0.1550,0.8450,0,, 
,Correctness:,0.8850,0.8850,0,, ,Correctness:,0.0600,0.9400,0,, ,Correctness:,0.7200,0.7200,0,, ,Correctness:,0.0900,0.9100,0,, ,Correctness:,0.1000,0.9000,0,, 
,Correctness:,0.8600,0.8600,0,, ,Correctness:,0.0800,0.9200,0,, ,Correctness:,0.5950,0.5950,0,, ,Correctness:,0.1500,0.8500,0,, ,Correctness:,0.1500,0.8500,0,, 
,Correctness:,0.8700,0.8700,0,, ,Correctness:,0.0950,0.9050,0,, ,Correctness:,0.5250,0.5250,0,, ,Correctness:,0.1150,0.8850,0,, ,Correctness:,0.1250,0.8750,0,, 
,Correctness:,0.9200,0.9200,0,, ,Correctness:,0.0800,0.9200,0,, ,Correctness:,0.7150,0.7150,0,, ,Correctness:,0.1125,0.8875,0,, ,Correctness:,0.1250,0.8750,0,, 
,Correctness:,0.9475,0.9475,0,, ,Correctness:,0.0700,0.9300,0,, ,Correctness:,0.7975,0.7975,0,, ,Correctness:,0.1150,0.8850,0,, ,Correctness:,0.0975,0.9025,0,, 
,Correctness:,0.9400,0.9400,0,, ,Correctness:,0.0550,0.9450,0,, ,Correctness:,0.6200,0.6200,0,, ,Correctness:,0.0675,0.9325,0,, ,Correctness:,0.1200,0.8800,0,, 
,Correctness:,0.9050,0.9050,0,, ,Correctness:,0.0675,0.9325,0,, ,Correctness:,0.7850,0.7850,0,, ,Correctness:,0.1350,0.8650,0,, ,Correctness:,0.0925,0.9075,0,, 
,Correctness:,0.8525,0.8525,0,, ,Correctness:,0.1450,0.8550,0,, ,Correctness:,0.5375,0.5375,0,, ,Correctness:,0.1300,0.8700,0,, ,Correctness:,0.1900,0.8100,0,, 
,Correctness:,0.9550,0.9550,0,, ,Correctness:,0.0575,0.9425,0,, ,Correctness:,0.6500,0.6500,0,, ,Correctness:,0.0775,0.9225,0,, ,Correctness:,0.1200,0.8800,0,, 
,Correctness:,0.8975,0.8975,0,, ,Correctness:,0.0950,0.9050,0,, ,Correctness:,0.6625,0.6625,0,, ,Correctness:,0.1350,0.8650,0,, ,Correctness:,0.1450,0.8550,0,, 
,Correctness:,0.9025,0.9025,0,, ,Correctness:,0.1275,0.8725,0,, ,Correctness:,0.4925,0.5075,0,, ,Correctness:,0.1125,0.8875,0,, ,Correctness:,0.2500,0.7500,0,, 
,Correctness:,0.9275,0.9275,0,, ,Correctness:,0.0950,0.9050,0,, ,Correctness:,0.7175,0.7175,0,, ,Correctness:,0.1300,0.8700,0,, ,Correctness:,0.1000,0.9000,0,, 
,Correctness:,0.9500,0.9500,0,, ,Correctness:,0.0525,0.9475,0,, ,Correctness:,0.8050,0.8050,0,, ,Correctness:,0.0875,0.9125,0,, ,Correctness:,0.0825,0.9175,0,, 
,Correctness:,0.9050,0.9050,0,, ,Correctness:,0.0737,0.9263,0,, ,Correctness:,0.7375,0.7375,0,, ,Correctness:,0.1025,0.8975,0,, ,Correctness:,0.0900,0.9100,0,, 
,Correctness:,0.9263,0.9263,0,, ,Correctness:,0.0788,0.9213,0,, ,Correctness:,0.7050,0.7050,0,, ,Correctness:,0.0775,0.9225,0,, ,Correctness:,0.1050,0.8950,0,, 
,Correctness:,0.9213,0.9213,0,, ,Correctness:,0.0788,0.9213,0,, ,Correctness:,0.6338,0.6338,0,, ,Correctness:,0.0950,0.9050,0,, ,Correctness:,0.1263,0.8738,0,, 
,Correctness:,0.9263,0.9263,0,, ,Correctness:,0.0563,0.9437,0,, ,Correctness:,0.6025,0.6025,0,, ,Correctness:,0.0725,0.9275,0,, ,Correctness:,0.1175,0.8825,0,, 
,Correctness:,0.8862,0.8862,0,, ,Correctness:,0.0887,0.9113,0,, ,Correctness:,0.5975,0.5975,0,, ,Correctness:,0.1087,0.8912,0,, ,Correctness:,0.1562,0.8438,0,, 
,Correctness:,0.9287,0.9287,0,, ,Correctness:,0.0838,0.9163,0,, ,Correctness:,0.7150,0.7150,0,, ,Correctness:,0.0887,0.9113,0,, ,Correctness:,0.1163,0.8838,0,, 
,Correctness:,0.9038,0.9038,0,, ,Correctness:,0.0838,0.9163,0,, ,Correctness:,0.6400,0.6400,0,, ,Correctness:,0.0775,0.9225,0,, ,Correctness:,0.1288,0.8712,0,, 
,Correctness:,0.9375,0.9375,0,, ,Correctness:,0.0537,0.9463,0,, ,Correctness:,0.6550,0.6550,0,, ,Correctness:,0.0688,0.9313,0,, ,Correctness:,0.1425,0.8575,0,, 
,Correctness:,0.9125,0.9125,0,, ,Correctness:,0.0762,0.9237,0,, ,Correctness:,0.7225,0.7225,0,, ,Correctness:,0.1037,0.8962,0,, ,Correctness:,0.0988,0.9012,0,, 
,Correctness:,0.9100,0.9100,0,, ,Correctness:,0.0925,0.9075,0,, ,Correctness:,0.6663,0.6663,0,, ,Correctness:,0.1000,0.9000,0,, ,Correctness:,0.1475,0.8525,0,, 
,Correctness:,0.8888,0.8888,0,, ,Correctness:,0.1156,0.8844,0,, ,Correctness:,0.6863,0.6863,0,, ,Correctness:,0.1087,0.8912,0,, ,Correctness:,0.1425,0.8575,0,, 
,Correctness:,0.9200,0.9200,0,, ,Correctness:,0.0719,0.9281,0,, ,Correctness:,0.6338,0.6338,0,, ,Correctness:,0.0887,0.9113,0,, ,Correctness:,0.1150,0.8850,0,, 
,Correctness:,0.9125,0.9125,0,, ,Correctness:,0.0813,0.9187,0,, ,Correctness:,0.6725,0.6725,0,, ,Correctness:,0.1100,0.8900,0,, ,Correctness:,0.1219,0.8781,0,, 
,Correctness:,0.8988,0.8988,0,, ,Correctness:,0.1031,0.8969,0,, ,Correctness:,0.6775,0.6775,0,, ,Correctness:,0.1231,0.8769,0,, ,Correctness:,0.1331,0.8669,0,, 
,Correctness:,0.9206,0.9206,0,, ,Correctness:,0.0894,0.9106,0,, ,Correctness:,0.6562,0.6562,0,, ,Correctness:,0.0981,0.9019,0,, ,Correctness:,0.1475,0.8525,0,, 
,Correctness:,0.9206,0.9206,0,, ,Correctness:,0.0894,0.9106,0,, ,Correctness:,0.6887,0.6887,0,, ,Correctness:,0.1225,0.8775,0,, ,Correctness:,0.1350,0.8650,0,, 
,Correctness:,0.9125,0.9125,0,, ,Correctness:,0.0981,0.9019,0,, ,Correctness:,0.5863,0.5863,0,, ,Correctness:,0.1138,0.8862,0,, ,Correctness:,0.1706,0.8294,0,, 
,Correctness:,0.9069,0.9069,0,, ,Correctness:,0.0838,0.9163,0,, ,Correctness:,0.6856,0.6856,0,, ,Correctness:,0.1037,0.8962,0,, ,Correctness:,0.1356,0.8644,0,, 
,Correctness:,0.9144,0.9144,0,, ,Correctness:,0.0931,0.9069,0,, ,Correctness:,0.6694,0.6694,0,, ,Correctness:,0.1075,0.8925,0,, ,Correctness:,0.1425,0.8575,0,, 
,Correctness:,0.9044,0.9044,0,, ,Correctness:,0.1187,0.8812,0,, ,Correctness:,0.6781,0.6781,0,, ,Correctness:,0.1125,0.8875,0,, ,Correctness:,0.1313,0.8688,0,, 
Average:,0.8990,,,,, Average:,0.9043,,,,, Average:,0.6554,,,,, Average:,0.8894,,,,, Average:,0.8649,,,,, 
,Correctness:,0.9900,0.9900,0,, ,Correctness:,0.0200,0.9800,0,, ,Correctness:,0.0400,0.9600,0,, ,Correctness:,0.1500,0.8500,0,, ,Correctness:,0.8600,0.8600,0,, 
,Correctness:,0.8200,0.8200,0,, ,Correctness:,0.1500,0.8500,0,, ,Correctness:,0.1700,0.8300,0,, ,Correctness:,0.2100,0.7900,0,, ,Correctness:,0.7800,0.7800,0,, 
,Correctness:,0.6800,0.6800,0,, ,Correctness:,0.3600,0.6400,0,, ,Correctness:,0.3300,0.6700,0,, ,Correctness:,0.2500,0.7500,0,, ,Correctness:,0.7600,0.7600,0,, 
,Correctness:,0.9100,0.9100,0,, ,Correctness:,0.1200,0.8800,0,, ,Correctness:,0.0800,0.9200,0,, ,Correctness:,0.1400,0.8600,0,, ,Correctness:,0.8500,0.8500,0,, 
,Correctness:,0.8900,0.8900,0,, ,Correctness:,0.0600,0.9400,0,, ,Correctness:,0.0700,0.9300,0,, ,Correctness:,0.1500,0.8500,0,, ,Correctness:,0.8600,0.8600,0,, 
,Correctness:,0.9000,0.9000,0,, ,Correctness:,0.0600,0.9400,0,, ,Correctness:,0.0900,0.9100,0,, ,Correctness:,0.1700,0.8300,0,, ,Correctness:,0.8200,0.8200,0,, 
,Correctness:,0.8900,0.8900,0,, ,Correctness:,0.0800,0.9200,0,, ,Correctness:,0.1000,0.9000,0,, ,Correctness:,0.1400,0.8600,0,, ,Correctness:,0.8500,0.8500,0,, 
,Correctness:,0.9500,0.9500,0,, ,Correctness:,0.0700,0.9300,0,, ,Correctness:,0.0600,0.9400,0,, ,Correctness:,0.1600,0.8400,0,, ,Correctness:,0.8300,0.8300,0,, 
,Correctness:,0.8800,0.8800,0,, ,Correctness:,0.1500,0.8500,0,, ,Correctness:,0.1200,0.8800,0,, ,Correctness:,0.1800,0.8200,0,, ,Correctness:,0.8300,0.8300,0,, 
,Correctness:,0.6900,0.6900,0,, ,Correctness:,0.3100,0.6900,0,, ,Correctness:,0.3500,0.6500,0,, ,Correctness:,0.2800,0.7200,0,, ,Correctness:,0.7100,0.7100,0,, 
,Correctness:,0.8800,0.8800,0,, ,Correctness:,0.1350,0.8650,0,, ,Correctness:,0.1350,0.8650,0,, ,Correctness:,0.1600,0.8400,0,, ,Correctness:,0.8450,0.8450,0,, 
,Correctness:,0.8600,0.8600,0,, ,Correctness:,0.1250,0.8750,0,, ,Correctness:,0.1100,0.8900,0,, ,Correctness:,0.1900,0.8100,0,, ,Correctness:,0.8150,0.8150,0,, 
,Correctness:,0.9100,0.9100,0,, ,Correctness:,0.0600,0.9400,0,, ,Correctness:,0.0650,0.9350,0,, ,Correctness:,0.1500,0.8500,0,, ,Correctness:,0.8550,0.8550,0,, 
,Correctness:,0.9350,0.9350,0,, ,Correctness:,0.0950,0.9050,0,, ,Correctness:,0.0450,0.9550,0,, ,Correctness:,0.1600,0.8400,0,, ,Correctness:,0.8450,0.8450,0,, 
,Correctness:,0.8600,0.8600,0,, ,Correctness:,0.0700,0.9300,0,, ,Correctness:,0.1350,0.8650,0,, ,Correctness:,0.2300,0.7700,0,, ,Correctness:,0.7750,0.7750,0,, 
,Correctness:,0.9150,0.9150,0,, ,Correctness:,0.0850,0.9150,0,, ,Correctness:,0.1100,0.8900,0,, ,Correctness:,0.1700,0.8300,0,, ,Correctness:,0.8350,0.8350,0,, 
,Correctness:,0.8950,0.8950,0,, ,Correctness:,0.0400,0.9600,0,, ,Correctness:,0.1100,0.8900,0,, ,Correctness:,0.1850,0.8150,0,, ,Correctness:,0.8200,0.8200,0,, 
,Correctness:,0.8950,0.8950,0,, ,Correctness:,0.0900,0.9100,0,, ,Correctness:,0.0800,0.9200,0,, ,Correctness:,0.1750,0.8250,0,, ,Correctness:,0.8300,0.8300,0,, 
,Correctness:,0.8450,0.8450,0,, ,Correctness:,0.1400,0.8600,0,, ,Correctness:,0.1600,0.8400,0,, ,Correctness:,0.1700,0.8300,0,, ,Correctness:,0.8350,0.8350,0,, 
,Correctness:,0.8900,0.8900,0,, ,Correctness:,0.1350,0.8650,0,, ,Correctness:,0.1150,0.8850,0,, ,Correctness:,0.1650,0.8350,0,, ,Correctness:,0.8400,0.8400,0,, 
,Correctness:,0.8850,0.8850,0,, ,Correctness:,0.0850,0.9150,0,, ,Correctness:,0.1000,0.9000,0,, ,Correctness:,0.1700,0.8300,0,, ,Correctness:,0.8275,0.8275,0,, 
,Correctness:,0.8600,0.8600,0,, ,Correctness:,0.0700,0.9300,0,, ,Correctness:,0.1125,0.8875,0,, ,Correctness:,0.1700,0.8300,0,, ,Correctness:,0.8325,0.8325,0,, 
,Correctness:,0.9250,0.9250,0,, ,Correctness:,0.0425,0.9575,0,, ,Correctness:,0.0750,0.9250,0,, ,Correctness:,0.1725,0.8275,0,, ,Correctness:,0.8250,0.8250,0,, 
,Correctness:,0.8550,0.8550,0,, ,Correctness:,0.0800,0.9200,0,, ,Correctness:,0.1250,0.8750,0,, ,Correctness:,0.1950,0.8050,0,, ,Correctness:,0.8075,0.8075,0,, 
,Correctness:,0.8525,0.8525,0,, ,Correctness:,0.1450,0.8550,0,, ,Correctness:,0.1200,0.8800,0,, ,Correctness:,0.1750,0.8250,0,, ,Correctness:,0.8225,0.8225,0,, 
,Correctness:,0.9075,0.9075,0,, ,Correctness:,0.0475,0.9525,0,, ,Correctness:,0.0675,0.9325,0,, ,Correctness:,0.1750,0.8250,0,, ,Correctness:,0.8275,0.8275,0,, 
,Correctness:,0.8625,0.8625,0,, ,Correctness:,0.0950,0.9050,0,, ,Correctness:,0.1175,0.8825,0,, ,Correctness:,0.1925,0.8075,0,, ,Correctness:,0.8100,0.8100,0,, 
,Correctness:,0.8625,0.8625,0,, ,Correctness:,0.0950,0.9050,0,, ,Correctness:,0.1075,0.8925,0,, ,Correctness:,0.2300,0.7700,0,, ,Correctness:,0.7675,0.7675,0,, 
,Correctness:,0.8800,0.8800,0,, ,Correctness:,0.0750,0.9250,0,, ,Correctness:,0.1150,0.8850,0,, ,Correctness:,0.1725,0.8275,0,, ,Correctness:,0.8300,0.8300,0,, 
,Correctness:,0.9175,0.9175,0,, ,Correctness:,0.0600,0.9400,0,, ,Correctness:,0.0975,0.9025,0,, ,Correctness:,0.1625,0.8375,0,, ,Correctness:,0.8400,0.8400,0,, 
,Correctness:,0.8925,0.8925,0,, ,Correctness:,0.0750,0.9250,0,, ,Correctness:,0.0975,0.9025,0,, ,Correctness:,0.1613,0.8387,0,, ,Correctness:,0.8400,0.8400,0,, 
,Correctness:,0.9213,0.9213,0,, ,Correctness:,0.0600,0.9400,0,, ,Correctness:,0.0862,0.9138,0,, ,Correctness:,0.1487,0.8513,0,, ,Correctness:,0.8500,0.8500,0,, 
,Correctness:,0.8800,0.8800,0,, ,Correctness:,0.0762,0.9237,0,, ,Correctness:,0.0813,0.9187,0,, ,Correctness:,0.1913,0.8087,0,, ,Correctness:,0.8100,0.8100,0,, 
,Correctness:,0.9237,0.9237,0,, ,Correctness:,0.0675,0.9325,0,, ,Correctness:,0.0638,0.9363,0,, ,Correctness:,0.1550,0.8450,0,, ,Correctness:,0.8462,0.8462,0,, 
,Correctness:,0.8838,0.8838,0,, ,Correctness:,0.0938,0.9062,0,, ,Correctness:,0.1013,0.8987,0,, ,Correctness:,0.1862,0.8137,0,, ,Correctness:,0.8150,0.8150,0,, 
,Correctness:,0.9000,0.9000,0,, ,Correctness:,0.0688,0.9313,0,, ,Correctness:,0.0875,0.9125,0,, ,Correctness:,0.1787,0.8213,0,, ,Correctness:,0.8225,0.8225,0,, 
,Correctness:,0.9150,0.9150,0,, ,Correctness:,0.0638,0.9363,0,, ,Correctness:,0.0850,0.9150,0,, ,Correctness:,0.1700,0.8300,0,, ,Correctness:,0.8313,0.8313,0,, 
,Correctness:,0.9150,0.9150,0,, ,Correctness:,0.0712,0.9287,0,, ,Correctness:,0.0762,0.9237,0,, ,Correctness:,0.1725,0.8275,0,, ,Correctness:,0.8287,0.8287,0,, 
,Correctness:,0.8950,0.8950,0,, ,Correctness:,0.0925,0.9075,0,, ,Correctness:,0.0912,0.9087,0,, ,Correctness:,0.1650,0.8350,0,, ,Correctness:,0.8363,0.8363,0,, 
,Correctness:,0.8938,0.8938,0,, ,Correctness:,0.0712,0.9287,0,, ,Correctness:,0.0775,0.9225,0,, ,Correctness:,0.1750,0.8250,0,, ,Correctness:,0.8263,0.8263,0,, 
,Correctness:,0.8800,0.8800,0,, ,Correctness:,0.1075,0.8925,0,, ,Correctness:,0.1119,0.8881,0,, ,Correctness:,0.1837,0.8163,0,, ,Correctness:,0.8169,0.8169,0,, 
,Correctness:,0.9062,0.9062,0,, ,Correctness:,0.0850,0.9150,0,, ,Correctness:,0.0919,0.9081,0,, ,Correctness:,0.1669,0.8331,0,, ,Correctness:,0.8325,0.8325,0,, 
,Correctness:,0.8812,0.8812,0,, ,Correctness:,0.0956,0.9044,0,, ,Correctness:,0.0981,0.9019,0,, ,Correctness:,0.1775,0.8225,0,, ,Correctness:,0.8219,0.8219,0,, 
,Correctness:,0.8631,0.8631,0,, ,Correctness:,0.1156,0.8844,0,, ,Correctness:,0.1194,0.8806,0,, ,Correctness:,0.1925,0.8075,0,, ,Correctness:,0.8081,0.8081,0,, 
,Correctness:,0.8969,0.8969,0,, ,Correctness:,0.0813,0.9187,0,, ,Correctness:,0.0956,0.9044,0,, ,Correctness:,0.1794,0.8206,0,, ,Correctness:,0.8213,0.8213,0,, 
,Correctness:,0.8750,0.8750,0,, ,Correctness:,0.0912,0.9087,0,, ,Correctness:,0.1106,0.8894,0,, ,Correctness:,0.1919,0.8081,0,, ,Correctness:,0.8075,0.8075,0,, 
,Correctness:,0.8744,0.8744,0,, ,Correctness:,0.0881,0.9119,0,, ,Correctness:,0.1094,0.8906,0,, ,Correctness:,0.1944,0.8056,0,, ,Correctness:,0.8063,0.8063,0,, 
,Correctness:,0.8931,0.8931,0,, ,Correctness:,0.0894,0.9106,0,, ,Correctness:,0.1069,0.8931,0,, ,Correctness:,0.1781,0.8219,0,, ,Correctness:,0.8225,0.8225,0,, 
,Correctness:,0.8856,0.8856,0,, ,Correctness:,0.0862,0.9138,0,, ,Correctness:,0.0944,0.9056,0,, ,Correctness:,0.1906,0.8094,0,, ,Correctness:,0.8087,0.8087,0,, 
,Correctness:,0.8838,0.8838,0,, ,Correctness:,0.0912,0.9087,0,, ,Correctness:,0.0988,0.9012,0,, ,Correctness:,0.1844,0.8156,0,, ,Correctness:,0.8163,0.8163,0,, 
Average:,0.8830,,,,, Average:,0.9036,,,,, Average:,0.8921,,,,, Average:,0.8211,,,,, Average:,0.8221,,,,, 
,Correctness:,0.5400,0.5400,0,, ,Correctness:,0.0500,0.9500,0,, ,Correctness:,0.4200,0.5800,0,, ,Correctness:,0.0600,0.9400,0,, ,Correctness:,0.9900,0.9900,0,, 
,Correctness:,0.5300,0.5300,0,, ,Correctness:,0.1300,0.8700,0,, ,Correctness:,0.3400,0.6600,0,, ,Correctness:,0.1900,0.8100,0,, ,Correctness:,0.8200,0.8200,0,, 
,Correctness:,0.5400,0.5400,0,, ,Correctness:,0.2000,0.8000,0,, ,Correctness:,0.1400,0.8600,0,, ,Correctness:,0.2300,0.7700,0,, ,Correctness:,0.8000,0.8000,0,, 
,Correctness:,0.5000,0.5000,0,, ,Correctness:,0.0800,0.9200,0,, ,Correctness:,0.3900,0.6100,0,, ,Correctness:,0.0900,0.9100,0,, ,Correctness:,0.9500,0.9500,0,, 
,Correctness:,0.5300,0.5300,0,, ,Correctness:,0.1100,0.8900,0,, ,Correctness:,0.5400,0.5400,0,, ,Correctness:,0.0700,0.9300,0,, ,Correctness:,0.9100,0.9100,0,, 
,Correctness:,0.5300,0.5300,0,, ,Correctness:,0.0800,0.9200,0,, ,Correctness:,0.3500,0.6500,0,, ,Correctness:,0.1100,0.8900,0,, ,Correctness:,0.8900,0.8900,0,, 
,Correctness:,0.5100,0.5100,0,, ,Correctness:,0.0800,0.9200,0,, ,Correctness:,0.4500,0.5500,0,, ,Correctness:,0.1200,0.8800,0,, ,Correctness:,0.9100,0.9100,0,, 
,Correctness:,0.5400,0.5400,0,, ,Correctness:,0.0200,0.9800,0,, ,Correctness:,0.3500,0.6500,0,, ,Correctness:,0.0900,0.9100,0,, ,Correctness:,0.9500,0.9500,0,, 
,Correctness:,0.5200,0.5200,0,, ,Correctness:,0.1300,0.8700,0,, ,Correctness:,0.4600,0.5400,0,, ,Correctness:,0.1400,0.8600,0,, ,Correctness:,0.8500,0.8500,0,, 
,Correctness:,0.5200,0.5200,0,, ,Correctness:,0.3100,0.6900,0,, ,Correctness:,0.3500,0.6500,0,, ,Correctness:,0.3300,0.6700,0,, ,Correctness:,0.5600,0.5600,0,, 
,Correctness:,0.5600,0.5600,0,, ,Correctness:,0.1400,0.8600,0,, ,Correctness:,0.3650,0.6350,0,, ,Correctness:,0.1550,0.8450,0,, ,Correctness:,0.8900,0.8900,0,, 
,Correctness:,0.5300,0.5300,0,, ,Correctness:,0.1050,0.8950,0,, ,Correctness:,0.2400,0.7600,0,, ,Correctness:,0.1150,0.8850,0,, ,Correctness:,0.8300,0.8300,0,, 
,Correctness:,0.5200,0.5200,0,, ,Correctness:,0.0900,0.9100,0,, ,Correctness:,0.3800,0.6200,0,, ,Correctness:,0.0950,0.9050,0,, ,Correctness:,0.9150,0.9150,0,, 
,Correctness:,0.5200,0.5200,0,, ,Correctness:,0.0900,0.9100,0,, ,Correctness:,0.3400,0.6600,0,, ,Correctness:,0.0700,0.9300,0,, ,Correctness:,0.9200,0.9200,0,, 
,Correctness:,0.5200,0.5200,0,, ,Correctness:,0.1150,0.8850,0,, ,Correctness:,0.3600,0.6400,0,, ,Correctness:,0.1600,0.8400,0,, ,Correctness:,0.8650,0.8650,0,, 
,Correctness:,0.5350,0.5350,0,, ,Correctness:,0.1000,0.9000,0,, ,Correctness:,0.2750,0.7250,0,, ,Correctness:,0.1100,0.8900,0,, ,Correctness:,0.9300,0.9300,0,, 
,Correctness:,0.5200,0.5200,0,, ,Correctness:,0.1100,0.8900,0,, ,Correctness:,0.5350,0.5350,0,, ,Correctness:,0.1450,0.8550,0,, ,Correctness:,0.9050,0.9050,0,, 
,Correctness:,0.5350,0.5350,0,, ,Correctness:,0.0750,0.9250,0,, ,Correctness:,0.2850,0.7150,0,, ,Correctness:,0.1050,0.8950,0,, ,Correctness:,0.8500,0.8500,0,, 
,Correctness:,0.5350,0.5350,0,, ,Correctness:,0.0950,0.9050,0,, ,Correctness:,0.4050,0.5950,0,, ,Correctness:,0.1450,0.8550,0,, ,Correctness:,0.8350,0.8350,0,, 
,Correctness:,0.5150,0.5150,0,, ,Correctness:,0.0800,0.9200,0,, ,Correctness:,0.4750,0.5250,0,, ,Correctness:,0.1150,0.8850,0,, ,Correctness:,0.8700,0.8700,0,, 
,Correctness:,0.5275,0.5275,0,, ,Correctness:,0.0850,0.9150,0,, ,Correctness:,0.2825,0.7175,0,, ,Correctness:,0.1175,0.8825,0,, ,Correctness:,0.8675,0.8675,0,, 
,Correctness:,0.5450,0.5450,0,, ,Correctness:,0.0725,0.9275,0,, ,Correctness:,0.2025,0.7975,0,, ,Correctness:,0.1225,0.8775,0,, ,Correctness:,0.9100,0.9100,0,, 
,Correctness:,0.5125,0.5125,0,, ,Correctness:,0.0675,0.9325,0,, ,Correctness:,0.3775,0.6225,0,, ,Correctness:,0.0950,0.9050,0,, ,Correctness:,0.9300,0.9300,0,, 
,Correctness:,0.5375,0.5375,0,, ,Correctness:,0.1200,0.8800,0,, ,Correctness:,0.2175,0.7825,0,, ,Correctness:,0.1350,0.8650,0,, ,Correctness:,0.9000,0.9000,0,, 
,Correctness:,0.5175,0.5175,0,, ,Correctness:,0.1675,0.8325,0,, ,Correctness:,0.4600,0.5400,0,, ,Correctness:,0.1300,0.8700,0,, ,Correctness:,0.8050,0.8050,0,, 
,Correctness:,0.5175,0.5175,0,, ,Correctness:,0.0800,0.9200,0,, ,Correctness:,0.3500,0.6500,0,, ,Correctness:,0.0925,0.9075,0,, ,Correctness:,0.9400,0.9400,0,, 
,Correctness:,0.5100,0.5100,0,, ,Correctness:,0.0900,0.9100,0,, ,Correctness:,0.3400,0.6600,0,, ,Correctness:,0.1400,0.8600,0,, ,Correctness:,0.8675,0.8675,0,, 
,Correctness:,0.5225,0.5225,0,, ,Correctness:,0.1125,0.8875,0,, ,Correctness:,0.5050,0.5050,0,, ,Correctness:,0.1500,0.8500,0,, ,Correctness:,0.8975,0.8975,0,, 
,Correctness:,0.5375,0.5375,0,, ,Correctness:,0.0750,0.9250,0,, ,Correctness:,0.2850,0.7150,0,, ,Correctness:,0.1200,0.8800,0,, ,Correctness:,0.8350,0.8350,0,, 
,Correctness:,0.5500,0.5500,0,, ,Correctness:,0.0775,0.9225,0,, ,Correctness:,0.1950,0.8050,0,, ,Correctness:,0.1050,0.8950,0,, ,Correctness:,0.9575,0.9575,0,, 
,Correctness:,0.5312,0.5312,0,, ,Correctness:,0.0912,0.9087,0,, ,Correctness:,0.2637,0.7363,0,, ,Correctness:,0.0988,0.9012,0,, ,Correctness:,0.9012,0.9012,0,, 
,Correctness:,0.5325,0.5325,0,, ,Correctness:,0.0850,0.9150,0,, ,Correctness:,0.2938,0.7063,0,, ,Correctness:,0.0838,0.9163,0,, ,Correctness:,0.9163,0.9163,0,, 
,Correctness:,0.5275,0.5275,0,, ,Correctness:,0.0887,0.9113,0,, ,Correctness:,0.3675,0.6325,0,, ,Correctness:,0.1037,0.8962,0,, ,Correctness:,0.9062,0.9062,0,, 
,Correctness:,0.5288,0.5288,0,, ,Correctness:,0.0762,0.9237,0,, ,Correctness:,0.3987,0.6013,0,, ,Correctness:,0.0688,0.9313,0,, ,Correctness:,0.9300,0.9300,0,, 
,Correctness:,0.5112,0.5112,0,, ,Correctness:,0.1187,0.8812,0,, ,Correctness:,0.4037,0.5962,0,, ,Correctness:,0.1138,0.8862,0,, ,Correctness:,0.8300,0.8300,0,, 
,Correctness:,0.5262,0.5262,0,, ,Correctness:,0.0862,0.9138,0,, ,Correctness:,0.2850,0.7150,0,, ,Correctness:,0.1037,0.8962,0,, ,Correctness:,0.9213,0.9213,0,, 
,Correctness:,0.5375,0.5375,0,, ,Correctness:,0.0950,0.9050,0,, ,Correctness:,0.3600,0.6400,0,, ,Correctness:,0.0963,0.9038,0,, ,Correctness:,0.8938,0.8938,0,, 
,Correctness:,0.5400,0.5400,0,, ,Correctness:,0.0663,0.9337,0,, ,Correctness:,0.3463,0.6538,0,, ,Correctness:,0.0887,0.9113,0,, ,Correctness:,0.9287,0.9287,0,, 
,Correctness:,0.5262,0.5262,0,, ,Correctness:,0.0825,0.9175,0,, ,Correctness:,0.2775,0.7225,0,, ,Correctness:,0.1087,0.8912,0,, ,Correctness:,0.8800,0.8800,0,, 
,Correctness:,0.5312,0.5312,0,, ,Correctness:,0.1113,0.8888,0,, ,Correctness:,0.3337,0.6663,0,, ,Correctness:,0.1200,0.8800,0,, ,Correctness:,0.8650,0.8650,0,, 
,Correctness:,0.5181,0.5181,0,, ,Correctness:,0.1131,0.8869,0,, ,Correctness:,0.3144,0.6856,0,, ,Correctness:,0.1294,0.8706,0,, ,Correctness:,0.8662,0.8662,0,, 
,Correctness:,0.5119,0.5119,0,, ,Correctness:,0.0819,0.9181,0,, ,Correctness:,0.3656,0.6344,0,, ,Correctness:,0.1056,0.8944,0,, ,Correctness:,0.8925,0.8925,0,, 
,Correctness:,0.5162,0.5162,0,, ,Correctness:,0.1125,0.8875,0,, ,Correctness:,0.3269,0.6731,0,, ,Correctness:,0.1069,0.8931,0,, ,Correctness:,0.8919,0.8919,0,, 
,Correctness:,0.5300,0.5300,0,, ,Correctness:,0.0919,0.9081,0,, ,Correctness:,0.3225,0.6775,0,, ,Correctness:,0.1269,0.8731,0,, ,Correctness:,0.8956,0.8956,0,, 
,Correctness:,0.5231,0.5231,0,, ,Correctness:,0.0875,0.9125,0,, ,Correctness:,0.3438,0.6562,0,, ,Correctness:,0.1269,0.8731,0,, ,Correctness:,0.8912,0.8912,0,, 
,Correctness:,0.5275,0.5275,0,, ,Correctness:,0.1037,0.8962,0,, ,Correctness:,0.3106,0.6894,0,, ,Correctness:,0.1300,0.8700,0,, ,Correctness:,0.8919,0.8919,0,, 
,Correctness:,0.5219,0.5219,0,, ,Correctness:,0.1181,0.8819,0,, ,Correctness:,0.4144,0.5856,0,, ,Correctness:,0.1356,0.8644,0,, ,Correctness:,0.8888,0.8888,0,, 
,Correctness:,0.5300,0.5300,0,, ,Correctness:,0.1069,0.8931,0,, ,Correctness:,0.3150,0.6850,0,, ,Correctness:,0.1113,0.8888,0,, ,Correctness:,0.8862,0.8862,0,, 
,Correctness:,0.5206,0.5206,0,, ,Correctness:,0.0906,0.9094,0,, ,Correctness:,0.3300,0.6700,0,, ,Correctness:,0.1206,0.8794,0,, ,Correctness:,0.9163,0.9163,0,, 
,Correctness:,0.5188,0.5188,0,, ,Correctness:,0.1119,0.8881,0,, ,Correctness:,0.3225,0.6775,0,, ,Correctness:,0.1231,0.8769,0,, ,Correctness:,0.8862,0.8862,0,, 
Average:,0.5268,,,,, Average:,0.8989,,,,, Average:,0.6560,,,,, Average:,0.8789,,,,, Average:,0.8846,,,,, 
,Correctness:,0.1300,0.8700,0,, ,Correctness:,0.9900,0.9900,0,, ,Correctness:,0.0900,0.9100,0,, ,Correctness:,0.8600,0.8600,0,, ,Correctness:,0.3800,0.6200,0,, 
,Correctness:,0.2300,0.7700,0,, ,Correctness:,0.8600,0.8600,0,, ,Correctness:,0.2300,0.7700,0,, ,Correctness:,0.7800,0.7800,0,, ,Correctness:,0.4200,0.5800,0,, 
,Correctness:,0.3000,0.7000,0,, ,Correctness:,0.9300,0.9300,0,, ,Correctness:,0.3600,0.6400,0,, ,Correctness:,0.7600,0.7600,0,, ,Correctness:,0.4900,0.5100,0,, 
,Correctness:,0.1100,0.8900,0,, ,Correctness:,0.9500,0.9500,0,, ,Correctness:,0.1000,0.9000,0,, ,Correctness:,0.8500,0.8500,0,, ,Correctness:,0.3800,0.6200,0,, 
,Correctness:,0.1200,0.8800,0,, ,Correctness:,0.8900,0.8900,0,, ,Correctness:,0.1100,0.8900,0,, ,Correctness:,0.8600,0.8600,0,, ,Correctness:,0.3300,0.6700,0,, 
,Correctness:,0.1600,0.8400,0,, ,Correctness:,0.9300,0.9300,0,, ,Correctness:,0.1600,0.8400,0,, ,Correctness:,0.8200,0.8200,0,, ,Correctness:,0.4000,0.6000,0,, 
,Correctness:,0.1400,0.8600,0,, ,Correctness:,0.9100,0.9100,0,, ,Correctness:,0.1600,0.8400,0,, ,Correctness:,0.8500,0.8500,0,, ,Correctness:,0.3200,0.6800,0,, 
,Correctness:,0.1600,0.8400,0,, ,Correctness:,0.8900,0.8900,0,, ,Correctness:,0.1300,0.8700,0,, ,Correctness:,0.8300,0.8300,0,, ,Correctness:,0.4100,0.5900,0,, 
,Correctness:,0.1800,0.8200,0,, ,Correctness:,0.8600,0.8600,0,, ,Correctness:,0.1400,0.8600,0,, ,Correctness:,0.8300,0.8300,0,, ,Correctness:,0.3700,0.6300,0,, 
,Correctness:,0.2900,0.7100,0,, ,Correctness:,0.7000,0.7000,0,, ,Correctness:,0.3200,0.6800,0,, ,Correctness:,0.7100,0.7100,0,, ,Correctness:,0.4600,0.5400,0,, 
,Correctness:,0.1550,0.8450,0,, ,Correctness:,0.9050,0.9050,0,, ,Correctness:,0.1350,0.8650,0,, ,Correctness:,0.8450,0.8450,0,, ,Correctness:,0.4000,0.6000,0,, 
,Correctness:,0.1900,0.8100,0,, ,Correctness:,0.8800,0.8800,0,, ,Correctness:,0.1850,0.8150,0,, ,Correctness:,0.8150,0.8150,0,, ,Correctness:,0.4550,0.5450,0,, 
,Correctness:,0.1400,0.8600,0,, ,Correctness:,0.9150,0.9150,0,, ,Correctness:,0.1350,0.8650,0,, ,Correctness:,0.8550,0.8550,0,, ,Correctness:,0.4050,0.5950,0,, 
,Correctness:,0.1650,0.8350,0,, ,Correctness:,0.8950,0.8950,0,, ,Correctness:,0.1250,0.8750,0,, ,Correctness:,0.8450,0.8450,0,, ,Correctness:,0.4200,0.5800,0,, 
,Correctness:,0.2250,0.7750,0,, ,Correctness:,0.8900,0.8900,0,, ,Correctness:,0.1950,0.8050,0,, ,Correctness:,0.7750,0.7750,0,, ,Correctness:,0.4400,0.5600,0,, 
,Correctness:,0.1650,0.8350,0,, ,Correctness:,0.9100,0.9100,0,, ,Correctness:,0.1500,0.8500,0,, ,Correctness:,0.8350,0.8350,0,, ,Correctness:,0.4600,0.5400,0,, 
,Correctness:,0.1800,0.8200,0,, ,Correctness:,0.9450,0.9450,0,, ,Correctness:,0.1650,0.8350,0,, ,Correctness:,0.8200,0.8200,0,, ,Correctness:,0.3350,0.6650,0,, 
,Correctness:,0.1600,0.8400,0,, ,Correctness:,0.9250,0.9250,0,, ,Correctness:,0.1550,0.8450,0,, ,Correctness:,0.8300,0.8300,0,, ,Correctness:,0.4450,0.5550,0,, 
,Correctness:,0.1750,0.8250,0,, ,Correctness:,0.8850,0.8850,0,, ,Correctness:,0.1750,0.8250,0,, ,Correctness:,0.8350,0.8350,0,, ,Correctness:,0.3700,0.6300,0,, 
,Correctness:,0.1600,0.8400,0,, ,Correctness:,0.8950,0.8950,0,, ,Correctness:,0.1500,0.8500,0,, ,Correctness:,0.8400,0.8400,0,, ,Correctness:,0.3450,0.6550,0,, 
,Correctness:,0.1725,0.8275,0,, ,Correctness:,0.9250,0.9250,0,, ,Correctness:,0.1700,0.8300,0,, ,Correctness:,0.8275,0.8275,0,, ,Correctness:,0.4325,0.5675,0,, 
,Correctness:,0.1625,0.8375,0,, ,Correctness:,0.9325,0.9325,0,, ,Correctness:,0.1875,0.8125,0,, ,Correctness:,0.8325,0.8325,0,, ,Correctness:,0.4650,0.5350,0,, 
,Correctness:,0.1575,0.8425,0,, ,Correctness:,0.9500,0.9500,0,, ,Correctness:,0.1475,0.8525,0,, ,Correctness:,0.8250,0.8250,0,, ,Correctness:,0.4025,0.5975,0,, 
,Correctness:,0.1950,0.8050,0,, ,Correctness:,0.9050,0.9050,0,, ,Correctness:,0.2000,0.8000,0,, ,Correctness:,0.8075,0.8075,0,, ,Correctness:,0.4650,0.5350,0,, 
,Correctness:,0.1650,0.8350,0,, ,Correctness:,0.8650,0.8650,0,, ,Correctness:,0.1650,0.8350,0,, ,Correctness:,0.8225,0.8225,0,, ,Correctness:,0.3625,0.6375,0,, 
,Correctness:,0.1650,0.8350,0,, ,Correctness:,0.9600,0.9600,0,, ,Correctness:,0.1550,0.8450,0,, ,Correctness:,0.8275,0.8275,0,, ,Correctness:,0.4000,0.6000,0,, 
,Correctness:,0.1750,0.8250,0,, ,Correctness:,0.9125,0.9125,0,, ,Correctness:,0.1800,0.8200,0,, ,Correctness:,0.8100,0.8100,0,, ,Correctness:,0.4200,0.5800,0,, 
,Correctness:,0.2125,0.7875,0,, ,Correctness:,0.8775,0.8775,0,, ,Correctness:,0.1850,0.8150,0,, ,Correctness:,0.7675,0.7675,0,, ,Correctness:,0.3800,0.6200,0,, 
,Correctness:,0.1750,0.8250,0,, ,Correctness:,0.9100,0.9100,0,, ,Correctness:,0.1750,0.8250,0,, ,Correctness:,0.8300,0.8300,0,, ,Correctness:,0.4525,0.5475,0,, 
,Correctness:,0.1625,0.8375,0,, ,Correctness:,0.9500,0.9500,0,, ,Correctness:,0.1725,0.8275,0,, ,Correctness:,0.8400,0.8400,0,, ,Correctness:,0.4700,0.5300,0,, 
,Correctness:,0.1625,0.8375,0,, ,Correctness:,0.9237,0.9237,0,, ,Correctness:,0.1650,0.8350,0,, ,Correctness:,0.8400,0.8400,0,, ,Correctness:,0.4412,0.5588,0,, 
,Correctness:,0.1425,0.8575,0,, ,Correctness:,0.9213,0.9213,0,, ,Correctness:,0.1300,0.8700,0,, ,Correctness:,0.8500,0.8500,0,, ,Correctness:,0.4263,0.5737,0,, 
,Correctness:,0.1837,0.8163,0,, ,Correctness:,0.9213,0.9213,0,, ,Correctness:,0.1737,0.8263,0,, ,Correctness:,0.8100,0.8100,0,, ,Correctness:,0.4175,0.5825,0,, 
,Correctness:,0.1450,0.8550,0,, ,Correctness:,0.9487,0.9487,0,, ,Correctness:,0.1338,0.8662,0,, ,Correctness:,0.8462,0.8462,0,, ,Correctness:,0.3837,0.6162,0,, 
,Correctness:,0.1663,0.8337,0,, ,Correctness:,0.9025,0.9025,0,, ,Correctness:,0.1625,0.8375,0,, ,Correctness:,0.8150,0.8150,0,, ,Correctness:,0.3937,0.6062,0,, 
,Correctness:,0.1737,0.8263,0,, ,Correctness:,0.9300,0.9300,0,, ,Correctness:,0.1713,0.8287,0,, ,Correctness:,0.8225,0.8225,0,, ,Correctness:,0.4387,0.5613,0,, 
,Correctness:,0.1613,0.8387,0,, ,Correctness:,0.9350,0.9350,0,, ,Correctness:,0.1537,0.8462,0,, ,Correctness:,0.8313,0.8313,0,, ,Correctness:,0.4000,0.6000,0,, 
,Correctness:,0.1525,0.8475,0,, ,Correctness:,0.9450,0.9450,0,, ,Correctness:,0.1425,0.8575,0,, ,Correctness:,0.8287,0.8287,0,, ,Correctness:,0.4288,0.5713,0,, 
,Correctness:,0.1575,0.8425,0,, ,Correctness:,0.9263,0.9263,0,, ,Correctness:,0.1588,0.8413,0,, ,Correctness:,0.8363,0.8363,0,, ,Correctness:,0.4363,0.5637,0,, 
,Correctness:,0.1663,0.8337,0,, ,Correctness:,0.9075,0.9075,0,, ,Correctness:,0.1525,0.8475,0,, ,Correctness:,0.8263,0.8263,0,, ,Correctness:,0.4213,0.5787,0,, 
,Correctness:,0.1762,0.8237,0,, ,Correctness:,0.8875,0.8875,0,, ,Correctness:,0.1663,0.8337,0,, ,Correctness:,0.8169,0.8169,0,, ,Correctness:,0.4338,0.5662,0,, 
,Correctness:,0.1625,0.8375,0,, ,Correctness:,0.9281,0.9281,0,, ,Correctness:,0.1575,0.8425,0,, ,Correctness:,0.8325,0.8325,0,, ,Correctness:,0.3925,0.6075,0,, 
,Correctness:,0.1713,0.8287,0,, ,Correctness:,0.9344,0.9344,0,, ,Correctness:,0.1713,0.8287,0,, ,Correctness:,0.8219,0.8219,0,, ,Correctness:,0.4125,0.5875,0,, 
,Correctness:,0.1894,0.8106,0,, ,Correctness:,0.9106,0.9106,0,, ,Correctness:,0.1744,0.8256,0,, ,Correctness:,0.8081,0.8081,0,, ,Correctness:,0.4281,0.5719,0,, 
,Correctness:,0.1744,0.8256,0,, ,Correctness:,0.9231,0.9231,0,, ,Correctness:,0.1588,0.8413,0,, ,Correctness:,0.8213,0.8213,0,, ,Correctness:,0.4156,0.5844,0,, 
,Correctness:,0.1875,0.8125,0,, ,Correctness:,0.9225,0.9225,0,, ,Correctness:,0.1837,0.8163,0,, ,Correctness:,0.8075,0.8075,0,, ,Correctness:,0.4300,0.5700,0,, 
,Correctness:,0.1819,0.8181,0,, ,Correctness:,0.9181,0.9181,0,, ,Correctness:,0.1731,0.8269,0,, ,Correctness:,0.8063,0.8063,0,, ,Correctness:,0.3937,0.6062,0,, 
,Correctness:,0.1744,0.8256,0,, ,Correctness:,0.9106,0.9106,0,, ,Correctness:,0.1606,0.8394,0,, ,Correctness:,0.8225,0.8225,0,, ,Correctness:,0.4288,0.5713,0,, 
,Correctness:,0.1850,0.8150,0,, ,Correctness:,0.9187,0.9187,0,, ,Correctness:,0.1750,0.8250,0,, ,Correctness:,0.8087,0.8087,0,, ,Correctness:,0.4238,0.5762,0,, 
,Correctness:,0.1812,0.8187,0,, ,Correctness:,0.8975,0.8975,0,, ,Correctness:,0.1775,0.8225,0,, ,Correctness:,0.8163,0.8163,0,, ,Correctness:,0.4188,0.5813,0,, 
Average:,0.8266,,,,, Average:,0.9111,,,,, Average:,0.8330,,,,, Average:,0.8221,,,,, Average:,0.5870,,,,, 
,Correctness:,0.5700,0.5700,0,, ,Correctness:,0.0400,0.9600,0,, ,Correctness:,0.5900,0.5900,0,, ,Correctness:,0.8600,0.8600,0,, ,Correctness:,0.4500,0.5500,0,, 
,Correctness:,0.5100,0.5100,0,, ,Correctness:,0.1900,0.8100,0,, ,Correctness:,0.6500,0.6500,0,, ,Correctness:,0.7800,0.7800,0,, ,Correctness:,0.4000,0.6000,0,, 
,Correctness:,0.6000,0.6000,0,, ,Correctness:,0.3100,0.6900,0,, ,Correctness:,0.8600,0.8600,0,, ,Correctness:,0.7600,0.7600,0,, ,Correctness:,0.2100,0.7900,0,, 
,Correctness:,0.5500,0.5500,0,, ,Correctness:,0.0800,0.9200,0,, ,Correctness:,0.6000,0.6000,0,, ,Correctness:,0.8500,0.8500,0,, ,Correctness:,0.4700,0.5300,0,, 
,Correctness:,0.5400,0.5400,0,, ,Correctness:,0.0700,0.9300,0,, ,Correctness:,0.4700,0.5300,0,, ,Correctness:,0.8600,0.8600,0,, ,Correctness:,0.5900,0.5900,0,, 
,Correctness:,0.5800,0.5800,0,, ,Correctness:,0.1100,0.8900,0,, ,Correctness:,0.6400,0.6400,0,, ,Correctness:,0.8200,0.8200,0,, ,Correctness:,0.4300,0.5700,0,, 
,Correctness:,0.5300,0.5300,0,, ,Correctness:,0.1300,0.8700,0,, ,Correctness:,0.5400,0.5400,0,, ,Correctness:,0.8500,0.8500,0,, ,Correctness:,0.5100,0.5100,0,, 
,Correctness:,0.5900,0.5900,0,, ,Correctness:,0.0700,0.9300,0,, ,Correctness:,0.6400,0.6400,0,, ,Correctness:,0.8300,0.8300,0,, ,Correctness:,0.4200,0.5800,0,, 
,Correctness:,0.5700,0.5700,0,, ,Correctness:,0.1300,0.8700,0,, ,Correctness:,0.5400,0.5400,0,, ,Correctness:,0.8300,0.8300,0,, ,Correctness:,0.5200,0.5200,0,, 
,Correctness:,0.6000,0.6000,0,, ,Correctness:,0.3200,0.6800,0,, ,Correctness:,0.6400,0.6400,0,, ,Correctness:,0.7100,0.7100,0,, ,Correctness:,0.4000,0.6000,0,, 
,Correctness:,0.5800,0.5800,0,, ,Correctness:,0.1400,0.8600,0,, ,Correctness:,0.6350,0.6350,0,, ,Correctness:,0.8450,0.8450,0,, ,Correctness:,0.4450,0.5550,0,, 
,Correctness:,0.6250,0.6250,0,, ,Correctness:,0.1200,0.8800,0,, ,Correctness:,0.7650,0.7650,0,, ,Correctness:,0.8150,0.8150,0,, ,Correctness:,0.3950,0.6050,0,, 
,Correctness:,0.5750,0.5750,0,, ,Correctness:,0.0950,0.9050,0,, ,Correctness:,0.6250,0.6250,0,, ,Correctness:,0.8550,0.8550,0,, ,Correctness:,0.4700,0.5300,0,, 
,Correctness:,0.5800,0.5800,0,, ,Correctness:,0.0550,0.9450,0,, ,Correctness:,0.6650,0.6650,0,, ,Correctness:,0.8450,0.8450,0,, ,Correctness:,0.4600,0.5400,0,, 
,Correctness:,0.5900,0.5900,0,, ,Correctness:,0.1450,0.8550,0,, ,Correctness:,0.6400,0.6400,0,, ,Correctness:,0.7750,0.7750,0,, ,Correctness:,0.4150,0.5850,0,, 
,Correctness:,0.6200,0.6200,0,, ,Correctness:,0.1000,0.9000,0,, ,Correctness:,0.7300,0.7300,0,, ,Correctness:,0.8350,0.8350,0,, ,Correctness:,0.3700,0.6300,0,, 
,Correctness:,0.5450,0.5450,0,, ,Correctness:,0.1200,0.8800,0,, ,Correctness:,0.4650,0.5350,0,, ,Correctness:,0.8200,0.8200,0,, ,Correctness:,0.5750,0.5750,0,, 
,Correctness:,0.5950,0.5950,0,, ,Correctness:,0.1050,0.8950,0,, ,Correctness:,0.7200,0.7200,0,, ,Correctness:,0.8300,0.8300,0,, ,Correctness:,0.3500,0.6500,0,, 
,Correctness:,0.6000,0.6000,0,, ,Correctness:,0.1650,0.8350,0,, ,Correctness:,0.5950,0.5950,0,, ,Correctness:,0.8350,0.8350,0,, ,Correctness:,0.5000,0.5000,0,, 
,Correctness:,0.5650,0.5650,0,, ,Correctness:,0.1250,0.8750,0,, ,Correctness:,0.5250,0.5250,0,, ,Correctness:,0.8400,0.8400,0,, ,Correctness:,0.5950,0.5950,0,, 
,Correctness:,0.6025,0.6025,0,, ,Correctness:,0.1350,0.8650,0,, ,Correctness:,0.7150,0.7150,0,, ,Correctness:,0.8275,0.8275,0,, ,Correctness:,0.3700,0.6300,0,, 
,Correctness:,0.6250,0.6250,0,, ,Correctness:,0.1400,0.8600,0,, ,Correctness:,0.7975,0.7975,0,, ,Correctness:,0.8325,0.8325,0,, ,Correctness:,0.3100,0.6900,0,, 
,Correctness:,0.5750,0.5750,0,, ,Correctness:,0.0925,0.9075,0,, ,Correctness:,0.6200,0.6200,0,, ,Correctness:,0.8250,0.8250,0,, ,Correctness:,0.4425,0.5575,0,, 
,Correctness:,0.6525,0.6525,0,, ,Correctness:,0.1525,0.8475,0,, ,Correctness:,0.7850,0.7850,0,, ,Correctness:,0.8075,0.8075,0,, ,Correctness:,0.3075,0.6925,0,, 
,Correctness:,0.5275,0.5275,0,, ,Correctness:,0.1425,0.8575,0,, ,Correctness:,0.5375,0.5375,0,, ,Correctness:,0.8225,0.8225,0,, ,Correctness:,0.5000,0.5000,0,, 
,Correctness:,0.6100,0.6100,0,, ,Correctness:,0.1025,0.8975,0,, ,Correctness:,0.6500,0.6500,0,, ,Correctness:,0.8275,0.8275,0,, ,Correctness:,0.4675,0.5325,0,, 
,Correctness:,0.5825,0.5825,0,, ,Correctness:,0.1450,0.8550,0,, ,Correctness:,0.6625,0.6625,0,, ,Correctness:,0.8100,0.8100,0,, ,Correctness:,0.4275,0.5725,0,, 
,Correctness:,0.5375,0.5375,0,, ,Correctness:,0.1325,0.8675,0,, ,Correctness:,0.4925,0.5075,0,, ,Correctness:,0.7675,0.7675,0,, ,Correctness:,0.5500,0.5500,0,, 
,Correctness:,0.5925,0.5925,0,, ,Correctness:,0.1275,0.8725,0,, ,Correctness:,0.7175,0.7175,0,, ,Correctness:,0.8300,0.8300,0,, ,Correctness:,0.3700,0.6300,0,, 
,Correctness:,0.6250,0.6250,0,, ,Correctness:,0.1125,0.8875,0,, ,Correctness:,0.8050,0.8050,0,, ,Correctness:,0.8400,0.8400,0,, ,Correctness:,0.3075,0.6925,0,, 
,Correctness:,0.6250,0.6250,0,, ,Correctness:,0.1163,0.8838,0,, ,Correctness:,0.7375,0.7375,0,, ,Correctness:,0.8400,0.8400,0,, ,Correctness:,0.3700,0.6300,0,, 
,Correctness:,0.6075,0.6075,0,, ,Correctness:,0.0825,0.9175,0,, ,Correctness:,0.7050,0.7050,0,, ,Correctness:,0.8500,0.8500,0,, ,Correctness:,0.3787,0.6213,0,, 
,Correctness:,0.5700,0.5700,0,, ,Correctness:,0.1175,0.8825,0,, ,Correctness:,0.6338,0.6338,0,, ,Correctness:,0.8100,0.8100,0,, ,Correctness:,0.4400,0.5600,0,, 
,Correctness:,0.5650,0.5650,0,, ,Correctness:,0.0862,0.9138,0,, ,Correctness:,0.6025,0.6025,0,, ,Correctness:,0.8462,0.8462,0,, ,Correctness:,0.4725,0.5275,0,, 
,Correctness:,0.5725,0.5725,0,, ,Correctness:,0.1250,0.8750,0,, ,Correctness:,0.5975,0.5975,0,, ,Correctness:,0.8150,0.8150,0,, ,Correctness:,0.4738,0.5262,0,, 
,Correctness:,0.6012,0.6012,0,, ,Correctness:,0.1113,0.8888,0,, ,Correctness:,0.7150,0.7150,0,, ,Correctness:,0.8225,0.8225,0,, ,Correctness:,0.3688,0.6312,0,, 
,Correctness:,0.5962,0.5962,0,, ,Correctness:,0.1037,0.8962,0,, ,Correctness:,0.6400,0.6400,0,, ,Correctness:,0.8313,0.8313,0,, ,Correctness:,0.4325,0.5675,0,, 
,Correctness:,0.5900,0.5900,0,, ,Correctness:,0.0988,0.9012,0,, ,Correctness:,0.6550,0.6550,0,, ,Correctness:,0.8287,0.8287,0,, ,Correctness:,0.4275,0.5725,0,, 
,Correctness:,0.5787,0.5787,0,, ,Correctness:,0.1113,0.8888,0,, ,Correctness:,0.7225,0.7225,0,, ,Correctness:,0.8363,0.8363,0,, ,Correctness:,0.3550,0.6450,0,, 
,Correctness:,0.5837,0.5837,0,, ,Correctness:,0.1163,0.8838,0,, ,Correctness:,0.6663,0.6663,0,, ,Correctness:,0.8263,0.8263,0,, ,Correctness:,0.4238,0.5762,0,, 
,Correctness:,0.5825,0.5825,0,, ,Correctness:,0.1263,0.8738,0,, ,Correctness:,0.6863,0.6863,0,, ,Correctness:,0.8169,0.8169,0,, ,Correctness:,0.4000,0.6000,0,, 
,Correctness:,0.5756,0.5756,0,, ,Correctness:,0.1100,0.8900,0,, ,Correctness:,0.6338,0.6338,0,, ,Correctness:,0.8325,0.8325,0,, ,Correctness:,0.4562,0.5437,0,, 
,Correctness:,0.5938,0.5938,0,, ,Correctness:,0.1231,0.8769,0,, ,Correctness:,0.6725,0.6725,0,, ,Correctness:,0.8219,0.8219,0,, ,Correctness:,0.4213,0.5787,0,, 
,Correctness:,0.5944,0.5944,0,, ,Correctness:,0.1356,0.8644,0,, ,Correctness:,0.6775,0.6775,0,, ,Correctness:,0.8081,0.8081,0,, ,Correctness:,0.4056,0.5944,0,, 
,Correctness:,0.5831,0.5831,0,, ,Correctness:,0.1206,0.8794,0,, ,Correctness:,0.6562,0.6562,0,, ,Correctness:,0.8213,0.8213,0,, ,Correctness:,0.4200,0.5800,0,, 
,Correctness:,0.5850,0.5850,0,, ,Correctness:,0.1419,0.8581,0,, ,Correctness:,0.6887,0.6887,0,, ,Correctness:,0.8075,0.8075,0,, ,Correctness:,0.4012,0.5988,0,, 
,Correctness:,0.5675,0.5675,0,, ,Correctness:,0.1338,0.8662,0,, ,Correctness:,0.5863,0.5863,0,, ,Correctness:,0.8063,0.8063,0,, ,Correctness:,0.4825,0.5175,0,, 
,Correctness:,0.5956,0.5956,0,, ,Correctness:,0.1144,0.8856,0,, ,Correctness:,0.6856,0.6856,0,, ,Correctness:,0.8225,0.8225,0,, ,Correctness:,0.4019,0.5981,0,, 
,Correctness:,0.5875,0.5875,0,, ,Correctness:,0.1206,0.8794,0,, ,Correctness:,0.6694,0.6694,0,, ,Correctness:,0.8087,0.8087,0,, ,Correctness:,0.4075,0.5925,0,, 
,Correctness:,0.5850,0.5850,0,, ,Correctness:,0.1244,0.8756,0,, ,Correctness:,0.6781,0.6781,0,, ,Correctness:,0.8163,0.8163,0,, ,Correctness:,0.4062,0.5938,0,, 
Average:,0.5837,,,,, Average:,0.8756,,,,, Average:,0.6554,,,,, Average:,0.8221,,,,, Average:,0.5862,,,,, 
,Correctness:,0.9900,0.9900,0,, ,Correctness:,0.4600,0.5400,0,, ,Correctness:,0.1500,0.8500,0,, ,Correctness:,0.8600,0.8600,0,, ,Correctness:,0.9600,0.9600,0,, 
,Correctness:,0.8200,0.8200,0,, ,Correctness:,0.4900,0.5100,0,, ,Correctness:,0.2100,0.7900,0,, ,Correctness:,0.7800,0.7800,0,, ,Correctness:,0.8400,0.8400,0,, 
,Correctness:,0.7900,0.7900,0,, ,Correctness:,0.4300,0.5700,0,, ,Correctness:,0.2500,0.7500,0,, ,Correctness:,0.7600,0.7600,0,, ,Correctness:,0.8900,0.8900,0,, 
,Correctness:,0.9300,0.9300,0,, ,Correctness:,0.4700,0.5300,0,, ,Correctness:,0.1400,0.8600,0,, ,Correctness:,0.8500,0.8500,0,, ,Correctness:,0.9000,0.9000,0,, 
,Correctness:,0.8900,0.8900,0,, ,Correctness:,0.5100,0.5100,0,, ,Correctness:,0.1500,0.8500,0,, ,Correctness:,0.8600,0.8600,0,, ,Correctness:,0.8700,0.8700,0,, 
,Correctness:,0.9100,0.9100,0,, ,Correctness:,0.4700,0.5300,0,, ,Correctness:,0.1700,0.8300,0,, ,Correctness:,0.8200,0.8200,0,, ,Correctness:,0.8800,0.8800,0,, 
,Correctness:,0.9100,0.9100,0,, ,Correctness:,0.4500,0.5500,0,, ,Correctness:,0.1400,0.8600,0,, ,Correctness:,0.8500,0.8500,0,, ,Correctness:,0.9100,0.9100,0,, 
,Correctness:,1.0000,1.0000,0,, ,Correctness:,0.4700,0.5300,0,, ,Correctness:,0.1600,0.8400,0,, ,Correctness:,0.8300,0.8300,0,, ,Correctness:,0.9100,0.9100,0,, 
,Correctness:,0.9000,0.9000,0,, ,Correctness:,0.4600,0.5400,0,, ,Correctness:,0.1800,0.8200,0,, ,Correctness:,0.8300,0.8300,0,, ,Correctness:,0.8700,0.8700,0,, 
,Correctness:,0.6400,0.6400,0,, ,Correctness:,0.4700,0.5300,0,, ,Correctness:,0.2800,0.7200,0,, ,Correctness:,0.7100,0.7100,0,, ,Correctness:,0.7300,0.7300,0,, 
,Correctness:,0.8650,0.8650,0,, ,Correctness:,0.4600,0.5400,0,, ,Correctness:,0.1600,0.8400,0,, ,Correctness:,0.8450,0.8450,0,, ,Correctness:,0.8550,0.8550,0,, 
,Correctness:,0.8850,0.8850,0,, ,Correctness:,0.4700,0.5300,0,, ,Correctness:,0.1900,0.8100,0,, ,Correctness:,0.8150,0.8150,0,, ,Correctness:,0.8850,0.8850,0,, 
,Correctness:,0.9200,0.9200,0,, ,Correctness:,0.4500,0.5500,0,, ,Correctness:,0.1500,0.8500,0,, ,Correctness:,0.8550,0.8550,0,, ,Correctness:,0.8800,0.8800,0,, 
,Correctness:,0.9350,0.9350,0,, ,Correctness:,0.4750,0.5250,0,, ,Correctness:,0.1600,0.8400,0,, ,Correctness:,0.8450,0.8450,0,, ,Correctness:,0.9450,0.9450,0,, 
,Correctness:,0.8600,0.8600,0,, ,Correctness:,0.4650,0.5350,0,, ,Correctness:,0.2300,0.7700,0,, ,Correctness:,0.7750,0.7750,0,, ,Correctness:,0.8700,0.8700,0,, 
,Correctness:,0.9000,0.9000,0,, ,Correctness:,0.4600,0.5400,0,, ,Correctness:,0.1700,0.8300,0,, ,Correctness:,0.8350,0.8350,0,, ,Correctness:,0.8700,0.8700,0,, 
,Correctness:,0.9050,0.9050,0,, ,Correctness:,0.5100,0.5100,0,, ,Correctness:,0.1850,0.8150,0,, ,Correctness:,0.8200,0.8200,0,, ,Correctness:,0.8750,0.8750,0,, 
,Correctness:,0.8800,0.8800,0,, ,Correctness:,0.4600,0.5400,0,, ,Correctness:,0.1750,0.8250,0,, ,Correctness:,0.8300,0.8300,0,, ,Correctness:,0.8900,0.8900,0,, 
,Correctness:,0.8750,0.8750,0,, ,Correctness:,0.5100,0.5100,0,, ,Correctness:,0.1700,0.8300,0,, ,Correctness:,0.8350,0.8350,0,, ,Correctness:,0.8950,0.8950,0,, 
,Correctness:,0.9150,0.9150,0,, ,Correctness:,0.4650,0.5350,0,, ,Correctness:,0.1650,0.8350,0,, ,Correctness:,0.8400,0.8400,0,, ,Correctness:,0.8900,0.8900,0,, 
,Correctness:,0.8875,0.8875,0,, ,Correctness:,0.4650,0.5350,0,, ,Correctness:,0.1700,0.8300,0,, ,Correctness:,0.8275,0.8275,0,, ,Correctness:,0.8925,0.8925,0,, 
,Correctness:,0.9075,0.9075,0,, ,Correctness:,0.4600,0.5400,0,, ,Correctness:,0.1700,0.8300,0,, ,Correctness:,0.8325,0.8325,0,, ,Correctness:,0.9000,0.9000,0,, 
,Correctness:,0.9275,0.9275,0,, ,Correctness:,0.4475,0.5525,0,, ,Correctness:,0.1725,0.8275,0,, ,Correctness:,0.8250,0.8250,0,, ,Correctness:,0.8975,0.8975,0,, 
,Correctness:,0.8550,0.8550,0,, ,Correctness:,0.4475,0.5525,0,, ,Correctness:,0.1950,0.8050,0,, ,Correctness:,0.8075,0.8075,0,, ,Correctness:,0.8875,0.8875,0,, 
,Correctness:,0.8475,0.8475,0,, ,Correctness:,0.4850,0.5150,0,, ,Correctness:,0.1750,0.8250,0,, ,Correctness:,0.8225,0.8225,0,, ,Correctness:,0.8700,0.8700,0,, 
,Correctness:,0.9300,0.9300,0,, ,Correctness:,0.4600,0.5400,0,, ,Correctness:,0.1750,0.8250,0,, ,Correctness:,0.8275,0.8275,0,, ,Correctness:,0.9100,0.9100,0,, 
,Correctness:,0.8650,0.8650,0,, ,Correctness:,0.4775,0.5225,0,, ,Correctness:,0.1925,0.8075,0,, ,Correctness:,0.8100,0.8100,0,, ,Correctness:,0.8550,0.8550,0,, 
,Correctness:,0.8975,0.8975,0,, ,Correctness:,0.4850,0.5150,0,, ,Correctness:,0.2300,0.7700,0,, ,Correctness:,0.7675,0.7675,0,, ,Correctness:,0.8475,0.8475,0,, 
,Correctness:,0.8725,0.8725,0,, ,Correctness:,0.4500,0.5500,0,, ,Correctness:,0.1725,0.8275,0,, ,Correctness:,0.8300,0.8300,0,, ,Correctness:,0.8900,0.8900,0,, 
,Correctness:,0.9175,0.9175,0,, ,Correctness:,0.4425,0.5575,0,, ,Correctness:,0.1625,0.8375,0,, ,Correctness:,0.8400,0.8400,0,, ,Correctness:,0.9225,0.9225,0,, 
,Correctness:,0.8975,0.8975,0,, ,Correctness:,0.4662,0.5337,0,, ,Correctness:,0.1613,0.8387,0,, ,Correctness:,0.8400,0.8400,0,, ,Correctness:,0.9050,0.9050,0,, 
,Correctness:,0.9125,0.9125,0,, ,Correctness:,0.4700,0.5300,0,, ,Correctness:,0.1487,0.8513,0,, ,Correctness:,0.8500,0.8500,0,, ,Correctness:,0.8962,0.8962,0,, 
,Correctness:,0.8962,0.8962,0,, ,Correctness:,0.4688,0.5312,0,, ,Correctness:,0.1913,0.8087,0,, ,Correctness:,0.8100,0.8100,0,, ,Correctness:,0.9038,0.9038,0,, 
,Correctness:,0.9263,0.9263,0,, ,Correctness:,0.4650,0.5350,0,, ,Correctness:,0.1550,0.8450,0,, ,Correctness:,0.8462,0.8462,0,, ,Correctness:,0.9200,0.9200,0,, 
,Correctness:,0.8875,0.8875,0,, ,Correctness:,0.4825,0.5175,0,, ,Correctness:,0.1862,0.8137,0,, ,Correctness:,0.8150,0.8150,0,, ,Correctness:,0.8788,0.8788,0,, 
,Correctness:,0.9137,0.9137,0,, ,Correctness:,0.4537,0.5463,0,, ,Correctness:,0.1787,0.8213,0,, ,Correctness:,0.8225,0.8225,0,, ,Correctness:,0.8988,0.8988,0,, 
,Correctness:,0.9113,0.9113,0,, ,Correctness:,0.4675,0.5325,0,, ,Correctness:,0.1700,0.8300,0,, ,Correctness:,0.8313,0.8313,0,, ,Correctness:,0.9025,0.9025,0,, 
,Correctness:,0.9225,0.9225,0,, ,Correctness:,0.4700,0.5300,0,, ,Correctness:,0.1725,0.8275,0,, ,Correctness:,0.8287,0.8287,0,, ,Correctness:,0.9025,0.9025,0,, 
,Correctness:,0.9200,0.9200,0,, ,Correctness:,0.4587,0.5413,0,, ,Correctness:,0.1650,0.8350,0,, ,Correctness:,0.8363,0.8363,0,, ,Correctness:,0.9012,0.9012,0,, 
,Correctness:,0.8938,0.8938,0,, ,Correctness:,0.4662,0.5337,0,, ,Correctness:,0.1750,0.8250,0,, ,Correctness:,0.8263,0.8263,0,, ,Correctness:,0.8750,0.8750,0,, 
,Correctness:,0.8788,0.8788,0,, ,Correctness:,0.4606,0.5394,0,, ,Correctness:,0.1837,0.8163,0,, ,Correctness:,0.8169,0.8169,0,, ,Correctness:,0.8669,0.8669,0,, 
,Correctness:,0.9081,0.9081,0,, ,Correctness:,0.4694,0.5306,0,, ,Correctness:,0.1669,0.8331,0,, ,Correctness:,0.8325,0.8325,0,, ,Correctness:,0.9131,0.9131,0,, 
,Correctness:,0.9019,0.9019,0,, ,Correctness:,0.4656,0.5344,0,, ,Correctness:,0.1775,0.8225,0,, ,Correctness:,0.8219,0.8219,0,, ,Correctness:,0.9019,0.9019,0,, 
,Correctness:,0.8700,0.8700,0,, ,Correctness:,0.4625,0.5375,0,, ,Correctness:,0.1925,0.8075,0,, ,Correctness:,0.8081,0.8081,0,, ,Correctness:,0.8738,0.8738,0,, 
,Correctness:,0.8962,0.8962,0,, ,Correctness:,0.4706,0.5294,0,, ,Correctness:,0.1794,0.8206,0,, ,Correctness:,0.8213,0.8213,0,, ,Correctness:,0.8706,0.8706,0,, 
,Correctness:,0.8894,0.8894,0,, ,Correctness:,0.4619,0.5381,0,, ,Correctness:,0.1919,0.8081,0,, ,Correctness:,0.8075,0.8075,0,, ,Correctness:,0.8831,0.8831,0,, 
,Correctness:,0.8975,0.8975,0,, ,Correctness:,0.4750,0.5250,0,, ,Correctness:,0.1944,0.8056,0,, ,Correctness:,0.8063,0.8063,0,, ,Correctness:,0.8731,0.8731,0,, 
,Correctness:,0.8794,0.8794,0,, ,Correctness:,0.4688,0.5312,0,, ,Correctness:,0.1781,0.8219,0,, ,Correctness:,0.8225,0.8225,0,, ,Correctness:,0.8875,0.8875,0,, 
,Correctness:,0.8919,0.8919,0,, ,Correctness:,0.4662,0.5337,0,, ,Correctness:,0.1906,0.8094,0,, ,Correctness:,0.8087,0.8087,0,, ,Correctness:,0.8800,0.8800,0,, 
,Correctness:,0.8850,0.8850,0,, ,Correctness:,0.4744,0.5256,0,, ,Correctness:,0.1844,0.8156,0,, ,Correctness:,0.8163,0.8163,0,, ,Correctness:,0.8756,0.8756,0,, 
Average:,0.8921,,,,, Average:,0.5338,,,,, Average:,0.8211,,,,, Average:,0.8221,,,,, Average:,0.8859,,,,, 
,Correctness:,0.5900,0.5900,0,, ,Correctness:,0.4800,0.5200,0,, ,Correctness:,0.0200,0.9800,0,, ,Correctness:,0.5900,0.5900,0,, ,Correctness:,0.8600,0.8600,0,, 
,Correctness:,0.6500,0.6500,0,, ,Correctness:,0.4900,0.5100,0,, ,Correctness:,0.1700,0.8300,0,, ,Correctness:,0.5200,0.5200,0,, ,Correctness:,0.7800,0.7800,0,, 
,Correctness:,0.8600,0.8600,0,, ,Correctness:,0.4500,0.5500,0,, ,Correctness:,0.3300,0.6700,0,, ,Correctness:,0.4800,0.5200,0,, ,Correctness:,0.7600,0.7600,0,, 
,Correctness:,0.6000,0.6000,0,, ,Correctness:,0.4600,0.5400,0,, ,Correctness:,0.0800,0.9200,0,, ,Correctness:,0.5800,0.5800,0,, ,Correctness:,0.8500,0.8500,0,, 
,Correctness:,0.4700,0.5300,0,, ,Correctness:,0.5000,0.5000,0,, ,Correctness:,0.0900,0.9100,0,, ,Correctness:,0.6600,0.6600,0,, ,Correctness:,0.8600,0.8600,0,, 
,Correctness:,0.6400,0.6400,0,, ,Correctness:,0.4900,0.5100,0,, ,Correctness:,0.1000,0.9000,0,, ,Correctness:,0.5700,0.5700,0,, ,Correctness:,0.8200,0.8200,0,, 
,Correctness:,0.5400,0.5400,0,, ,Correctness:,0.4800,0.5200,0,, ,Correctness:,0.0800,0.9200,0,, ,Correctness:,0.6400,0.6400,0,, ,Correctness:,0.8500,0.8500,0,, 
,Correctness:,0.6400,0.6400,0,, ,Correctness:,0.4800,0.5200,0,, ,Correctness:,0.0600,0.9400,0,, ,Correctness:,0.5700,0.5700,0,, ,Correctness:,0.8300,0.8300,0,, 
,Correctness:,0.5400,0.5400,0,, ,Correctness:,0.4700,0.5300,0,, ,Correctness:,0.1200,0.8800,0,, ,Correctness:,0.6200,0.6200,0,, ,Correctness:,0.8300,0.8300,0,, 
,Correctness:,0.6400,0.6400,0,, ,Correctness:,0.5000,0.5000,0,, ,Correctness:,0.3300,0.6700,0,, ,Correctness:,0.5300,0.5300,0,, ,Correctness:,0.7100,0.7100,0,, 
,Correctness:,0.6350,0.6350,0,, ,Correctness:,0.4800,0.5200,0,, ,Correctness:,0.0900,0.9100,0,, ,Correctness:,0.5750,0.5750,0,, ,Correctness:,0.8450,0.8450,0,, 
,Correctness:,0.7650,0.7650,0,, ,Correctness:,0.4750,0.5250,0,, ,Correctness:,0.1350,0.8650,0,, ,Correctness:,0.4750,0.5250,0,, ,Correctness:,0.8150,0.8150,0,, 
,Correctness:,0.6250,0.6250,0,, ,Correctness:,0.4850,0.5150,0,, ,Correctness:,0.0850,0.9150,0,, ,Correctness:,0.5800,0.5800,0,, ,Correctness:,0.8550,0.8550,0,, 
,Correctness:,0.6650,0.6650,0,, ,Correctness:,0.4900,0.5100,0,, ,Correctness:,0.0550,0.9450,0,, ,Correctness:,0.5500,0.5500,0,, ,Correctness:,0.8450,0.8450,0,, 
,Correctness:,0.6400,0.6400,0,, ,Correctness:,0.4900,0.5100,0,, ,Correctness:,0.1450,0.8550,0,, ,Correctness:,0.5450,0.5450,0,, ,Correctness:,0.7750,0.7750,0,, 
,Correctness:,0.7300,0.7300,0,, ,Correctness:,0.4850,0.5150,0,, ,Correctness:,0.0750,0.9250,0,, ,Correctness:,0.4850,0.5150,0,, ,Correctness:,0.8350,0.8350,0,, 
,Correctness:,0.4650,0.5350,0,, ,Correctness:,0.5050,0.5050,0,, ,Correctness:,0.1150,0.8850,0,, ,Correctness:,0.6650,0.6650,0,, ,Correctness:,0.8200,0.8200,0,, 
,Correctness:,0.7200,0.7200,0,, ,Correctness:,0.4800,0.5200,0,, ,Correctness:,0.1050,0.8950,0,, ,Correctness:,0.5300,0.5300,0,, ,Correctness:,0.8300,0.8300,0,, 
,Correctness:,0.5950,0.5950,0,, ,Correctness:,0.4850,0.5150,0,, ,Correctness:,0.1750,0.8250,0,, ,Correctness:,0.6100,0.6100,0,, ,Correctness:,0.8350,0.8350,0,, 
,Correctness:,0.5250,0.5250,0,, ,Correctness:,0.4850,0.5150,0,, ,Correctness:,0.1100,0.8900,0,, ,Correctness:,0.6350,0.6350,0,, ,Correctness:,0.8400,0.8400,0,, 
,Correctness:,0.7150,0.7150,0,, ,Correctness:,0.4850,0.5150,0,, ,Correctness:,0.1525,0.8475,0,, ,Correctness:,0.5350,0.5350,0,, ,Correctness:,0.8275,0.8275,0,, 
,Correctness:,0.7975,0.7975,0,, ,Correctness:,0.4675,0.5325,0,, ,Correctness:,0.1500,0.8500,0,, ,Correctness:,0.4975,0.5025,0,, ,Correctness:,0.8325,0.8325,0,, 
,Correctness:,0.6200,0.6200,0,, ,Correctness:,0.4850,0.5150,0,, ,Correctness:,0.0700,0.9300,0,, ,Correctness:,0.5775,0.5775,0,, ,Correctness:,0.8250,0.8250,0,, 
,Correctness:,0.7850,0.7850,0,, ,Correctness:,0.4875,0.5125,0,, ,Correctness:,0.1275,0.8725,0,, ,Correctness:,0.4950,0.5050,0,, ,Correctness:,0.8075,0.8075,0,, 
,Correctness:,0.5375,0.5375,0,, ,Correctness:,0.4800,0.5200,0,, ,Correctness:,0.1650,0.8350,0,, ,Correctness:,0.6300,0.6300,0,, ,Correctness:,0.8225,0.8225,0,, 
,Correctness:,0.6500,0.6500,0,, ,Correctness:,0.4925,0.5075,0,, ,Correctness:,0.0750,0.9250,0,, ,Correctness:,0.5525,0.5525,0,, ,Correctness:,0.8275,0.8275,0,, 
,Correctness:,0.6625,0.6625,0,, ,Correctness:,0.4875,0.5125,0,, ,Correctness:,0.1825,0.8175,0,, ,Correctness:,0.5500,0.5500,0,, ,Correctness:,0.8100,0.8100,0,, 
,Correctness:,0.4925,0.5075,0,, ,Correctness:,0.4975,0.5025,0,, ,Correctness:,0.1400,0.8600,0,, ,Correctness:,0.6025,0.6025,0,, ,Correctness:,0.7675,0.7675,0,, 
,Correctness:,0.7175,0.7175,0,, ,Correctness:,0.4750,0.5250,0,, ,Correctness:,0.1175,0.8825,0,, ,Correctness:,0.5350,0.5350,0,, ,Correctness:,0.8300,0.8300,0,, 
,Correctness:,0.8050,0.8050,0,, ,Correctness:,0.4725,0.5275,0,, ,Correctness:,0.0850,0.9150,0,, ,Correctness:,0.4975,0.5025,0,, ,Correctness:,0.8400,0.8400,0,, 
,Correctness:,0.7375,0.7375,0,, ,Correctness:,0.4775,0.5225,0,, ,Correctness:,0.1150,0.8850,0,, ,Correctness:,0.5275,0.5275,0,, ,Correctness:,0.8400,0.8400,0,, 
,Correctness:,0.7050,0.7050,0,, ,Correctness:,0.4900,0.5100,0,, ,Correctness:,0.0862,0.9138,0,, ,Correctness:,0.5413,0.5413,0,, ,Correctness:,0.8500,0.8500,0,, 
,Correctness:,0.6338,0.6338,0,, ,Correctness:,0.4838,0.5162,0,, ,Correctness:,0.1163,0.8838,0,, ,Correctness:,0.5763,0.5763,0,, ,Correctness:,0.8100,0.8100,0,, 
,Correctness:,0.6025,0.6025,0,, ,Correctness:,0.4700,0.5300,0,, ,Correctness:,0.1000,0.9000,0,, ,Correctness:,0.6012,0.6012,0,, ,Correctness:,0.8462,0.8462,0,, 
,Correctness:,0.5975,0.5975,0,, ,Correctness:,0.4913,0.5088,0,, ,Correctness:,0.1300,0.8700,0,, ,Correctness:,0.5825,0.5825,0,, ,Correctness:,0.8150,0.8150,0,, 
,Correctness:,0.7150,0.7150,0,, ,Correctness:,0.4838,0.5162,0,, ,Correctness:,0.0963,0.9038,0,, ,Correctness:,0.5312,0.5312,0,, ,Correctness:,0.8225,0.8225,0,, 
,Correctness:,0.6400,0.6400,0,, ,Correctness:,0.4875,0.5125,0,, ,Correctness:,0.0850,0.9150,0,, ,Correctness:,0.5787,0.5787,0,, ,Correctness:,0.8313,0.8313,0,, 
,Correctness:,0.6550,0.6550,0,, ,Correctness:,0.4750,0.5250,0,, ,Correctness:,0.1025,0.8975,0,, ,Correctness:,0.5513,0.5513,0,, ,Correctness:,0.8287,0.8287,0,, 
,Correctness:,0.7225,0.7225,0,, ,Correctness:,0.4763,0.5237,0,, ,Correctness:,0.1062,0.8938,0,, ,Correctness:,0.5413,0.5413,0,, ,Correctness:,0.8363,0.8363,0,, 
,Correctness:,0.6663,0.6663,0,, ,Correctness:,0.4850,0.5150,0,, ,Correctness:,0.1075,0.8925,0,, ,Correctness:,0.5563,0.5563,0,, ,Correctness:,0.8263,0.8263,0,, 
,Correctness:,0.6863,0.6863,0,, ,Correctness:,0.4725,0.5275,0,, ,Correctness:,0.1269,0.8731,0,, ,Correctness:,0.5444,0.5444,0,, ,Correctness:,0.8169,0.8169,0,, 
,Correctness:,0.6338,0.6338,0,, ,Correctness:,0.4869,0.5131,0,, ,Correctness:,0.0944,0.9056,0,, ,Correctness:,0.5794,0.5794,0,, ,Correctness:,0.8325,0.8325,0,, 
,Correctness:,0.6725,0.6725,0,, ,Correctness:,0.4825,0.5175,0,, ,Correctness:,0.1200,0.8800,0,, ,Correctness:,0.5481,0.5481,0,, ,Correctness:,0.8219,0.8219,0,, 
,Correctness:,0.6775,0.6775,0,, ,Correctness:,0.4844,0.5156,0,, ,Correctness:,0.1288,0.8712,0,, ,Correctness:,0.5394,0.5394,0,, ,Correctness:,0.8081,0.8081,0,, 
,Correctness:,0.6562,0.6562,0,, ,Correctness:,0.4769,0.5231,0,, ,Correctness:,0.1163,0.8838,0,, ,Correctness:,0.5569,0.5569,0,, ,Correctness:,0.8213,0.8213,0,, 
,Correctness:,0.6887,0.6887,0,, ,Correctness:,0.4825,0.5175,0,, ,Correctness:,0.1325,0.8675,0,, ,Correctness:,0.5331,0.5331,0,, ,Correctness:,0.8075,0.8075,0,, 
,Correctness:,0.5863,0.5863,0,, ,Correctness:,0.4775,0.5225,0,, ,Correctness:,0.1256,0.8744,0,, ,Correctness:,0.5863,0.5863,0,, ,Correctness:,0.8063,0.8063,0,, 
,Correctness:,0.6856,0.6856,0,, ,Correctness:,0.4731,0.5269,0,, ,Correctness:,0.1144,0.8856,0,, ,Correctness:,0.5450,0.5450,0,, ,Correctness:,0.8225,0.8225,0,, 
,Correctness:,0.6694,0.6694,0,, ,Correctness:,0.4844,0.5156,0,, ,Correctness:,0.1163,0.8838,0,, ,Correctness:,0.5456,0.5456,0,, ,Correctness:,0.8087,0.8087,0,, 
,Correctness:,0.6781,0.6781,0,, ,Correctness:,0.4775,0.5225,0,, ,Correctness:,0.1225,0.8775,0,, ,Correctness:,0.5419,0.5419,0,, ,Correctness:,0.8163,0.8163,0,, 
Average:,0.6554,,,,, Average:,0.5180,,,,, Average:,0.8805,,,,, Average:,0.5626,,,,, Average:,0.8221,,,,, 
,Correctness:,0.9900,0.9900,0,, ,Correctness:,0.8600,0.8600,0,, ,Correctness:,0.8600,0.8600,0,, ,Correctness:,0.9400,0.9400,0,, ,Correctness:,0.4200,0.5800,0,, 
,Correctness:,0.8300,0.8300,0,, ,Correctness:,0.7800,0.7800,0,, ,Correctness:,0.7800,0.7800,0,, ,Correctness:,0.7600,0.7600,0,, ,Correctness:,0.3400,0.6600,0,, 
,Correctness:,0.9000,0.9000,0,, ,Correctness:,0.7600,0.7600,0,, ,Correctness:,0.7600,0.7600,0,, ,Correctness:,0.6700,0.6700,0,, ,Correctness:,0.1500,0.8500,0,, 
,Correctness:,0.9400,0.9400,0,, ,Correctness:,0.8500,0.8500,0,, ,Correctness:,0.8500,0.8500,0,, ,Correctness:,0.8900,0.8900,0,, ,Correctness:,0.3900,0.6100,0,, 
,Correctness:,0.9100,0.9100,0,, ,Correctness:,0.8600,0.8600,0,, ,Correctness:,0.8600,0.8600,0,, ,Correctness:,0.9000,0.9000,0,, ,Correctness:,0.5400,0.5400,0,, 
,Correctness:,0.9400,0.9400,0,, ,Correctness:,0.8200,0.8200,0,, ,Correctness:,0.8200,0.8200,0,, ,Correctness:,0.8400,0.8400,0,, ,Correctness:,0.3500,0.6500,0,, 
,Correctness:,0.8700,0.8700,0,, ,Correctness:,0.8500,0.8500,0,, ,Correctness:,0.8500,0.8500,0,, ,Correctness:,0.8700,0.8700,0,, ,Correctness:,0.4500,0.5500,0,, 
,Correctness:,0.9100,0.9100,0,, ,Correctness:,0.8300,0.8300,0,, ,Correctness:,0.8300,0.8300,0,, ,Correctness:,0.9200,0.9200,0,, ,Correctness:,0.3500,0.6500,0,, 
,Correctness:,0.8800,0.8800,0,, ,Correctness:,0.8300,0.8300,0,, ,Correctness:,0.8300,0.8300,0,, ,Correctness:,0.8300,0.8300,0,, ,Correctness:,0.4700,0.5300,0,, 
,Correctness:,0.7400,0.7400,0,, ,Correctness:,0.7100,0.7100,0,, ,Correctness:,0.7100,0.7100,0,, ,Correctness:,0.7100,0.7100,0,, ,Correctness:,0.3500,0.6500,0,, 
,Correctness:,0.8650,0.8650,0,, ,Correctness:,0.8450,0.8450,0,, ,Correctness:,0.8450,0.8450,0,, ,Correctness:,0.8600,0.8600,0,, ,Correctness:,0.3700,0.6300,0,, 
,Correctness:,0.8550,0.8550,0,, ,Correctness:,0.8150,0.8150,0,, ,Correctness:,0.8150,0.8150,0,, ,Correctness:,0.8100,0.8100,0,, ,Correctness:,0.2400,0.7600,0,, 
,Correctness:,0.9400,0.9400,0,, ,Correctness:,0.8550,0.8550,0,, ,Correctness:,0.8550,0.8550,0,, ,Correctness:,0.8850,0.8850,0,, ,Correctness:,0.3800,0.6200,0,, 
,Correctness:,0.9300,0.9300,0,, ,Correctness:,0.8450,0.8450,0,, ,Correctness:,0.8450,0.8450,0,, ,Correctness:,0.8650,0.8650,0,, ,Correctness:,0.3400,0.6600,0,, 
,Correctness:,0.9250,0.9250,0,, ,Correctness:,0.7750,0.7750,0,, ,Correctness:,0.7750,0.7750,0,, ,Correctness:,0.7950,0.7950,0,, ,Correctness:,0.3650,0.6350,0,, 
,Correctness:,0.9500,0.9500,0,, ,Correctness:,0.8350,0.8350,0,, ,Correctness:,0.8350,0.8350,0,, ,Correctness:,0.8650,0.8650,0,, ,Correctness:,0.2750,0.7250,0,, 
,Correctness:,0.9700,0.9700,0,, ,Correctness:,0.8200,0.8200,0,, ,Correctness:,0.8200,0.8200,0,, ,Correctness:,0.8750,0.8750,0,, ,Correctness:,0.5400,0.5400,0,, 
,Correctness:,0.9100,0.9100,0,, ,Correctness:,0.8300,0.8300,0,, ,Correctness:,0.8300,0.8300,0,, ,Correctness:,0.8150,0.8150,0,, ,Correctness:,0.2850,0.7150,0,, 
,Correctness:,0.8400,0.8400,0,, ,Correctness:,0.8350,0.8350,0,, ,Correctness:,0.8350,0.8350,0,, ,Correctness:,0.8250,0.8250,0,, ,Correctness:,0.4100,0.5900,0,, 
,Correctness:,0.9400,0.9400,0,, ,Correctness:,0.8400,0.8400,0,, ,Correctness:,0.8400,0.8400,0,, ,Correctness:,0.8500,0.8500,0,, ,Correctness:,0.4800,0.5200,0,, 
,Correctness:,0.8975,0.8975,0,, ,Correctness:,0.8275,0.8275,0,, ,Correctness:,0.8275,0.8275,0,, ,Correctness:,0.8225,0.8225,0,, ,Correctness:,0.2825,0.7175,0,, 
,Correctness:,0.9300,0.9300,0,, ,Correctness:,0.8325,0.8325,0,, ,Correctness:,0.8325,0.8325,0,, ,Correctness:,0.8050,0.8050,0,, ,Correctness:,0.2050,0.7950,0,, 
,Correctness:,0.9375,0.9375,0,, ,Correctness:,0.8250,0.8250,0,, ,Correctness:,0.8250,0.8250,0,, ,Correctness:,0.8475,0.8475,0,, ,Correctness:,0.3775,0.6225,0,, 
,Correctness:,0.9275,0.9275,0,, ,Correctness:,0.8075,0.8075,0,, ,Correctness:,0.8075,0.8075,0,, ,Correctness:,0.7925,0.7925,0,, ,Correctness:,0.2175,0.7825,0,, 
,Correctness:,0.8525,0.8525,0,, ,Correctness:,0.8225,0.8225,0,, ,Correctness:,0.8225,0.8225,0,, ,Correctness:,0.8400,0.8400,0,, ,Correctness:,0.4600,0.5400,0,, 
,Correctness:,0.9650,0.9650,0,, ,Correctness:,0.8275,0.8275,0,, ,Correctness:,0.8275,0.8275,0,, ,Correctness:,0.8250,0.8250,0,, ,Correctness:,0.3525,0.6475,0,, 
,Correctness:,0.8775,0.8775,0,, ,Correctness:,0.8100,0.8100,0,, ,Correctness:,0.8100,0.8100,0,, ,Correctness:,0.8050,0.8050,0,, ,Correctness:,0.3400,0.6600,0,, 
,Correctness:,0.8975,0.8975,0,, ,Correctness:,0.7675,0.7675,0,, ,Correctness:,0.7675,0.7675,0,, ,Correctness:,0.8125,0.8125,0,, ,Correctness:,0.5050,0.5050,0,, 
,Correctness:,0.9025,0.9025,0,, ,Correctness:,0.8300,0.8300,0,, ,Correctness:,0.8300,0.8300,0,, ,Correctness:,0.8100,0.8100,0,, ,Correctness:,0.2850,0.7150,0,, 
,Correctness:,0.9550,0.9550,0,, ,Correctness:,0.8400,0.8400,0,, ,Correctness:,0.8400,0.8400,0,, ,Correctness:,0.8400,0.8400,0,, ,Correctness:,0.1975,0.8025,0,, 
,Correctness:,0.9250,0.9250,0,, ,Correctness:,0.8400,0.8400,0,, ,Correctness:,0.8400,0.8400,0,, ,Correctness:,0.8275,0.8275,0,, ,Correctness:,0.2637,0.7363,0,, 
,Correctness:,0.9325,0.9325,0,, ,Correctness:,0.8500,0.8500,0,, ,Correctness:,0.8500,0.8500,0,, ,Correctness:,0.8700,0.8700,0,, ,Correctness:,0.2938,0.7063,0,, 
,Correctness:,0.9413,0.9413,0,, ,Correctness:,0.8100,0.8100,0,, ,Correctness:,0.8100,0.8100,0,, ,Correctness:,0.8237,0.8237,0,, ,Correctness:,0.3675,0.6325,0,, 
,Correctness:,0.9375,0.9375,0,, ,Correctness:,0.8462,0.8462,0,, ,Correctness:,0.8462,0.8462,0,, ,Correctness:,0.8750,0.8750,0,, ,Correctness:,0.3987,0.6013,0,, 
,Correctness:,0.9113,0.9113,0,, ,Correctness:,0.8150,0.8150,0,, ,Correctness:,0.8150,0.8150,0,, ,Correctness:,0.8512,0.8512,0,, ,Correctness:,0.4037,0.5962,0,, 
,Correctness:,0.9113,0.9113,0,, ,Correctness:,0.8225,0.8225,0,, ,Correctness:,0.8225,0.8225,0,, ,Correctness:,0.8087,0.8087,0,, ,Correctness:,0.2863,0.7137,0,, 
,Correctness:,0.9087,0.9087,0,, ,Correctness:,0.8313,0.8313,0,, ,Correctness:,0.8313,0.8313,0,, ,Correctness:,0.8462,0.8462,0,, ,Correctness:,0.3613,0.6387,0,, 
,Correctness:,0.9300,0.9300,0,, ,Correctness:,0.8287,0.8287,0,, ,Correctness:,0.8287,0.8287,0,, ,Correctness:,0.8413,0.8413,0,, ,Correctness:,0.3463,0.6538,0,, 
,Correctness:,0.9062,0.9062,0,, ,Correctness:,0.8363,0.8363,0,, ,Correctness:,0.8363,0.8363,0,, ,Correctness:,0.8300,0.8300,0,, ,Correctness:,0.2787,0.7212,0,, 
,Correctness:,0.9087,0.9087,0,, ,Correctness:,0.8263,0.8263,0,, ,Correctness:,0.8263,0.8263,0,, ,Correctness:,0.8375,0.8375,0,, ,Correctness:,0.3350,0.6650,0,, 
,Correctness:,0.8894,0.8894,0,, ,Correctness:,0.8169,0.8169,0,, ,Correctness:,0.8169,0.8169,0,, ,Correctness:,0.8194,0.8194,0,, ,Correctness:,0.3144,0.6856,0,, 
,Correctness:,0.9181,0.9181,0,, ,Correctness:,0.8325,0.8325,0,, ,Correctness:,0.8325,0.8325,0,, ,Correctness:,0.8356,0.8356,0,, ,Correctness:,0.3656,0.6344,0,, 
,Correctness:,0.9081,0.9081,0,, ,Correctness:,0.8219,0.8219,0,, ,Correctness:,0.8219,0.8219,0,, ,Correctness:,0.8200,0.8200,0,, ,Correctness:,0.3269,0.6731,0,, 
,Correctness:,0.9087,0.9087,0,, ,Correctness:,0.8081,0.8081,0,, ,Correctness:,0.8081,0.8081,0,, ,Correctness:,0.8144,0.8144,0,, ,Correctness:,0.3231,0.6769,0,, 
,Correctness:,0.9150,0.9150,0,, ,Correctness:,0.8213,0.8213,0,, ,Correctness:,0.8213,0.8213,0,, ,Correctness:,0.8331,0.8331,0,, ,Correctness:,0.3444,0.6556,0,, 
,Correctness:,0.9175,0.9175,0,, ,Correctness:,0.8075,0.8075,0,, ,Correctness:,0.8075,0.8075,0,, ,Correctness:,0.8069,0.8069,0,, ,Correctness:,0.3106,0.6894,0,, 
,Correctness:,0.9000,0.9000,0,, ,Correctness:,0.8063,0.8063,0,, ,Correctness:,0.8063,0.8063,0,, ,Correctness:,0.8106,0.8106,0,, ,Correctness:,0.4144,0.5856,0,, 
,Correctness:,0.9137,0.9137,0,, ,Correctness:,0.8225,0.8225,0,, ,Correctness:,0.8225,0.8225,0,, ,Correctness:,0.8213,0.8213,0,, ,Correctness:,0.3150,0.6850,0,, 
,Correctness:,0.9175,0.9175,0,, ,Correctness:,0.8087,0.8087,0,, ,Correctness:,0.8087,0.8087,0,, ,Correctness:,0.8175,0.8175,0,, ,Correctness:,0.3300,0.6700,0,, 
,Correctness:,0.9237,0.9237,0,, ,Correctness:,0.8163,0.8163,0,, ,Correctness:,0.8163,0.8163,0,, ,Correctness:,0.8131,0.8131,0,, ,Correctness:,0.3225,0.6775,0,, 
Average:,0.9100,,,,, Average:,0.8221,,,,, Average:,0.8221,,,,, Average:,0.8316,,,,, Average:,0.6550,,,,, 
,Correctness:,0.0200,0.9800,0,, ,Correctness:,0.0400,0.9600,0,, ,Correctness:,0.8900,0.8900,0,, ,Correctness:,0.5900,0.5900,0,, ,Correctness:,0.7300,0.7300,0,, 
,Correctness:,0.1700,0.8300,0,, ,Correctness:,0.2000,0.8000,0,, ,Correctness:,0.7900,0.7900,0,, ,Correctness:,0.6700,0.6700,0,, ,Correctness:,0.6900,0.6900,0,, 
,Correctness:,0.0800,0.9200,0,, ,Correctness:,0.2900,0.7100,0,, ,Correctness:,0.7200,0.7200,0,, ,Correctness:,0.8600,0.8600,0,, ,Correctness:,0.7500,0.7500,0,, 
,Correctness:,0.0400,0.9600,0,, ,Correctness:,0.0800,0.9200,0,, ,Correctness:,0.8700,0.8700,0,, ,Correctness:,0.6600,0.6600,0,, ,Correctness:,0.7300,0.7300,0,, 
,Correctness:,0.0900,0.9100,0,, ,Correctness:,0.0700,0.9300,0,, ,Correctness:,0.8800,0.8800,0,, ,Correctness:,0.5900,0.5900,0,, ,Correctness:,0.6700,0.6700,0,, 
,Correctness:,0.0600,0.9400,0,, ,Correctness:,0.0900,0.9100,0,, ,Correctness:,0.8200,0.8200,0,, ,Correctness:,0.8200,0.8200,0,, ,Correctness:,0.7000,0.7000,0,, 
,Correctness:,0.0800,0.9200,0,, ,Correctness:,0.1000,0.9000,0,, ,Correctness:,0.8200,0.8200,0,, ,Correctness:,0.7900,0.7900,0,, ,Correctness:,0.6700,0.6700,0,, 
,Correctness:,0.1500,0.8500,0,, ,Correctness:,0.0700,0.9300,0,, ,Correctness:,0.8600,0.8600,0,, ,Correctness:,0.6400,0.6400,0,, ,Correctness:,0.7400,0.7400,0,, 
,Correctness:,0.1500,0.8500,0,, ,Correctness:,0.1500,0.8500,0,, ,Correctness:,0.8400,0.8400,0,, ,Correctness:,0.5400,0.5400,0,, ,Correctness:,0.6800,0.6800,0,, 
,Correctness:,0.2900,0.7100,0,, ,Correctness:,0.2500,0.7500,0,, ,Correctness:,0.7100,0.7100,0,, ,Correctness:,0.6600,0.6600,0,, ,Correctness:,0.6800,0.6800,0,, 
,Correctness:,0.1000,0.9000,0,, ,Correctness:,0.1250,0.8750,0,, ,Correctness:,0.8550,0.8550,0,, ,Correctness:,0.6950,0.6950,0,, ,Correctness:,0.7450,0.7450,0,, 
,Correctness:,0.1250,0.8750,0,, ,Correctness:,0.1200,0.8800,0,, ,Correctness:,0.8200,0.8200,0,, ,Correctness:,0.7850,0.7850,0,, ,Correctness:,0.7650,0.7650,0,, 
,Correctness:,0.0650,0.9350,0,, ,Correctness:,0.0950,0.9050,0,, ,Correctness:,0.8750,0.8750,0,, ,Correctness:,0.6250,0.6250,0,, ,Correctness:,0.7450,0.7450,0,, 
,Correctness:,0.0850,0.9150,0,, ,Correctness:,0.0550,0.9450,0,, ,Correctness:,0.8650,0.8650,0,, ,Correctness:,0.6650,0.6650,0,, ,Correctness:,0.7150,0.7150,0,, 
,Correctness:,0.1150,0.8850,0,, ,Correctness:,0.1450,0.8550,0,, ,Correctness:,0.8050,0.8050,0,, ,Correctness:,0.6400,0.6400,0,, ,Correctness:,0.6950,0.6950,0,, 
,Correctness:,0.0800,0.9200,0,, ,Correctness:,0.1100,0.8900,0,, ,Correctness:,0.8550,0.8550,0,, ,Correctness:,0.7550,0.7550,0,, ,Correctness:,0.7750,0.7750,0,, 
,Correctness:,0.0600,0.9400,0,, ,Correctness:,0.1200,0.8800,0,, ,Correctness:,0.8250,0.8250,0,, ,Correctness:,0.5550,0.5550,0,, ,Correctness:,0.6550,0.6550,0,, 
,Correctness:,0.0750,0.9250,0,, ,Correctness:,0.0900,0.9100,0,, ,Correctness:,0.8350,0.8350,0,, ,Correctness:,0.7200,0.7200,0,, ,Correctness:,0.7500,0.7500,0,, 
,Correctness:,0.1100,0.8900,0,, ,Correctness:,0.1550,0.8450,0,, ,Correctness:,0.8200,0.8200,0,, ,Correctness:,0.5950,0.5950,0,, ,Correctness:,0.7000,0.7000,0,, 
,Correctness:,0.0950,0.9050,0,, ,Correctness:,0.1250,0.8750,0,, ,Correctness:,0.8500,0.8500,0,, ,Correctness:,0.6900,0.6900,0,, ,Correctness:,0.6750,0.6750,0,, 
,Correctness:,0.0825,0.9175,0,, ,Correctness:,0.1350,0.8650,0,, ,Correctness:,0.8250,0.8250,0,, ,Correctness:,0.7475,0.7475,0,, ,Correctness:,0.7550,0.7550,0,, 
,Correctness:,0.0700,0.9300,0,, ,Correctness:,0.1175,0.8825,0,, ,Correctness:,0.8125,0.8125,0,, ,Correctness:,0.7975,0.7975,0,, ,Correctness:,0.7875,0.7875,0,, 
,Correctness:,0.0475,0.9525,0,, ,Correctness:,0.0850,0.9150,0,, ,Correctness:,0.8375,0.8375,0,, ,Correctness:,0.6625,0.6625,0,, ,Correctness:,0.7075,0.7075,0,, 
,Correctness:,0.0675,0.9325,0,, ,Correctness:,0.1375,0.8625,0,, ,Correctness:,0.7950,0.7950,0,, ,Correctness:,0.8775,0.8775,0,, ,Correctness:,0.7675,0.7675,0,, 
,Correctness:,0.1350,0.8650,0,, ,Correctness:,0.1375,0.8625,0,, ,Correctness:,0.8325,0.8325,0,, ,Correctness:,0.5475,0.5475,0,, ,Correctness:,0.6800,0.6800,0,, 
,Correctness:,0.0375,0.9625,0,, ,Correctness:,0.0850,0.9150,0,, ,Correctness:,0.8400,0.8400,0,, ,Correctness:,0.7125,0.7125,0,, ,Correctness:,0.7150,0.7150,0,, 
,Correctness:,0.0950,0.9050,0,, ,Correctness:,0.1500,0.8500,0,, ,Correctness:,0.8000,0.8000,0,, ,Correctness:,0.7300,0.7300,0,, ,Correctness:,0.7250,0.7250,0,, 
,Correctness:,0.1375,0.8625,0,, ,Correctness:,0.1325,0.8675,0,, ,Correctness:,0.7900,0.7900,0,, ,Correctness:,0.5225,0.5225,0,, ,Correctness:,0.6225,0.6225,0,, 
,Correctness:,0.1050,0.8950,0,, ,Correctness:,0.1300,0.8700,0,, ,Correctness:,0.8250,0.8250,0,, ,Correctness:,0.7475,0.7475,0,, ,Correctness:,0.7475,0.7475,0,, 
,Correctness:,0.0475,0.9525,0,, ,Correctness:,0.1100,0.8900,0,, ,Correctness:,0.8400,0.8400,0,, ,Correctness:,0.8050,0.8050,0,, ,Correctness:,0.7850,0.7850,0,, 
,Correctness:,0.0838,0.9163,0,, ,Correctness:,0.1100,0.8900,0,, ,Correctness:,0.8375,0.8375,0,, ,Correctness:,0.7900,0.7900,0,, ,Correctness:,0.7662,0.7662,0,, 
,Correctness:,0.0725,0.9275,0,, ,Correctness:,0.0825,0.9175,0,, ,Correctness:,0.8588,0.8588,0,, ,Correctness:,0.7350,0.7350,0,, ,Correctness:,0.7662,0.7662,0,, 
,Correctness:,0.0712,0.9287,0,, ,Correctness:,0.1163,0.8838,0,, ,Correctness:,0.8225,0.8225,0,, ,Correctness:,0.6763,0.6763,0,, ,Correctness:,0.6950,0.6950,0,, 
,Correctness:,0.0488,0.9513,0,, ,Correctness:,0.0862,0.9138,0,, ,Correctness:,0.8625,0.8625,0,, ,Correctness:,0.6763,0.6763,0,, ,Correctness:,0.7100,0.7100,0,, 
,Correctness:,0.0850,0.9150,0,, ,Correctness:,0.1263,0.8738,0,, ,Correctness:,0.8363,0.8363,0,, ,Correctness:,0.6375,0.6375,0,, ,Correctness:,0.7000,0.7000,0,, 
,Correctness:,0.0762,0.9237,0,, ,Correctness:,0.1075,0.8925,0,, ,Correctness:,0.8275,0.8275,0,, ,Correctness:,0.7262,0.7262,0,, ,Correctness:,0.7438,0.7438,0,, 
,Correctness:,0.0688,0.9313,0,, ,Correctness:,0.1037,0.8962,0,, ,Correctness:,0.8400,0.8400,0,, ,Correctness:,0.7312,0.7312,0,, ,Correctness:,0.7137,0.7137,0,, 
,Correctness:,0.0550,0.9450,0,, ,Correctness:,0.0875,0.9125,0,, ,Correctness:,0.8413,0.8413,0,, ,Correctness:,0.6750,0.6750,0,, ,Correctness:,0.7338,0.7338,0,, 
,Correctness:,0.0775,0.9225,0,, ,Correctness:,0.1037,0.8962,0,, ,Correctness:,0.8387,0.8387,0,, ,Correctness:,0.7388,0.7388,0,, ,Correctness:,0.7625,0.7625,0,, 
,Correctness:,0.0963,0.9038,0,, ,Correctness:,0.1087,0.8912,0,, ,Correctness:,0.8375,0.8375,0,, ,Correctness:,0.6837,0.6837,0,, ,Correctness:,0.7388,0.7388,0,, 
,Correctness:,0.1194,0.8806,0,, ,Correctness:,0.1244,0.8756,0,, ,Correctness:,0.8244,0.8244,0,, ,Correctness:,0.7106,0.7106,0,, ,Correctness:,0.7375,0.7375,0,, 
,Correctness:,0.0700,0.9300,0,, ,Correctness:,0.1013,0.8987,0,, ,Correctness:,0.8363,0.8363,0,, ,Correctness:,0.7006,0.7006,0,, ,Correctness:,0.7156,0.7156,0,, 
,Correctness:,0.0762,0.9237,0,, ,Correctness:,0.1150,0.8850,0,, ,Correctness:,0.8300,0.8300,0,, ,Correctness:,0.7344,0.7344,0,, ,Correctness:,0.7212,0.7212,0,, 
,Correctness:,0.0869,0.9131,0,, ,Correctness:,0.1331,0.8669,0,, ,Correctness:,0.8187,0.8187,0,, ,Correctness:,0.6856,0.6856,0,, ,Correctness:,0.7288,0.7288,0,, 
,Correctness:,0.0719,0.9281,0,, ,Correctness:,0.1156,0.8844,0,, ,Correctness:,0.8244,0.8244,0,, ,Correctness:,0.6831,0.6831,0,, ,Correctness:,0.7288,0.7288,0,, 
,Correctness:,0.0856,0.9144,0,, ,Correctness:,0.1369,0.8631,0,, ,Correctness:,0.8081,0.8081,0,, ,Correctness:,0.6887,0.6887,0,, ,Correctness:,0.7262,0.7262,0,, 
,Correctness:,0.0969,0.9031,0,, ,Correctness:,0.1231,0.8769,0,, ,Correctness:,0.8181,0.8181,0,, ,Correctness:,0.6131,0.6131,0,, ,Correctness:,0.6906,0.6906,0,, 
,Correctness:,0.0831,0.9169,0,, ,Correctness:,0.1094,0.8906,0,, ,Correctness:,0.8387,0.8387,0,, ,Correctness:,0.7350,0.7350,0,, ,Correctness:,0.7350,0.7350,0,, 
,Correctness:,0.0881,0.9119,0,, ,Correctness:,0.1244,0.8756,0,, ,Correctness:,0.8200,0.8200,0,, ,Correctness:,0.6719,0.6719,0,, ,Correctness:,0.7181,0.7181,0,, 
,Correctness:,0.1000,0.9000,0,, ,Correctness:,0.1237,0.8762,0,, ,Correctness:,0.8206,0.8206,0,, ,Correctness:,0.7244,0.7244,0,, ,Correctness:,0.7281,0.7281,0,, 
Average:,0.9104,,,,, Average:,0.8812,,,,, Average:,0.8289,,,,, Average:,0.6942,,,,, Average:,0.7222,,,,, 
,Correctness:,0.0200,0.9800,0,, ,Correctness:,0.0200,0.9800,0,, ,Correctness:,0.0200,0.9800,0,, ,Correctness:,0.6300,0.6300,0,, ,Correctness:,0.5900,0.5900,0,, 
,Correctness:,0.1800,0.8200,0,, ,Correctness:,0.1700,0.8300,0,, ,Correctness:,0.2700,0.7300,0,, ,Correctness:,0.5500,0.5500,0,, ,Correctness:,0.6500,0.6500,0,, 
,Correctness:,0.2600,0.7400,0,, ,Correctness:,0.1100,0.8900,0,, ,Correctness:,0.4400,0.5600,0,, ,Correctness:,0.5100,0.5100,0,, ,Correctness:,0.8600,0.8600,0,, 
,Correctness:,0.0900,0.9100,0,, ,Correctness:,0.0500,0.9500,0,, ,Correctness:,0.1400,0.8600,0,, ,Correctness:,0.6000,0.6000,0,, ,Correctness:,0.6000,0.6000,0,, 
,Correctness:,0.0900,0.9100,0,, ,Correctness:,0.0700,0.9300,0,, ,Correctness:,0.0600,0.9400,0,, ,Correctness:,0.6900,0.6900,0,, ,Correctness:,0.4700,0.5300,0,, 
,Correctness:,0.0600,0.9400,0,, ,Correctness:,0.0600,0.9400,0,, ,Correctness:,0.2700,0.7300,0,, ,Correctness:,0.6000,0.6000,0,, ,Correctness:,0.6400,0.6400,0,, 
,Correctness:,0.0800,0.9200,0,, ,Correctness:,0.0800,0.9200,0,, ,Correctness:,0.1000,0.9000,0,, ,Correctness:,0.6600,0.6600,0,, ,Correctness:,0.5400,0.5400,0,, 
,Correctness:,0.0700,0.9300,0,, ,Correctness:,0.0200,0.9800,0,, ,Correctness:,0.0300,0.9700,0,, ,Correctness:,0.5900,0.5900,0,, ,Correctness:,0.6400,0.6400,0,, 
,Correctness:,0.1300,0.8700,0,, ,Correctness:,0.1500,0.8500,0,, ,Correctness:,0.1900,0.8100,0,, ,Correctness:,0.6400,0.6400,0,, ,Correctness:,0.5400,0.5400,0,, 
,Correctness:,0.2900,0.7100,0,, ,Correctness:,0.2800,0.7200,0,, ,Correctness:,0.4400,0.5600,0,, ,Correctness:,0.5300,0.5300,0,, ,Correctness:,0.6400,0.6400,0,, 
,Correctness:,0.1000,0.9000,0,, ,Correctness:,0.1400,0.8600,0,, ,Correctness:,0.1650,0.8350,0,, ,Correctness:,0.6150,0.6150,0,, ,Correctness:,0.6350,0.6350,0,, 
,Correctness:,0.1350,0.8650,0,, ,Correctness:,0.1400,0.8600,0,, ,Correctness:,0.2350,0.7650,0,, ,Correctness:,0.5400,0.5400,0,, ,Correctness:,0.7650,0.7650,0,, 
,Correctness:,0.0850,0.9150,0,, ,Correctness:,0.0650,0.9350,0,, ,Correctness:,0.0800,0.9200,0,, ,Correctness:,0.5900,0.5900,0,, ,Correctness:,0.6250,0.6250,0,, 
,Correctness:,0.0650,0.9350,0,, ,Correctness:,0.0600,0.9400,0,, ,Correctness:,0.2750,0.7250,0,, ,Correctness:,0.5600,0.5600,0,, ,Correctness:,0.6650,0.6650,0,, 
,Correctness:,0.1150,0.8850,0,, ,Correctness:,0.0950,0.9050,0,, ,Correctness:,0.2250,0.7750,0,, ,Correctness:,0.5600,0.5600,0,, ,Correctness:,0.6400,0.6400,0,, 
,Correctness:,0.0600,0.9400,0,, ,Correctness:,0.0750,0.9250,0,, ,Correctness:,0.1750,0.8250,0,, ,Correctness:,0.5400,0.5400,0,, ,Correctness:,0.7300,0.7300,0,, 
,Correctness:,0.0600,0.9400,0,, ,Correctness:,0.0400,0.9600,0,, ,Correctness:,0.2000,0.8000,0,, ,Correctness:,0.6650,0.6650,0,, ,Correctness:,0.4650,0.5350,0,, 
,Correctness:,0.0750,0.9250,0,, ,Correctness:,0.1000,0.9000,0,, ,Correctness:,0.1750,0.8250,0,, ,Correctness:,0.5550,0.5550,0,, ,Correctness:,0.7200,0.7200,0,, 
,Correctness:,0.1200,0.8800,0,, ,Correctness:,0.1350,0.8650,0,, ,Correctness:,0.2550,0.7450,0,, ,Correctness:,0.6100,0.6100,0,, ,Correctness:,0.5950,0.5950,0,, 
,Correctness:,0.1100,0.8900,0,, ,Correctness:,0.1200,0.8800,0,, ,Correctness:,0.2250,0.7750,0,, ,Correctness:,0.6600,0.6600,0,, ,Correctness:,0.5250,0.5250,0,, 
,Correctness:,0.0975,0.9025,0,, ,Correctness:,0.1125,0.8875,0,, ,Correctness:,0.2475,0.7525,0,, ,Correctness:,0.5600,0.5600,0,, ,Correctness:,0.7150,0.7150,0,, 
,Correctness:,0.0700,0.9300,0,, ,Correctness:,0.0775,0.9225,0,, ,Correctness:,0.2250,0.7750,0,, ,Correctness:,0.5125,0.5125,0,, ,Correctness:,0.7975,0.7975,0,, 
,Correctness:,0.0475,0.9525,0,, ,Correctness:,0.0900,0.9100,0,, ,Correctness:,0.2100,0.7900,0,, ,Correctness:,0.5825,0.5825,0,, ,Correctness:,0.6200,0.6200,0,, 
,Correctness:,0.1100,0.8900,0,, ,Correctness:,0.0850,0.9150,0,, ,Correctness:,0.2575,0.7425,0,, ,Correctness:,0.5250,0.5250,0,, ,Correctness:,0.7850,0.7850,0,, 
,Correctness:,0.1375,0.8625,0,, ,Correctness:,0.1400,0.8600,0,, ,Correctness:,0.2375,0.7625,0,, ,Correctness:,0.6450,0.6450,0,, ,Correctness:,0.5375,0.5375,0,, 
,Correctness:,0.0525,0.9475,0,, ,Correctness:,0.0375,0.9625,0,, ,Correctness:,0.2275,0.7725,0,, ,Correctness:,0.5900,0.5900,0,, ,Correctness:,0.6500,0.6500,0,, 
,Correctness:,0.1050,0.8950,0,, ,Correctness:,0.1075,0.8925,0,, ,Correctness:,0.2200,0.7800,0,, ,Correctness:,0.5675,0.5675,0,, ,Correctness:,0.6625,0.6625,0,, 
,Correctness:,0.1075,0.8925,0,, ,Correctness:,0.1050,0.8950,0,, ,Correctness:,0.2150,0.7850,0,, ,Correctness:,0.6075,0.6075,0,, ,Correctness:,0.4925,0.5075,0,, 
,Correctness:,0.1025,0.8975,0,, ,Correctness:,0.0725,0.9275,0,, ,Correctness:,0.1825,0.8175,0,, ,Correctness:,0.5600,0.5600,0,, ,Correctness:,0.7175,0.7175,0,, 
,Correctness:,0.0475,0.9525,0,, ,Correctness:,0.0425,0.9575,0,, ,Correctness:,0.2000,0.8000,0,, ,Correctness:,0.5350,0.5350,0,, ,Correctness:,0.8050,0.8050,0,, 
,Correctness:,0.0838,0.9163,0,, ,Correctness:,0.0813,0.9187,0,, ,Correctness:,0.2075,0.7925,0,, ,Correctness:,0.5600,0.5600,0,, ,Correctness:,0.7375,0.7375,0,, 
,Correctness:,0.0688,0.9313,0,, ,Correctness:,0.0750,0.9250,0,, ,Correctness:,0.1713,0.8287,0,, ,Correctness:,0.5613,0.5613,0,, ,Correctness:,0.7050,0.7050,0,, 
,Correctness:,0.1013,0.8987,0,, ,Correctness:,0.0788,0.9213,0,, ,Correctness:,0.2600,0.7400,0,, ,Correctness:,0.5787,0.5787,0,, ,Correctness:,0.6338,0.6338,0,, 
,Correctness:,0.0625,0.9375,0,, ,Correctness:,0.0525,0.9475,0,, ,Correctness:,0.1762,0.8237,0,, ,Correctness:,0.6100,0.6100,0,, ,Correctness:,0.6025,0.6025,0,, 
,Correctness:,0.1087,0.8912,0,, ,Correctness:,0.1000,0.9000,0,, ,Correctness:,0.2137,0.7863,0,, ,Correctness:,0.5988,0.5988,0,, ,Correctness:,0.5975,0.5975,0,, 
,Correctness:,0.0688,0.9313,0,, ,Correctness:,0.0725,0.9275,0,, ,Correctness:,0.2037,0.7963,0,, ,Correctness:,0.5600,0.5600,0,, ,Correctness:,0.7150,0.7150,0,, 
,Correctness:,0.0612,0.9387,0,, ,Correctness:,0.0788,0.9213,0,, ,Correctness:,0.1938,0.8063,0,, ,Correctness:,0.6025,0.6025,0,, ,Correctness:,0.6400,0.6400,0,, 
,Correctness:,0.0650,0.9350,0,, ,Correctness:,0.0600,0.9400,0,, ,Correctness:,0.2100,0.7900,0,, ,Correctness:,0.5763,0.5763,0,, ,Correctness:,0.6550,0.6550,0,, 
,Correctness:,0.0838,0.9163,0,, ,Correctness:,0.0862,0.9138,0,, ,Correctness:,0.1575,0.8425,0,, ,Correctness:,0.5613,0.5613,0,, ,Correctness:,0.7225,0.7225,0,, 
,Correctness:,0.0838,0.9163,0,, ,Correctness:,0.1187,0.8812,0,, ,Correctness:,0.1762,0.8237,0,, ,Correctness:,0.5737,0.5737,0,, ,Correctness:,0.6663,0.6663,0,, 
,Correctness:,0.1062,0.8938,0,, ,Correctness:,0.1344,0.8656,0,, ,Correctness:,0.1875,0.8125,0,, ,Correctness:,0.5587,0.5587,0,, ,Correctness:,0.6863,0.6863,0,, 
,Correctness:,0.0781,0.9219,0,, ,Correctness:,0.0881,0.9119,0,, ,Correctness:,0.2119,0.7881,0,, ,Correctness:,0.5981,0.5981,0,, ,Correctness:,0.6338,0.6338,0,, 
,Correctness:,0.0956,0.9044,0,, ,Correctness:,0.0919,0.9081,0,, ,Correctness:,0.2231,0.7769,0,, ,Correctness:,0.5787,0.5787,0,, ,Correctness:,0.6725,0.6725,0,, 
,Correctness:,0.1044,0.8956,0,, ,Correctness:,0.0900,0.9100,0,, ,Correctness:,0.2487,0.7512,0,, ,Correctness:,0.5625,0.5625,0,, ,Correctness:,0.6775,0.6775,0,, 
,Correctness:,0.0925,0.9075,0,, ,Correctness:,0.0850,0.9150,0,, ,Correctness:,0.2069,0.7931,0,, ,Correctness:,0.5687,0.5687,0,, ,Correctness:,0.6562,0.6562,0,, 
,Correctness:,0.0844,0.9156,0,, ,Correctness:,0.0850,0.9150,0,, ,Correctness:,0.2125,0.7875,0,, ,Correctness:,0.5587,0.5587,0,, ,Correctness:,0.6887,0.6887,0,, 
,Correctness:,0.0931,0.9069,0,, ,Correctness:,0.0856,0.9144,0,, ,Correctness:,0.2050,0.7950,0,, ,Correctness:,0.5975,0.5975,0,, ,Correctness:,0.5863,0.5863,0,, 
,Correctness:,0.0919,0.9081,0,, ,Correctness:,0.0844,0.9156,0,, ,Correctness:,0.2238,0.7762,0,, ,Correctness:,0.5625,0.5625,0,, ,Correctness:,0.6856,0.6856,0,, 
,Correctness:,0.0744,0.9256,0,, ,Correctness:,0.0831,0.9169,0,, ,Correctness:,0.2075,0.7925,0,, ,Correctness:,0.5706,0.5706,0,, ,Correctness:,0.6694,0.6694,0,, 
,Correctness:,0.0919,0.9081,0,, ,Correctness:,0.0975,0.9025,0,, ,Correctness:,0.2119,0.7881,0,, ,Correctness:,0.5687,0.5687,0,, ,Correctness:,0.6781,0.6781,0,, 
Average:,0.9045,,,,, Average:,0.9084,,,,, Average:,0.7940,,,,, Average:,0.5817,,,,, Average:,0.6554,,,,, 
