3316313142
FFFLLLFFFF
6266244442
LFFFFFFFFF
2166333626
FFFFFFFLLL
2152646266
FFFFFFFFLF
3261221246
FFFFFFFFFF
6332563423
LLFFFFFFFF
4663652362
FFLLLFFFFF
2463114334
FFFFFFFFFF
6666662166
LLLLLLLLLL
5452252434
FFFFFFFFFF
6121625156
FFFFFFFFFL
4332531563
FFFFFFFLLL
5123134223
FFFFFFFFFF
6131441441
FFFFFFFFFF
6666666666
LLLLLLLLLL
4366664166
FLLLLLLLLL
3413536366
FFFFFFFLLL
6166666616
LLLLLLLLLL
5643361666
FFFFFFFLLL
6666326666
LLLLLLLLLL
2226142466
FFFFFFFFLL
6626666655
LLLLLLLLLL
6566264565
FFFLFFFFFF
3136615466
FFFFFFFLLL
2216434545
FFFFFFFFFF
6112114325
FFFFFFFFFF
1646621666
FFFFFFFFLL
2516155456
FFFFFFFFFF
4264164466
FFFFFFFFFL
6666666266
LLLLLLLLLF
3115656146
FFFFFFFFFL
1666666661
FFLLLLLLLL
6366511266
LLLLLLFFFF
6162645331
LLLLLFFFFF
2212131551
LFFFFFFFFF
6666663366
LLLLLLLLLL
6666661646
LLLLLLFFFF
6666142261
LLLLLFFFFF
4222241351
FFFFFFFFFF
6462113223
FFFFFFFFFF
6354666666
FFFFLLLLLL
5113256415
FFFFFFFFFF
6666666615
LLLLLLLFFF
1444415612
FFFFFFFFFF
6643466446
LLFFFLFFFF
5266266666
LLLLLLLLLL
6564154661
FFFFFFFFFF
5526434623
FFFFFFFFFF
1312564115
FFFFFLFFFF
6566213553
FFLLFFFFFF
6251463612
FFFFFFFFFF
2332554444
FFFFFFFFFF
6366516645
FFFFFFLLLF
6166666366
LLLLLLLLLL
1121564662
FFFFFFFLFF
6466666666
LFFLLLLLLL
1526234333
FFFFFFFFFF
5462554641
FFFFFFFFFF
6262664454
LLLLLLFFFF
4155154363
FFFFFFFFFF
6261564133
LLLFFFFFFF
1245361526
FFFFFFFFFF
2144626455
FFFFFFFFFF
6665252345
LLLFFFFFFF
2222664551
FFFFFFFFFF
6435441266
FFFFFFFFFF
1416531555
FFFFFFFFFF
2563426666
FFFFFLLLLL
1165613522
FFFFFFFFFF
6666666666
LLLLLLLLLL
1666663664
FLLLLLLLLL
5336552654
FFFFFFFFFF
3345432144
FFFFFFFFFF
1545445531
FFFFFFFFFF
2234561265
FFFFFFFFFF
6231316212
FFFFFFFFFF
6636256546
FFFFFFFFFF
3114436665
FFFFFFLLLL
6653255335
LFFFFFFFFF
5666661666
LLLLLLLLLL
1466662636
FFLLLLLLLL
6334122446
FFFFFFFFFF
6453654612
FFFLLFFFFF
4462455336
FFFFFFFFFF
6666666326
LLLLLLLLLL
6666166643
LLLLLLLFFF
1145254463
FFFFFFFFFF
2662152414
FFFFFFFFFF
4431146666
FFFFFFFFFF
1341265455
FFFFFFLFFF
6212311532
FFFFFFFFFF
4321531534
FFFFFFFFFF
6136524241
FFFFFFFFFF
5666666666
FLLLLLLLLL
5356321533
FFFFFFFFFF
2623661215
FFFFFFFFLF
6561226666
FFFFFFLLLL
4616322416
FFFFFFFFFL
3456635621
FFFFFFFFFF
1546666663
FLLLLLLLLL
