16666666623551462324663666666666166666363426152222
FLLLLLLLLFFFFFFFFFFFLLLLLLLLLLLLLLLLLLFFFFFFFFFFFF
55526633624654364146152126532432641124161314254254
FFFFFFFFFFFFFFFFFFFFFFFFFFFFFFFFFFFFFFFFFFFFFFFFFF
66566636262532211221264131343264233533543125212523
LLLLLLLLFFFFFFFFFFFFFFLLLFFFFFFFFFFFFFFFFFFFFFFFFF
56626362532551341553636531453661412521326363565323
LLLLLLLFFFFFFFFFFFFFFFFFFFFFFFFFFFFFFFFFLLLFFFFFFF
35353612152554243234646365145365166666646666666611
FFFFFFFFFFFFFFFFFFFFFFLLLLFFFFFFFLLLLLLLLLLLLLLLFF
32616266666645452431135425631115234514226435631254
FFFFLLLLLLLLLLLFFFFFFFFFFFFFFFFFFFFFFFFFFFFFFFFFFF
65555135452356645166612464653523652254633424154616
FFFFFFFFFFFFFFFFFFLLFFFFFFFFFFFFFFFFFFFFFFFFFFFFFF
54525616656126466666265542135522161666261142666666
FFFFFLLLLLLFFLLLLLLLLLLLFFFFFFFFFFFLLLFFFFLLLLLLLL
23465413423525333243463364646642661433336331453333
FFFFFFFFFFFFFFFFFFFFFFFFLLLLLLLLLFFFFFFFFFFFFFFFFF
66666666663666666263612431664621114126166533425666
LLLLLLLLLLLLLLLLLLLLFFFFFFFFFFFFFFFFFFFFFFFFFFFLLL
63266661666666466666665616165513534445623421543364
LLLLLLLLLLLLLLLLLLLLLLFFFLLFFFFFFFFFFFFFFFFFFFFFFF
31355166662443146441422344644614646262413262642164
FFFFFLLLLLFFFFFFFFFFFFFFFFFFFFFFFFFFFFFFFFFFFFFFFF
32434562134243412154655415222466236636666312136664
FFFFFFFFFFFFFFFFFFFFFFFFFFLFFFLLLLLLFFFFFFFFFFLLLF
56626666662266656666666166656663623266663545412424
FLLFLLLLLLLLLLLLLLLLLLLLLLLLLLLLLLFLLLLLFFFFFFFFFF
41652555116664666466666666641666166663122431652125
FFFFFFFFFFLLLLLLLLLLLLLLLLLLLLLLLLLLFFFFFFFFFFFFFF
66216431143525363566665666164264143466212125311213
LLFFFFFFFFFFFFFLLLLLLLLLLLFFFFFFFFFFFFFFFFFFFFFFFF
66662236666166665123622523122515545541262516236541
LLLLLLLLLLLLLLLLFFFFFFFFFFFFFFFFFFFFFFFFFFFFFFFFFF
16256544156545563364422366322264626553656212261333
FFFFFFFFFFFLFFFFFFFFFFFFFFFFFFFFFFFFFFFFFFFFFFFFFF
62661432532265133524341611652444223545243666666264
LLLLFFFFFFFFFFFFFFFFFFFFFFFFFFFFFFFFFFFFFLLLLLLFFF
46613655621534136214264421116166666665461646666641
LLFFFFFFFFFFFFFFFFFFFFFFFFFFFLLLLLLLLFLLLLLLLLLLLL
43464513462165246416266364211511663653116664666666
FFFFFFFFFFFFFFFFFFFFFFFFFFFFFFFFFFFFFFFFFLLLLLLLLL
56662522422154615612666666666666351615162436344634
LLLLFFFFFFFFFFFFFFFFLLLLLLLLLLFFFFFFFFFFFFFFFFFFFF
15341345223621131265262415164332666464315256662555
FFFFFFFFFFFFFFFFFFFFFFFFFFFFFFFFLLLFFFFFFFFLLLFFFF
66416535521616522122454116521135166661663363266666
LLFFFFFFFFFFFFFFFFFFFFFFFFFFFFFFFLFLLLLLFFFFLLLLLL
64356461142243166253316566666626666666666626651535
FFFFFFFFFFFFFFFFFFFFLLLLLLLLLLLLLLLLLLLLLLLLLLLFFF
55143666422311342214166613222153316655361465654335
FFFFFLLLFFFFFFFFFFFFLLLLFFFFFFFFFFFFFFFFFFFFFFFFFF
32332612135253465216222666466651615416252563646122
FFFFFFFFFFFFFFFFFFFFFFFLLLFFLLLFFFFFFFFFFFFFFFFFFF
66556616666664466656552156356213162643621424231356
FFFFFFFLLLLLLFFFFFFFFFFFFFFFFFFFFFFFFFFFFFFFFFFFFF
66566463663666661666666666566466661223154642163421
LLLLLLLLLLLLLLLLLLLLLLLLLLLLLLLLLLFFFFFFFFFFFFFFFF
66662626666666666443431256256666634516315562126414
LLLLLFFLLLLLLLLLLFFFFFFFFFFFLLLLLFFFFFFFFFFFLLLLFF
63445551646666666466661436445434544616454211615144
FFFFFFFFLLLLLLLLLLLLLFFFFFLLLLFFFFFFFFFFFFFFFFFFFF
66666116636666655414554613431164421652216235614661
LLLLFFFLLLLLLLLFFFFFFFFFFFFFFLLFFFFFFFFFFFFFFFFFFF
23451331412236344222345121414456254412546146431665
FFFFFFFFFFFFFFFFFFFFFFFFFFFFFFFFFFFFFFFFFFFLFFFLLL
52423334155333611615244124411324554643113545144431
FFFFFFFFFFFFFFFFFFFFFFFFFFFFFFFFFFFFFFFFFFFFFFFFFF
44116463666126665614266666666663623145326122352461
FFFFFLLLLLLLLLLFFFFFLLLLLLLLLLLLLFFFFFFFFFFFFFFFFF
36246253114124433111666666666656666666666665666666
FFFFFFFFFFFFFFFFFFFFLLLLLLLLLLLLLLLLLLLLLLLLLLLLLL
11662233356165511433446223132262215631424316516345
FLLLFFFFFFFFFFFFFFFFFFLFFFFFFFFFFFFFFFFFFFFFFFFFFF
31412663615621456646335154234335611454643146522355
FFFFFLLLFFFFFFFFLLLLFFFFFFFFFFFFFFFFFFFFFFFFFFFFFF
32333332153156561124652345352631362553144316566626
FFFFFFFFFFFFFFFFFFFFFFFFFFFFFFFFFFFFFFFFFFFLLLLLLL
66666665662646666266666666426366166264251426141116
LLLLLLLLLFLLLLLLLLLLLLLLLLFFFFLLLLLLLFFFFFFFFFFFFF
53353562623452661642555141126631632325632434543264
FFFFFFFFFFFFFFFLLFFFFFFFFFFLLLLLLFFFFFFFFFFFFFFFFF
51336666666164311466653325664235154661232464615624
FFFFLLLLLLLLLFFFFFFFFFFFFFFFFFFFFFFFFFFFFFFFFFFFFF
41166134226424126535264226252666662464162222213156
FFFFFFFFFFFFFFFFFFFFFFFFFFFFFLLLLLFFFFFFFFFFFFFFFF
64566654636115241623464216414242241223451465666164
LLLLLLFFFFFFFFFFFFFFFFFFFFFFFFFFFFFFFFFFFFFFFLLLLF
66251266661651151216432116466662666366326614566666
LLFFFFFLLLFFFFFFFFFFFFFFFFFLLLLLLLLLLLFFFFFFFFFLLL
15666666363363516646666666666666612666646615423345
FFLLLLLLLLFFFFFFLLLLLLLLLLLLLLLLLLLLLLLLLLFFFFFFFF
64153661653561341412446666666666666432546561666666
FFFFFFFFFFFFFFFFFFFFFFFLLLLLLLLLLLFFFFFFFFFFFLLLLL
55335461662235215464645625261216531564666666666613
FFFFFFFFFFFFFFFFFFFFFFFFFFFFFFFFFFFFFFLLLLLLLLLLFF
51662666224443635566123131545526434454355466546435
LLLLLLLLFFFFFFFFFFLFFFFFFFFFFFFFFFFFFFFFFFFFFFFFFF
33125163416266663666666365416536153346365145162653
FFFFFFFFFFLLLLLLLLLLLLLFFFFFFFFFFFFFFLLLFFFFFFFFFF
66666666666666233533661543165145666666666666666616
LLLLLLLLLLLLLLLLFFFFFFFFFFFFFFFFFLLLLLLLLLLLLLLLLL
54124616255161631656465366466626662663636666634666
FFFFFFFFFFFFFFFFFFFFFFFFFLLLLLLLLLLLLLLLLLLLLLLLLL
66566446453256666665341234661666666666566562666646
LLLLFFFFFFFFFLLLLLLFFFFFFFLLLLLLLLLLLLLLLLLLLLLLLL
63263445635333562553414235666433441662643152634266
FFFFFFFFFFFFFFFFFFFFFFFFFFFFFFFFFFFFLLLLFFFFFFFFFF
31112634463454431223516252134323353534236314351221
FFFFFFFFFFFFFFFFFFFFFFFFFFFFFFFFFFFFFFFFFFFFFFFFFF
64446441525226356516666662456666666365666666666616
FFFFFFFFFFFFFFFFFFLLLLLLLFFLLLLLLLLFLLLLLLLLLLLLLL
44622215233413652615362413254343324153454664346146
FFFFFFFFFFFFLLLLLLFFFFFFFFFFFFFFFFFFFFFFFLLFFFFFFF
63664464552666254425546223163462351622543366662252
LLLLFFFFFFFFLLFFFFFFFFFFFFFFFFFFFFFFFFFFFFLLLLFFFF
53516464366613662663266666666216552543143331441461
FFFFFFFFFLLLLLLLLLLLFLLLLLLLLLLFFFFFFFFFFFFFFFFFFF
63256411333666663666232615534223346343524645426136
FFFFFFFFFLLLLLLLLLLLFFFFFFFFFFFFFFFFFFFFFFFFFFFFFL
63443164433665564635256515221423264155142545343566
FFFFFFFFFFFFFFFFFFFFFFFFFFFFFFFFFFFFFFFFFFFFFFFFFF
32354532144436434523651265666662663552545341236666
FFFFFFFFFFFFFFFFFFFFFFFFFFLLLLLLLLFFFFFFFFFFFFLLLL
63346215136111265342651641553311136423666616666666
LFFFFFFFFFFFFFFFFFFFFFFFFFFFFFFFFFFFLFLLLLLLLLLLLF
14266233326652356666666466666366666663616645421666
FFFLLFFFFFFFFFFFLLLLLLLLLLLLLLLLLLLLLLLLLLFFFFFLLL
66411612654543554554444353352361223163166344626666
LLFFFFFFFFFFFFFFFFLFFFFFFFFFFFFFFFFFFFFFFFFFFFFLLL
41545164641655245363666662166666666666666616625224
FFFFFFFFFFFFFFFFFFLLLLLLLLLLLLLLLLLLLLLLLLLLFFFFFF
66666666666416322552366666636315255166415663544636
LLLLLLLLLLLFFFFFFFFFFLLLLLLFFFFFFFFFLFFFFFFFFFLLLL
24635344215216212525666412162266426433646162423546
FFFFFFFFFFFFFFFFFFFFLLLLFFFFFFLLFFFFFFFFFFFFFFFFFF
66666662566646666666624666516166262346432556523612
LLLLLLLFLLLLLLLLLLLLLLLLLLLLLLLLLFFFFFFFFFFFFFFFFF
24531263451141651255251646534166321654331666666263
FFFFFFFFFFFFFFFFFFFFFFFFFFFFFFFFFFFFFFFFFLLLLLLLLF
26445152425225234121631261265546262124232553623166
FFFFFFFFFFFFFFFFFFFFFFFFFFFFFFFFFFFFFFFFFFFFFFFFFL
43444251525461422611342621355621556666616666653662
FFFFFFFFFFFFFFFFFFFFFFFFFFFFFFFFFFLLLLLLLLLLLFFFLL
16121454266666662626626622226533555625613666151446
FFFFFFFFLLLLLLLLLLLLLLLLFFFFFFFFFFFFFFFFFLLLLFFFFF
56616242364456636556666666652266366146621652642452
LLLFFFFFFFFFFFFFFFFLLLLLLLLFFLLLLLLLLLLFFFFFFFFFFF
22311643616666226664355424352564563152114166113666
FFFFFFFFFLLLLFFLLLLLFFFFFFFFFFFFFFFFFFFFFFFFFFFLLL
14521261322621233166355414454112233115631142131434
FFFFFFFFFFFFFFFFFFFFFFFFFFFFFFFFFFFFFFFFFFFFFFFFFF
41632124411361244462456165426331423244225242115246
FFFFFFFFFFFFFFFFLLLFFFFFFFFFFFFFFFFFFFFFFFFFFFFFFF
16644225111232221453115125523665126142315261261254
FFFFFFFFFFFFFFFFFFFFFFFFFFFFFFFFFFFFFFFFFFFFFFFFFF
46166516266266314666666366266666435663243456515124
FFLFFFFLLLLLLLFFFLLLLLLLLFFLLLLLFFFFFFFFFFFFFFFFFF
23434361435553115515633662656162223666666666616666
FFFFFFFFFFFFFFFFFFFFFFFFFFFFFFFFFFFLLLLLLLLLLLLLLL
54656536335516614455662235551326665265433466666466
FLLFFFFFFFFFFFFFFFFFFFFFFFFFFFFFFFFFFFFFFFLLLLLLLL
13465335263436466666666664552623454152213266566446
FFFFFFFFFFFFFFFLLLLLLLLLFFFFFFFFFFFFFFFFFFFFFFFFFF
24515544562312131565316233566246326263533363666564
FFFFFFFFFFFFFFFFFFFFFFFFFFFFFFFFFFFFFFFFFFLLLLLLLL
51211356636641565266214544466666666666666663266666
FFFFFFFLLFFFFFFFFFLFFFFFFFFLLLLLLLLLLLLLLLLLLLLLLL
35114661236156314466453656511162613441234562453413
FFFFFFFFFFFFFFFFFFLLFFFFFFFFFFFFFFFFFFFFFFLLFFFFFF
24151344543125622466666662521226545542644445536262
FFFFFFFFFFFFFFFFFFLLLLLLLLFFFFFFFFFFFFFFFFFFFFFFFF
66661666616164252415463421116322135422553122244656
LLLLLLLLLLLLLFFFFFFFFFFFFFFFFFFFFFFFFFFFFFFFFFFFLL
12221246166534524645666665666666246266663566666665
FFFFFFFFFFFFFFFFFFFFLLLLFFLLLLLLLLLLLLLLLLLLLLLLLF
32111262456662666662552141223142166666411114166655
FFFFFFLLFFLLLLLLLLFFFFFFFFFFFFFFFFLLLLLFFFFFFLLLLL
32142511341122666366366666646646661653164611666666
FFFFFFFFFFFFFFFFLLFLLLLLLLLLLLLLLLLLFFFFFFFFLLLLLL
35645616513216543346125544525211623625422463212545
FFFFFFFFFFFFFFFFFFFFFFFFFFFFFFFFFFFFFFFFFFLLFFFFFF
64261155625233614366356516622366344162135153146656
FFFFFFFFFFFFFFFFFFFFFFFFFFFFFFFFFFFFFFFFFFFFFFLLLL
63556464466666666656666116646126636266666662635666
FFFLLLLLLLLLLLLLLLLLLLLFLLLLFFFLLLLLLLLLLLLFFFFLLF
51423122616652366346435566666666646566662662345626
FFFFFFFFFFLLLFFFFFFFFFFFFFFLLLLLLLLLLLLLLLLFFFFFFF
55143443316356441554325431266126326666664266664366
LFFFFFFFFFFFFFFFFFFFFFFFFFFFFFFFFFLLLLLLLLLLLLLFLL
53653446666666413223264612215156654463434536656566
FFFFFFFLLLLLFFFFFFFFFFFFFFFFFLLLLFFFFFFFFFLLLLLLLL
66511242525634312132352266532666666666224362362313
LLFFFFFFFFFFFFFFFFFFFFFFLFFFFLLLLLLLLLFFFFFFFFFFFF
51324544256323565246615253265643666636663644666536
FFFFFFFFFFFFFFFFFFFFFFFFFFFFFFFFLLLLLLLLLLLLLLLLLL
62666662626323152555155524322536664666662166666566
FFLLLLLLLLLFFFFFFFFFFFFFFFFFFFFLLLFLLLLLFFLLLLLLLL
14355133666445144642536315666662435651561313565353
FFFFFFFFFLLFFFFFFFFFFFFFFFLLLLLFFFFFFFFFFFFFFFFFFF
61662666612635236626331121442111112113466643666223
LLLLLLLLLFFFFFFFFFFFFFFFFFFFFFFFFFFFFFFFLLLLLLFFFF
21334526652365615321341614123666666661666646666666
FFFFFFFFFFFFFFFFFFFFFFFFFFFFFLLLLLLLLLLLLLLLLLLLLL
66666666666266666666625132466666133556315615425541
LLLLLLLLLLLLLLLLLLLLLFFFFFFLFFFFFFFFFFFFFFFFFFFFFF
66666666365566616664136666666626366666642313355412
LLLLLLLLLLLLLLLLLLLLLLLLLLLLLLLLLLLLLLLFFFFFFFFFFF
13123146666665126335533656346663125166566522643521
FFFFFFFLLLLLLFFFFFFFFFFFFFFFLLLFFFFFFFFFFFFFFFFFLF
21453252262256235466666611422441556465166666353251
FFFFFFFFFFFFFFFFFFFLLLFFFFFFFFFFFFFFFFLLLLLLFFFFFF
26434656166666666666266636136666645612634626153631
FFFFFLLLLLLLLLLLLLLLLLLLFFFLLLLLLFLLFFFFFFFFFFFFFF
61531323654515242126666666666514536256366462162163
FFFFFFFFFFFFFFFFFFFLLLLLLLLLLFFFFFFLLLLLLFFFFFFFFF
13666666666663465666625546352451113616666666666666
FFLLLLLLLLLLLFFFFLLLLFFFFFFFFFFLFFFLLLLLLLLLLLLLLL
25463456623242456316666366666366626131162256666661
FFFFFFFFLFFFFFFFFFFLLLLLLLLLLLLLLFFFFFFFFFFLLLLLLL
61665166363623542553666666434465656646564664415434
LLLLLLLLLLFFFFFFFFFFLLLLLLFFFFFFLLLLLLLLFFFFFFFFFF
11146666666666466641666661166666666616531116516663
FFFFLLLLLLLLLLLLLLLLLLLLLLLLLLLLLLLLLFFFFFFFFFLLLF
16112664226466616466165522163321522461616333411325
FFFFFFFFFFFLLLLLLFFFFFFFFFFFFFFFFFFFFFFFFFFFFFFFFF
15545164656633541356622635316115654425414666566666
FFFFFFLLLLLLFFFFFFFFFFFFFFFFFFFFFFFFFFFFFLLLLLLLLL
66626663666121466615456661626153146513613645435235
LLLLLLLLLLLFFFFFLLLLLLLLLLLFFFFFFFFFFFFFFFFFFFFFFF
66464513146445621153343155636262522212542366166616
LLLFFFFFFFFFFFFFFFFFFFFFFFFFFFFFFFFFFFFFFFFFFLLLLL
35235521213243354552213636665666636644626666666664
FFFFFFFFFFFFFFFFFFFFFFFLLLLLLLLLLLLLLLLLLLLLLLLLLL
66663344562512662666661633615362131232346666666532
LLLLFFFFFFFFFLLLLLLLLLLLFFFFFFFFFFFFFFFLLLLLLLFFFF
34642562145255635115211221642223642421343156266316
FFFFFFFFFFFFFFFFFFFFFFFFFFFFFFFFFFFFFFFFFFFFFFFFFF
66266326645166665665655243411124541524314361453451
LLLLLLLLLFFLLLLLLLLLLFFFFFFFFFFFFFFFFFFFFFFFFFFFFF
31235351612462641641662244666266351624456532663355
FFFFFFFFFFFFFFFFFFFFFFFFFFFFFFFFFFFFFFFFFFLLLFFFFF
33435533213466666666666664636666666666665616666666
FFFFFFFFFFFLLLLLLLLLLLLLLFFLLLLLLLLLLLLLLLLLLLLLLL
52516545234535616656643666636325654424646234511544
FFFFFFFFFFFFFFFFLLLLLFFLLLLFFFFFFFFFFFFFFFFFFFFFFF
41431232164444644666662516612521136321453314241366
FFFFFFFFFFFFFFFFFLLLLFFFFFFFFFFFFFFFFFFFFFFFFFFFLL
46266614153216666666346666564266634214544466661636
FFFLLLLFFFFFFLLLLLLLLLLLLLFLFFFFFFFFFFFFFFLLLLLLLL
43324244231242622524441311515241155322566626666162
FFFFFFFFFFFFFFFFFFFFFFFFFFFFFFFFFFFFFFFLLLLLLLLLLF
65255353652416223162341216516611451265341666465132
FFFFFFFFFFFFFFFFFFFFFFFFFFFFFFFFFFFFFFFFFLLLFFFFFF
53353133215261461356636666666662651244562151353251
FFFFFFFFFFFFFFFFFFFLLLLLLLLLLLLFFFFFFFFFFFFFFFFFLF
44434151264656666666666666366666536136666126666636
FFFFFFFFFFFFFLLLLLLLLLLLLLLLLLLLLLLLLLLLLLLLLLLLLL
21242131434264511156221545531664415625243266455611
FFFFFFFFFFFFFFFFFFFFFFFFFFFFFFFFFFFFFFFFFFFFFFFFFF
66666666666666366611664666655556666666664655143365
LLLLLLLLLLLLLLLLLLLLLLLLLLLFFFFFLLLLLLLLLLLLFFFFFF
66466366253436526331153121365141121133564144162434
LLFFLLLFFFFFFFFFFFFFFFFFFFFFFFFFFFFFFFFFFFFFFFFFFF
24165546656412623532433233214161366666661666366663
FFFFFFFFFFFFFFFFFFFFFFFFFFFFFFFFFLLLLLLLLLLLLLLLLF
66666666566626626446166666633636663543523666625345
LLLLLLLLLLLLLLLLLLLLLLLLLLLLLLLLLLFFFFFFFLLLLLFFFF
46666663343431156266221461666666666666666666666146
FFLLLLLFFFFFFFFFFFFFFFFFFFLLLLLLLLLLLLLLLLLLLLLLLL
36562616154334343624466216666666666435221646115113
FFFFLLLLFFFFFFFFFLFFFLLLLLLLLLLLLLLFFFFFFFFFFFFFFF
66466666644626326531225154125446613624224445511354
LLLLLLLLLFFFFFFFFFFFFFFFFFFFFFFFFFFFFFFFFFFFFFFFFF
56661543361633534361566361334336553615512145436561
LLLLFFFFFFFFFFFFFFFFFFFFFFFFFFFFFFFFFFFFFFFFFFFFFF
66513666646636661666521666626666662664621252643632
FFFFLLLLLLLLLLLLLLLLLLLLLLLLLLLLLLLLLFFFFFFFFFFFFF
62515624416661233441466611264665666666266116666665
FFFFFFFFFFFFFFFFFFFFFFFFFFFFLLLLLLLLLLLLLLLLLLLLLF
11666666564145343631254512362666646666656364661444
FFFLLLLLFLFFFFFFFFFFFFFFFFFLFLLLLLLLLLLLLFFFFFFFFF
42513225413264634333422421564545466666414163454165
FFFFFFFFFFFFFFFFFFFFFFFFFFFFFFFFFLLLLLFFFFFFFFFFFF
62664666122666636666364615452112543411162135614436
LLLLLLLFFFFFLLLLLLLLLFFFFFFFFFFFFFFFFFFFFFFFFFFFFF
63163532561444566661656114666646666666645666666666
LFFFFFFFFFFFFFFFFFFFFFFFFFLLLLFLLLLLLLLFFLLLLLLLLL
55243136324315664364242666666616666666666515625342
FFFFFFFFFFFFFFLLFFFFFFFFLLLLLLLLLLLLLLLLLFFFFFFFFF
66661266656642516154663666611452342154666145442242
LLLLLLLLLLLLFFFFFFFFLLLLLLLFFFFFFFFFFFFFFFFFFFFFFF
62365335524631446626442536161113651151423163611523
LFFFFFFFFFFFFFFFFFFFFFFFFFFFFFFFFFFFFFFFFFFFFFFFFF
11224252212153563332566616666621661162155142322521
FFFFFFFFFFFFFFFFFFFFFLLLLLLLLLLLLLFFFFFFFFFFFFFFFF
45511524225562162343244125163311524266243412651566
FFFFFFFFFFFFFFFFFFFFFFFFFFFFFFFFFFFFFFFFFFFFFFFLLL
41216626612326666626666664446666663614325522461326
FFFFLLLLFFFFFLLLLLLLLLLLLLLLLLLLLLFFFFFFFFFFFFFFFF
62262156646666666666666366616613132316641211541163
LFFFFFFLLLLLLLLLLLLLLLLLLLLLLLLLFFFFFFFFFFFFFFFFLL
26566226666466645352332536326565666666664542666236
FFFLLLLLLLLLLLLFFFFFFFFFFLFFFLFFFLLLLLLLFFFFLLLLLL
36646425266666465166662666656661324363546214623543
FFFFFFFFLLLLLLLLLLLLLLLLLLLLLLLFFFFFFFFFFFFFFFFFFF
32141624622154315626366232151243425264623144334516
FFFFFFFFFFFFFFFFFFFFFFFFFFFFFFFFFFFFFFFFFFFFFFFFFF
54243325351563225325364414616636166111422355666646
FFFFFFFFFFFFFFFFFFFFFFFFFLLLLLLLLLLFFFFFFFFFLLLLLL
42145625252441366666624422266566561646646666661666
FFFFFFFFFFFFFFFLLLLLLFFFFFFFFFLLLLLLLLLLLLLLLLLLLL
23322461666151624421366433556343534211546132553463
FFFFFFLLLLLFFFFFFFFFFFFFFFFFFFFFFFFFFFFFFFFFFFLLLL
23545666466664666666251356446111566666666666635666
FFFFFLLLLLLLLLLLLLLLLFFFFFFFFFFLLLLLLLLLLLLLLFFFFF
42656664666666666663166333325461661266165145351652
FFFFLLLLLLLLLLLLLLLLLLLFFFFFFFFFFFFFFFFFFFFFFFFFFF
66654142246266536533436213562444416336666666666664
LLLLFFFFFFFFFFFFFFFFFFFFFFFFFFFFFFFFFLLLLLLLLLLLLF
55321254265666665632653645666666666653663236435216
FFFFFFFFFLLLLLLLLLLLLLLLLLLLLLLLLLLLLLLLFFFFFFFFFL
35515624123236326456666454656155122616454626666666
FFFFFFFFFFFFFFFFFFFLLLLFFFFFLFFFFFFFFLFFFFFLLLLLLL
14622244442165262636635536666666622266566661466666
FFFFFFFFFFFFFFFFFLLLFFFFFLLLLLLLLLLLLLLLLLLLLLLLLL
46265416434551533116666636542522136665446614566626
FFFFFFFFFFFFFFFFFFLLLLLLFFFFFFFFFFLLLLLFFFFFLLLLLL
66321625412235652443246662524231521346666666666666
FFFFFFFFFFFFFFLFFFFFFFFFFFFFFFFFFFFFLLLLLLLLLLLLLL
62312411145155152155443163664466665166463416566566
LFFFFFFFFFFFFFFFFFFFFFFFFFFFFFLLLLLLLLFFFFFLLLLLLL
41232631641651264666665244421154346666266662166633
FFFFFFFFFFFFFFLLLLLLLFFFFFFFFFFFFLLLLLLLLLLFFLLLFF
31333366266664233334666546242551561624453133664336
FFFFFFLLLLLLLFFFFFFFLLLFFFFFFFFFFFFFFFFFFFFFLFFFFF
61365226666656122364565342363123466566636666412646
FFFFFFLLLLLFFFFFFFFFFFFFFFFFFFFFFLLLLLLLLLLLFFFFFF
14466626664616366164624536311661151463666626666626
FFFLLLLLLLLLLLLLLLLLFFFFFFFFLLLLLFFFLLLLLLLLLLLLFF
44566663636326256665663113341442461666663535252544
FFFLLLLLLLLLLLLLLLLLLLFFFFFFFFFFFFLLLLLLLFFFFFFFFF
36246244341541623563365566666663563665243621514536
FFFFFFFFFFFFFFFFFFFFFLLLLLLLLLLLFFFFFFFFFFFFFFFFFL
66666666621542462264445635451464542335556636666226
LLLLLLLLLFFFFFFFFFFFFFFLFFFFFFFFFFFFFFFFLLLLLLLLLL
66565613453423543465654666666632325254452456156624
LLLLLFFFFFFFFFFFFFFFFFFLLLLLLLFFFFFFFFFFFFFFFFLLFF
16634666666662466644344223622415626535162666646266
FLLLLLLLLLLLLFFFFFFFFFFFFFFFFFFFFFFFFFFLLLLLLLLLLL
46215524666665666436666415663546646263635525433661
FLFFFFFFLLLLLLLLLLLLLLLLFFFLFFFLLFFFFFFFFFFFFFFLLL
66646656336652565645451342263346642635661662462345
LLLLLLFFFFFFFFFFFFFFFFFFFFFFFFFLLFFFFLLLLLLLFFFFFF
11266666466634554414266135154333142562364564154656
FFFFFLLLLLLLFFFFFFFFFFFFFFFFFFFFFFFFFFFFFFFFFFFLLL
62611151246236462515323355411335254312122254162234
FFFFFFFFFFFFFFFFFFFFFFFFFFFFFFFFFFFFFFFFFFFFFFFFFF
11416666666626656154514634654625125434436326311666
FFFFFFLLLLLLLLLLLFFFFFFFFFFFFFFFFFFFFFFFFFFFFFLLLL
32216666626666666626664666666142666164335664662266
FFFFLLLLLLLLLLLLLLLLLLLLLLLLLFFFLLLFFFFFFLLLLLLFFL
26436411651442633532555553453516666466616121353665
FFFFFFFFFFFFFFFFFFFFFFFFFFFFFFLLLLLLLLLLLLFFFFFFFF
66666666216466646666636666666166666666666466666662
LLLLLLLLLFLLLLLLLLLLLLLLLLLLLLLLLLLLLLLLLLLLLLLLLL
16663663451623154642666266666636626666263133416366
LLLLLLFFFFFFFFFFFFFFFLLLLLLLLLLLLLLLLLFFFFFFFFFFLL
42645116356463245656164264653216663354266153666263
FLLFFFFLFFFFFFFFFFFFFFFFFFFFFFFLLLLFFFLLLFFLLLLLLL
66634466565354361231146666362664666226666666621666
LLFFFFFFFFFFFFFFFFFFFLLLLLFFFLLLLLLLLLLLLLLLLLLLLL
33566666242646114154411164434435153216211145666563
FFFLLLLFFFFFFFFFFFFFFFFFFFFFFFFFFFFFFFFFFFFFLLLLLL
54454435111231343516413466666526161653366666566646
FFFFFFFFFFFFFFFFFFFFFFFFLLLLLFFFFFFFFFFLLLLLFLLLLL
16241466656666463134354656666666243116266616664666
FFFFFFFFFFFLLLLFFFFFFFFLLLLLLLLLLFFFFLLLLLLLLLLLLL
12452566666626566233325311434524635666566666665666
FFFFFFLLLLLLLLLLLLLFFFFFFFFFFFFFFFLLLLLLLLLLLLLLLL
65263556661656645534125212632523626666666625534246
LFFFFFFLLLFFLLFFFFFFFFFFFFFFFFFFFLLLLLLLLFFFFFFFFL
11314522616666656666666662162666653535126666163565
FFFFFFFFLLLLLLLLLLLLLLLFFFFFLLLLLFFFFFFLLLLFFLFFFF
44252452351125326426646652133243146214552636666665
FFFFFFFFFFFFFFFFFFFLLLLLFFFFFFFFFFFFFFFFFLLLLLLLLL
55446666664616666666666646415666156546666666666361
FFFFLLLLLLLLLLLLLLLLLLLFFFFFFFFFFFFFFLLLLLLLLLLLFF
26644626243454441516565331243651413461563623453111
FFLFFFFFFFFFFFFFFFFFFLLFFFFFFFFFFFFFFFFLLLFFFFFLLF
64236612254536323566662666666666264634215651422666
LLFFFFFFFFFFFFFFFFFLLLLLLLLLLLLLLLFFFFFFFFFFFFFLLL
26465664626646466614626666666666666614464556666446
FFFFFFFFFFLLLLLLLLFFLLLLLLLLLLLLLLLLLLFFFFFFFFFFFF
36646261366666666646131666264666666665241266264416
FLLLLLLFFLLLLLLLLLLLLLLLLLFFFFLLLLLLLLFFFFLLLLFFFF
65565213411242352366666666666162115254465664124113
FFFFFFFFFFFFFFFFFFLLLLLLLLLLLLLLLFFFFFFFFFFFFFFFFF
22625325246666666666566466652162365265321522235562
FFFFFFFFFLLLLLLLLLLLFFFFLLLFFFFFFFFFFFFFFFFFFFFFFF
46665666665623162414255124256163661666666666666616
LLLLLLLLLLLLFFFFFFFFFFFFFFFFFFFLLLLLLLLLLLLLLLLLLL
66662666666665546555635366666666361646665326111451
LLLLLLLLLLLLLFFFFFFFFFFFLLLLLLLLLLLLLLLLFFFFFFFFFF
36226461534434123154545661645662666626231314666366
FFFFFFFFFFFFFFFFFFFFFLLLLFFFLLLLLLLLLLFFFFFFLLLLLL
43343615416233114643266663666662625564144354611423
FFFFFFFFFFFFFFFFFFFFFLLLLLLLLLLLLFFFFFFFFFFFFFFFFF
26534262366663565351162566666666666666666656666666
FFFFFFFFFLLLLFFFFFFFFFFFFLLLLLLLLLLLLLLLLLLLLLLLLL
11666661366312234233352154436662433335622561341262
FFFFFFFFFFFFFFFFFFFFFFFFFFFFFLLFFFFFFFFFFFFFFFFFFF
24121446666625666264656546666666466366554454264232
FFFFFFLLLLLLLLLLLLLLLLLLLLLLLLLLLLLLLFFFFFFFFFFFFF
53366266666631262666662336416126666666666666531563
FFFLLLLLLFFFFFFLLLLLLLFFFFFFFFFLLLLLLLLLLLLLFFFFFF
53623635552143455642466125441661666644112544353434
FFFFFFFFFFFFFFFFFFFFFFFFFFFFFFFFLLLLFFFFFFFFFFFFFF
61666666266142643262111412126526355261352264236222
LLLLLLLLLLLFFFFFFFFFFFFFFFFFFFFFFFFFFFFFFFFFFFLFFF
53465333555666666161632151436243456661556446441166
FFFFFFFFFFFLLLLLLLLLLLFFFFFFFFFFFFFLLFFFFFFFFFFFFF
62165136234554422543216165662663666613123454413266
FFFFFFFFFFFFFFFFFFFFFFLLLLLLLLLLLLLLLLFFFFFFFFFFFL
46413646153562423353446156346422245146555221414356
FFFFFFFFFFFFFFFFFFFFFFFFFFFFFFFFFFFFFFFFFFFFFFFFFF
66664414426545331546546244356342324633325123456566
LLLLFFFFFFFFFFFFFFFFFFFFFFFFFFFFFFFFFFFFFFFFFFFFLL
14651545432222623454354254566643114616251316256514
FFFFFFFFFFFFFFFFFFFFFFFFFFFLFFFFFFFFFFFFFFFFFFFFFF
66613366626624224456131666341643252646626366566664
LLLLLLLLLLLLLLFFFFFFFFFLLFFFLLFFFFFLLLLLLLLLLLLLLL
13232543526166662666246225456566366611654442126544
FFFFFFFFFFFLLLLLLLLFFFFFFFFFLLLLLLLLLLLFFFFFFFFFFF
66256625446141253144334545263511635663661434165462
FFFFFFFFFFFFFFFFFFFFFFFFFFFFFFFFFFFFFFLLFFFFFFFFFF
62153656535666666666635662666161666262641666666661
FFFFFFFFFFFLLLLLLLLLLFFLLLLLLLLLLLLLLLLLLLLLLLLLLF
46166663662651532621543634423136136526252665461155
LLLLLLLLLLLLFFFFFFFFFFFFFFFFFFFFFFFFFFFFFFFFFFFFFF
16232333442625465663455441236666661142441225443532
FFFFFFFFFFFFFFFFFFFFFFFFFFFFLLLLLFFFFFFFFFFFFFFFFF
56666646664245314326214655343222114111625466664666
LLLLLLLLLLLFFFFFFFFFFFFFFFFFFFFFFFFFFFFFFFLLLLLLLL
16645411432163355635666663365261424464653422452324
FFFFFFFFFFFFFFFFFFFLLLLLLFFFFFFFFFFFFFFFFFFFFFFFFF
26656663666666666636666256156666253341256135312436
FLLLLLLLLLLLLLLLLLLLLLLLLLLLLLLLFFFFFFFFFFFFFFFFFF
42316336346661416511136113234514514333634512255151
FFFFFFFFFFLLLFFFFFFFFFFFFFFFFFFFFFFFFFFFFFFFFFFFFF
55363534661646666663455511162666455251141555351316
FFFFFFFLLLFFFFFLLLLFFFFFFFFFFFFFFFFFFFFFFFFFFFFFFF
66366463566666366366663666666661626616666242342211
LLLLLFFFFLLLLLLLLLLLLLLLLLLLLLLLLLLLLLLLLFFFFFFFFF
34251123152534664666126666464656564342651416226141
FFFFFFFFFFFFFFLLLLLLFFLLLLLLFFFLLLLFFFFFFFFFFFFFFF
33614243453363664226666666646166666366661666616666
FFFFFFFFFFFFLLLLFFFLLLLLLLLLLFLLLLLLLLLLLLLLLLLLLL
66664214666666556666366666326555261223453612544663
LLLLFFFFLLLLLLLLLLLLLLLLLLFFFFFFFFFFFFFFFFFFFFFFFF
44412331336432114166664122416256614633166666663266
FFFFFFFFFFFFFFFFFFLLLLFFFFFFFFFFFFFFFFFLLLLLLLLLLL
46234245316646266636534126666664666666616134361135
FFFFFFFFFFLLLLLLLLLLFFFFFFLLLLLLLLLLLLLLLFFFFFFFFF
61346465243545231644654133661166533615143125614454
FFFFFFFFFFFFFFFFFFFFFFFFFFFFFFFFFFFFFFFFFFFFFFFFFF
64664626656666666666666456556366666656312334534636
LLLLLLLLLLLLLLLLLLLLLLLFFFFFFFLLLLLLLLFFFFFFFFFFFF
64563432525333535232516666666653624312665266115566
FFFFFFFFFFFFFFFFFFFFFFLLLLLLLLFFFFFFFFLLLLLLLLLLLL
36366666253161535663445116666626661616464363613666
FFLLLLLLFFFFFFFFFLFFFFFFFLLLLLLLLLLLLLFFFFFFFFFLLL
35665364666666566161666666613665166266663666666266
FFFFFFFFLLLLLLLLLLLLLLLLLLLLLLLLLLLLLLLLLLLLLLLLLL
66666664666612466666661164255345521141222536666665
LLLLLLLLLLLLLLLLLLLLLLLFFFFFFFFFFFFFFFFFFFFLLLLLLF
66665222262666664666636666663634666661466666621533
FLLLLFFFFFFLLLLLLLLLLLLLLLLLLLLLLLLLLLLLLLLLFFFFFF
63666111345166236661613365346134613235133264361222
LLLLLFFFFFFFFFFFLLLLFFFFFFFFFFFFFFFFFFFFFFFFFFFFFF
52655665365261253226266666531463153154133642525262
FFFFFFFFFFFFFFFFFFFLLLLLLLFFFFFFFFFFFFFFFFFFFFFFFF
21143252124323456346146666665666465366166413665351
FFFFFFFFFFFFFFFFFFFFFFLLLLLLLLLLLLLLLLLLLFFFFFFFFF
65435264366144313112444364543311266666266166666666
LFFFFFFFFFFFFFFFFFFFFFFFFFFFFFFFFLLLLLLLLLLLLLLLLL
53412213646646665636544232415252523454622566666616
FFFFFFFFLLLLLLLLLLLLFFFFFFFFFFFFFFFFFFFFFFLLLLLLLL
66666655666666663666666666616553244366662666666653
LLLLLLLLLLLLLLLLLLLLLLLLLLFFFFFFFFFFFLLLLLLLLLLLLL
35351221524444435415134452522415641324162666666666
FFFFFFFFFFFFFFFFFFFFFFFFFFFFFFFFFFFFFFFLLLLLLLLLLL
65261524222546266511154623562521662212636511662612
FFFFFFFFFFFFFFLLLFFFFFFFFFFFFFFFFFFFFFFLLLLLLFFFFF
55314415124111545255664465122512433665663615533635
FFFFFFFFFFFFFFFFFFFFFFFFFFFFFFFFFFLFFFFFFFFFFFFFFF
42442341135364261143336666616666663543536666661664
FFFFFFFFFFFFFFFFFFFFFFLLLLLLLLFLLLFFFFFFLFLLLLLLFF
66143246666646666626666666166335355141166656136416
LLLFFFFLLLLLLLLLLLLLLLLLLLLFFFFFFFFFFFFLLLLLFFFFFF
25352446515441334442525662422135511512356133234114
FFFFFFFFFFFFFFFFFFFFFFFLLLFFFFFFFFFFFFFFFFFFFFFFFF
54341664663156666666423563361666653161431231243614
FFFFFFFFFFFFLLLLLLLLLFFFFFFFFLLLLFFFFFFFFFFFFFFFFF
53521626412265442513241513461112455136121463242121
FFFFFFFFFFFFFFFFFFFFFFFFFFFFFFFFFFFFFFFFFFFFFFFFFF
11551436462222153445264265612651514545266663366666
FFFFFFFFFFFFFFFFFFFFFFFFFFFFFFFFFFFFFLLLLLLLLLLLLL
66621346415646552211326354341523111266163616325444
LLLFFFFFFFFFFFFFFFFFFFFFFFFFFFFFFFFFFFFFFFFFFFFFFF
63545635341663321215324541166366666666666166664664
FFFFFFFFFFFFFFFFFFFFFFFFFFFFLLLLLLLLLLLLLLLLLLLLLL
33655355224236332362666666626166666553222244161333
FFFFFFFFFFFFFFFFLLLLLLLLLLLLLLLLLLLFFFFFFFFFFLFFFF
66666556464544551435362355155223656455666333416466
LLLLLFFFFFFFFFFFFFFFFFFFFFFFFFFFLFFFFFFFFFFFFFFLLL
13553656666636666663666665544465464345262514411425
FFFFFLLLLLLLLLLLLLLLLLLLLFFFFFFFFFFFFFFFFFFFFFFFFF
34554113532316566666666436353351326126266661616456
FFFFFFFFFFFFFFFLLLLLLLLFFFFFFFFFFFFFFLLLLLLLLLLLLL
21132351354525464464544435622413222666635434221444
FFFFFFFFFFFFFFFFFFFFFFFFFFFFFFFFFFFLLLLFFFFFFFFFFF
11434666324334431364354463422156221616115341451361
FFFFFLLLFFFFFFFFFFFFFFFFFFFFFFFFFFFFFFFFFFFFFFFFLL
66656662666666666664326134454436162146665654515456
LLLLLLLLFLLLLLLLLLLLFFFFFFFFFFFFFFFFFFLLFFFFFFFFFF
41121336141636262221532311121262346554232644213653
FFFFFFFFFFFFFFFFFFFFFFFFFFFFFFFFFFLFFFFFFFFFFFFFFF
53311531436646236165262511115563136362235525641553
FFFFFFFFFFLFFFFFFFFFFFFFFFFFFFFFFFFFFFFFFFFFFFFFFF
45534111343361525255442613334263144131512335661365
FFFFFFFFFFFFFFFFFFFFFFFFFFFFFFFFFFFFFFFFFFFFFFFFFF
16626245451666521454354252331255666663666661532432
FFFFFFFFFFFLFFFFFFFFFFFFFFFFFLLLLLLLLLLLLLLLFFFFFF
66166661442514336146666666666643455562451421656566
LFFFFLLFFFFFFFFFFFFLLLLLLLLLLLFFFFFFFFFFFFFFLLLLLL
61645315634256126334666636666666656665646566535241
FFFFFFFFFFFFFFFFFFFFLLLLLLLLLLLLLLLLLLLLLLLLLFFFFF
55543462451335464413632143546311336532344145266312
FFFFFFLFFFFFFFFFFFFFFFFFFFFFFFFFFFFFFFFFFFFFFFFFFF
43645125315266366626626666632663346542226526666163
FFFFFFFFFFFFFLLLLLLLLLLLLLLFFFFFFFFFFFFFFFLLLLLFFF
66616221251144232156556266245442343662211536366355
LLLLLFFFFFFFFFFFFFFFFFLLLFFFFFFFFFFLLFFFFFFFFFFFFF
55653465666154146153346641236161353266554436666666
FFFFFFFFFFFFFFFFFFFFFFFFFFFFFFFFFFFFFFFFFFFFLLLLLL
21664232254361661666666666636656332665443326146155
FFFFFFFFFFFLLLLLLLLLLLLLLLLLLLLLFFFLLLLFFFFFFFFFFF
16665616666266622165666523131114152126355566616366
LLLLLLLLLLLLLLLLLLLLLLLFFFFFFFFFFFFFFFFFFFLLLFFLLL
44213563266341566461664666166636666466631666666166
FFFFFFFFFFFFFFLLLFFFLLLLLLLLLLLLLLLLLLLLLLLLLLLLLL
26623523554233666166616645613132362666666663665451
FFFFFFFFFFFFFLLLLLLLLLLLLLFFFFFFFFFFLLLLLLLLLLLLFF
12164643654461265361256654646616666365666666666643
FFFLFFFFFFFFFFFFFFFFFFFFFFFFFFFFLLLLLLLLLLLLLLLLFF
35553266666636656665666666616636666666642636366662
FFFFFFLLLLLLLLLLLLLLLLLLLLLLLLLLLLLLLLLLLLLLLLLLLL
43636663666666616663545222265233646266664242263543
FFLLLLLLLLLLLLLLLLLLFFFFFFFFFFFFFFFFLLLLFFFFFFFFFF
66664666664666656636666266466666566616516626666661
LLLLLLLLLLLLLLLLLLLLLLLLLLLLLLLLLLLLLLLLLLLLLLLLLF
36366642446151112565234352124636264355536666666612
FFFFFFFFFFFFFFFFFFFFFFFFFFFFFFFFFFFFFFFFLLLLLLLLFF
64666666662122513636423511516666666366666666662433
LLLLLLLLLLLFFFFFFFFFFFFFFFFFLLLLLLLLLLLLLLLLLFFFFF
33621544562541664146425643426646613466346615345655
FFFFFFFFFLFFFFFFFFFFFFFFFFFFLLLLLLLLLLFFFFFFFFFFFF
65461561121614116152126436662656545241651435654556
FFFFFFFFFFFFFFFFFFFFFFFFFLLLLLFFFFFFFFFFFFFFFFFFFF
55221566566654535535636653542664261665316616636621
FFFFFLLLLLLFFFFFFFFFFFFFFFFFFFFFFFFFFFFFFLFLLFFFFF
66515362433143633246252561655415136245453352215113
LFFFFFFFFFFFFFFFFFFLFFFFFFFFFFFFFFFFFFFFFFFFFFFFFF
26633614466533556553541545362443433141425566656666
FFFFFLFFFFFFFFFFFFFFFFFFFFFLFFFFFFFFFFFFFFLLLLLLLF
16366262645163656662352215254124666666666646525663
FLLLLLLLLFFFLLLLLLLFFFFFFFFFFFFFLLLLLLLLLLLLLFFFFF
33666566666666666656533442565666665513265441526651
FLLLLLLLLLLLLLLLLLLLLFFFFFFLLLLLLLFFFFFFFFFFFLLLFF
63316563646666664663666666666661663542236321551433
FFFFFFFFLLLLLLLLLLLLLFLLLLLLLLFFFFFFFFFFFFFFFFFFFF
62366666343141226111611413462134436423442333364446
LFFLLLFFFFFFFFFFFFFFFFFFFFFFFFFFFFFFFFFFFFFFFFFFFF
63636322366145256636666622336541566366626632641666
LLLLLFFFFFFFFFFFFLLLLLLLFFFFFFFFLLLLLLFFFFFFFFFLLL
13644644535346514224555562264316226325163666563654
FFFFFFFFFFFFFFFFFFFFFFFFFFLLLFFFFFFFFFFLLLLLFFFFFF
65361216311665132131153414566613636242111541314631
FFFFFFFFFFFFFFFFFFFFFFFFFFFFFFFFFFFFFFFFFFFFFFFFFF
35631625633234531141413431426152463363666666666661
FFFFFFFFFFFFFFFFFFFFFFFFFFFFFFFFFFFFFFLLLLLLLLLLLL
21121666466666666642626121663641652162412164566316
FFFFFLLLLLLLLLLLFFFFFFFFFFFFFFFFFFFFFFFFFFFFFFFFFF
46564513111421441441312446456252232523111514255334
FFFFFFFFFFFFFFFFFFFFFFFFFFFFFFFFFFFFFFFFFFFFFFFFFF
42526636634412133422435224312636626666361466666152
FFFFFLLLLFFFFFFFFFFFFFFFFFFFFFLLLLLLLLFFFFLLLLLFFF
64422425245166612666663364166666665563611565662566
FFFFFFFFFFFFLLLLLLLLLLLLLLLLLLLLLFFFFFFFFFFFFFFFLL
66266632316466662666666666666666666226531221653213
LLLLLLFFFFLLLLLLLLLLLLLLLLLLLLLLLLFFFFFFFFFFFFFFFF
14324646653651566616666626114612232215541262323233
FFFFFFFLLFFFFFFLLLLLLLLLLLFFFFFFFFFFFFFFFFFFFFFFFF
62146616552624666666666666645162653643666414126414
FFFFLLLLLLLLLLLLLLLLLLLLLLLFFFFFFFFFFFFFFFFFFFFFFF
45141524263662366646433213145416666656646122116451
FFFFFFFFFFFFLFFLLLLLFFFFFFFFFFFLLLLLLLLLFFFFFFFFFF
66636211466242325314216656125666633136141216626664
LLLLLFFFFFFFFFFFFFFFFFFFFFFFLLLLLLFFFFFFFFFFFFLLLF
65432666645336126551263251143551543362124326666661
FFFFFLLLLFFFFFFFFFFFFFFFFFFFFFFFFFFFFFFFFFLLLLLLLL
34256666315221224111112625512525644566554135622546
FFFFFLLLFFFFFFFFFFFFFFFFFFFFFFFFFFFFFLFFFFFFFFFFFF
61466666665464616226524432536266355536565544225416
FFFLLLLLLLFFFFFFFFFFFFFFFFFFFFFFFFFFFFFFFFFFFFFFFF
66655252114661212623656236666646666465461231266141
FFFFFFFFFFFFFFFFFFFFFFLLLLLLLLLLLFFFFFFFFFFFFFFFFF
66666666666666263155461264131115641336656661245646
LLLLLLLLLLLLLLFFFFFFFFFFFFFFFFFFFFFFFFFFFFFFFFFFFF
66666666663565455326531161164164212263422161365435
LLLLLLLLLLLLLFFFFFFFFFFFFFFFFFFFFFFFFFFFFFFFFFFFFF
25645652226344661134151534656135522461341641265235
FFFFFFFFFLLFFFFFFFFFFFFFFFFFFFFFFFFLFFFFFFFFFFFFFF
44264255656215453463454334236213246166666665522426
FFFFFFFFFFFFFFFFFFFFFFFFFFFLLLFFFFFFLLLLLLLFFFFFFF
45325315646666666626666666521654461326513526632153
FFFFFFFFFFLLLLLLLLLLLLLLLLLFFFFFFFFFFFFFFLLLLLFFFF
12365662416253221341255665333366413523215566666664
FFFFFFFFFFFFFFFFFFFFFFFFFFFFFFFFFFFFFFFFFFFLLLLLFF
51554163652132551231312514161226623624245366633661
FFFFFFFFFFFFFFFFFFFFFFFFFFFFFFFFFFFFFFFFFFLLLLLLLF
66666666244626662334545424536626122122511456662646
LLLLLLLFFFFFFLLLFFFFFFFFFFFFFFFFFFFFFFFFFFFLLLLLLL
55311514311362352641553134156523645132222231445541
FFFFFFFFFFFFFFFFFFFFFFFFFFFFFFFFFFFFFFFFFFFFFFFFFF
41162215166666666636666666625616153643333113514424
FFFFFFFFFLLLLLLLLLLLLLLLLLFFFFFFFFFFFFFFFFFFFFFFFF
33421541232623545464143662655664666666662544536263
FFFFFFFFFFFFFFFFFFFFFFFLLLLLLLLLLLLLLLLLFFFFFFFFFF
33243314222121254366666661246623323546536441652111
FFFFFFFFFFFFFFFFFFLLLLLLLFFFFFFFFFFFFFFFFFFFFFFFFF
66222366666665636522146215461312446664153314466666
FFFFFFLLLLLLLLLFFFFFFFFFFFFFFFFFFFFFFFFFFFFFFLLLLL
52265141326163333153316366643666666664566666625666
FFFFFFFFFFFFFFFFFFFFFLLLLLLLLLLLLLLLLLLLLLLLLLLLLL
12566335622612452166624426143341153355314113224512
FFFFFFFFFFFFFFFFFFFFFFFFFFFFFFFFFFFFFFFFFFFFFFFFFF
25333415423516145565241466241654166362666253322322
FFFFFFFFFFFFFFFFFFFFFFFFFFFFFFFFFLLFFFFFFFFFFFFFFF
64242445632155166116531113666111666666145632243166
FFFFFFFFFFFFFFFFFFFFFFFFFFFLLFFFFFLLLLFFFFFFFFFFFF
61655426216626662662666616621442232426633466222611
FFFFFFFFFFLLLLLLFFFFFFLLLLLFFFFFFFFFFFLFFFFFFFFFFF
54666662556666623666345666664666256616665621445242
LLLLLLLLLLLLLLLLLLLLLLLLLLLLLLLLLLLLLLLLLFFFFFFFFF
46566653212225616231154115353222663643246166666636
FFFLLLFFFFFFFFFFFFFFFFFFFFFFFFFFFFFFFFFFLLLLLLLLFL
66666166666666163666666366466666252431656341542623
LLLLLLLLLLLLLLLLLLLLLLLLLLLLLLLLFFFFFFFFFFFFFFFFFF
66666666666123614624261632363614335456441441426256
LLLLLLLLLLLFFFFFFLLFFFFFFFFFFFFFFFFFFFFFFFFFFFFFFF
43362256624364423553412456131162533514261146653333
FFFFFFLLFFFFLFFFFFFFFFFFFFFFFFFFFFFFFFFFFFFFFFFFFF
52226366234466666466663661466112662231456536666666
FFFFLLLLFFFFLLLLLLLLLLLLLFFFFFFFFFFFFFFFFFFLLLLLLL
65626666666666666665626666566516631665364536666166
FLLLLLLLLLLLLLLLLLLLLLLLLLLLLLLLLLLLLFFFFFFLLLLLLL
45266632451461423335252566461663263635136616663666
FFFFFFFFFFFFFFFFFFFFFFFFLLLLLLLFFFFFFFFFFFFLLLLLLL
46253164123451435422526221413141633144121622622642
FFFFFFFFFFFFFFFFFFFFFFFFFFFFFFFFLLFFFFFFFLLLFFFFFF
66666461166626666436666513511451665666666666665666
LLLLLLLLLLLLLLLLLFFLLLLFFFFFFFFFLLLLLLLLLLLLLLLLLL
62236666666666666616666463666445123463216363254145
FFFLLLLLLLLLLLLLLFFLLLLLLLLLLLFFFFFFFFFFFFFFFFFFFF
63631235235361426543354343642143362231266633321153
LFFFFFFFFFFFFFFFFFFFFFFFFFFFFFFFFFFFFFFFFFFFFFFFFF
66433464416554666653345155226531513666666646662666
LLFFFFFFFFFFFFLLLLFFFFFFFFFFFFFFFFFLLLLLLLLLLLFFLL
33411162554463144243252112236565614666666366563334
FFFFFFFFFFFFLFFFFFFFFFFFFFFFFFFFFFFLLLLLLLLLFFFFFF
22353662552416156563664633554132214432215552426135
FFFFFFFFFFFFFFFFFFFLLLFFFFFFFFFFFFFFFFFFFFFFFFFFFF
36646631256666666663254456234536541464136251634435
LLLLLLLLLLLLLLLLLLFFFFFFFFFFFFFFFFFFFFFFFFFFFFFFFF
66366635661651412551336665663626366666645266546132
LLLLLLLLLLFFFFFFFFFFFFLLLLLLLLLLLLLLLLLFFFLLLFFFFF
23232212213515513652666653356666666666666666646666
FFFFFFFFFFFFFFFFFFFLLLLLFFFFLLLLLLLLLLLLLLLLLLLLLL
66666656666666666665412461515116422616563352251656
FLLLLLLLLLLLLLLLLLLLFFFFFFFFFFFFFFFFFFFFFFFFFFFFFF
44453262652615423316113415264316464516544664361153
FFFFFFFFFFFFFFFFFFFFFFFFFFFFFFFFFFFFFLFFFFFFFFFFFF
54634145364665626464466266666664133321565566633131
FFFFFFFFFLLLLLLLLLLLLLFFFLLLLFFFFFFFFFFFFFFFFFFFFF
66611666656666666666431513444352425132636666666166
LLLLLLLLLLLLLLLLLLLLFFFFFFFFFFFFFFFFFFLLLLLLLLLLLL
35133163665626261212544536266263442644236321461223
FFFFFFFFFFFFFFFFFFFFFFFFFFFLLLLFFFFLLFFFFFFFFFFFFF
66346665635131251514354523653545363535126252135135
LLLLLLLFFFFFFFFFFFFFFFFFFFFFFFFFFFFFFFFFFFFFFFFFFL
45352353142264166666665446666564252362616625446533
FFFFFFFFFFFFFFFFLLLLLLLLLLLLLLLFFFLLLLLLLLLFFFFFFF
64656662445344326623626345251523241161433522132633
LLLFLLLFFFFFFFFFFFFFLLLFFFFFFFFFFFFFFFFFFFFFFFFFFF
66663666661164454366563151356233636351266663661641
LLLLLLLLLLFFFFFFFFFFFFFFFFFFFFFFLLLLLFFLLLLLLLLLFF
34466666266666362615163661242315666663666252626661
FFFFLLLLLLLLLLLLLLFFFFFFFFFFFFFFFFLLLLLLFFFFFFFFFF
45332153324163134556666664666666626645463121266425
FFFFFFFFFFFFFFFFFLLLLLLLLLLLLLLLLLLLFFFFFFFFFLLFFF
46616666255456651666666141425364162121236161552666
LFLLLLLLFFFFFLLLLLLLLLLFFFFFFFFFFFFFFFFFFFFFFFFLLL
56231162226666633131363316352632666664116266266656
FFFFFFFFFFLLLLLFFFFFFFFFFFFFFFLLLLLLFFFFFFLLLLFFFL
64263145131224123116534546666665516664566666616646
LLLLFFFFFFFFFFFFFFFFFFFFFLLLLLLFFFLLLLLLLLLLLLLLLL
41451361363232336352556563343663153322323566366636
FFFFFFFFFFFFFFFFFFFFFFFFFFFFFFFFFFFFFFFFFLLLLLLLLL
23446323124365234525541441231632156516462321525652
FFFFFFFFFFFFFFFFFFFFFFFFFFFFFFFFFFFFFFFFFFFFFFFFFF
12336315644352334215646666665153666666164255632153
FFFFFFFFFFFFFFFFFFFFFLLLLLLLFFFFLLLLLLLLFFFFFFFFFF
35262531521516266611146212435561343416566662666666
FFFFFFFFFFFFFFFLLLFFFFFFFFFFFFFFFFFFLLLLLLLLLLLLLL
66655646634144261546666663626336466366663245321251
LLLFFFFFFFFFFFFFFFFLLLLLLLLLLFLLLLLLLLLLFFFFFFFFFF
66155164636532552612134122315533342356563553563551
FFFFFFFFFFFFFFFFFFFFFFFFFFFFFFFFFFFFFFFFFFFFFFFFFF
46666666666626656663265144416666442666666615223541
LLLLLLLLLLLLLLLLLLLFFFFFFFFFLLLLLLLLLLLLLFFFFFFFFF
62644443156364566636266664465621114144332565214462
LFFFFFFFFFFFFFLLLLLLLLLLLLLLLFFFFFFFFFFFFFFFFFFFLL
66661523365132525155355152263265453356465233662225
LLLLFFFFFFFFFFFFFFFFFFFFFFFFFFFFFFFFFFFFFFFFFFFFFF
66635666661664666666666662666666665664332212526336
LLLLLLLLLLLLLLLLLLLLLLLLLLLLLLLLLLLLLFFFFFFFFFFFFF
66656623656365424455135364246461464662352666566646
LLLLLLLFFFFFFFFFFFFFFFFFFFFFFFFFFFFFLLLLLLLLLLLLLL
25561346166366155333614334535535243646461666656666
FFFFFFFLLLLLLLFFFFFFFFFFFFFFFFFFFFFLLLLLLLLLLLLLLL
16122362162141633233225166666665366666633242525155
FFFFFFFFFFFFFFFFFFFFFFFFLLLLLLLLLLLLLLLFFFFFFFFFFF
44446225566466665616221546455435266462663235651116
FFFFFFFFFLLLLLLLFFFFFFFFFFFFFFFFFFFFFFLLFFFFFFFFFF
66566614346666431145156544123352246666636166666666
LLLLLLLFFFLLLLFFFFFFFFFFFFFFFFFFFFLLLLLLLLLLLLLLLL
45345646666666636662666666561665662163666666524466
FFFFFFFLLLLLLLLLLLLLLLLLLLLLLLLLLLLLLLLLLLLFFFFFFF
65131216134155634624644661666561136666166666623414
FFFFFFFFFFFFFFFFFFFFLLLLLLLLLFFFFFLLLLLLLLLLLFFFFF
32411336145414152562261616424642123556312526666541
FFFFFFFFFFFFFFFFFFFFFLLLLLFFFFFFFFFFFFFFFFLLLLFFFF
36666666626666566466666466626666161656654633432136
LLLLLLLLLLLLLLLLLLLLLLLLLLLLLLLLLLLLLLLLFFFFFFFFFF
44122263316633666666614366661215554133522466212526
FFFFFFFFFFFFFFLLLLLLLFFFLLLFFFFFFFFFFFFFFFFFFFFFFL
45622224215513341554215625416334662614232355154146
FFFFFFFFFFFFFFFFFFFFFFFFFFFFFFFFFFFFFFFFFFFFFFFFFF
64536652222523542414436154256464663462151412236643
FFFFFFFFFFFFFFFFFFFFFFFFFFFFFFFFFFFFFFFFFFFFFFFFFF
64332342465162353541514551314451252465232166666666
FFFFFFFFFFFFFFFFFFFFFFFFFFFFFFFFFFFFFFFFFFLLLLLLLL
66666536146215451366666666666166663666666662616626
LLLLLFFFFFFFFFFFFLLLLLLLLLLLLLLLLLLLLLLLLLLLLFLLLL
63516562652532124155144644665666633261322166163126
FFFFFFFFFFFFFFFFFFFFFFFLFFFLLLLLLLLFFFFFFFFFFFFFFF
44526366261334466662166565522432365663466445354334
FFFFLFFFFFFFFFFLLLLLLFFFFFFFFFFFFFFFFFFLLFFFFFFFFF
44634246242123364465666666663666155436136666566666
FFFFFFFFFFFFFFFFFFFLLLLLLLLLLLLLFFFFFFFFLFLLLLLLLL
66654546562666466635426656666266663224631343426324
LLLFFFFFFFFLLLLLLLFFFFLLLLLLLLLLLLFFFFFFFFFFFFFFFF
41656665666621133511461542466165615266135425263426
FFLLLLLLLLLLFFFFFFFFFFFFFFFFFFFFFFFFFFFFFFFFFFFFFF
23664236666666662316336221311364566146211666313235
LLLLFFFLLLLLLLLFFFFFFFFFFFFFFFFFFFFFFFFFFFFFFFFFFF
42116236666565641142212165666666223151362346153455
FFFFLLLLLLLLLLLFFFFFFFFFFFLLLLLFFFFFFFFFFFFFFFFFFF
64215366616561656655666616666666266666464515361356
FFFLLLLLLLLLLLLLLLLLLLLLLLLLLLLLLLLLLLFFFFFFFFFFFF
46316352416556132131666666666666165116666632112666
FFFLLFFFFFFFFFFFFFFLLLLLLLLLLLLFFFFFFLLLLLLLLLLLLL
25643354666366346144111513226666616666312346446351
FFFFFFFLLLLLLLFFFFFFFFFFFFFFLLLLLLLLLLFFFFFFFFFFFF
35516241641566626166666656616615666356666663366666
FFFFFFFFFFLLLLLLLLLLLLLLLLLLLLFFLLLLLLLLLLLLLLLLLL
13515244663611136252612632516623244326632515125252
FFFFFFFFLLLLFFFFFFFFFFFFFFFFFFFFFFFFFFFFFFFFFFFFFF
56636235414353362666661264325166426666666666661145
FFFFFFFFFFFFFFFLLLLLLFFFFFFFFFFFFFLLLLLLLLLLLLLFFF
11556254626212313235213231343516666666624623551453
FFFFFFFFLFFFFFFFFFFFFFFFFFFFFFFLLLLLLLLLFLFFFFFFFF
14615362325543264541666666666666666661166466656511
FFFFFFFFFFFFFFFFFFFFLLLLLLLLLLLLLLLLLLLLLLLLLLLFFF
54626136135651215151433344341434426162314624415314
FFFFFFFFFFFFFFFFFFFFFFFFFFFFFFFFFFFFFFFFFFFFFFFFFF
31633233255312636232145156666666163666666616656666
FFFFFFFFFFFFFFFFFFFFFFFFFLLLLLLLLLLLLLLLLLLLLLLLLL
53142515144432236533152562626136554321555454664525
FFFFFFFFFFFFFFFFFFFFFFFFFFFFFFFFFFFFFFFFFFFFFFFFFF
31623165622541344556414552436532264155266262666662
LFFFFFFFFFFFFFFFFFFFFFFFFFFFFFFFFFFFFFFFFFFFLLLLLL
16642653552455645132464156646661243141534362166466
FFFFFFFFFFFFFFFFFFFFFLFFLLLLLLFFFFFFFFFFFFFFLLLLLL
23166234353416666666666666666636666462666566655616
FFFLLLFFFFFFLLLLLLLLLLLLLLLLLLLLLLLLLLLLLLLLFFFFFF
36164416311446655666616345322324434615422542641615
FFFFFFFFFFFFFFFFLLLLLLLFFFFFFFFFFFFFFFFFFFFFFFFFFF
23626666635566666366336666616263436361644666231541
FFFFFLLLLFFFLLLLLFLLLLLLLLLLLLLFFFFFFFFFFFFLFFFFFF
15422263521666366666655514155566621616326643434152
FFFFFFFFFFFLLLLLLLLLLFFFFFFFFFFFFFFFFFFFFFFFFFFFFF
15541412545125666611612113623636366266636666626621
FFFFFFFFFFFFFFLLLFFFFFFFFFFFFFFLLLLLLLLLLLLLLLLLLF
51516366666666636612665661666663116334124631112251
FFFFFFLLLLLLLLLLLLLLLLLLLLLLLLLLFFFFFFFFFFFFFFFFFF
64166662666666662666615421661466524121236546142335
LFFLLLLLLLLLLLLLLLLLLFFFFFFFFFFFFFFFFFFFFFFFFFFFFF
44321623361542366316666666666563214345233251562342
FFFFFFFFFFFFFFFLLLLLLLLLLLLLLFFFFFFFFFFFFFFFFFFFFF
66446666666656563451243126666666666666636666666646
LLLLLLLLLLLLLLFFFFFFFFFFFLLLLLLLLLLLLLLLLLLLLLLLLL
35363366651342331515565324266415252466266666666666
FFFFFFLLLFFFFFFFFFFFFFFFFFFFFFFFFFLLLLLLLLLLLLLLLL
66636663341622441464661436666626616663651213344265
LLLLLLLLFFFFFFFFFFFFFFFFFLLLLLLLLLLLLLLLFFFFFFFFFF
13136161666341341111231362652416663112566365646666
FLLLLLLLLLLFFFFFFFFFFFFFFFLFFFFLLLFFFFFFFFLLLLLLLL
23236666656666626435526616235254255554261156615246
FFFLLLLLLLLLLLLFFFFFFLLLFFFFFFFFFFFFFFFFFFFFFFFFFF
32233611555236124355666166633666644665636265163361
FFFFFFFFFFFFFFFFFFFFLLLLLLLLLLLLLLLLLLLFFFFFFFFFFF
63444366166642126656263436656664663353133464435335
FFFFLLLLLLLLLFFFLLLLFFFFFLLLLLLFLLFFFFFFFFFFFFFFFF
34416332211136555564312361321666666562564312541215
FFFFFFFFFFFFFFFFFFFFFFFFFFFFLLLLLLLLLLLLFFFFFFFFFF
26311363445516623611664153262554641143463454643666
FFFFFFFFFFFFFFFFFFFFFFFFFFFFFFFFFFFFFFFFFFFFFFFFLL
43526666665623143231455352546314213225161361146666
FFFFFLLLLLLLFFFFFFFFFFFFFFFFFFFFFFFFFFFFFFFFFFLLLL
51241524321235445112226656666626666646166666666656
FFFFFFFLLFFFFFFFFFFFFFLLLLLLLLLLLLLLLLLLLLLLLLLLLL
64641351566666656666666666626313232156445635165562
FFFFFFFFFLLLLLLLLLLLLLLLLLFFFFFFFFFFFFFFFFFFFFFFFF
65266666435256111216535564514543461325136656666666
FFFLLLLFFFFFFFFFFFFFFFFFFFFFFFFFFFFFFFFLLLLLLLLLLL
66666666666463666666666665163615461263646664343464
LLLLLLLLLLLLLLLLLLLLLLLLLFFFFFFFFFFFFFLLLLLLFFFFFF
54116155626266666655152136561623653421562626611566
FFFLLFFFLFFFLLLLLLFFFFFFFFFFFFFFFFFFFFFLLLLLLLLLLL
66625616366616666662162113514251612663454126412263
LLLLLLLLLLLLFFLLLLLFFLLLFFFFFFFFFFFFFFFFFFFFFFFFFF
44163312243341666626146652564411154135351226666666
FFFFFFFFFFFFFFFLLLLFFFFFFFFLFFFFFFFFFFFFFFLLLLLLLL
15316616664663636656653612666616655621135625345346
FFFLLLLLLLLLLLLFLLLLFFLLLLLLLLLLLLFFFFFFFFFFFFFFFF
24121453624154323161543434565566425454121411323322
FFFFFFFFFFFFFFFFFFFFFFFFFFFFFFFFFFFFFFFFFFFFFFFFFF
61451524434242626453116642351166662425263461644323
FFFFFFFFFFFFFFFFFFFFFFLLFFFFFFLFLLFFFFFFFFFFFFFFFF
66451651651616646334211615666666311521464214644551
LLFFFFFFFFFLLLLLLLFFFFFFFFLLLLLLFFFFFFFFFFFFFFFFFF
32116466666626611453115445553442314654555162555564
FFFFLFLLLLLLLLLFFFFFFFFFFFFFFFFFFFFFFFFFFFFFFFFFFF
56144426431354111665652412153555242416264162343512
FFFFFFFFFFFFFFFFFFFFFFFFFFFFFFFFFFFFFLLLLLFFFFFFFF
45634655126666666454611134456316626653164343566666
FFFFFLFFFFLLLLLLFFFFLFFFFFFFFFFLLLLLLLLLLFFFFLLLLL
61216666666635215614351641466666666666666666666166
FFFFFLLLLLLLFFFFFFFFFFFFFFLLLLLLLLLLLLLLLLLLLLLLLL
54611424616146136164456242436346651546544635636642
FFFFFFFFFFFFFFFFFFFFFFFFFFFFFFFFFFFFFFFFFFFFFFFLLL
55413215163551431356565414664666513325116141311325
FFFFFFFFFFFFFFFFFFFFFFFFFLLLLLLLFFFFFFFFFFFFFFFFFF
14344663165666666666666366351344253625124341535455
FFFFFLLLLLLLLLLLLLLLLLLLLLLFFFFFFFFFFFFFFFFFFFFFFF
36666166566665666666666665653666525415351142234131
LLLLLLLFFLLLLLLLLLLLLLLLLLLLLLLFFFFFFFFFFFFFFFFFFF
65266362161643364454563355644241662325262126563616
FFFLLFFFFFFFFFFFFFFFFLFFFFFFFFFFFFFFFFFFFFFFFLLLLL
15453121526366666666266656666266666266663661366666
FFFFFFFFFFFFLLLLLLLLLLLLLLLLLFLLLLLLLLLLLLLLLLLLLL
22634332263262462514236364661666656666431425533132
FFFFFFFFFFFFFFFFFFFFFFFLLLLLLLLLLLLLLLFFFFFFFFFFFF
11161125464116216442554641515365416463241145364144
FFFFFFFFFFFFFFFFFFFFFFFFFFFFFFFFFFLLLLFFFFFFFFFFFF
33566664526656626666666666666266166666666666125255
FFFLLLLLLLLLLLLLLLLLLLLLLLLLLLLLLLLLLLLLLLLLFFFFFF
66566662413636266143232564666664365531243666666645
LLLLLLLLLLLLLLLLLFFFFFFFFFLLLLLFFFFFFFFFFLLLLLLLLL
26116541262336555336155234153666533341264535253424
FFFFFFFFFFFFFFFFFFFFFFFFFFFFLLLLFFFFFFFFFFFFFFFFFF
26666646356263646666662654312316646445516534455414
LLLLLLFFFFLLLLLLLLLLLLLFFFFFFFFFFFFFFFFFFFFFFFFFFF
56466563166662361516444136554511312412656666666666
FFFFFFFFFLLLLLFFFFFFFFFFFFFFFFFFFFFFFFFFLLLLLLLLLL
22466666665666666636616441666666114566216143234564
FFFLLLLLLLLLLLLLLLLLFFFFFFFFFFFFFFFFFFFFFFFFFFFFFF
55666343223266616464235666666666614263356366662666
FFLLLLFFFFFLLLFFFFFFFFFLLLLLLLLLLLLLLFFFLLLLLLLLLL
65611663333423524466626166166266666666342355664661
FFFFFFFFFFFFFFFFFFLLLLLLLLLLLLLLLLLLLLLLFFFFFFFLFL
62623542313366514561641361151332463662621256326362
LFFFFFFFFFLLLFFFFFFFFFFFFFFFFFFFFFFFFFFFFFFFFFLFFF
35566656666664133264646666265666666622454162665541
FFFLLLLLLLLLLLFFFFFFFFLLLLLLLLLLLLLLLFFFFFFFFFFFFF
61662666663522413525324541553422225526566462456216
FFFFFFLLLLFFFFFFFFFFFFFFFFFFFFFFFFFFFFFFFFFFFFFFFF
11115141345666336362451422332153312143566636641164
FFFFFFFFFFFLLLLLLLLFFFFFFFFFFFFFFFFFFFFLLLLLLFFFFF
51244666533332665663353266656664252655141566666221
FFFFFLLLLFFFFFLLLLLFFFFFLLLLLLLFFFFFFFFFFLLLLLLFFF
62666663666666565666654351313336645253322544165512
LLLLLLLLLLLLLLLLLLLLLFFFFFFFFFFLLFFFFFFFFFFFFFFFFF
66453522561126324252544511464462551465561556253556
LLLFFFFFFFFFFFFFFFFFFFFFFFFFFFFFFFFFFFFFFFFFFFFFFL
66664616122662224353266666566666366664565254361346
LLLLLLLLFFFLLLFFFFFFFLLLLLLLLLLLLLLLLFFFFFFFFFFFFF
46621616243423635555262224531642661133652151416225
FFFFFFFFFFFFFFFFFFFFFFFFFFFFFFFFFFLFFFLFFFFFFFFFFF
66653116653151323541413461355364462263366666666663
LLFFFFFFFFFFFFFFFFFFFFFFFFFFFFFFFFFFFFFLLLLLLLLLLL
21142614162666313425264263255266563664563263462655
FFFFFFFFFFFLLLFFFFFFFFFFFFFFFFLLLLLLLFFFFFFFFFFFFF
36664166356135652215161312415231412316621243312252
FLLLLLLLFFFFFFFFFFFFFLFFFFFFFFFFFFFFFFFFFFFFFFFFFF
66656635321163144116264421134324666166666661463544
LLLLLLFFFFFFFFFFFFFLLLFFFFFFFFLLLLLLLLLLLLLLLFFFFF
34233112221554251622356255613315426333221155136562
FFFFFFFFFFFFFFFFFFFFFFFFFFFFFFFFFFFFFFFFFFFFFFFFFF
61661613266526142456542246434426466665663266616666
LLLLLLFFFFFFFFFFFFFFFFFFFFFFFFFFFFLLLLLLLLLLLLLLLL
63621331451445244533115224442236153223662513461333
LFFFFFFFFFFFFFFFFFFFFFFFFFFFFFFFFFFFFFFFFFFFFFFFFF
24243461364141142161211663666665522414514232366211
FFFFFFFFFFFFFFFFFFFFFFFFFFLLLLLFFFFFFFFFFFFFFFFFFF
26255556631513146166661666666631652141312625663643
FFFFFFFLFFFFFFFFFFLLLLLLLLLLLLLLLLFFFFFFFFFFFFFFFF
64613665423141265366666613316224561465415162212462
FFFFFFFFFFFFFFLLLLLLLLLLFFFFFFFFFFFFFFFFFFFFFFFFFF
64143621246666661662126666666666636666662666665666
FFFFFFFFFFLLLLLLLLLLLLLLLLLLLLLLLLLLLLLLLLLLLLLLLL
23666616656666666666666666665635526666665611666626
FLLLLLLLLLLLLLLLLLLLLLLLLLLLFFFFFFLLLLLLLLLLLLLLLL
12326321541442351224555122235411441266523666666235
FFFFFFFFFFFFFFFFFFFFFFFFFFFFFFFFFFFFLLLLLLLLLLLFFF
53561221215646366366613416336366651566666666226534
FFFFFFLFFFFFLLLLLLLFFFFFFFFFFFFFFFFFLLLLLLLLFFFFFF
15113463251145666456351261161541362622616666452633
FFFFFFFFFFFFFFLLLFFFFFFFFFFFFFFFLLLLLLLFLLLLFFFFFF
42352666636665666415263232266462316265153453666163
FFFFFLLLLLLLLLLLLFFFFFFFFFFFFFFFFFFFFFFFFFFFLLLLLL
66666646325666656666666566465362352144325445562151
LLLLLLLLFFFLLLLLLLLLLLLFLLLLFFFFFFFFFFFFFFFFFFFFFF
66456664666666266446365164656661344524332545654612
LLLLLLLLLLLLLLLLLFFFFFFFLLLFFFFFFFFFFFFFFFFFFFFFFF
12425121223135555261566666666452626666666666162666
FFFFFFFFFFFFFFFFFFLFFLLLLLLLLFFFFFLLLLLLLLLLLLLLLL
52156626166665666665432666312564625211234142353363
FFFFLLLLLLLLLLLLLLLFFFFLLLFFFFFFFFFFFFFFFFFFFFFFFF
36333336666662166666662622121452556626116663266666
FLFFFFFLLLLLLLLLLLLLLLLFFFFFFFFFFFLLLLLLLLLLLLLLLL
14636164215331363666665666642666646252626666623632
FFFFFFFFFFFFFFFFFLLLLLLLLLLFFFLLLFFFFFFLLLLLLFFFFF
63526351663263646113235661162666521365511465213666
FFFFFFFFFFFFFFFFFFFFFFFFFFFFFFFFFFFFFFFFFFFFFFFLLL
53146455543142242146336344651145666663226566255416
FFFFFFFFFFFFFFFFFFFFFFFFFFFFFFFFFFFLFFFFFFFFFFFFFF
24136232421236614561634521646415235126111661553561
FFFFFFFFFFFFFLLFFFFFFFFFFFFFFFFFFFFFFFFFFFLFFFFFFF
62666666636666666456666666211545354345153115263666
LLLLLLLLLLLLLLLLLLLLLLLLLLLLFFFFFFFFFFFFFFFFFLLLLL
64121362533442256366466666266666646666666211236323
FFFFFFFFFFFFFFFFLLLLLLLLLLLLLLLLLLLLLLLLLFFFFFFFFF
33626136461166261144436664364666331211315363533251
FFFFFFFFFFFFFFFFFFFFFLLLLLLLLLLLFFFFFFFFFFFFFFFFFF
26666616536331554243621663666266626642221313265563
LLLLLLLLLLLFFFFFFFFFFFFFLLLLLLLLLLLLFFFFFFFFFFFFFF
35166361316666666631562346635516361246133566661662
FFFLLLLFFFLLLLLLLLLFFFFFFFFFFFFFFFFFFFFFFFLLLLLLLF
16622666646666466666356454233242153361326116115524
LLLLLLLLLLLLLLLLLLLLLLLFFFFFFFFFFFFFFFFFFFFFFFFFFF
62666666266656661415322651365433136131466666666266
LLLLLLLLLLLLLLLLFFFFFFFFFFFFFFFFFFFFFFFLLLLLLLLLLL
32643156235423263151461322431245324546136132666664
FFFFFFFFFFFFFFFFFFFLFFFFFFFFFFFFFFFFFFFFFFFLLLLLLL
66666664661166612666666266666666666666646625463213
LLLLLLLLLLLLLLLLLLLLLLLLLLLLLLLLLLLLLLLFFFFFFFFFFF
16435566663666632614512616111265142213561113461421
FFFFFFFLLLLLLLLLLLFFFFFFFFFFFFFFFFFFFFFFFFFFFFFFFF
45154322164563235653165324441416112112262662663661
FFFFFFFFFFFFFFFFFFFFFFFFFFFFFFFFFFFFFFFFFLLLLLLLLL
32415442242164464311643626231253362114666641465121
FFFFFFFFFFFFFFFFFFFFFFFFFFFFFFFFFFFFFFFLLFFFFFFFFF
44554254632265456414446254541545335145436666666565
FFFFFFFFFFFFFFFFFFFFFFFFFFFFFFFFFFFFFFFFLLLLLLLLLL
63636131563625635365546666666666666663361435361551
FFFFFFFFFFFFFFFFFFFFFFFFFLLLLLLLLLLLLLLLFFFFFFFFFF
