66666666661666663666666564522636664415562224345135
LLLLLLLLLLLLLLLLLLLLLLLFFFFFFFFLLLFFFFFFFFFFFFFFFF
11441533435152523652166666626566366662462564451511
FFFFFFFFFFFFFFFFFFFFFLLLLLLLLLLLLLLLLFFFFFFFFFFFFF
66665661665666666666636232556114643413365322422666
LLLLLLLFLLLLLLLLLLLLLLLFFFFFFFFFFFFFFFFFFFFFFFLLLL
25513354443353463662563666665416464435165122116356
FFFFFFFFFFFFFFFFFFFFFFFLLLLLFFFFFFFFFFFFFFFFFFFFFF
26553336313422251663455666625135665163666666636566
FLFFFFFFFFFFFFFFFLFFFFLLLLLFFFFFLLFFFFFFLLLLLLLLLL
15316653236415625563465664642564362645611614516423
FFFFFFFFFFFFFFFFFFFFFLLLLLFFFFFFFFFLFFFFFFFFFFFFFF
42234613263152246656162663312336322632615566664636
FFFFFFFFFFFFFFFFFFFFFFFFFFFFFFFFFFFFFFFFFLLLLLLLLL
62166653321342222543532112466656666666656666661466
LFLLLLFFFFFFFFFFFFFFFFFFFFFLLLLLLLLLLLLLLLLLLLFFFF
23463125415553164552355436225366151343561655562642
FFFFFFFFFFFFFFFFFFFFFFFFFFFFFFFFFFFFFFFFFFFFFFFFFF
66466666666616666626353466234353563566666566666666
LLLLLLLLLLLLLLLLLLFFFFFFFFFFFFFFFFFFFFLLLLLLLLLLLL
64556135666666666623636326566636666664465146655661
LLFLLFFFLLLLLLLLLLFLLLLLLLLLLLLLLLLLLLLFFFFFFFFFFF
62416563126666666656656666626166666613451452223423
LFFFFFFFFFLLLLLLLLLLLLLLLLLLLLLLLLLLFFFFFFFFFFFFFF
43666352352125233322151426131416326636251521554113
LLLLLLFFFFFFFFFFFFFFFFFFFFFFFFFFFFFFFFFFFFFFFFLFFF
64144442656133526242631156466666666666112513543221
LFFFFFFFFFFFFFFFFFFFFFFFFFLLLLLLLLLLLLFFFFFFFFFFFF
13345514425155424443335266666616366661666616666666
FFFFFFFFFFFFFFFFFFFFFFFFLLLLLLFFLLLLLLLLLLLLLLLLLL
21166666666646666662566653566652666223213666666666
LLLLLLLLLLLLLLLLLLLLLLLFFFFLLLLLLLLLFFFFFLLLLLLLLL
56632466616666665456666666466463666666161623666655
FFFFFFLLLLLLLLLLLFFLLLLLLLLLLLLLLLLLLLLLLLFFFLLLLF
44215564566636533341123213245456666654231365553114
FFFFFFFFFFFFFFFFFFFFFFFFFFFFFFFFLLLLFFFFFFFFFFFFFF
62622244156326666562632455622166363626331421563556
FFFFFFFFFFFFFLLLLLLLLFFFFFFFFFLLLLFFFFFFFFFFFFFFFF
24566266411122546262263513224633666666666665341313
FFFLLLLLFFFFFFFFFFFFFFFFFFFFFFFFLLLLLLLLLLLFFFFFFF
56666666566666435543354541566624221335541262333443
FLLLLLLLLLLLLLFFFFFFFFFFFFFLLLFFFFFFFFFFFFFFFFFFFF
53522466533162345133363242122244531122666365636626
FFFFFFFFFFFFFFFFFFFFFFFFFFFFFFFFFFFFFFLLLLLLLFLLLL
52355666666666523212216464656332625665266353133634
FFFFFLLLLLLLFFFFFFFFFFFFFFFFFFFFFFFFLFFFFFFFFFFFFF
34425446334666626626666666663614213212323663546252
LFFFFFFFFFLLLLLLLLLLLLLLLLLLFFFFFFFFFFFFFFFFFFLLLF
65566366666666523325646152131256464612626214631163
LLLLLLLLLLLLLLFFFFFFLLLFFFFFFFFFFFFFFFFFFFFFFFFFFF
45326263264541252516551634132536655414133223124533
FFFFFFFFFFFFFFFFFFFFFFFFFFFFFFFFFFFFFFFFFFFFFFFFFF
15562341523341252633156353626335653512346343346113
FFFFFFFFFFFFFFFFFFLLFFFFFFFFFFFFFFFFFFFFFFFFFFFFFF
66654261412644241261241123254166133124242343142145
LLFFFFFFFFFFFFFFFFFFFFFFFFFFFFFFFFFFFFFFFFFFFFFFFF
35131544115555652464652666661625312353315626166636
FFFFFFFFFFFFFFFFFFLLFFFFFFFFFFFFFFFFFFFFFFFFFFFLLL
23115661565123455663455415141214645513165222525435
FFFFFFFFFFFFFFFFFFFFFFFFFFFFFFFFFFFFFFFFFFFFFFFFFF
66666654132421566666266366266424433233264662324266
LLLLLLFFFFFFFFFLLLLLLLLLLLLLLFFFFFFFFFFFFFFFFFFFLL
43445114331423226666612346661666643445425616625436
FFFFFFFFFFFFFFFFLLLLLLLLLLLLLLLLLFFFFFFFFLLLLLFFFL
22241425213414664634536424443612656215631265161213
FFFFFFFFFFFFFFFFFFFFFFFFFFFFFFFFFFFFFFFFFFFFFFFFLL
66166114666146665656666653666366662626666666666466
FFFLLLLLLLLLLLLLLLLLLLLLLLLLLLLLLLLLLLLLLLLLLLLLLL
25615523531226353461132266666636551363134616626665
FFFFFFFFFFFFFFFFFFFFFFFLLLLLLLLLFFFFFFFFFFFLLLLLLL
36466666412613165434666361346566366664661666325513
FLLLLLLFFFFFFFFFFFFFLFFFFFFLLLLLLLLLLLLLLLLLLLLFFF
56456452555465242666644536666666122665424323464363
FFFFFFFFFFFFFFFFFFFFFFFFFLLLLLLLFFFFFFFFFFFFFFFFFF
66343526426326656661666666166666616626662563223541
FFFFFFFFFFLLLLLLLLLLLLLLLLLLLLLLLLLLLLLLFFFFFFFFFF
66666256666666512222225151646666666616464452415632
LLLLLLLLLLLLLFFFFFFFFFFFFFFFLLLLLLLLFFFFFFFFFFFFFF
21361562226315234566346615662656516353466361645161
FFFFFFFFFFFFFFFFFFLLFFFFFFFFFFFFFFFFFFFFFFFFFFFFFF
62554433466654436455362512664364366466463662666661
FFFFFFFFFFFFFFFFFFFFFFFFFFFFFFFFFLLLLLLLLLLLLLLLLF
11425666666656666666664266235153622661445452664666
FFFFFLLLLLLLLLLLLLLLLLFFLLFFFFFFFFFFFFFFFFFFFLLLLL
51434523251253431666666661245442566666126611532642
FFFFFFFFFFFFFFFFFLLLLLLLLFFFFFFFFLLLLLFFLLLFFFFFFF
54346662566666464666165624116522111163154515426256
FFFFLLLFFLLLLLLLLLLLLLFFFFFFFFFFFFFFFFFFFFFFFFLLLL
32613331511611261152324566666646656665356222366465
FFFFFFFFFFFFFFFFFFFFFFFFFLLLLLLLLLLLLFFFFFFFFFFFFF
65243666665532642221215634322124664246515153512456
FFFFFLLLLLFFFFFFFFFFFFFFFFFFFFFFLLFFFFFFFFFFFFFFFF
56316664666661222663346366156546612156656666662666
FLLLLLLLLLLLLFFFFFFFFFFLLFFLLLFFFFFFFFFFLLLLLLLLLF
66666566632662331312216245331213452112546566666666
LLLLLLLLLFFFFFFFFFFFFFFFFFFFFFFFFFFFFFFFFFLLLLLLLL
12123656666646554442416563555515135114131161514366
FFFFFFFLLLLLLLFFFFFFFFFLLFFFFFFFFFFFFFFFFFFFFFFFFF
34456666444122653663612662665532532451651113336661
LFFLLLLLLFFFFFFFFFFFFFFLLLLLFFFFFFFFFFFFFFFFFFLLLL
25146636646612123233443416245244352244242115656514
FFFFLLLLLLLLFFFFFFFFFFFFFFFFFFFFFFFFFFFFFFFFFFFFFF
26266166636646666665666666665616646666661666666662
LLLLFFLLLLLLLLLLLLLLLLLLLLLLLLLLLLLLLLLLLLLLLLLLLL
22346632664516666666666666666653321554635363266146
FFFFLLLLLLFFFFLLLLLLLLLLLLLLLLLLFFFFFFFFFFFFFFFFFF
46222254514462244613316144113266666632115114242226
FFFFFFFFFFFFFFFFFFFFFFFFFFFFFLLLLFFFFFFFFFFFFFFFFF
26646566654123214316666636666663666434225413652646
LLLLLLLLLFFFFFFFFFFLLLLLLLLLLLLLLLLLFFFFFFFFFFFFFF
26666666666666666666666666561656432313563553636665
LLLLLLLLLLLLLLLLLLLLLLLLLLLFFFFFFFFFFFFFFLLLLLLLLF
46116113141416226666666666663626126123143466616663
FFFFFFFFFFFFFLLLLLLLLLLLLLLLLLLLFFFFFFFFFFFLLLLLLF
35522213353446655661356465325555244333132633332355
FFFFFFFFFFFFFFFFFFFFFFFFFFFFFFFFFFFFFFFFFFFFFFFFFF
31244666661326254226661632435615352226241166316431
FFFFFFLLFFFFFFFFFFFFLLLLFFFFFFFFFFFFFFFFFFFFFFFFFF
43634413612222125543413425364166664535214531665326
FFFFFFFFFFFFFFFFFFFFFFFFFFFFFFFLLLFFFFFFFFFFLLFFFF
12335441416236451565412344123652223122453633156234
FFFFFFFFFFFFFFFFFFFFFFFFFFFFFFFFFFFFFFFFFLFFFFFFFF
54546612351356236666635141352453224456561131666666
FFFFFFFFFFFFFFFLLLLLLFFFFFFFFFFFFFFFFFFFFFFFFFLLLL
42216341111543461666666663666661664666644655513323
FFFFFFFFFFFFFFFFFFFLLLLLLLLLLLLLLLLLLLLLFFFFFFFFFF
56646655622165656336666666666666636664666652311233
LLFFFFFFFFFFLLLLLLLLLLLLLLLLLLLLLLLLLLLLLLLFFFFFFF
63512313123466666111556666621426136664144554131156
FFFFFFFFFFFLLLLLFFFFFFLLLLLFFFFLFFLLLFFFFFFFFFFFFF
66661454431315236321552453221265641416356666636662
LLLLFFFFFFFFFFFFFFFFFFFFFFFFFFFFFFFFFFFFLLLLLLLFFF
15262613256334661412453115546525442262664554535151
FFFFFFFFFFFFFFFFFFFFFFFFFFFFFFFFFLFFLLLLFFFFFFFFFF
41463336664666666636666636666242231635215531521256
FFFFFFFLLLLLLLLLLLLLLLLLLLLLLFFFFFFFFFFFFFFFFFFFFL
51126666666662264466663613126412243666666446353355
FFFLLLLLLLLLLLLLLLLLLLLLFFFFFFFFFFFLLLLLLFFFFFFFFF
63434136366652564166645143666266666565466341412426
FFFFFFFFFLLLFFLLFFLLLFFFFFFFFFLLLLLLLFFFFFFFFFFFFF
66552566664145126616342136434416665466525535344242
LLFFFFFFLFFFFFFFLLLLFFFFFFFFFFFFFFFFFFLFFFFFFFFFFF
22413545666664666666666666166665554622542533225446
FFFFFFFFFLLLLLLLLLLLLLLLLLLLLLLLLLLLFFFFFFFFFFFFFF
52366666366466626666516151666664661616666666662116
FFFLLLLLLLLLLLLLLLLLFFFFFFFLLLLLLLLLLLLLLLLLLLFFFF
36445366666666626666666665666666665516656331146266
FFFFFFLLLLLLLLLLLLLLLLLLLLLLLLLLLLFFFFFFFFFFFFLLLL
31331635432126252255521522461242622252214454311631
FFFFFFFFFFFFFFFFFFFFFFFFFFFFFFFFFFFFFFFFFFFFFFFFFF
41666666666666616114466215656453556632364124223622
FFLLLLLLLLLLLLLLLFFFFFFFFFFFFFFFFFFLFFFFFFFFFFFFFF
36554554461213261316561135655341266551353455346166
FFFFFFFFFFFFFFFFFFFFFFFFFFFFFFFFFFFFFFFFFFFFFFLLLL
54366666626666666666266263664263666445166616666113
FFFFFLLLLLLLLLLLLLLLLLLLLLLLFFFFLLLFFFLLLLLLLLLFFF
66666365665645536264661666231516661666326666616365
LLLLLLLLLLFFFFFFFFFFFFFFLLFFFFFLLFFFLLLLLLLLLFFFLL
55524336165662611364352246263666566666666665664666
FFFFFFFLLLLLLLLFFFFFFFFFFFFLLLLLLLLLLLLLLLLLLLLLLL
51262664525212222326362331645455246656666666666662
FFFFFFFFFFFFFFFFFFFLLLFFFFFFFFFFFFFLLLLLLLLLLLLLLF
26555345635646666611522121344326663665666666343144
FFFFFFFFFFFFFFFFFFFFFFFFFFFFFFFLLLLLLLLLLLLFFFFFFF
61666666666661133456665322243452332666666663662136
LLLLLLLLLLLLLFFFFFLLFFFFFFFFFFFFFFFFLLLLLLLLLLFFLL
33341363426665114361361265232625623414334253663666
FFFFFFFFFFFFLFFFFFFFFFFFFFFFFFFFFFFFFFFFFFFFLLLLLL
31243111415663156255533235614252343232642666666444
FFFFFFFFFFFLLFFFFFFFLFFFFFFFFFFFFFFFFFFFFLLLLLLFFF
63311354466225235436655661535644265224233266664666
FFFFFFFFFFFFFFFFFFFFFFFFFFFFFFFFFFFFFFFFFLLLLLLLLL
66626656443212222334624636114234442543166651666666
LLLLLLLLFFFFFFFFFFFFFFFFFFFFFFFFFFFFFFFLLLLLLLLLLL
33616655512152256346445435313266664326666456626632
FFFFLLFFFFFFFFFFFFFFFFFFFFFFLLLLLLLLLLLLLLLLLLLLFF
61615541256556616165544516235536162466666661325645
FFFFFFFFFFFFFLLLLFFFFFFFFFFFFFFLLLLLLLLLLLLLLFFFFF
66663666656662624653622625614653253516535431443556
LLLLLLLLLLLLLFFFFFFFFFFFFFFFFFFFFFFFFFFFFFFFFFFFLL
12266525152215546633155255251542453561616356646666
FFFLFFFFFFFFFFFFLLFFFFFFFFFFFFFFFFFFFFFFFFFLLLLLLL
44531652366615616146625166622642416666662256666666
FFFFFFFFFFFFFFFFFFFFFFFFLLLFFFFFFFFFFLLLFFFLLLLLLL
12646121154352433234652662462215411311246145251363
FFFFFFFFFFFFFFFFFFFFFFFLFFFFFFFFFFFFFFFFFFFFFFFFFL
14111144233134464513415252321366666666666666255213
FFFFFFFFFFFFFFFFFFFFFFFFFFFFFFLLLLLLLLLLLLLLFFFFFF
26166566666462215425155455251465132652122644426231
LLLLLLLLLLFFFFFFFFFFFFFFFFFFFFFFFFFFFFFFFFFFFFFFFF
46525642345445366662666662663666666666663465526366
FFFFFFFFFFFFFFFLLLLLLLLLLLLLLLLLLLLLLLLLLLLFFFFFFL
13351253423433664353221252136156253333346544553132
FFFFFFFFFFFFFFFFFFFFFFFFFFFFFFFFFFFFFFFFFFFFFFFFFF
36321164341166666656526652225324634635566666145215
FFFFFFFFFFFLLLLLLLLLLLLLFFFFFFFFFFFFFFFLLLLLFFFFFL
12356643414521654341134216366633365351113145344564
FFFFFFFFFFFFFFFFFFFFFFFFFFFLLLFFFFFFFFFFFFFFFFFFFF
63666663365466666666646666466366166666625212314645
LLLLLLFFFFFFLLLLLLLLLLLLLLLLLLLLLLLLLLLFFFFFFFFFFF
51311416142543351353266166666665324552515633113424
FFFFFFFFFFFFFFFFFFFFFLLLLLLLLLLFFFFFFFFFFFFFFFFFFF
34134635133433654144432133255464212166664132442162
FFFFFFFFFFFFFFFFFFFFFFFFFFFFFFFFFFFFFFFFFFFFFFFFFF
66666666445463436661342543263343546155526261144623
LLLLLLLLFFFFFFFFLLLLFFFFFFFFFFFFFFFFFFFFFFFFFFFFFF
22666456566264534451316635213153612645126624164233
FFFFFFFLLLLFFFFFFFFFFLLLFFFFFFFFFFLLLLLLLLLLLLFFFF
31666664166115161351124224122351666666666235354132
FFLLLLLFFFLLFFFFFFFFFFFFFFFFFFFFLLLLLLLLLLFFFFFFFF
16136463364114622246356554465115443442366626262621
FFFFLLLFFFFFFFFFFFFFFFFFFFFFFFFFFFFFFFLLLLLLLLLLFF
66162411463314154362461634565531354653666612416145
FLLLFFFFFFFFFFFFFLLFFFFFFFFFFFFFFFFLLLLLLLFFFFFFFF
65616566666662666643536413622435146666663162666666
LLLLLLLLLLLLLLLLLLFLFFFFFFFFFFFFFFFLLLLLLLLLLLLLLL
66626333612134416666625231636211664652654462122666
LLLFFFFFFFFFFFFFFFLLLLLFFFFFFFFFFLLLFFFFFFFFFFFFFL
63661534454314554243516411566666666646266666126652
LLLLFFFFFFFFFFFFFFFFFFFFFFFFLLLLLLLLLLLLLLLLFLLLFF
54442133535156415651335654611434562355666646656666
FFFFFFFFFFFFFFFFFFFFFFFFFFFFFFFFFFFFFFLLLLLLLLLLLL
54366535366361113425545566365625133616161211321422
FLLLLLFFFFFFFFFFFFFFFFFFFFFFFFFFFFFFFFFFFFFFFFFFFF
64642522314142413323156612165535414566662366263664
FFFFFFFFFFFFFFFFFFFFFFFFFFFFFFFFFFFFLLLLLLLLLLLLLL
36612552436433644212512455343663466261165145256664
LLFFFFFFFFFFFFFFFFFFFFFFFFFFFFFFFFFFFFFFFFFFFFFFFF
66614622116654513333445635452614463614336466226422
LLLLFFFFFFFFFFFFFFFFFFFFFFFFFFFFFFFFFFFFFFFFFFFFFF
66636211666662642452262546664666666656541556622563
LLLLLFFFFLLLLFLFFFFFFFFFFFLLLLLLLLLLLLLLLLLLLFFFFF
34331544462455326312346663146666665356256522524443
FFFFFFFFFFFFFFFFFFFFFFLLLLLLLLLLLLLFFFFFFFFFFFFFFF
41661354255365146413512655254325612115146666566644
FFFFFFFFFFFFFFFFFFFFFFFFFFFFFFFFFFFFFFFFLLLLLLLFFF
56323546641145616615151666656456546652666666666636
FFFFFFFFFFFFFFFFFFFFFFFLLLLLLFFFFLLLLLLLLLLLLLLLLL
21565264411552545356666666666614666656636666666415
FFFFFFFFFFFFFFFFFLLLLLLLLLLLLLLLLLLLLLLLLLLLLLLFFF
55632636666421551166232344462161221614464521664154
FFFFFLLLLLLFFFFFFFFFFFFFFFFFFFFFFFFFFFFFFFFFLLFFFF
66666666666626646655542261134535136166456424556126
LLLLLLLLLLLLLLLLLLFFFFFFFFFFFFFFLLLFFFFFFFFFFFLLLL
63232654215661451612616113166665413216433634562626
FFFFFFFFFFFFFFFFFFFFFFFFFFFLLLLFFFFFFFFFFFFFFFFFFF
62661661542425212165234636663431156666666645211665
LLLLLLLLLFFFFFFFFFFFFFFFFFFFFFFFFLLLLLLLLLFFFFFLLL
55242622513363565461132666666622636221622666614666
LLFFFFFFFFFFFFFFFFFFFFFLLLLLLLLLLLLFFFFFFLLLLLLLLL
62436236154323352432343245644254633645554466366613
FFFFFFFFFFFFFFFFFFFFFFFFFFFFFFFFFFFFFFFFFFFFFFFLLF
46361131445245566623331556525362666625466666123666
LLLLFFFFFFFFFFFFFFFFFFFFFFFFFFLLLLLLLLLLLLLLFFLLLL
46566463466466616564166666666666235656666666554456
FLLLLLLLFLLLLLLFFFFFFFLLLLLLLLLLLLLLLLLLLLLLFFFFFF
55343461635232646664666666226666666316654541516111
FFFFFFFFFFFFFFLLFLLLLLLLLLLLLLLLLLFFFFFFFFFFFFFFFF
66666252512453446543612416346561551664266666663415
LLLLLFFFFFFFFFFFFFFFFFFFFFFFFFFFFFFFFFFLLLLLLLFFFF
42231445453351223523216215445512556131144453646464
FFFFFFFFFFFFFFFFFFFFFFFFFFFFFFFFFFFFFFFFFFFFFFLLLL
66663666166616656612125446325633445366566621665463
LLLLLLLLLLLLLLLLLLFFFFFFFFFFFFFFFFFLLLLLFFFFFFFFFF
26221666661543165623135143426646424662663531545345
FFFFLLLLLLFFFFFFFFFFFFFFFFFFFFFFFFFLLLLLFFFFFFFFFF
66665666616666456354133123326262243341665563322262
LLLLLLLLFLLLLLLLLFFFFFFFFFFFFFFFFFFFFFLLFFFFFFFFFF
45266656664321552553266166636656412444412635111514
FFFLLLLLLLFFFFFFFFFFFLLLLLLLLLLLFFFFFFFFFFFFFFFFFF
62565123666463666661656666626666666666266666246222
FFFFFFFFLLLLLLLLLLLLLLLLLLLLLLLLLLLLLLLLLLLLFFFFFF
43316666666151463315662465165143254634342144265114
FFFFFFLLLLFFFFFFFFFFFFFFFFFFFFFFFFFFFFFFFFFFFFFFFF
24626132664534162521152526426635334616545452456654
FFFFFFFFFFFFFFFFFFFFFFFFFFFFFFFFFFFFFFFFFFFFFFFFFF
52111215336636526643662552161356131114415226333561
FFFFFFFFFFLLFFFFLLFFFFFFFFFFFFFFFFFFFFFFFFFFFFFFFL
61666266666666666666663153131135433235311226331666
LLLLLLLLLLLLLLLLLLLLLLLFFFFFFFFFFFFFFFFFFFFLLLFFLL
36231452145111644614663666666661664266666661426216
FFFFFFFFFFFFFFFFFFFLLLLLLLLLLLLLLLLLLLLLLLLLLFFFFF
46653355521362356666636666666644124424524364152342
FFFFFFFFFFFFFFFFLLLLLLLLLLLLLLFFFFFFFFFFFFFFFFFFFF
54465133223666566442136666666656666635644126255622
FFFFFFFFFFFLLLFLLFFFFFLLLLLLLLLLLLLLFFFFFFFFFFFFFF
66666116264252522512531651621213636655422351613525
LLLLLFFFFFFFFFFFFFFLLLFFFFFFFFFFLLLFFFFFFFFFFFFFFF
11512263113426114335315453156335565146146466344262
FFFFFFFFFFFFFFFFFFFFFFFFFFFFFFFFFFFFFFFFFFFFFFFFFF
42136134363214612566662234166235111212652441324445
FFFFFFFFFFFFFFFFFFLLLLLFFFFFFFFFFFFFFFFFFFFFFFFFFF
12462553365564513541141611641314625666616666366646
FFFFFFFFFFFFFFFFFFFFFFFFFFFFFFFFFFFLLLLLLLLLLLLLLL
16643146666666662666666662524665636663533653251425
FFFFFFFFLLLLLLLLLLLLFLLLLLFFFFLLFFLLFFFFFFFFFFFFFF
61415666266366616525656161246212423421415333666666
LLLFFLLLLLFFLLLLLLFFFFFFFFFFLFFFFFFFFFFFFFFFLLLLLL
62166666134123131652326446366544166666666666666636
LLLLLLLLLFFFFFFFFFFFFFFFFLLLLLLLLLLLLLLLLLLFLLLLLL
63562466331551466662616666566231432236564524112213
FFFFFFFFFFFFFFLLLLLLLLLLLLLLLFFFFFFFFFFFFFFFFFFFFF
23161466656666666666366666445246132561336356514553
FFFFFFLLLLLLLLLLLLLLLLLLLFFFFFFFFFFFFFFFFFFFFFFFFF
66466666663566466661661666265666662666662161661466
LLLLLLLLLLLLLLLLLLLLLLLLLLLLFLLLLLFLLLLLLLLLLLLLLL
66622466666621666661435151634445655425365331122266
LLLFFFLLLLLLFFLLLLFFFFFLFFFFFFFFFFFFFFFFFFFFFFFFFF
66664125666466666661664651252631254624566563234564
LLLLLLLLLLLFLLLLLLLLLLLLFFFFFFFFFFFFFFFLLLLFFFFLLL
13436325136552232633644112253664134151625665666251
FFFFLFFFFLFFFFFFFFFFFFFFFFFFFFFFFFFFFFFFFLLLLLLLLF
15125521626466365164311616243355532365211521532242
FFFFFFFFFFFLLFFFFFFFFFFFFFFFFFFFFFFFLFFFFFFFFFFFFF
66266312666666566666666212122634436666653434146666
LLLLLFFFLLLLLLLLLLLLLLLFFFFFFFFLLLLLLLLFFFFFFFFLLL
66656663526245363546333255466666336626616663666665
LLLLLLLFFFFFFFFFFFFFFFFFFFLLLLLLLLLLLLLLLLLLLLLLLF
36336536211614534641323122331323416666636635441213
FLLFFFFFFFFFFFFFFFFFFFFFFFFFFFFFFFLLLLFFLLFFFFFFFF
63633133442431514452122153566241233244362366443311
LLLFFFFFFFFFFFFFFFFFFFFFFFFFFFFFFFFFFFFFFFFLFFFFFF
52666662666666666612123251551515261214554423466565
FFLLLLLLLLLLLLLLLLLFFFFFFFFFFFFFFFFFFFFFFFFFFLLLLF
66466666666666616616466633645626636453246435325435
LLLLLLLLLLLLLLLLLLLLLLLLFFFFFFFFFFLLLFFFFFFFFFFFFF
16365353365546336666666313144652466654661641656162
FFFFFFFFFFFFFFFLLLLLLLLFFFFFFFFFFFFFFFFFFFFFFFLLLL
43213642551353152211656615141314211412363345615166
FFFFFFFFFFFFFFFFFFFFFFFFFFFFFFFFFFFFFFFFFFFFFFFLLL
56666511541126125266662666663666665466666666635341
LLLLLFFFFFFFFFFFFFLLLLLLLLLLLLLLLLLLLLLLLLLLFFFFFF
36666666365123161366665415111436253311524354315266
LLLLLLLLLLFFFFFFFFLLLLFFFFFFFFFFFFFFFFFFFFFFFFFFFL
22244463246566666242623526616666162656316624162343
FFFFFFFFFFLLLLLLLFFFFFFFFLLLLLLLFFFFFFFFFFFFFFFFFF
15212236666666663616631536123166442636611556535351
FFFFFFLLLLLLLLLLLLLLLFFFFFFFFFFFFFFFFFFFFFFFFFFFFF
66666662215524656644425425341354152112634316452633
LLLLLLFFFFFFFFFFLLFFFFFFFFFFFFFFFFFFFFFFFFFFFFFLLL
64616166666663151525411562542344411165314355341655
FLLLLLLLLLLLLFFFFFFFFFFFFFFFFFFFFFFFFFFFFFFFFFFFFF
41332253165635344341221215666626565565352665522161
FFFFFFFFFFFFFFFFFFFFFFFFFFLLLLFFFFFFFFFFFFFFFFFFFF
55336366631662415661521434141336666663612332431321
FFFFFFLLLFFFFFFFFFFFFFFFFFFFFFFLLLLLFFFFFFFFFFFFFF
14443566666161144316621121363661566645221164514413
FFFFFFLLLLFFFFFFFFFFLLLFFFFFFFFFFFFFFFFFFFFFFFFFFF
66514164663526155454164513454452342536433131413131
FFFFFLLFFFFFFFFFFFFFFFFFFFFFFFFFFFFFFFFFFFFFFFFFFF
66362664342221636616421366613414461426254666445625
LLLLLLLFFFFFFFFFFFFFFFFFLFFFFFFFFFFFFFFFFFFFFFFFFF
24613561215662436662136152634146344264464566455333
FFFFFFFFFFFFFFFFFLLFFFFFFFFFFFFFFFFFFFFFFFFFFFFFFF
64226661666666651166662262366366566663452341336553
FFFFLLLLLLLLLLLFFFLLLFFFFLLLLLLLLLLLLLFFFFFFFFFFFF
63311436364411441511262656553616221634423665165626
FFFFFFFFFFFFFFFFFFFFFFFFFLFFFFFFFFFFFFFFFFFFFLLLLL
66225666666666663661434453266625611224511334352225
LLFFFLLLLLFFLLLLLFFFFFFFFFFFFFFFFFFFFFFFFFFFFFFFFF
61655424413141253636434666635631165413362255241622
LFFFFFFFFFFFFFFFFFFFFFFFLLLFFFFFFFFFFFFFFFFFFFFFFF
66166666435666665636666661344131523666666644213143
LLFLLLLFFFFLLLLLLLLLLLLLLFFFFFFFFFFLLLLLLLFFFFFFFF
15661626261356144513622312223135353526662212554666
FFLLFFFFFFFFFFFFFFFFFFFFFFFFFFFFFFFFFLLLFFFFFFFFLL
66635241162434424166666666646666366553456544462663
LLFFFFFFFFFFFFFFFFLLLLLLLLLLLLLLLLLLLFFFFFFFFFFFLL
53524666662664666261461612124426361245365666665166
FFFFFLLLLLLLLLLLFFFFFFFFFFFFFFFFFFFFFFFLLLLLLLLFFF
45445624164536536466666166266466612651644666623554
FFFFFFFFFFFFFFFFFFLLLLLLLLFLLLLLLFFFFFFFFLLLLLFFFF
45661423641266666346666665646666646466445662256234
FLLLFFFFFFFFLLLLLLLLLLLLLLLLLLLLLLLLLFFFFFLLFFFFFF
66663664664161362666666311143563433162224666666666
LLLLFFFLLLLLLLLLLLLLLLLFFFFFFFFFFFFFFFFFFLLLLLLLLL
21525414532534423244316423426211524656664666666666
FFFFFFFFFFFFFFFFFFFFFFFFFFFFFFFFFFLLLLLLLLLLLLLLLL
66665666666666616666666366661626413311243623556625
LLLLLLLLLLLLLLLLLLLLLLLLLLLLLFFFFFFFFFFFFFFFFFFFFF
22465153145541524432561126454426133264155311265235
FFFFFFFFFFFFFFFFFFFFFFFFFFFFFFFFFFFFFFFFFFFFFFFFFF
43525356466666666666566266666666654266626653664656
FFFFFFFFLLLLLLLLLLLLLLLLLLLLLLLLLLLLLLLLLLFFLLLLLL
46335653446441132661463523613315221466666656363161
FFFFFFFFFFFFFFFFFFFFFFFFFFFFFFFFFFFLLLLLLLLLFFFFFF
46621463226235336213611251653663624635344313543133
FFFFFFFFFFFFFFFFFFFFFFFFFFLLLLFFFFFFFFFFFFFFFFFFFF
31636162636455613515145416666664666466656311346452
FFFFFFFFFFFFFFFFFFFFFFFFLLLLLLLLLLLLLLLFFFFFFFFFFF
53432461456666444545333143423433115256415525243611
FFFFFFLLLFLLLLFFFFFFFFFFFFFFFFFFFFFFFFFFFFFFFFFFFF
23146646533235336266666535363665144463326166534366
FFFFLLLLFFFFFFFFLLLLLLLLFFFLLLLFFFFLLLLLLLLLLLLLLL
66364513623663656636666666623132131646666666666666
LLFFFFFFFFFFFFLLLLLLLLLLLLFFFFFFFFFFFFLLLLLLLFLLLL
44126226614134562666646666666634426633344616163536
FFFFFFFFFFFFFFFLLLLLLLLLLLLLLLFFFFLLLFFFFFFFFFFFFF
53314333311346321155131165255635626636661665666666
FFFFFFFFFFFFFFFFFFFFFFFFFFFFFFFFLLLLLLLLLLLLLLLLLL
44553216134525652316126651465435362542362166666662
FFFFFFFLFFFFFFFFFFFFFFFFFFFFFFFFFFFFFFFFFLLLLLLLLL
43232542433316234444214564224212251636616261536643
FFFFFFFFFFFFFLLFFFFFFFFFFFFFFFFFFFFFFFFFLFFFFFFFFF
12166546424161455262553664312114162135415666666666
LFFFFFFFFFFFFFFFFFFFFFFFFFFFFFFFFFFFFFFFLLLLLLLLLL
43661211162656323465222563666666341423335425243241
FFFFFFFFFFFFFFFFFFLFFFLLLLLLLLLLLLFFFFFFFFFFFFFFFF
66656214256416462124626666543236645362663664566466
LLLLLFFFFFFFFFFFFFFFFFFLLLLLFFFFFFFFFFLLLLLFFFFFFF
11532425353353363433556666665452424535444514433666
FFFFFFFFFFFFFFFFFFFFFFLLLLLFFFFFFFFFFFFFFFFFFFFLLL
25666626666666263666521541411513561526522436434511
FFLLLFFLLLLLLLLLLLLLFFFFFFFFFFLFFFFFFFFFFFFFFFFFFF
63346364666466616615212654515465115131413462664666
FFFFLLLLLLLLLLLLLLFFFFFFFFFFFFFFFFFFFFFFFFFFFFFLLL
54455466646666256266663665346666666646666666656666
FFFFFFFLLLLLLLLLLLLLLLFFFFFFLLLLLLLLLLLLLLLLLLLLLL
53635534311356666616366666656251153445166666622636
FFFFFFFFFFFFFFLLLLLLLLLLLLLLLFFFFFFFFFFLLLLLFFFFFF
46466663646666666666166666666666516466531461512255
LLLLLLLLLLLLLLLLLLLLLLLLLLLLLLLLFFFFFFFFFFFFFFFFFF
66616561251421366564211521632122265664626631424222
LLLLLLLFFFFFFFFFFFFFFFFFFFFFFFFFFFFLLLLLLFFFFFFFFF
41432163442365456321621133266415444321265464111332
FFFFFFFFFFFFFFFFFFFFFFFFFFFFFFFFFFFFFFFFFFFFFFFFFF
34565441362653143543646625625616312136365453412354
FFFFFFFFFFFFFFFFFFFFFFFLFFFFFFFFFFFFFFFFFFFFFFFFFF
52516364563541134636445334446664343466664526666636
FFFFFFFFFFFFFFFFFFFFFFFFFFFFFFFFFFFFLLLLLLLLLLLLLL
31255524646622536666666314663366226466666626666166
FFFFFFFFFFFFFFFFLLLLLLFFFFFFFLLLLLLLLLLLLLLLLLLLLL
43324511631666566661656163151435164656634634354641
FFFFFFFFFFFFFFFFLLLLLFFFFFFFFFFFFFFLLLLFFFFFFFFFFF
66662631262266162212666666666666666516463666316646
LLLLLLFFFFFLLLLLFFFFLLLLLLLLLLLLLLLLLLLLLLLLLLLLLL
53341321665656666663665634666361566626666666366243
FFFFFFFFLLLLLLLLLLLLLLLLLLLLLLLFFLLLLLLLLLLLLLLFFF
61466114632352633533443162146263461125611556234444
LLFFFFFFFFFFFFLFFFFFFFFFLFFFFLLFFFFFFFFFFFFFFFFFFF
62516533513666666666563436236666666664314364153523
LFFFFFFFFFFLLLLLLLLLLLFFFFFFLLLLLLLLLLFFFFFFFFFFFF
66364616661215554566246626366666646166225153266166
LLLLLLLLLLFFFFFFFFFLFFFFFFFLLLLLLLLLLLLFFFFFFFLLLL
16164234424242142165614662235631246213524545624544
FLFFFFFFFFFFFFFFFFFFFFFFFFFFFFFFFFFFFFFFFFFFFFFFFF
22524426326461226511334666423541651265446143226336
FFFFFFFFFFFFFFFFFFFFFFFLLLLLLLLFFFFFFFFFFFFFFFFFFF
21344126621331233421635636666456542363153133143666
FFFFFFFFFFFFFFFFFFFFFFFLLLLLLFFFFFFFFFFFFFFFFFLLLL
66666666666666666666666666336665666243331536616666
LLLLLLLLLLLLLLLLLLLLLLLLLLFLLLLLLLLFFFFFFFFFLLLLLL
54552115511414246463216216456156666636641365666666
FFFFFFFFFFFFFFFFFFFFFFFFFFFFFFFFLLLLLLFFFFFLLLLLLL
66246666114621613523452426211566666666566666656454
FFFFLLLLLLLLLFFFFFFFFFFFFFFFFFLLLLLLLLLLLLLLLFFFFF
66663666632666515135122444426455636666661613235326
LLLLLLLLLLLLLFFFFFFFFFFFFFFFFFFFFFLLLLLLLLFFFFFFFF
35644433113634455613121435264366334313436366166612
FFFFFFFFFFFFFFFFFFFFFFFFFFFFFFLLFFFFFFFFLLLLLLLLFF
11245411413666665215254551531463664211446664412443
FFFFFFFFFFLLLLLLLLFFFFFFFFFFFFFFFFFFFFFFFFFFFFFFFF
64443666666626331132664155152532131514163411323111
FFFFFLLLLLLLLLLLFFFFFFFFFFFFFFFFFFFFFFFFFFFFFFFFFF
23632635313541115342435242463323153545312666656421
FFFFFFFFFFFFFFFFFFFFFFFFFFFFFFFFFFFFFFFFFLLLLFFFFF
11152666666665126636666664663312342453432665136466
FFFFFLLLLLLLLFFLLLLLLLLLLLLLLFFFFFFFFFFFFFFFFFFLLL
32624625435664211156351544636451643243616263232464
FFFFFFFFFFLLLLLFFFFFFFFFFFFFFFFFFFFFFFFFFFFFFFFFFF
15613645554524266636666666666666626664666666666166
FFFFFFFFFFFFFFFLLLLLLLLLLLLLLLLLLLLLLLLLLLLLLLLLLL
16335265156664566643516566656566666664435465555566
FFFFFFFFFLLLLLFFFFFFFFFFLLLLLFLLLLLLLLFFFFFFLLLLLL
31665521336664662656663366565662666666626634562666
FFLLFFFFFFLLLFFFLLLLLLLLLLLLLLLLLLLLLLLLLLFFFFFFLL
55664556432154361645563464364241142536163615651325
FFFFFFFFFFFFFFFFFFFFFFFFFFFLLFFFFFFFFFFLLLFFFFFFFF
53453222431562666566664362666666664541611446666666
FFFFFFFFFFFFFFLLLLLLLLLLLLLLLLLLLLFFFFFFFFFLLLLLLL
66666666663666663166666666666531255546654125261151
LLLLLLLLLLLLLLLLLLLLLLLLLLLLLFFFFFFFFLLFFFFFFFFFFF
42414466565153312216666616432516336161253162611135
FFFFFFFFFFFFFFFFFFFLLLLLLLFFFFFFFFLFFFFFFFFFFFFFFF
22314642665666661666666335666666664642512361552636
FFFFFFFFLLLLLLLLLLLLLLLFFLLLLLLLLLFFFFFFFFFFFFFLLL
16566626364541144612332336414422534122513126666666
FFFLLLLFFFFFFFFFFFFFFFFFFFFFFFFFFFFFFFFFFFFLLLLLLL
63212655231166666666666666636622636635421144645525
FFFFFFFFFFFFLLLLLLLLLLLLLLLLLFFFLLLLFFFFFFFFFFFFFF
15166534112226666644443333252563636546111623415225
FFFFFFFFFFFFLLLLLLFFFFFFFFFFFFLLLLLFFFFFFFFFFFFFFF
25642233616666666142545153341514232251565665166546
FFFFFFFFLLLLLLLLFFFFFFFFFFFFFFFFFFFFFFFFFLFFLLLLLL
45466166666666666663665561644656266221666153133426
FFFLLLLLLLLLLLLLLLLFFFFFFFFFFFFFFFFFFFFFFFFFFFFFFF
22665263452342466621451363435344622566666666666563
FFFFFFFFFFFFFFFFFFFFFFFFFFFFFFFFFFFFLLLLLLLLLLLLLL
11426362666666666413234324316331433245344426336124
FFFFFFFFFLLLLLLFFFFFFFFFFFFFFFFFFFFFFFFFFFFFFFFFFF
23632256666266466365666632122616662663661661363466
FFFFFFFLLLLLLLLLLFLLLLLLFFFFLLLLLLLLLLLLFFFLLLLLLL
51554561441525263652556416666666661666651666541166
FFFFFFFFFFFFFFFFFFFFFFFFFLLLLLLLLLLLLLLLLLLLFFFFLL
36522141111212244355364335224555421445343464162624
FFFFFFFFFFFFFFFFFFFFFFFFFFFFFFFFFFFFFFFFFFFFLLFFFF
54362426213666666634125515253256663426312541453436
FFFFFFFFFFFLLLLLLLFFFFFFFFFFFFFLLLLFFFFFFFFFFFLLLL
16531552666341366634441546552646146235226261351256
FFFFFFFFLLFFFFFFFFFFFFFFFFFFFFFFFFFFLFFFFFFFFFFFFL
23522431544564335214444666666666665313112114662236
FFFFFFFFFFFFFFFFFFFFFFFLLLLLLLLLLLLLFFFFFFFFFFFFFF
36253162623113444443624621413614116436442566666664
FFFFFFFFFFFFFFFFFFFFFFFFFFFFFFFFFFFFFFFFLLLLLLLLLF
21634441216436212361366531643452343321563653336666
FFFFFFFFFFFFFFFFFFFFFFFFFFFFFFFFFFFFFFFFFFFFFFLLLL
51551232635546666323521424523445255315335516266666
FFFFFFFFFFFFFLLLLFFFFFFFFFFFFFFFFFFFFFFFFFFLLLLLLL
11125421364452156463166666263661466664466121445664
FFFFFFFFFFFFFFFFFFLLLLLLLLLFFLLLLLLLLLLLLFFFFFFLLL
42461525122651112414366666666166666662111546151434
FFFFFFFFFFFFFFFFFFFFFLLLLLLLLLLLLLLLLFFFFFFFFFFFFF
66566666466636666666666666336666656666665466666656
LLLLLLLLLLLLLLLLLLLLLLLLLLLLLLLLLLLLLLLLLLLLLLLLFF
66643451253132564145163662636466362425151113163343
LLLFFFFFFFFFFFFLFFFFFFLLLLLLLLFFFFFFFFFFFFFFFFFFFF
54121425134122243221166353266542523436314456651524
FFFFFFFFFFFFFFFFFFFFFFFFFFFFFFFFFFFFFFFFFFFFFFFFFF
12164562516321614452652556262534456622256663414162
FFFFFFFFFFFFFFFFFFFFFFFFFFFFFFFFFFFFFFFFLLFFFFFFFF
66663336633644314161256366666666246661266622623666
LLLLFFFFFFFFFFFFLFFFFFLLLLLLLLLLLLLLLLLLLLLLLFFLLL
45336146551443146332145551654251565546665662152661
FFFFFFFFFFFFFFFFFFFFFFFFFFFFFFFFFFFFFLLLFFFFFFFFFF
66666666616266666666651216424453256666254221466555
LLLLLLLLLLLLLLLLLLLLFFFFFFFFFFFFFFLLLFFFFFFFFFFFFF
56666664366661662666663242132116114264226262152666
LLLLLLLFFLLLLLLLLLLLLLFFFFFFFFFFFFFFFFFFFFFFFFFFLL
14533246636132451315243523642326623322556321521316
FFFFFFFFFFFFFFFFFFFFFFFFFFFFFFLLFFFFFFFFFFFFFFFFFF
54354646153522331433265141333524232235166666153164
FFFFFFFFFFFFFFFFFFFFFFFFFFFFFFFFFFFFFLLLLLLLLFFFFF
66626636646664661664111255213464452266646166666464
LLLLLLLLLLLLLLLLLLLFFFFFFFFFFFFFFFFLLLLLLLLLLLLFFF
43436661356566666641462131315513151635633235246522
FFFFFFFFFFFFLLLLLLLFFFFFFFFFFFFFFFFFFFFFFFFFFFFFFF
46166544564646666665646666665666662666664262621166
FFFFFFFFFFFFFFLLLLLLLLLLLLLLLLLLLLLLLLLLLLFFFFFFFF
66552565131352562623354245446641211666616263651636
LLFFFFFFFFFFFFFFFFFFFFFFFFFFFFFFFFFLLLLFFFFFFFFFFF
13111646462646566656666666266656663115164214456266
FFFFFFFFFFFFFLLLLLLLLLLLLLLLLLLLLLLLFFFFFFFFFFFFFF
25566654321556315361253123533523655131223616452166
FFFLLLLFFFFFFFFFFFFFFFFFFFFFFFFFFFFFFFFFFFFFFFFFLL
61661453313352245453656456636666666226664163532564
FFFFFFFFFFFFFFFFFFFFFFFFFFLLLLLLLLLFFFFFFFFFFFFFFF
63666663534234112622136664661666254512161536156252
LLLLLLLFFFFFFFFFFFFFFFLLLLLLLLLLLLFFFFFFFFFFFFFFFF
63366666616646666631626666666666166666566646666431
LFFLLLLLLFLLLLLLLLLLLLLLLLLLLLLLLLLLLLLLLLLLLLLFFF
13516313223324311456113214314212623651244564636256
FFFFFFFFFFFFFFFFFFFFFFFFFFFFFFFFFFFFFFFFFFFFFFFFFL
36462366666646613614521361431651326661355122642661
FFFFFFFLLLLLLLLFFFFFFFFFFFFFFFFFFLLLLFFFFFFFFFLLLL
66164442242323156666661666621123235625166666663551
LLLLFFFFFFFFFFFFLLLLLLLLLLLLFFFFFFFFFFLLLLLLLLFFFF
36661362416325446646666264634315153541553526232364
LLLFFFFFFFFFFFFFFFFLLLLLLLLFFFFFFFFFFFFFFFFFFFFFLL
52656625116461332225124312124215624666661666266666
FFFFFFFFFFFFFFFFFFFFFFFFFFFFFFFFFFFFLLLLLLLLFFLLLL
64356623431454534424113666266441165323116616132655
FFFFFFFFFFFFFFFFFFFFFFFLLLLLLFFFFFFFFFFFFFFFFFFFFF
44342324545445266666646656212654522666526224215441
FFFFFFFFFFFFFFFFFLLLLLLLFFFFFFFFFFFLLLLLLLFFFFFFFF
53646444466666664641424466666556414155113426323244
FFFFFFFFFFLLLLLFFFFFFFFFLLLLLFFFFFFFFFFFFFFFFFFFFF
31553514455262366615146666662665616666661166666664
FFFFFFFFFFFFFLLLLLLFFFLLLLLLLLFFLLLLLLLLFFLLLLLLLL
63666164612636666633333153445162265566162624113132
LLLLLLLLLLLLLLLLLLFFFFFFFFFFFFFFFFFFFFFFFFFFFFFFFF
66666166223626666422243552221612163414661631256462
LLLLLFLLLLLLLLLLLFFFFFFFFFFFFFFFFFFFFFFFFFFFFFFFFF
66666666266622566635663464213226222125521415666636
LLLLLLLLLLLLFFFLLLFFFFFFFFFFFFFFFFFFFFFFFFFFFLLLLL
15366663611424642533624145361311361565435554536666
FFFFLLLLLFFFFFFFFFFFFFFFFFFFFFFFFFFFFFFFFFFFFFLLLL
66244532226516666536663665346323361236643641432652
LFFFFFFFFFFFFLLLLLLLLLLLLFFFFFFFFFFFFLLFFFFFFFFFFL
24556512523215352333426166465266646626633536634455
FFFFFFFFFFFFFFFFFFFFFFFLLLFFFFFFFFLLLLLLFFFFFFFFFF
66666664521161311513226666666666222266666626666656
LLLLLLLFFFFFFFFFFFFFFFLLLLLLLLLFFFFLLLLLLLLLLLLLLL
33245452424556645113266162231144353213662264616666
FFFFFFFFFFFFFFFFFFFFFFFFFFFFFFFFFFFFFFFFFFFFLLLLLL
61666351111526453626466666666166666366665264424126
LLLLFFFFFFFFFFFFFFFLLLLLLLLLLLLLLLLLLLLLLLLFFFFFFL
66661232654142333664266664466626636366565123651612
LLLLFFFFFFFFFFFFFFFFFLLLLFFLLLLLLFFFLLFFFFFFFFFFFF
42135661134453435433413661166543366266666666261636
FFFFFFFFFFFFFFFFFFFFFFFFFFFFFFFFFFLLLLLLLLLLLLLLLL
66666666666666664666464216426251564236643124336212
LLLLLLLLLLLLLLLLLLLLLLFFFFFFFFFFFFFFFFFFFFFFFFFFFF
51361625254553546663666466446161155666163666616666
FFFFFFFFFFFFFFFFLLLLLLLLLLLLLLFFFFFFLLLLLLLLLLLLLL
25442155251662161614465466666664345266666666666352
FFFFFFFFFFLLLFFFFFFFFFFFLLLLLLFFFFFFLLLLLLLLLLLLFF
33346462454666666566666566666645451536235413636525
FFFFFFFFFLLLLLLLLLLLLLLLLLLLLLFFFFFFFFFFFFFFFFFFFF
51462654425334632516134152635635156243446623116246
FFFFFFFFFFFFFFFFFFFFFFFFFFFFFFFFFFFFFFFFFFFFFFFFFF
66626662652532563465551615666223256124532613341222
LLLLLLLLLLFFFFFFFFFFFFFFFFLLLFFFFFFFFFFFFFFFFFFFFF
46466436336456554123636464166552633666663666666666
FFFFFFFFFFFFFFFFFFFFFFFFFFFLLFFLLLLLLLLLLLLLLLLLLL
12264666666626636666666142345422642346666663664466
FFFLLLLLLLFFFLLLLLLLLLLFFFFFFFFFFFFFFLLLLLLLLLLLLL
56666666666662363453551352616613266225646315335666
LLLLLLLLLLLLLFFFFFFFFFFFFFFFFLLLFFFFFFFFFFFFFFFFFF
11556662322566666666666666666661666244646666656666
FFFFFFFFFFFFLLLLLLLLLLLLLLLLLLLLLLLLLLLLLLLLLLLLLL
63244126626646646641651663666626666122263666213455
LFFFFFLLLLLLLLLLLLFFFLFLLLLLLLLLLLLFFFFLLLLLFFFFFF
66666163666646666466663413233635343623144366542632
LLLLLLLLLLLLFLLLLLLLLLFFFFFFFFFFFFFFFFFFFFFFFFFFFF
44342464666666662666666661254666626666212141231345
FFFFFFLLLLLLLLLLLLLLLLLLLFFFFFLLFFLLLLFFFFFFFFFFFF
63352311126113665436662536444455335466662355644421
FFFFFFFFFFFFFFFFFFFFFFFFFFFFFFFFFFFFFFLLFFFFFFFFFL
25614635132431162666666264361246564356622156323624
FFFFFFFFFFFFFFFLLLLLLLLFFFFFFFFFFFFFFFFFFFFFFFFFFF
61146643521133325112562665566666266666466632541141
FFFFFFFFFFFFFFFFFFFFFLLLLLLLLLLLLLLLLLLLLLFFFFFFFF
16456124435345556514651242466666121255653152536456
FFFFFFFFFFFFFFFFFFFFFFFFFFFLLLLFFFFFFFFFFFFFFFFFFF
51251666666511665661133456632566666666666666621636
FFFFFLLLLLLFFLLLLLLLLFFFFLLLLLLLLLLLLLLLLLLLLFFFLL
41446445424154636246552443433644152543232662634454
FFFFFFFFFFFFFFFFFFFFFFFFFFFFFLFFFFFFFFFFFFFFFFFFFF
52425566666126112611654553352254462546332114666666
FFFFFFLLLLLFFFLLLFFFFFFFFFFFFFFFFFFFFFFFFFFFLLLLLL
24423346262663666541364311242353556162554556255125
FFFFFFFFFFFFFLLLLFFFFFFFFFFFFFFFFFFFFFFFFFFFFFFFFF
44514146236666666664666665513146325523646536665466
FFFFFFFFFLLLLLLLLLLLLLLFFFFFFFFFFFFFFFFFFFLLLLLLLL
66121362513523341663665666661366625252425263631666
LLFFFFFFFFFFFFFFFLLLLLLLLLLLLLLLLLFFFFFFFFFFLLLLLL
24232521226355215253165146655632161612316324465263
FFFFFFFFFFFFFFFFFFFFFFFFFFFFFFFFFFFFFFFFFFFFFFFFFF
31223562563353531452314216116111442335656223623314
FFFFFFFFFFFFFFFFFFFFFFFFFFFFFFFFFFFFFFFFFFFFFFFFFF
21122165226521356126562566254466666626662625345635
FFFFFFFFFFFFFFFFFFFFFFFFLLFFFLLLFLLLLLLLFFFFFFFFFF
56662563324656565331366343132566656134552625416355
FFFFFFFFFFLLLLLFFFFFFFFFFFFFFFLLLLLFFFFFFFFFFFFFFF
25633132321421566416242655254516665432161266125611
FFFFFFFFFFFFFFFFFFFFFFFFFFFFFFFFFFFFFFFFFLLLFFFFFF
16535263131435313526532352541262362344266466621152
FFFFFFFFFFFFFFFFFFFFFFFFFFFFFFFFFFFFFFFLLLLLFFFFFF
46644446244616231213536151565156666646634326546666
LLLFFFFFFFFFFFFFFFFFFFFFFFFFFFFLLLLLLLLFFFFFFFFLLL
34534136341641616442456636422133324635635352631411
FFFFFFFFFFFFFFFFLFFFFFLLLLFFFFFFFFFFFFFFFFFFFFFFFF
64664666636366662556221666566666666662451634225463
FFLLLLLLLLLLLLLLFFFFFFFLLLLLLLLLLLLLLFFFFFFFFFFFFF
56244613466666646666642336261226143443664314625536
FFFLFFFFFLLLLLLLLLLLLFFFFFFFFFFFFFFFFFFFFFFFFFFFFF
42453344263212163524216662666626216666666566666664
FFFFFFFFFFFFFFFFFFFFFFLLLLLLLLLLLLLLLLLLLLLLLLLLLF
64366545335352135164334236534242232416551335356166
FFFFFFFFFFFFFFFFFFFFFFFFFFFFFFFFFFFFFFFFLFFFFFFFFF
66666666666666321461333311434445654651655616666236
LLLLLLLLLLLLLFFFFFFFFFFFFFFFFFFFFFFFFFFFFFFLLLLLLL
62666566666646666636566661653431336652356145631615
LLLLLLLLLLLLLLLLLLLLLLLLLFFFFFFFFFFFFFFFFFFFFFFFFF
26666661666666446146666626266666666124623132632565
FLLLLLLLLLLLLLLLLLLLLLLLLLLLLLLLLFFFFFFLFFFFFFFFFF
66666665651316666666323666666312532512432446316113
LLLLLLLFFFFFFFFLLLLLLLLLLLLLLFFFFFFFFFFFFFFFFFLFFF
45126566666666646666616666662666666626665666666645
FFFFFLLLLLLLLLLLLLLLLLLLLLLLLLLLLLLLLLLLLLLLLLLLFF
66636661134266266664666666664666666565566666641626
LLLLLLLFFFFFLLLLLLLLLLLLLLLLLLLLLLLFFFFLLLLLLLLLFF
34635516662641632233565563154425266543656343112152
FFFFFFFLLLLLFLLLFFFFFFFFFFFFFFFFFFFFFFFFFFFFFFFFFF
32344225163161664214223234336666662222445225124315
FFFFFFFFFFFFLLLLFFFFFFFFFLLLLLLLLLFFFFFFFFFFFFFFFF
44666656664311422146363323313116155533653463616325
FFFLLLLLLLLFFFFFFFFFFFFFFFFFFFFFFFFFFFFFFFLLLLLFFF
23535223246141466633666666666646666366324535566356
FFFFFFFFFFFFFFFLLLFFLLLLLLLLLLLLLLLLLLFFFFFFFFFFFF
54152246666666654461151211635426456552166145523132
FFFFFFFLLLLLLLLLFFFFFFFFFFFFFFFFFFFFFFFFFFFFFFFFFF
36144225314325156225462141561161135261166325316315
FFFFFFFFFFFFFFFFFFFFFFFFFFFFFFFFFFFFFFFFFFFFFFFFFF
64562334156663666656616666316463445124236312531525
FFFFFFFFFFLLFFLLLLLLLLLLLLFFFFFFFFFFFFFFFFFFFFFFFF
26152634663666623425324163456634543663354163464632
FFFFFFFLLLLLLLLFFFFFFFFFFFFFFFFFFFFFFFFFFFLFFFFFFF
26664642315225336666664562663666666666665414561315
FLLLLLFFFFFFFFFLLLLLLLLLLLLLLLLLLLLLLLLLFFFFFFFFFF
23526331214614461431432666662666616623666664656663
FFFFFFFFFFFFFFFFFFFFFFFLLLLLLLLLLLLLLLLLLLLLLLLLLL
66666666666614525341413445666264611332636525636366
LLLLLLLLLLLLFFFFFFFFFFFFFFLLLLLLLFFFFFFFFFFFFFLLLL
61312643652563644154226462233165311464334625515541
FFFFFFFFFFFFFFFFFFFFFFFFFFFFFFFFFFFFFFFFFFFFFFFFFF
52544213651443114643466666415555535565123645466331
FFFFFFFFFFFFFFFFFFFFFLLLLLFFFFFFFFFFFFFFFFFFFFFFFF
66546153641216414236552363114435666666626661564666
LLLFFFFFFFFFFFFFFFFFFFFFFFFFFFFFFFLLLLLLLLLLLLLLLL
66666266666445322166666326116566531112246252651132
LLLLLLFLLLLLFFFFFFFLLLLFFFFFFFFFFFFFFFFFFFFFFFFFFF
21636415261511652624414444664215336236631624316636
FFFFFFFFFFFFLFFFFFFFFFFFFFFFFFFFFFLLLLLFFFFFFFLLLL
13423652436156463666621324314536116623335324225213
FFFFFFFFFFFFFFFFFLLLFFFFFFFFFFFFFFFFFFFFFFFFFFFFFF
46224153122326322466666666266664666266646346666655
FFFFFFFFFFFFFFFFFFLLLLLLLLLLLLLLLLLLLLLFFFFFLLLLLF
36454325623666636663311263131536225443142326222626
FFFFFFFFFFFFLLLLLLLFFFFFFFFFFFFFFFFFFFFFFFFFFFFFFL
55611636653431351252542443324233251314165311632465
FFFFFFFFFFFFFFFFFFFFFFFFFFFFFFFFFFFFFFFFFFFFFFFFFF
11264535523634644131522632242314335645653426552245
FFFFFFFFFFFFFFFFFFFFFFFFFFFFFFFFFFFFFFFFFFFFFFFFFF
15411143334646646656566666636636666626166666666626
FFFFFFFFFFFLLLLLLLLLLLLLLLLLLLLLLLLLLLLLLLLLLLLLLL
52463454362164124323334524356312436243523114326166
FFFLLLLLFFFFFFFFFFFFFFFFFFFFFFFFFFFFFFFFFFFFFFLLLL
34532661265442632432111166566366645631326234443666
FFFFFLLLLLLFFFFFFFFFFFFFLLLLLLLLFFFFFFFFFFFFFFLLLL
66465166646661463611663621225124261245163641666666
LLLLLLLLLLLLLLLLFFFFFFFFFFFFFFFFFLFFFLLLLLLLLLLLLL
62412356625665314421525124524343654532511366616666
FFFFFFFFFFFLLFFFFFFFFFFFFFFFFFFFFFFFFFFFFLLLLLLLLL
21511316246332146364226654431641555526353412111246
FFFFFFFFFFFFFFFFFFFFFFFFFFFFFFFFFFFFFFFFFFFFFFFFLL
35565315256432323316225144553122146666266666626451
FFFFFFFFFFFFFFFFFFFFFFFFFFFFFFFFFFLLLLLLLLLLLLLFFF
55156131556666566666666146455164444666666644666666
FFFFFFFFFFLLLLLLLLLLLLLFFFFFFFFFFFFLLLLLLLLFLLLLLL
36666266666652614565233553343634524145146231565541
FLLLLLLLLLLLLLLLFFFFFFFFFFFFFLFFFFFFFFFFFFFFFFFFFF
66334656426646666244262553212222263262413135321333
LFFFFFFFFFFFFLLLFFFFFFFFFFFFFFFFFFFFFFFFFFFFFFFFFF
34442664666633535366361165215511666615651136624536
FFFFFLLLLLLLFFFFFFFFFLLFFFFFFFFFLLLFFFFFFFFFFFFFFF
26334656536126315613315326643316623243123316661166
FFFFFFFFFFFFFFFFFFFFFFFFFFFFFFFLLFFFFFFFFFFFFFFFFF
32446526666654132245664666324526226155526143625452
FFFFFFFLLLLLFFFFFFFLLLLLLLFFFFFFFFFFFFFFFFFFFFFFFF
43263516331256663652463514613264661612115126215526
FFFFFFFFFFFFFFFFFFFFFFFFFFFFFFFFFFFFFFFFFFFFFFFFFF
66131466441161113653131461542111411246666361663666
FFFFFFFFFFFFFFFFFFFFFFFFFFFFFFFFFFFFFLLLLLLFLLLLLL
66666632165256126611452346312233242525466666636656
LLLLLLLLLFFFFFFFFLFFFFFFFFFFFFFFFFFFFFFFFLLLLLLLLL
62666666126621144366616665666665665326166666166116
FLLLLLLFFFFFFFFFFFLLLLLLLLLLLLLLLLFFFLLLLLLLLLLLLL
21234262354215544613656336534361432466221252521116
FFFFFFFFFFFFFFFFFFFFFFFFLLFFFFFFFFFFFFFFFFFFFFFFFF
41654666446666612666663663566166421335332253124625
FFFFLLLLLLLLLLLLLLLLLLFFFFFLLFFFFFFFFFFFFFFFFFFFFF
23614364133421322666636316666166666666561656666566
FFFFFFFFFFFFFFFFFLLLLFFFFFLLLLLLLLLLLLFFFLLLLLLLLF
53226143356666666166666666665536524212614325226616
FFFFFFFFFFFLLLLLLLLLLLLLLLLFFFFFFFFFFFFFFFFFFFFFFF
66326521623436453646253353366626466666666666666455
FFFFFFFFFFFFFFFFFFFFFFFFFFFLLLLLLLLLLLLLLLLLLLLFFF
66666656666666651162433245365353666636666666666663
LLLLLLLLLLLLLLLLFFFFFFFFFFFFFFFFLLLLLLLLLLLLLLLLLF
26666166612615466446423621661655135666552314166665
FLLLLLLFFFFFFFFFFFFFFFFFFFLLLLLLFFFFFFFFFFFFFLLLLL
66666142566623146652534261114416322336431125164332
LLLLLFFFFLLLFFFFFFFFFFFFFFFFFFFFFFFFFFFFFFFFFFFFFF
25461213515412142323533415441666566666155156331156
FFFFFFFFFFFFFFFFFFFFFFFFFFFFLLLLLLLLLLLFFFFFFFFFFF
66262443353523551524336332356214366663265664315666
LLLLFFFFFFFFFFFFFFFFFFFFFFFFFFFFFLLLLLLLLLLLFFLLLL
66666565566664666656263643435243345164661641343332
LLLFFFFFFLLLLLLLLLLFFFFFFFFFFFFFFFFFFLLLLLFFFFFFFF
61346212633666666666566126665244131531146666666662
FFFFFFFFFFFLLLLLLLLLLLLFFLLLLFFFFFFFFFFFLLLLLLLLLL
52124116221426666666263636444213415363666666666316
FFFFFFFFFFFFFFLLLLLLLLLLFFFFFFFFFFFFLLLLLLLLLLLLLL
33122223612421433645166525526653666666462461666323
FFFFFFFFFFFFFFFFFFFFFLLFFFFFLLLLLLLLLLLFFFFFLLFFFF
43466663566666666562662642321263332355511452151654
FFFLLLLLLLLLLLLLLLLLLLLLFFFFFFFFFFFFFFFFFFFFFFFFFF
15225213116241123452316116514336642531533463615452
FFFFFFFFFFFFFFFFFFFFFFFFFFFFFFFFFFFFFFFFFFFFFFFFFF
31316126121521122512364362654154466661661666266666
FFFFFFFFFFFFFFFFFFFFFFFFFFFFFFFFFLLLLLLLLLLLLLLLLL
36215136666666666661666566664464256462434233362226
FFFFFFFLLLLLLLLLLLLLLLLLLLLLLLLFFFFFFFFFFFFFFFFFFF
24636246623535325454656225214563265512144561366266
FFLLLLLLLLFFFFFFFFFFFFFFFFFFFFFFFFFFFFFFFLLFFFFFFF
16666666566226424152516114256653523126666646666662
LLLLLLLLFFLFFFFFFFFFFFFFFFFFFFFFFFFFFLLLLLLLLLLLLF
66666166666663666666666666662364645266666666366266
LLLLLLLLLLLLLLLLLLLLLLLLLLLLFFFFFFLLLLLLLLLLLLLLLL
13663335645443553336354366666666666666532543335246
FFLLFFFFFFFFFFFFFFFFFFFFLLLLLLLLLLLLLLFFFFFFFFFFFF
66664666665665334331311263261413344122541223233361
LLLLLLLLLLLLLLLFFFFFFFFFFFFFFFFFFFFFFFFFFFFFFFFFFF
26666666622666666661666666355644246636144523313231
LLLLLLLLLLLLLLLLLLLLLLLLLLFFFFFFFFFFFFFFFFFFFFFFFF
66266663622554623333226145621666366666666666662122
LLLLLLLLLFFFFFFFFFFFFFFFFFFLLLLLLLLLLLLLLLLLLFFFFF
62641345656112464344232611666633365451666666663666
FFLFFFFFLFFFFFFFFFFFFFFFFFFFFFFFFFFFFFLLLLLLLLLLLL
46565425155363344236654263553315555455532456652261
FFFFFFFFFFFFFFFFFFFFFFFFFFFFFFFFFFFFFFFFFFFFFFFFFF
54622344333111565561664363666641461366666665666341
FFFFFFFFFFFFFFFLLFFFLLFFFFLLLLLLFLLFLLLLLLLFFLLLLF
64465314662456432651356632532146442566416514332134
FFFFFFFFFFFFFFFFFFFFFFFFFFFFFFFFFFFFFFFFFFFFFFFFFF
62665666116666656566542326215422534625556666613315
LLLLLLLLLLLLLLLLLLLLFFFFFFFFFFFFFFFFFFFLLLLLLFFFFF
53136642466146666661413433654664555154426666666666
FFFFFFFFFFFFFLLLLLLLFFFFFFFFFFFFFFFFFFFFLLLLLLLLLL
21253324636146266445266612412126362446651444511441
FFFFFFFFFFFFFFFLLLLLLLLLFFFFFFFFFFFFLLLFFFFFFFFFFF
61666666366166661626666666666613425413436466663421
FFLLLLLLLLLLLLLLLLLLLLLLLLLLLLFFFFFFFFFFLFLLLLFFFF
66666664646156141165123143534244122543266432135666
LLLLLLLLLLLFFFFFFFFFFFFFFFFFFFFFFFFFFFFLLFFFFFFLLL
46311541143523515266266666666665666666666666224435
FFFFFFFFFFFFFFFFFLLLLLLLLLLLLLLFLLLLLLLLLLLLFFFFFF
62331211462262463333131666236145511356334644636265
FFFFFFFFFFFFFFFFFFFFFFFLLFFFLFFFFFFFFFFFFFFFFFFFFF
24266453464352142315141333651316666662134666266341
FFFLLFFFFFFFFFFFFFFFFFFFFFFFFFFLLLLLLFFFLLLLLLLFFF
63466642521334265452415223633654541112651666142121
FFFFFFFFFFFFFFFFFFFFFFFFFFFFFFFFFFFFFFFFFFFFFFFFFF
51666666666666666366352415645251435422166363663666
FFLLLLLLLLLLLLLLLLLFFFFFFFFFFFFFFFFFFFLLLLLLLLLLLL
11566666611335563323245363136166666436643623355216
FFFLLLLLLFFFFFFFFFFFFFFFFFFFLLLLLLLLLLLFFFFFFFFFFF
25133326335643532564646666666664666666144423652335
FFFFFFFFFFFFFFFFFFFFFFFLLLLLLLLLLLLLLLFFFFFFFFFFFF
43526633245441524242666644325613415261236326646666
FFFFFFFFFFFFFFFFFFFLLLLLFFFFFFFFFFFFFFFFFFFLLFLLLL
54623214333234414233631434532345211253116416336616
FFFFFFFFFFFFFFFFFFFFFFFFFFFFFFFFFFFFFFFFFFFLLLLLLL
51344241653546265666543566131515113161664133156661
FFFFFFFFFFFFLLFFFFFFFFFFFFFFFFFFFFFFFFFFFFFFFFFFFF
46666666665534666661644212324254261134426524563261
LLLLLLLLLLLLFFLLLLFFFFFFFFFFFFFFFFFFFFFFFFFFFFFFFF
66166666666666666666666516616666112455166666666666
LLLLLLLLLLLLLLLLLLLLLLLLLLLLLLLFFFFFFLLLLLLLLLLLLL
46614333563566216664265212346466666626663666616214
FFFFFFFFFFFFFFFFFFFFFFFFFFFFLLLLLLLLLLLLLLLLFFFFFF
53115264155146666626363531536225314561331412646631
FFFFFFFFFFFFFLLLLLLLLLFFFFFFFFFFFFFFLLFFFFFFFFLLFF
23136151411656463361162446666266666662646656666666
FFFFFFFFFFFFFFFFFFFFFFFFFLLLLLLLLLLLLLLLLLLLLLLLLL
52461635263562133146663666236445631154526266463316
FFFFFFFFFFFFFFFFFFFFFFFFFLFFFFFFFFFFFFFLLLLLLLLLFF
31616362213543323453356122354242426666666442432636
FFFFFFFFFFFFFFFFFFFFFFFFFFFFFFFFFFLLLLLLLFFFFFFLLL
54352325251355321664466566666666361661666651666566
FFFFFFFFFFFFFFFFFLLLLLLLLLLLLLLLLLLLLLLLLLLLLLLLLL
56335336663666666655666616613346656664666666655533
FFFFFFLLLLLLLLLLLLLLLLLLLLLLLFFFFFLLLLLLLLLLLFFFFF
13234616116116266156666666666666665656636634256666
FFFFFFFFFFFFFLLLFFFLLLLLLLLLLLLLLLLLLLLLLLFFFFLLLL
53654655233333321611252226543126666666666666421431
FFFFFFFFFFFFFFFFFFFFFFFFFFFFFFFLLLLLLLLFFLFFFFFFFL
62366666642666652541545511435361521453424523526666
LLLLLLLLLLLLLLLFFFFFFFFFFFFFFFFFFFFFFFFFFFFFFFLLLL
62266241214636426241655551334354163666622342435261
FFFFFFFFFFFFFFFFFFFFFFFFFFFFFFFFFLLLLLLFFFFFFFFFFF
14326124236611663136515116552146666624332544415633
FFFFFFFFFFFFFFFFFFFFFFFFFFFFFFFLLLLFFFFFFFFFFFFFFF
65231222614456315123264446666666566666461414232236
FFFFFFFFFFFFFFFFFFFFFLLLLLLLLLLLLLLLLLLLFFFFFFFFFF
66116121461262214456516643624431113546156664541214
LLLLLFFFFFFFFFFFFFFFFFLLLFFFFFFFFFFFFFFFLLLFFFFFFF
25443625316521236665222311664631335465116563125134
FFFFFFFFFFFFFFFFFLLFFFFFFFFFFFFFFFFFFFFFLFFFFFFFFF
63255535311542553121646164456235451432131413542243
LLFFFFFFFFFFFFFFFFFFFFFFFFFLLFFFFFFFFFFFFFFFFFFFFF
66445545625111125166656666466611166666666154663532
LLFFFFFFFFFFFFFFFFLLLLLLLLLLLLLLLLLLLLLLLFFFFFFFFF
51134435163626666661266653346232366535126244136661
FFFFFFFFFFFLLLLLLLLFFLLLFFFFFFFFFFFFFFFFFFFFFFLLLF
31266646662466566413256366366666661526252246233453
FFFLLLLLLLFFFFLLLLLFFFFFLLLLLLLLLLFFFFFFFFFFFFFFFF
35162422141421661666562666662614214156412244252132
FFFFFFFFFFFFFFFFFLLLLLLLLLLLFFFFFFFFFFFFFFFFFFFFFF
54651126546412126656661665666266666666366622366255
FFFFFFFFFFFFFFFFLLLLLLLLLLLLLLLLLLLLLLLLLLLFFFFFFF
15666561666666616466462411232661313251424612163414
FFLLLLLLLLLLLLLLLLLLLLFFFFFFFFFFFFFFFFFFFFFFFFFFFF
36621666626536665666516241346154451334264626156666
FFLLLLLLLLLLLLLLFFFFFFFFFFFFFFFFFFFFFFFFFFFFFFLLLL
41556543434653423625555613666666666666666663666666
FFFFFFFFFFFFFFFFFFFFFFFFFFLLLLLLLLLLLLLLLLLLLLLLLL
34535666636566664366145145611125443526123614161664
FFFFFLLLLLLLLLLLLLLLFFFFFFLFFFFFFFFFFFFFFFFFFFFFFF
36211656444151614452513355544335451526262666426266
FFFFFFFFFFFFFFFFFFFFFFFFFFFFFFFFFFFFFFFFFFFFFFFFFF
11335666266113312126662666666634565364152415553516
FFFFFFFFFFFFFFFFFFFLLLLLLLLLLLFFFFFFFFFFFFFFFFFFFF
66434644664665562455446646656624266564613665662624
LLLFFLLLLLLLLFFFFFFFFLLLLLLLLLLLLLLLLLLLLLLLLLLLFF
36545463342666454213331213666661666662126646246611
FFFFFFFFFFFFFFFFFFFFFFFFFFLLLLLLLLLLFFLLLLFFFFFFFF
66666166666666666263666122666266465566244652315421
LLLLLLLLLLLLLLLLLLLLLLLFFFLLLLLLLLFFLLFFFFFFFFFFFF
44115226223212236531126666666666636363566666666626
FFFFFFFFFFFFFFFFFFFFFFLLLLLLLLLLLLLLLLLLLLLLLLLLLL
12614142464266266666636666666166666666366666626666
FFFFFFFFFFFFLLLLLLLLLLLLLLLLLLLLLLLLLLLLLLLLLLLLLL
66645336661432656466661615326144652465436643662261
LLLFFFFFFFFFFFFFFFFFLLLLFFFFFFFFFFFFFFFFFLFFFFFFFF
14225446134463653146142443466664666653666246663666
FFFFFFFLFFFFFFFFFFFFFFFFFFFLLLLLLLLLLLLLLLLLLLLLLL
24544161544364636246256664525153625163514434666656
FFFFFFFFFFFFLFLLLLLLLLLLLFFFFFLLLFFFLFFFFFFFLLLLFF
16622666656634523631532225312346523661636153165666
LLLLFLLLLLLFFFFFFFFFFFFFFFFFFFFFFFFLLFFFFFFFFLLLLL
56442666666666664662656222231346463265142446443161
FFFFFLLLLLLLLLLLLLLLFFFFFFFFFFFFFFFFFFFFFFFFFFFFFF
25446133531634262366421126545211555216566614154231
FLFFFFFFFFFFFFFFFFFFFFFFFFFFFFFFFFFFFFFFFFFFFFFFFF
66123352332356544613324524616365351216115222243564
LLFFFFFFFFFFFFFFFFFFFFFFFFFFFFFFFFFFFFFFFFFFFFFFFF
65666563266666564222366234663666666263442555516664
LLLLLLLLLLLLLLLLLFFFFLLFFFLLLLLLLLLLLFFFFFFLLLLLFF
26616656666662161324332646466226166646566366666665
LLLLLLLLLLLLLLLLFFFFFFFFFFFFLLLLLLLLLLLLLLLLLLLLLF
61664126611354666523351616614666436622243451666661
LLLLFFFFFFFFFLLLLFFFFFFFFFFFFLLLFFFLFFFFFFFFFLLLLF
51336115426151312426422256566222562261455255622635
FFFFFFFFFFFFFFFFFFFFFFFFFFFFLFFFFFFFFFFFFFFFFFFFFF
66666656666666666666666666633666662646616363666661
LLLLLLLLLLLLLLLLLLLLLLLLLLLLLLLLLLLLLLLLLLLLLLLLLL
61666166664645611662154536666666366666654645533641
LLFFFFLLLFFFFFFFFFFFFFFFFLLLLLLLLLLLLLLFFFFFFFFLFF
35345365641524254343661566666666666616666666626666
FFFFFFFFFFFFFFFFFFFFLLLLLLLLLLLLLLLLLLLLLLLLLLLLLL
32666666664666646666166646666666662213364455534141
FLLLLLLLLLLLLLLLLLLLLLLLLLLLLLLLLLLLFFFFFFFFFFFFFF
16362266666466656666323542212536131535346666666666
FFFFFFLLLLLLLLLLLLLLFFFFFFFFFFFFFFFFFFFFLLLLLLLLLL
16666663166566656135141216655666666166666146161112
LLLLLLLFFFLLLLLFFFFFFFFFFLLLLLLLLLLLLLLLLFFFFFFFFF
35441226565362444413236315662466142155666361536554
FFFFFFFFFFFFFFFFFFFFFFFFFFFFFFFLFFFFFFLLLLLFFFFFFF
24666566444616666126561314325513433335366266166366
FFFFFFLFFFFLLLLLLLLLLLFFFFFFFFFFFFFFFFFLLLLLLLLLLL
36613312641366556532125356366666666565466361664665
FFFFFFFFFFFFFFFFFFFFFFFFFLLLLLLLLLLFFFFFFFFFLFFFFF
65432614526356226225526326115532615536152145362366
LFFFFFFFFFFFFFFFFFFFFFFFFFFFFFFFFFFFFFFFFFFFFFFFLL
36633623226631211443144266146262664116642126531561
LLLFFFFFFFFFFFFFFFFFFFFFFFFFLLLLLLFFFFFFFFFFFFFFFF
15632511521616332443666245454135445125443255665652
FFFFFFFFFFFFFFFFFFFFFFFFFFFFFFFFFFFFFFFFFFFFFFFFFF
66666655466566611366636366561666666666162666261413
LLLFFFFFFFFFLLLLLLLLLLLLLLLLLLLLLLLLLLLLLLLLFFFFFF
46666462116425241211464435223524331655132454335545
LLLLFFFFFFFFFFFFFFFFFFFFFFFFFFFFFFFFFFFFFFFFFFFFFF
55424425113636352656126226143251143451451134256231
FFFFFFFFFFFFFFFFFFFFFFFFFFFFFFFFFFFFFFFFFFFFFFFFFF
31226666451142362346525516166366266666666142333416
FFFFLLLFFFFFFFFFFFFFFFFFFFFFFFFFFFFFFLLLLFFFFFFFFF
32236651346366666665613314216566666666615136352224
FFFFFFFFFFLLLLLLLLLFFFFFFFFFFLLLLLLLLLFFFFFFFFFFFF
44432311622513125316466542666636644666261654463355
FFFFFFFFFFFFFFFFFFFFFFFFFFLLLLLLLFFFLLLLFFFFFFFFFF
63652415362211655666635666666661666641414536346264
FFFFFFFFFFFFFFFFFLLLLLLLLLLLLLLLFFFFFFFFFFFFFFFFFF
66465522245642553154664515654216563551364311164142
LLLLFFFFFFFFFFFFFFFFFFFFFFFFFFFFFFFFFFFFFFFFFFFFFF
12413345251334443323666666533245341463245566223232
FFFFFFFFFFFFFFFFFFLLLLLLLLLFFFFFFFFFFFFFFFFFFFFFFF
25323226544426244526666462531336562666646616453526
FFFFFFFFFFFFFFFFFFLLLLLLLLFFFFFLLLLLLLLLLLLFFFFFFL
46662656666535444466516241243625514444313646656666
FFFLLLLLLLLFFFFFFFFFFFFFFFFFFFFFFLFFFFFFFFFLLLLLLL
41361614532345641266646326666462663651134656516343
FFFFFFFFFFFFFFFFFFLLLLLFFLLLLLLLLLLFFFFFFFFFFFFFFF
46655535113313516455525366361235224661266656322335
FFFFFFFFFFFFFFFFFFFFFFFFLLLFFFFFFFFFFFFLLLFFFFFFFF
66266526413652556346411545122665125551266461221223
LLLLLLLLFFFFFFFFFFFLFFFFFFFFFFFFFFFFFFLLLFFFFFFFFF
15136164453511253622135466326666613624341143135462
LFFFFFFFFFFFFFFFFFFFFFFFLLFFLLLLLFFFFFFFFFFFFFFFFF
62261244635343564316666344345524242263533444636421
LLFFFFFFFFFFFFFFFFFLLLLFFFFFFFFFFFFFFFFFFFFFFFLFFF
66366666646666626612625346535116646666666665613466
LLLLLLLLLLLLLLLFFFFFFFFFFFFFFFFLLFLLLLLLLLLFFFFFFF
55345125624414332143615245512264335521261166643666
FFFFFFFFFFFFFFFFFFFFFFFFFFFFFFFFFFFFFFFFFFFFFFFFFF
66646561622166366666362666666623531461435665131562
LLLLLLLLLLLLLLLLLLLLLLLLLLLLLLFFFFFFFFFFFFFFFFFLLL
66666656262661316645665566666666536633666142422543
LLLLLLFFFFFFFFFFLFFFFFFFLLLLLLLLLLLLLLLLLFFFFFFFFF
