222112131214344414444414414442
AAAAAAAABCCCCCCCCCCCCCCCCCCCBB
432211433424414321131411341243
BBAAAAACCCCCCBBBBBAAABBABBBBBA
111121222232112442233143233321
AAAAAAAAAAAAAAAACBBBBBBBBBBBBB
112123224212221422241221124133
AAAAAAAAAAAAAAAAAAAAAAAAABBBBB
144422122223122111123321222221
CCAAAAAAAAAAAAAAAAAAAAAAAAAAAA
424144241314232412111232142343
AACCCCCCBBBBBBBBBBBBBBBBBBBBBB
111112121221121422412222122221
AAAAAAAAAAAAAAACAAAAAAAAAAAAAA
111224442222121221212243414242
BAAAACCCCAAAAAAAAAAAAACCCCCCCA
112233222344333413312432122411
BBBBBBBBBBBBBBBBBBBBBBBBBBBBAA
112111222124242344114144234434
AAAAAAAAAAACCCBBBBBBBBCCBBBBBB
214141412121131421441412444413
BBBBBBBBBBBBBBBBBBCCCCCCCCCBBB
212111121122212211111211212111
AAAAAAAAAAAAAAAAAABAAAAAAAAAAA
113412222143211322143331324244
AAAAAAAAAABBBBBBBBACBBBBBBBBBB
214213312212412412444441441444
ABBBBBBAABBBBBBBBBCCCCCCCCCCCC
211122213133321331143424344243
AAAAAAAAAABBBBBBBBBBBBBCCCCCCC
411221221212121222111212431231
BAAAAAAAAAAAAAAAAAAAAAAAAAAAAB
223212211412122221312441234123
AAAAAAAAAAAAAAAAABBBBBCBBBBAAA
222111221111124222112131434142
AAAAAAAAAAAAAAAAAAAAABBBBBBBBB
211244132211411431334441213212
AAABBBBBBBBBBBBCBBBBBBBBBBBBBB
121424412121122121122212122334
AAACCCCAAAAAAAAAAAAAAAAAAAABBB
231113224144413122222111121342
BBBAAAAABBBBBBBBBAAAAAAAAAABBB
214433334331231213211334431231
AABBBBBBBBBBBBBBBBBBBBBBBBBBAA
124143322232314311423213222323
AABBBBBBBBBBBBBBBBBBBBBBBBBBBB
142234222344324431312122111222
BBBBBBBBBBBBBBBBBAAAAAAAAAAAAA
212122112441313443114424444122
AAAAAAAACCCCBBBBBBBBBBBBBBBBBB
111443442444434434443442223311
AAACCCCCCCCCCCCCCCCCCCCCBBBBAA
434444442434442342144441112222
CCCCCCCCCCCCCCCCCCCCCCCAAAAAAA
121211314332231211221444412214
AAABBBBBBBAAAAAAAAAAACCCCAAAAB
122121424424412141412421211211
AAAAAABCCCCCCAAAAAAAAAAAAAAAAA
121111214412222312132212222121
AAAABBBBBBAAAAAAAAAAAAAAAAAAAA
211111331111132411124443244112
AAAAACCAAAAAABBBAAAAAABBBBBAAA
141331214432434433233222341142
BBBBBBBBBBBBBBBBBBBBBBBBBBBBBB
331131244144432144444443244334
BBBBBCCCCCCCCCCCCCCCCCCCCCCCCC
221122212112422411211111213211
AAAAAAAAAAAAAAAAAAAAAAAAAAAAAA
442422133334312142222112322311
BBBBBBBBBBBBBAAABAAAAAAAAAAAAA
112344114444414441424312111224
CCCCCCCCCCCCCCCCCBBBAAAAAAAACC
312113211434441311442442311212
AAABBBBBBBBBCCCCAABBBBBBAAAAAA
141343331311441113123233213242
ACCBBBBBBBBBBBBBBBBBBBBBBBBBBB
242144342444421444444113121113
CCAACCCCCCCCCCCCCCCCCAAAAAAAAA
112231222111224111212222242233
AAAAAAAAAAAAAAAAAAAAAAAAABBBBB
211121121241221131112211112241
AAAAAAAAAAAAAAAAAAAAAAAAAACCCA
241434341413344322111421121221
BBBCCCCCCCBBBBBBBAAAAAAAAAAAAA
131144414422242144244314133142
AAACBBBBBBBBBBBBBBBBBBBBBBBBBB
311241214143231422242122121123
AAAAAAAAABBBBBBBBBBBAAAAAAAAAA
442142221312111212221121312142
AAAAAAAAAAAAAAAAAAAAAAAAAAAAAA
222121221443244221142122213123
AABBBBBBBCBBBBBBBBBBAAAABBAAAA
121114212121122244224344444444
AAAAAABAAAAAAAAACCCCCCCCCCCCCC
121121121112222124441344442444
AAAAAAAAAAAAAAABBCCAACCCCCCCCC
444443444444124144144444221323
CCCCCCCCCCCCCCCCCCCCCCCCCBBBBB
214113424224443114211112122114
BBBBBBBBBBBBBBBAAAAAAAAAAAAAAA
124244444443342112212312144212
AACCCCCCCCCCCCAAAAAAABBBBBBBBB
231233233244442144444424441444
BBBBBBBBBBBCCCCCCCCCCCCCCCCCCC
441234123321221211112411122111
CCCBBBBBBBBBBBAAAAAAAAAAAAAAAA
111112122423313233431222412442
AAAAAAAAABBBBBBBBBBBAAAAAABBBB
443132444444434444444411342313
CCCCCCCCCCCCCCCCCCCCBBAABBBBBB
121443311442423114134431142322
BBBBBBBCCCCBBBBBBBBBBBBBBBBBAA
412212113133332434113114124443
CAAAAAAABBBBBBBBBBBBBBBCBCCCCC
234114312433441213141111123132
AAAAAAAAACBBBBAAABBBBAAAAAABBB
213222112121444444113231211111
AAAAAAAAAAAACCCCCCAAAAAAAAAAAA
112211221413221222211212112242
AAAAAAAAAAAAAAAAAAAAAAAACCCBBB
313411122211142112121232122243
AAACCAAAAAAAAAAAAAAAAAABBBBBBB
122121311214441112122121212111
AAAAAAAAAAACCCAAAAAAAAAAAAAAAA
322213111233313441444244444344
BBBBBBBBBBBBBBCCCCCCCCCCCCCCCC
121222111132231213121324312224
AAAAAAAAAACCCCCAAAAAAAAAAAAAAA
432443112211421212124314244422
BBBBBBBAAAAAAAAAAAAAABCCCCCCCC
212223123233441122213211112112
BBBBBBAABBBBBBAAAAAAAAAAAAAAAA
434143332232433412141444444223
BBBBBBBBBBBBBBBBBBBBBCCCCCCAAA
111111324233224344444411441222
AAAAAAAAAAAAAACCCCCCCCCCCBBBBB
111111244144424444444122431411
AAAAAAACCCCCCCCCCCCCCCAABBBBBB
223334241112444131212221222111
BBBBBBBBAABBBBBBBBBAAAAAAAAAAA
424441333134221122122122134144
CCCCCBBBBBBBBAAAAAAAAAAAACCCCC
442143211432412121314323342124
BBBBBBBBBBBAAAAAABBBBBBBBBBBAC
411214124144433433434324222424
BBBBBBAAAABBBBBBBBBBBBBBAAACCC
213421443142421342242132314442
BCCCCCCCCCCBBBBBBBBBBCCCCCCCCC
123422341441441212112343344441
BBBBBBBCCCCCCCBBBBBBBBBBCCCCCC
111123242222213132142222134444
AAAAABBBBBBBBBBBBBBBBBBBBBBBBB
212124444144411444444222212211
AAAABCCCCCCCCCCCCCCCCCCAAAAAAA
411142122434444144344412122121
AAAAAAAAACCCCCCCCCCCCCAAAAAAAA
424212121444144444441444424443
BBBAAAAACCCCCCCCCCCCCCCCCCCCCC
222242444324444341123132224444
AAAACCCCCCCCCCCCCAAAAAAAAACCCC
234311111422213343314444441224
ACCCAAAAABBBBBBBBBCCCCCCCCCCCC
123121111423123412241241433344
AAAAAAAAAAAAAABBAAAAAACBBBBBBB
444141244144343433243414424444
CCCBBBBBBBCCCCBBBBBCCCCCCCCCCC
422442212144341444443444222221
BBBBBBBBBBBCCCCCCCCCCCCCCAAAAA
423441211122212312112121121221
CCCCBBAAAAAAAAAAAAAAAAAAAAAAAA
231122123122111121212131222312
BBAAAAAAAAAAAAAAAAAAAAAAAAAAAA
212224424444124221144414443432
AAAAACCCCCCCCCCAAACCCCCCCABBBB
321324441444142443443434444444
BBBBBBCCCCCCCCCCCCCBBCCCCCCCCC
113122221213444444344142142444
AAAAAAAAAAAAACCCCCBBCCCCCCCCCC
241432322112211221344324434444
BBBBBBBBBAAAAAAAAAACCCCCCCCCCC
322124443141421111213234121443
BBBBBBBBBBBBBBBAAAAAABBBBAACCC
442414424422344444444441212311
CCCCCCCCCCCCCCCCCCCCCCCBBBBBBB
241434444444332424133411112214
ACCCCCCCCCCCBBBBBBBBBBBBBBBBBB
213211212312344121114332222211
AAAAAABAABBBBCCBBBBBBBBAAAAAAA
112243143411424444414144444234
AAAACCCCCCCCCCCCCCCCCCCCCCCCCC
411221112324123333432123133331
AAABBBBBBBBBBBBBBBBBBBBBBBBBBA
441434444424444334424442134141
CCCCCCCCCCCCCCCCCCCCCCCBBBBACC
213232221123121442244441343412
AAAAAAAAAAAAAAABBBBBBBABBBBBBB
122112222221111131112223231411
AAAAAAAAAAAAAAAAAAAAAAACBBBCBB
424121111123431311144344444414
AAAAAAAAAABBBBBBAAACCCCCCCCCCC
214223122212111124431244414114
AAAAAAAAAAAAAAAAACCAAACCCCCCCC
211222222231444141324313332342
AAAAAAAAABBBCCCCCCCBBBBBBBBBBB
213211212214414442411133414343
AAAAAAAAAAACCCCCCAAAAABBBBBCCC
314414444111122211122334223334
AACCCCCCCAAAAAAABBBBBBBBBBBBBC
224234244442324311142444411134
CCCCCCCCCCCBBBBBBBACCCCCCBBBBB
222121121123234222221311124122
AAAAAAAAAABBBBBAAAAAAAAAAACAAA
141144124233444244344341444234
BCCCCCCCCABBCCCCCCCCCCCCCCCCCC
222232111222212113324344444144
AAAAAAAAAAAAAAAAABBBBBBCCCCCCC
221232113214332444441441124223
AAAAAAAAAAACCCCCCCCCCCCABBBBBB
444234432221111141424444423441
BBBBBCCAAAAAAAAAAAACCCCCCCCCCC
433444431214444444431244444424
CCCCCCCCCCCCCCCCCCCBBBCCCCCCCC
223231424434324424344234333122
BABBBBCCCCCCCCCCCCCCCCCCCCCAAA
411322122111221112112411222112
AAAAAAAAAAAAAAAAAAAACCAAAAAAAA
143344231444441234344344443444
ACCCCCCCCCCCCCBBCCCCCCCCCCCCCC
211122134144444414214231123344
AAAAAAAAAACCCCBBBBBBBBBBBBBBBB
243422133333442444434433223324
BBBBBBBBBBBBCCCCCCCBBBBBBBBBBB
122211212223411122322212244434
AAAAAAAAAAAABCAAAAAAAAAAACCCCC
222314332232222144422414113142
BBBBBBBBBBBBBBBBBBBBBBBBBBBBBB
123212312342434211313331314224
BBBBBBBBBBBBBBBBBBBBBBBBBBCCCC
442311121112212222223222441442
BBAAAAAAAAAAAAAAAAAAAAABBBBBCC
413223213441243414444333444444
AAAAABABBBBBBBBBBBBBBBBBCCCCCC
321244444433133441423413242334
BBBBCCCCBBBBBBCCCBBBBBBBBBBBBB
434442242214444444144422131212
CCCCCCCCCCCCCCCCCCCCCCAAAAAAAA
424141424142424444221112444422
CAAACCCCCACCCCCCCCAAAAAACCCCCC
212411214443124344321311144313
AAAAAAAACCCBBBBBBBBBBBBBBBBBBA
111244122342411222113441223132
AAAACCAABBBBBBAAAABBBBBBBBBBBB
334412434411222111224442414443
BBBBBBBBBBBAAAAAAAAACCCCCCCCCC
443422244224434443442211112312
CCCCCCCCCBCCCCCCCCCCCCAAAAACCC
312122142442432422113342211411
BAAAAAAAABBBBBBBBBBBBBBBBBBBBA
244312224331232312324441111231
BBBBBBBBCBBBBBBBBBBBCCCAAAAAAA
122214232242211323332433243314
ABAAACCBBBBBBBBBBBBBBBBBBBBBBB
444444424441221222323322144344
CCCCCCCCCCCCAAAAAAAAAAAAACCCCC
112211414444344442414444144444
AAAAAACCCCCCCCCCCCCCCCCCCCCCCC
124211444434111213241331321133
AAAAACCCBBBBBBBBBBBBBBBBBBBBBB
111122131411131112211114242444
AAAAAAAAACAAAAAAAAAAAAACCCCCCC
331122112121211212121311112313
AAAAAAAAAAAAAAAAAAAAAAAAAAABBB
112112222111211212322114133141
AAAAAAAAAAAAAAAAAABBBBBBBBBCCC
444424141244244414443144444444
CCCCCCCCCCCCCCCCCCCCCCCCCCCCCC
333422244444342414444444444444
BBBBBBBBCCCCCCCCCCCCCCCCCCCCCB
413134224112221212213442244434
BBBBBBBBBAAAAAAAAAABBBBCCCCCCC
211242224222422111224112441421
AAAAAAAACAAAAAAAAAAAAAAACCCCCB
224212214144413311222123434414
BBBBBBBBBBBBBBBBBBBAAAACCCCCCC
212122421221111212124444444344
AAAAAAAAAAAAAAAAAABBCCCCCCCCCC
444134444411443444444344422332
CCCCCCCCCCCCCCCCCCBBBBBBBBBBBB
444124444444134443421442114442
CCCCCCCCCCCCCCCCCCCCCCCCCCCCCA
232122113122343414444122332121
AAAAAAAAAAAAACCCCCCCCAAAAAAAAA
311142234133444442442433442223
BBAAABBBBBBBBCCCCCCCABBBBBBBBB
221244421121212442122222122214
AAAACCCAAAAAAAAAAAAAAAAAAAAAAA
344414211244414423444311221122
BBBBBBBBBCCCCCCCCCCCCCAAAAAAAA
121223223114221234344221221342
AAAAAAAAAAAAAAAABBBBBAAAAAAAAA
211122223141121222221123313233
AAAAAAAAAACAAAAAAAAAAABBBBBBBB
442211122322111421442234424314
CCAAAAAAAAAAAAABBBBBBBBCCCCCCC
234221222244344344124212222221
BBBBAAAAAACCCCCCCCAAAAAAAAAAAA
214444444442444444144422143424
AACCCCCCCCCCCCCCCCCCCCBBCCCCCC
241441314144211442144124443411
BBBBBBBBBBBBBBBBBBBBBBBCCCBBBB
312212223312131231123121211421
AAAAAAAAAAABBBBBBBBBBBBBBAABBA
112333121144114411431331223432
BBBBBBBBBBCCCCCCBBBBBBBBBBBCCA
111421213211421244241222122211
AAAAABBBBBBBBBBBBBBBAAAAAAAAAA
221122231421242221222212214124
AAAAAAAAAAAAAAAAAAAAAAAAAAAAAA
122212124112111141211134432314
AAAAAAAAAAAAAAAAAAAABBBBBBBBBB
132121243122441222222121434323
AAAAABBBBBBBBBBBBAAAAAAAAACBBB
114214414444444444212212121144
AACCCCCCCCCCCCCCCCAAAAAAAAAACC
112243141341442144444331442442
AAAABBBBBBBBCCCCBBBBBBCCCCCCCA
422131234444443244424142141122
CBBBBBBBBCCCCCCCCCCCCCCAAAAAAA
224223442242221222121112424141
AAAAACCCBAAAAAAAAAAAAAAABBBBBB
222212442234122321112221312221
AAAAAACCCCCCCAAAAAAAAAAAAAAAAA
222224134431234443434442424444
BBBBBBBBBBBBBBBCCCCCCCCCCCCCCC
241444444414441441444443141144
ACCCCCCCBBBBBCCCCCCCCCCCCCCCCC
112214422223234444441422212212
AAAAACCAAABBBBCCCCCCBBAAAAAAAA
212111114234444432434422111232
AAAAAAAACCCCCCCCCCCCCCAAAAAAAB
142212112142211211211331222444
AAACAAAAAACCCAAAAAAAABBBAABBBB
334333321442422124242411144411
BBBBBBBBBCCCCCBBBCCCCCCCCCCCAA
111211134242444214222213132222
AAAAAAACCCCCCCCAAAAAAAAAAAAAAA
142332131223344234442112111122
BBBBBBBBBBBBBCCCCCCCAAAAAAAAAA
142244131212231122222423123341
BBCCCCAAAAAAAAAAAAAAAAABBBBBBB
443341212112122223123144234412
CCAAAAAAAAAABBBBBBBABBBBBBBBAA
133111221122111114444141444144
AAAAAAAAAAAAAAAAACCCCCCCCCCCCC
112123241244423123243222112211
AAAABBBBBBBBBBBBBBBBBBBBAAAAAA
343444111114211322212211112112
BCBBCCAAAAAAAAAAAAAAAAAAAAAAAB
122122222211111444444443344444
AAAAAAAAAAAAAAACCCCCCCCCCCCCCC
144442122412114212234323422244
ACCCCAAAAAAAAAAAAAABBBBBBBBBCC
314441313144331322111421321112
AACCCCCCBCCCBBBBBAAAAAAAAAAAAA
121221211212222111243224144134
AAAAAAAAAAAAAAAAAAAACCCCCCCCCC
131242121312412114213313134424
AAAACAAAAAAACAAAABBBBBBBBBBBBB
141131313242132343241442232321
AAABBBBBBBBBBBBBBBBBBBBBBBBBBB
212221211232312122131113331342
AAAAAAAAAAAAAAAAAABBBBBBBBBBAA
122211122221444444444244432144
AAAAAAAAAAAACCCCCCCCCCCCCCCCCC
132414312321334233324221234432
BBBBBBBBBBBBBBBBBBBBBAAAAACCCC
412122333314124142121423242224
AAAABBBBBBBBBBBACBAABBBCCCAAAA
124344243243144123424224214411
AABBBBBBBBBBBBBBBBBBBBBBBBBBBB
111222214242324234414444421412
AAAAAAAACCCCCCCCCCCCCCCCCCCCAA
343413213321411132444434144342
BBBBBBBBBBBBBBBBBBCCCCCCCCCCCC
214443343123114443342143343444
BBBCCCCCBBBBBBBBBBBBBBBBCCCCCB
113111211212222123213211122111
AAAAAAAAAAAAAAAAAAAAAAAAAAAAAA
444234243144221222111422112112
CCCCCCCCCCCAAAAAAAAAAAAAAAAAAA
114311141424411321111431114144
AAAAAAACCCCCCCBBBBAABBBBBBBBBB
431214443433331322342332131214
CCCCCCCCBBBBBBBBBBBCCCCCCACBBB
122211122213344111321413121323
AAAAAAAAAAAACCCAAAAAAAAAAAABBB
122214224434424444444114212214
AAAAACAACCCCCCCCCCCCCCAAAAAAAC
441444444144444142444242224121
CCCCCCCCCCCCCCCCCCCCCBBBBBBBBB
