222112211332212412141443122114
AAABBBBBBBBBBBBBBBBBBBBBBBBBBB
112143242131211112323212144131
AAAABBBAAAAAAAAABBBBBBBBBBBBBB
433111212212223144421412211132
BBAAAAAAABBBBBBBBBBBBBBBBBBBBB
221432224444444442441444444433
AAABBBBBCCCCCCCCCCCCCCCCCCCCCB
123121112142112214222111212312
BBBBAAAAAACAAAAAAAAAAAAAABBBBB
212111232111212214121212212321
AAAAAAAAAAAAAAAAAAAAAAAAAAAAAA
111122111224243444222122441444
AAAAAAAAAAAABBBBBCAAAAAABBBCCC
332222112211222124144132321212
BBBAAAAAAAAAAAAAACCCCAAAAAAAAA
132211322413121111212222311414
BBBBBBBBBBBBAAAAAAAAAAABBBBBBC
112211112121444444124444413411
AAAAAAAAAAACCCCCCCCCCCCCCABBBB
311444214412334143242122341142
AAACCCCCCCAABBBBBBBBBBBBBBBBBB
111244442133141134213222122234
AAAACCCCBBBBBBBBBBBBAAAAAAAACC
344434213344222122113342111242
CCCCCCAABBBAAAAAABBBBBBBBAAAAA
141313343443321144441432422434
BBBBBBBBBBBBBBBBCCCCCCCCCCCCCC
244112344144114443144413234144
ACCAAAACCCCCCCCCCCCCCCCCCCCCCC
313324133243123444312232231222
BBBBBBBBBCCCBBBBBBBBAAAAAAAAAA
333432234244322114222421142322
BBBBBBBBBBBCAAAAAAAAAAAAAAAAAA
244312442444311242132122121222
ACCCCCCCCCCCCAAAAAAAAAAAAAAAAA
422132211211122144414444421443
AAAAAAAAAAAAAAAACCCCCCCCCBBBBB
343144414442414434434224444144
CCCCCCCCCCCCCCCCCCCCCCCCCCCCCC
321423443334322244222444343221
BBBBCCCBBBBBBBBCCCCCCCCCCCCCBB
214421444444444411232122134144
AACCCCCCCCCCCCCCAAAAAAAAACCCCC
422444444444134342144444424431
AAACCCCCCCCCCCCCCAACCCCCCCCCCC
411124444443312122212223142331
CCAAACCCCCCBBAAAAAAAABBBBBBBBB
144243123242244424111331413212
BBBBBBBBBBBBCCCCBBBBBBBCBBBBBB
444441243441243443123241444143
CCCCCAACCCBBBBBBBBBBBBBBBBBBBC
131332112413331444144444143444
AAABBBBBBBBBCCCCCCCCCCCCCCCCCC
111222211314442423343211211122
AAAAAAAABBBBBBBBBBBBBAAAAAAAAC
122122414124114414244443411344
AAAABBBBBBBBBCCCCCCCCCCCCAAACC
222112111324411233143422311144
AAAAAAAAABBBBABBBBBBBBBBBBBBBB
331422412434444411213212144444
BBCCCCCCCCCCCCCCCAAAAAAAACCCCC
431122124444442444414341444431
BBBBBBBBCCCCBCCCCCCCCCCCCCCCCC
112313322333412442344444211411
BBBBBBBBBBBCCCCCCCCCCCCCAAAAAA
211114122243214122343244424424
AAAAAAAAABBBBBBBBBBCCCCCCCCCCC
441231341122111212321412141221
CCCBBBBBAAAAAAAAAAAAAAACCCAAAA
111121324121114242344441421434
AAAAAAABCAAAAACCCCCCCCCCCCCCCC
124344232423112314244434424444
BBBBBBBBBBBBBBBBBBBCCCCCCCCCCC
431141421224313213322444244422
BBBCCCCCAABBBBBBBBBBBCCCCCCCAA
124211223312322234144442222121
AAAAAAABBBCAAAAABCCCCCCAAAAAAA
214221122112212212132424211442
AAAAAAAAAAAAAAAAAAAAAAAAAABCCC
144121211111224124443444444144
AAAAAAAAAAAAABCCCCCCCCCCBBBBBB
422112221422144244234443443244
AAAAAAAAACCCCCCCCCCCCCCCCCAACC
232232311441321221132221442333
BBBBBBBBBBBBBAAAABBBBBBCCCCBAA
122124111214121222312212144444
AAAAAAAAAAAAAAAAAAAAAAAAACCCCC
112224221324244232444441444444
AAAAAABAAAACCCCBBBBCCCCCCCCCCC
121341134441334341343424233414
AAABBBBBBBBBBBBBBBBBBBBBBBBBBB
414342431141142111212343211133
BBBBBBBBBBBBBBBBBBBBBBBBBBBBBB
122212122131321212212232112212
AAAAAAAAABBBBAAABBBBBBBBBAAAAA
423242133121143332221433124244
BBBBBBBBBBBBBBBBBBBBBBBBBBBBCC
221422122413421432342221122112
AAAAAAAABBBBBBBBBBBBBBBACCAAAA
424344242132231111122121111113
CCCCCCAAAAAAAAAAAAAAAAAAAAAAAA
424343223323421222211424222221
BBBBBBBBBBBBBBBAAAAAAAAAAAAAAA
212234113414444324142442214221
BCCCCCCCCCCCCCCCCCCCCCCAAAAAAA
444413323422211344144244414444
BBBBBBBBBCCABBBBCCCCCCCCCCCCCC
111244242431342341414441112114
AAAACCAAACBBBBBBBBBBBBBBBBBBBB
243411243433231242213313334444
BBBBBBBBBCCBBBBBBBBBBBBBCCCCCC
113214411434141443144344444442
ABBBBCCCCCCCCCCCCCCCCCCBCCCCCC
144442441244443144444114221242
CCCCCCCCCCCCCCCCCCCCCABBAAAAAA
211222114421243342222211111113
AAAAABBBBBBBBBBBBBAAAAABBBAAAA
243433142443244444441434444124
BBBBBBBBBCCCCCCCCCCCCBBBBBBBBB
211111111121122141134444124344
AAAAAAAAAAAAAAAAAAACCCCCCBBBCC
222423133413444441443434122322
BBBBBBBBBBBBCCCCCCCCCCCCAAABBB
413111222222223211221121112134
AAAAAAAAAAAAABAAAAAAAAAAAACCCC
122422221114224424221141444444
AAABAAAAAAAAAAAAAAAAAAABBBBBBB
221234232244443244213212121121
AAABBBBBBCCCCCCCBBBBBBBBBBBBBB
212112131421212211232122432331
AAAAAAAAAAAAAAAAAAAAAAAABBBBBB
122222121122112212212223243432
AAAAAAAAAAAAAAAAAAAAAABBBBBBBA
223142431334314431431243311124
AAABBBBBBBBBBBBBBBBBBBBBBBBBBB
112424242123412211211422212224
AAAAAAACAAAAAAAAAAAAAAAAAAAACC
213431322432142112124424424143
AACCCCAAAAAAAAAAAAACCCCCCBBBBB
112122221422111114423444432112
AAAAAAAAAAAAAAAAACCCCCCCCCAAAA
444423444424443321111124224141
CCCCCCCCCCCCCCBBAAAAAAAABBBBBB
212431421412414124144444442444
AAACCBBAAAAACCCCCCCCCCCCCCCCCC
221221412442441243433313433221
AAAAAAAAACCCCCCCCCCBBBBBBBBBBB
344144421414244422442244221421
CCCCCCCCCCCCCCCCCCCCCCCCAAAAAA
433344344112211144444224143444
BBBBBBBCCAAAAAACCCCCCCCCCCCCCC
212211112244114411122212222122
AAAAAAAAAACCAAAAAAAAAAAAAAAAAA
241322244131433112214444441444
AABBBBBBBBBBBBBBBBBCCCCCCCCCCC
222221244224333423142111134123
AAAAAABBBBBBBBBBBBBCAABBBBBBBB
121433424244114221412213222341
AABABBCCCCCCAAAAAAAAAAAAABBBBB
112122221112232122222211221121
AAAAAAAAAAAAABAAAAABAAAAAAAAAA
112211231134112121121121221121
AAAAAAAAAAAAAAAAAAAAAAAAAAAAAA
113414431342344223414441334241
BBBCCCBBBBBBBBBBBBBBBBBBBBCBBB
141112114444444244442121112212
AAAAAACCCCCCCCCCCCCCAAAAAAAAAA
314332122444443431342424234414
AAABBAACCCCCCCCCCCCCCCCCCCCCCB
111222114313443231424142111322
AAAAAAAAABBCCCCACBBBBBBAAAAAAA
412444444444112113342221211211
AAACCCCCCCCCBBBBBBBBAAAAAAAAAA
212222444143321443144331421332
AAAAAABBBBBBBBBBBBBBBBBABBBBBB
212131211223214341344321413211
AAAAAAAAAAAAAACCCBBBBBBBBBBAAA
414112222312444444441444322343
BBBAAAAAAAAACCCCCCCCCCCCBBBCCC
211114441431444234211211334423
AAAAACCCCCBBBBBBBBBBBBBBBBBBBB
434424344444224244214444122424
CCCCCCCCCCBBBBBBBBBCCCCCACCCCC
122223214412111221212212412121
AAAAAAAACCAAAAAAAAAAAAAAAAAAAA
113344421142111121244412214113
AACCCCAAAAAAAAAAAAACCCAAAAAAAA
121231423444441244444444441444
AAAAAAACCCCCCCCCCCCCCCCCCCCCCC
444442414421121222421111144424
BBBBBBBBBBBBBBBBBBBAAAAAACCCCC
444142441224414421133121431344
CCCCCCCCCCCCCCCCBBBBBBBBBBBBBB
222144244413412323311223144144
AAAACCCCCCBBBBBBBBBBBBBBCCCCCC
422342121442131221222111212121
BBBBBBBBBBBAAAAAAAAAAAAAAAAAAA
311414212441211221231123211214
BBBBBBBBBBBBAAAAAAAAAAAAAAAABB
421324124421141112244433444444
BBBBBBBBBAAAAAAAAAACCCCCCCCCCC
411441224412121222211122444114
CCCCCBBBBBBBAAAAAAAAAAACCCCCCC
222211222332342334432311222244
AAAAABBBBBBBBBBBBBBBBBBBBBBBBC
111134122211414442444444413122
AAAAAAAAAAAACCCCCCCCCCCCCCBBBB
143324111131142322212124412422
BBBBBBBBBBBBBBBBBBBBBBBBBBBAAA
111221141131111241224244242421
AAAAAAABBBBBBBBBBBBBBBBBBBBBBB
122411412111112123121112211441
BBBBBCCAAAAAAAAAAAAAAAAAAAACCC
344114441134441123212114212121
BBBBBCCCCCCCCCAAAAAAAAAAAAAAAA
231214222122314422411143414444
ACAAAAAAAAAABBBBBBCAAACCCCCCCC
211114134413314233143244233333
AAAAAAACCCBBBBBBBBBBBBCCBBBBBB
221122211144413444444442242211
AAAAAAAAAACCCCCCCCCCCCCBBBBBBB
111413414422444314444444344412
ABBBBBBBBBBBBBBBBBBCCCCCCCCCAA
111144122443441212131221212231
AAAACCAAACCCCCAAAAAAAAAAAAAAAA
232113221224121121121241212222
ABAAAAAAAAAAAAAAAAAAAAAAAAAAAA
224124331444212444411322121123
AAAACCBBBBBBBBBBBBBBBBAAAAAAAA
111112121212111121112132144111
AAAAACBAAAAAAAAAAAAAAABBBBCAAA
132211331231313412413222142142
BBBBBBBBBBBBBBBBBAAAAAAABBBBBB
231233121112334112333341444334
AAAABBBBBBBBBBCCBBBBBBBBBBBBBB
223224321241434444443441222144
BBBBBBBBBBCCCCCCCCCCCCCCCCCCCC
221424444444444444434441111422
AAAAACCCCCCCCCCCCCCCCCCAAAAAAC
444331211413233422211211112122
BBBBBBBBBBBBCCCCAAAAAAAAAAAAAA
231131224111441112431332324344
AAAAAAAAAAAAAAAAAABBBABBBBBBBB
444144342344444444441321211244
CCCCCBCCBBCCCCCCCCCCCCAAAAABCC
134142144331121221212211243413
ABBBBBBBBBBBBBBBBBBBBBBBBBBBBB
113442413123132443444444422311
BBBBBBBBBAAACCCCCCCCCCCCCCCCCC
121122221111231242111211422442
AAAAAAAAAAAAAAAAAAAAAAAABBBCCC
211242312122124341342442444442
AAAAAAAAAAAAABBBBBBCCCCCCCCCCB
131224141123234141112411214212
BBBBBBBBBBBBBBBBBBBBBBAAAAAAAA
121143444443434221444122332224
AAAACCCCCCCCCCCCCCCCCCCBBBBBBB
211141311133233122143441424444
AAACBBBBBBBBBBBBBBBBBCCCCCCCCC
232122124423432121331212141134
ACBBBBBBBBBBBBBBBBBBBAAAAAABBB
112211212444444223111121221312
AAAAAAAAACCCCCCAAAAAAAAAAAAAAA
112422112221212132132214142121
AAAAAAAAAAAAAAAAAAAAAAAAAAAAAA
111111214231223414443244244444
AAAAAAAACCAAACCCCCCCCCCCCCCCCC
223214444342444121441341421311
AAAAACCCCCCCCCCAAACCCCCCCCCCBB
213412422343114121132444434443
ABBBBBBBBBBBBBBBAAABBBBBCCCCCC
121221112222212211222214242444
AAAAAAAAAAAAAAAAAAAABBBCCCCCCC
222121421244443244441221111111
AAAAAAAAACCCCCCBBBCCBBBBAAAAAA
221344444434334433444344342122
AAACCCCCCCCCCCCCCCCCCCCCCCAAAA
442112142343431443311241214443
BBBBBBBBBBBBBBBBBBBBAAAAAACCCC
111222444221432131212224221144
AAAAABBBBBBBBBBBBBBAAAABAAAACC
122144244441424444424442442411
AAAACCCCCCCCCCCCCCCCCCCCCCCCBB
311442313231214231434442411324
BBBBBBBBBBBBBBBBBBCCCCCCCCBBCC
122112111421424322432131133332
AAAABBBBBBBBBBBBBBBBBBBBBBBBBB
123331332321334121441242223213
ABBBBBBBBBBBBBBBBBBBBBBBBBBBBB
242323231112432444144443432143
AAABBBBBBBBBBBBCCCCCCCCBBBBBBB
411222213444441221242242344244
AAAAAABBBBBBBBBBAAACCCCCCCCCCC
331444414444434113444443112211
BBCCCCCCCCCCCCCCCCCCCCCCAAAAAA
411443214343223222144244434124
BAACCBBBBBBBBBCCCCCCCCCCCCCBBB
221111221122211222311244433423
AAAAAAAAAAAAAAAAAABBBBBBBCCCCC
322124444112211121222423222111
AAAAACCCCAAAAAAAAAAAAAAAAAAAAA
223124424222113422122121144442
BBBBBBBBBBBBBBBBBBAAAAAAACCCBB
443421434412121211114211111111
CCCCBBBCCCAAAAAAAAAAAAAAAAAAAA
122444144444122422344222223312
AAACCCCCCCCCAABBBBBBBBBBCBBBBB
121113431434441422442422212112
BBBBBBBBACCCCCCCCCCCCCAAAAAAAA
432432423314441412321113213431
BBBBBBBBBBBCCCBBBBBBBBBBBBBBBA
212222223241122111343134141233
AAAAAAAAAAAAAAAAAABBBBBBBBBBBC
114123423233114144441434424444
BBBBBBBBBBBBCCCCCCCCCCCCCCCCCC
442242444444441421211123243432
CCCCCCCCCCCCCCCCBBBAAAABBBBBBB
222121244341331442124141121214
AAAAAAACCCCCCCCBBAAAAAAAAAAAAC
421221212122113122121232212124
AAAAAAAAAAABBBBAAAAAAAAAAAABBB
111142441444443213142211141122
ABBBBCCCCCCBBBBBBBCCAAAAAAAAAA
112133312222211411211222111122
AAABBBBBBBBBBBBBBBBAAAAAAAAAAA
112433342232232141224224414213
AAABBBBBBBBBAAAAAAAAAAACCCCBBB
414321121221223111124212111223
BBBBAAAAABBBAABBAAAAAAAAAAAAAB
244144444444444241444414322444
ACCCCCCCCCCCCCCCCCCCCCCCCCCCCC
322224111333221112422241121311
BBAAABBBBBBBBBBBBBBBBBBBBBAAAA
211144444242323324441431144222
BCCBBCCCCCCABBBBBBBBBBBBBBBBBB
121222444442314413441222212211
AAAAAACCCCCBBBBBBBBCCAAAAAAAAA
212214221221122142422122223441
AAAAAAAAAAAAAAAACCCAAAAAAABBBB
223143443343112342343214242211
BBBBBBBBBBBBBBBBBBBBBBBBBBAAAA
112141112211424444441414444443
AAAAAAAAAAAACCCCCCCCCCCCCCCCCC
113111112212123112222221244442
AAAAAAAAAAAAAAAAAAAAAAAAAACCCC
112242122112213312224241232411
CAAAAAAAAAAAAAAAABBBBBBBBBBBBB
312122122112441112111212124443
AAAAAAAABBBBBBBAAAAAAAAAAAACCC
221244424344124143444222412111
AAAACCCCCCCCCCCBBBBBBBAAAAAAAA
312432424231442244443121134223
AAAABBBBBBBBCCCCCCCAAAAABBBAAA
423414112433211222424132312224
BBBBBBBBBBBBAAAAAACCBBBBBBBBBB
243232432213114442434324444111
AAABBBCCAAAAAACCCCCCCCCCCCCCBB
244431112244422121111111234412
ACCCBAAAAACCCAAAAAAAAACBBBBBBB
222414144444444414444442343122
AAABACCCCCCCCCCCCCCCCCBBBCCAAA
221212341134444222223212424444
AAAAABBBBBBCCCCBAAACCBBBBBBBBB
221213441442244121121213122111
AAAACCCCCCCAAAAAAAAAAAAAAAAAAA
443444242222324444442444442344
CCCCCCAAAAAAAACCCCCCCCCCCCCCCC
322123311222212311224233233114
AAAAAAAAAAAAAABBAAABBBBBBBBBBB
241141331322424432124411212113
BBBBBBBBAABBBBBBBBBBBBBBBBBBBB
324223333141214434413314124221
BBBBBBBBBBBBBBBBBBBBBBBBBBBBBB
313433311333121223242112232421
BBBBBBBBBBBBBBBBBBBBBBBBBBBBBB
222312121444131341112212211142
AAAAAAAAACCBBBBBCAAAAAAAAAAAAA
441444441434234221212311312221
CCCCCCCCCCCCCCCBBBBBBBBBAAAAAA
143344211121143212312211342442
BCCCCCAAAAAACCCAAAAAAAAACCCCCC
221122311122444444214444243444
AAAAAAAAAAAACCCCCCCCCCCCCCCCCC
112224121334443344434322414124
AAAAAAAAABCCCCCCCCCCCCBBCCCCCC
222122121132211112122121123112
AAAAAAAAAAAAAAAAABBBBBBBAAAAAA
212121111121224222222244312422
AAAAAAAAAAAAAAAAAAAAABCCCAAAAA
221422234432423142333322412433
AAABBBBBBBBBBBBBBBBBBBBBBBBBBB
432131341422424421342212142222
BBBBBBBBBBBBBBBBBBBAAAAAAAAAAA
111111321214111212243134422234
AAAAAAAABBBBAAAAAAABBBBBBBBACC
122222111121222211422111221432
AAAAAAAAAAAAAAAABBBBBAAAABBBBB
211311223214444444334142222422
AAAAAAAAAAACCCCCCCCCCCCAAAABBB
341222224424244444142443112444
BBBAAAACCBBCCCCCCCCCCCCAAAACCC
442332411324343244441422221421
CCCBBBBBBBBBBBBBBCCCAAAAAAAAAC
241213341141122143133132244222
BAABBBBBBBBAAAABBBBBBBBBBBBAAA
222122222221444241444244332121
AAAAAAAAAAAACCCCCCCCCCCCCCAAAA
422144242224134131132344414133
BBBBBBBBBBBBBBBBBBBBCCCCCBBBBB
414442232413121121244444131224
CCCCBBBBBBBBBBBBBBBBCCCCAAAACC
111142141341244441233444441144
AAABBBBBBBCCCCCCCCCCBCCCCCCCCC
123244243414444444244344412212
ABBBBBBCCCCCCCCCCCCCCBCCCAAAAA
211111111333431143414221222122
AAAAAABBBBBBBBBBBBBBBBBBBAAAAA
142214112134312342414122212212
AAAAABBBBBBBBBBBBBBBBBBAAAAAAA
124112112442121322222122241222
BCCCAAAAAAAAAAAAAAAAAAAAAAAAAA
212424443112213124213223334111
AAABBBBBBBBBBBBBBBBBBBBBBBBBBB
243142432222132121232234214132
ACAACCCCAAAAAAAAAABBBAAAAAAABB
114434421124444441221422212212
ABBBBBBAAABCCCCCCCCAAAAAAAAAAA
321211112221144311323444323244
BAAAAAAAAAAAACBBBBBBBBBBBBBCCC
434113243231444444222221111212
BBBBBBBBBBBBCCCCCBAAAAAAAAAAAA
243114211212211141111122211314
BBBBBBAAAAAAAAAAAAAAAAAAAAAAAA
411111121111222121411211444444
CAAAAAAAAAAAAAAAAAAAAAAACCCCCC
211221112242441444434244414444
AAAAAAAAAACCCCCCCCCCCCCCCCCCCC
111443111442442441444422121124
AAABBBBBBCCCCCCCCCCCCCAAAAAAAC
112111233142214422444121441213
AAAAAABBBBBBBBBBBBBBBBBBBBBBBB
122423213221221244332442424414
AAABBBBBBBBBBBBBBBBBBBBBBBCCCC
131432421132323342221141313441
BBCCBBBAAAABBBBBBBBBBBBBBBBBBB
122211222311341424144231144442
AAAAAAAAACCCCCCCCCBBBBBBBBBBBB
442121233313124233444434444444
BBBBBBBBBBBBAACCCCCCCCCCCCCCCC
111444321133243222233222434443
AAACCBBBBBBBBBBBBBBBBBBBBBCCCC
444311144134222111212212411212
CBBBBBBBBBBBBAAAAAAAAAAAAAAAAA
134243234231411222331111414114
AACBBBBBBBBBBBBBBBBBBBBBBBBBBB
221121211121111111212111211131
AAAAAAAAAAAAAAAAAAAAAAAAAAAAAA
222221321211112121111211313424
AAAAAAAAAAAAAAAAAAAAAAABBBBBBB
112132222231341444422122212211
AAAAAAAAAACCCCCCCCCCCAAAAAAAAA
231122212111131224222222322211
AAAAAAAAAAAABBBBBBAAAAAAAAAAAA
111212122442441444444441444444
AAAAABBBBBBBCCCCCCCCCBBBCCCCCC
433413444244223111133341214233
CCBBBCCCCCCCBBBAABBBBBBBBBBBBB
114322322142434144444424143311
BBBBAAAAAABCCCCCCCCCCCCCCBBBAA
213222212122221132411212121121
AAAAAAAAAAABBBAAAAAAAAAAAAAAAA
222121121222111123221411422442
AAAAAAAAAAAAAAABBBBBBBBBBBBCCC
344444114444444434224441312222
BBCCCCBBBCCCCCCCCCAACCCCBAAAAA
311243311423231324112222424344
AAAABBBBBBBBBBBBCCAAAAAACCCCCC
221114142422144413112141111233
BBBBBBBBBBBBBBBBBBBBBBBBBBBBBB
222112144421411142213312121444
AAAAAAACCCAACCCCCCBCBBBBBBBCCC
221122321214444444444333114311
AAAAAAAAAAAACCCCCCCCBBBBBBBBBB
234241441131331241243114424434
CCCBBBBBBBBBBBBBBBBCCCCCCCCCCC
121114122133211111124443241221
AAAAAAAAAAAAAAAAAAAACCCCABAAAA
211221122121233344424442124442
AAAAAAAAAAAABBBBCCCCCCCCCCCCCB
211444411341221111224444424444
BBBBCCCABBBAAAAAAAACCCCCCCCCCC
214111434234241412431132133111
AAAAAACBBBBBBBBBBBBBBBBBBBBBBB
222223121212143432432143112212
AAAAAAAAAAAABBBBBBBBBBBBBAAAAA
211334243411433332211122212333
ABBBBBBBBBBBBBBBBBBBBBBBCBBBBB
214144433121121212141121431114
AACCCCCCCAAAAAAAAAAAAAAABBBBBB
141241221211222141334424234412
AAAAAAAAAAAAAAAACCCCCCCCCCCCCB
121221121211442111241221113121
BAAAAAAAAAAAAAAAAAAAAAAAAAAAAA
324344441211333441444321344443
BBBBBBBBBAAACCCCCCCCCCCCCCCCCC
222112222122211221222221221144
AAAAAAAAAAAAAAAAAAAAAAAAAAAAAA
311212131122122211144444444444
AAAAAAAAAAAAAAAAAAAACCCCCCCCCC
414222414232212314424442212122
CCCBBBBBBBBBBBBBCCCCCCCAAABBBB
223244444443444444441222132144
CCCCCCCCCCCCCCCCCCAAAAAAAAABBB
223112443444143223222312323444
AAAAAACCCCCCCCAAAAAAAAAAAAACCC
242121114234444442442414342444
AAAAAAAABBBBCCCCCCCCCCBBBCCCCC
323344414411114444241442142224
AACCCCCCCCAAAACCCCABBBBBBBAAAC
422413412141444411324414114431
AABBBBBBBCCCCCCCBBBBCCCCCCCCAA
111111121441132444342123444444
AAAAAAABBBBBBBACCCCCCCCCCCCCCC
212222222122213222344344444334
AAAAAAAAAAAAAAAAAACCCCCCCCCCCC
334344121233223444322331343312
BBBBBBBBBBBBBBCCCCBBBBBBBBBBAA
121212211224443444444344444244
AAAAAAAAAAACCCCCCCCCCCCCCCCCCC
214114144244444222114332432244
AAAAACCCCCCCCCCCCCBBBBBBBBBACC
213112221211241233124442344442
AAAAAAAAAAAAAAAACCAACCCCCCCCCC
111124311114141422214444334312
BBBBBBBBAAAAAAAAAAAACCCCBBBBBB
222221211222222231424122111122
AAAAAAAAAAAAAAAAAAAACCAAAAAAAA
112242111241344213243242212221
AAAAAAAAABBBBBBBBBBBBBAAAAAAAA
222444344122221213214111411111
AAACCCCCCAAAAAAAAAAAAAAAAAAAAA
244232212131142211122111222342
AAAAAAAAAAAAAAAAAAAAAAAAAAABBB
111142122213222244112444442231
AAAAAAAAAAAAAAAACCCCCCCCCCAAAA
212211433131443313124241322443
AAAABBBBBBBBBBBBBBBBBBBBBBBBBB
434213421422112112121112221214
BCCCBBBBBCAABAAAAAAAAAAAAAAAAC
111421221214344121223112122114
AAAAAAAAAAAAABAAAAAAAAAAAAABBB
444314443123434344144124344332
CCCCCCCCCBBBBBBBBCCCCBBBBBBBBB
441422222211221111323144411412
CCCCCAAAAAAAAAAAAABBBBCCCCCCAA
131122233243412314224141114213
AAAAAABBBBBBBBBBBBBBBBBBBBBBBB
241443121112211424414333432132
AAAABBBBAAAABBBBBBBBBBBBBBBBBB
124432424222242443444244444444
BBCCCCCBBBBBBBBCCCCCCCCCCCCBBB
441221121344411231221422334244
BBBBBBBBBBCCCAAAAAAAAAABBBBBCC
343224333133311112411411111222
BBBBBBBBBBBBBBBBBBBBBBBAAAAAAA
444444444314444111442124414244
CCCCCCCCCCCCCCBAAABBBAACCCCCCC
412142323421214432142433444424
AAAAAABBBBBBBBBBBBBBBBBCCCCCCC
321421143124313332234413223212
BBBBBBBBBBBBBBBBBBBBBBAAABBBBB
221222411111131322344433142112
AAAAAAAAAAAABBBBBBBBBBBBBBBBBC
443214344441444324444344444444
ABBBBBBBCCCCCCCCCCCCCCCCCCCCCC
132311224212141111424433143441
BBBBBBBBBBBBBBBBBBBBBBBBBBBBBB
311112211222313113411232244414
AAAAAAAAAAAAAABBBBBBBBBBBBBBBB
412322121432332342211221212121
BBBBBBBBBBBBBBAAAAAAAAAAAAAAAA
412441232434142434244222444134
BBBBBBBBBBBAACCBBBBBBBBBBBBBBC
412424211141324433112124121141
BBBBBBBBBBBBBBBBBBBAAACCBBBBAA
423311121442242121121111223141
BBBBBBBBBCCAAAAAAAAAAAAAAAAABB
222321311242212111443441141111
AABBBBBAAAAAAAAABBBBBBBBBBBBBA
144122242224141414344312112221
CCCAAAAAABBBBBBBBCCCCAAAAAAAAB
121122333342212214441244444244
AAAAABBBBBCCAAAAAACCCCCCCCCCCC
223444434143114241342322111222
AABCCCCCCABBBBBACCCAAAAAAAAAAA
243234143134114442414444414144
BBBBBCCCCCCCCCCCCCCCCCCCCCCCCC
332222141121121111211313213221
BBBBBBBBBAAAAAAAAAAAAAAAAAAAAA
