222121231433433423444444444232
AAAAAAABBBBBBBBBBCCCCCCCCCBBBB
312343114344444444124443411241
BBCCCCCCCCCCCCCCCCCCCCCCCCCCCC
444442442122212211421222242211
CCCCCCCCCAAAAAAAAAAAAAAAAAAAAA
442114142444444434114234342111
CCAAACCCCCCCCCCCCBBBAABBBBBBAA
212111122313312232211124223444
AAAAAAAAABBBBBBAAAAAAAAAAACCCC
221242411144434441444424234413
AAAACACCCCCCCCCCCCCCCCABBBBBBB
112411432141112141214222142212
AACCAABAAAAAAAAACAAAAAAAAAAAAA
421444444134124241222122434444
CCCCCCCCCCCCAAAAAAAAAAAACCCCCC
413213413443414142444114343334
BBBBBBBBBBCCCCCCCCCCCCCCCCCCCC
321444344442414344444442444242
AAACCCCCCCCACCCCCCCCCCCCCCCCAA
442441111212434412312242342122
CCAAAAAAAAAACCCCAAAAAAAABBBBBA
342444444344444144422222112222
BCCCCCCCCCCCCCCCCCCAAAAAAAAAAA
344442221111121242213121144224
ACCCCCAAAAAAAAAACAAAAAAACCCCCC
423114211222133214431331441211
BBBAAAAAAAAAABBBBBBBBBBBBBAAAA
423211114111121144442433444141
AAAAAAAACAAAAAAACCCCCCCCCCCCCC
431134341434444122312234112112
BBBBBBBBBCCCCCCBBBBBABBBAAAAAA
121314442412124214111144433444
BBBBBBBBBBBBBBBBBBAAAACCCCCCCC
421433344414133314233443423231
CBBBBBBBBCBBBBBBBBBBBBBBBBBAAA
223314311111222211212111121143
AAABBBBAAAAAAAAAAAAAAAAAAAAACC
221121311132444233112111443232
AAAAAAAAAAAAACCCBBBBBBBBBBBBBC
122312224112211341312224113322
AAAAAAAAAAAAABBBBAAAAACBBBBBBB
321112124444442412211212324123
AAAAAAAACCCCCCAAAAAAAAAACABBBB
211212111133223431222311112211
AAAAAAAABBBBAABBBAAAABABBBAAAA
212213231211432441343212322424
AAAAAAAAAAAABBBBBBBCBBBBBBBCCC
244444444141112212112132321432
ACCCCCCCCCCAAAAAAAAAAABBBBBCCA
244241244424411414232344244443
BBBBBBBBBBABBBBBBBBBBBCCCCCCCC
141231211214414244333211244423
BBBAAAAAAACCCCCCCCBBBBBBBCCCCC
221444414343414124242141424442
AAACCCCCCCCCCBBBBBACCCCCCCCCAA
221121122412223111212112213121
AAAAAAAAAAAAAAAAAAAAAAAAAAAAAA
421243444222111321222122342431
BBCCCCCCAAAAAAAAAAAAAAAACCABBB
143111331224123421111123214243
BBBBBBBBBBBBBBBBBAAAABBBAABBBB
123423123442124212132211121131
BBBBBBBBBCCAAAAAAAAAAAAAAAAAAA
411222231221132222343142421114
AAABAAAAAAAAAAAAAAAABBBBBBBBBC
141312112223441112111223224223
AAAAAAAAAAAAAAAAAAAAAABBBBBBBB
311422212143424244441222321443
BAAABBBBBBBBBBBAABBBBBBBBBBBBB
243433421244444441444344412221
BBBBBBBBBBCCCCCCCCCCCCCBBBAAAA
444244434442121211112213321221
CCCCCCCCCCAAAAAAAAAAAAAAAAAAAA
212233431111114121424432213242
AAAABBBBAAAABBCABBBBBBBBBBBBAA
132221221212312323444414324124
AAAAAAAAAAAAAAABBBBBBBBBBBBBBB
211212414124222211143414432112
AAAAAAAAAAAAAAAAAAACCCCCCCAAAA
234244414213244424414441444411
AACCCCCCCCCBBBCCCCCCCCCCCCCCCC
212124131432441321141112114243
AAAAAAAABBBBBBBBAAACBAAABBBBBB
322314422342434444112114112143
BABBBBBBBBBBBBCCCCAAAAAAAAAAAB
211122221221234434444444341442
AAAAAAAAAAAAACCCCCCCCCCCCCCCCC
222222224344443444444442313244
AAAAAAACCCCCCCCCCCCCCCCCCCCCCC
241111221242344442114334124222
AAAAAAAAAACCCCCCCBBBBBBBBBBBBB
122111322242443222132234431431
AAACAAAABBBBBBBBAAAAAABBBBBBBB
211212112143231421433413344413
AAAAAAAAAABBBBBBBBBBBBBBBBBBBC
422433434132424231332334312232
BBBBBBBBBBBBBBBBBBBBBBBBBBBBBB
434444444432324122213121111224
CCCCCCCCCCCAAAAAAAAAAAAAAAAAAB
112224212241441111121114322211
AAAAAAAAAAAAAAAAAAAAAAACCAAAAA
421121124144341211222112122122
CAAAAAAABBBBBBAAAAAAAAAAAAAAAA
134341444444434122122244111412
AACCBCCCCCCCCCCAAAAAAAAAABBBBB
124434341422444442233134224132
AACBBBBBBBBBCCCCCAABBBBBBBBBBB
241421241444244421121442444443
AAAAAAACCCCCCCCCAAABACCCCCCCCC
123444442434143444344344114312
AACCCCCCCCCCCCCCCCCCCCCCCCCAAA
124444122422434444444214444224
CCCCCCCCCCCCCCCCCCCCCCCCCCCCCC
221112241121411124242344444414
AAAAAAAAAAAAAAAAAAABBBBBCCCCAA
222221112321222212222211132222
AAAAAAAABBAAAAAAAAAABBBBBBBBBB
111333243343421243341313422124
ABBBBBBBBBBBBBBBBBBBBBAAAAAABB
122222424224324332141234141143
AAAAAABBBBBBBBBBBBBBBBBBBBBBBB
222221211111221211112112432121
AAAAAAAAAAAAAAAAAAAAAAAAAAAAAA
112112112222421121312341222121
AAAAAAAAAAAAAAAAAAAAAAAAAAAAAA
121212212211344442243421244412
AAAAAAAAAAAAACCCCCCCCCBBCCCCBA
413421243422144341243443414442
BCCCBBBBBBBBBCCABBBBBBCCCCCCCC
211122112121234444343444441122
AAAAAAAAAAAAACCCCCCCCCCCCCCABB
122234122142444424434444442221
AAAAAAAAABCCCCCCACCCCCCCCCAAAA
141114444414442213121123243234
BBBBBBBBCCCCCCCBBBBBBBBBBBCCCC
114311112221212114433413224444
BBBBBBAAAAAAAAAAAACCCBBBBCCCCC
222212122212444243443414211441
AAAAAAAAAAAACCCCCCCCCCCCCCCCCC
124232411323223432244111344444
AAABBBBBBBBBBBBBBBBBBBBBCCCCCC
231221111314144212112111341313
AAAAAAAAAAACCCCCAAAAABBBBBBBBB
222414121111133442142312412341
AAAAAABBBBBBBBBBBBBBAAAABBBBBB
214211421323124234242444334214
AAAAAABBBBBBBBBBBBCCCCCBBBBBBB
244233123211124244414243422144
BBBBBBAAAAAAAACCCCCCCCCCBBCCCC
414443424342132144342144444444
CCCCCABBCCCCCCCCCCCCCCCCCCCCCC
311344432122221212244134424141
BBBBBBBBBBAAAAABBBBBBAACCCCCCB
443331121111121213112322121121
BBBBBBAAAAAAAAAAABBBBBBAAAAAAA
211214312211112314124442211321
AAAAABBAAAAAAAAAAAAACCCAAAAAAA
121341421143134442244423142431
AAABCCCCCAABBBBBBBBBBBBBBBBBBB
112341442422431112422214124443
AAACCCCBBBBBBBBCCCCAAAACCCCCCB
132444414422211444121142223122
BCCCCCCCCCCAAAACCCAAAAAAABBBAA
212113122121241142211331324343
AAAAAAAAAAAAABBBBAAAABBBBBBBBB
122112124122411144141114212424
AAAAAAAAAAAAAAAAAAAAAAAAAAACCC
344143243311111231412431341441
BBBBBBBBBBBBAAAABBBBBBBBBCCCCA
113321221212221134141444343434
AABBAAAAAAAAAAAAACBBBBBBBBBBBB
333211222343123221231431221124
BBBBBBBBBBBBBBBBBBBBABBAAAAAAB
122124414412221222112342111121
AAACCCCCCCAAAAAAAAAAAAAAAAAAAA
122212114441442423444441442244
AAAAAAAACCCCCCCCBBBCCCCCCCCCCC
122214444444323244332124243142
AAAAACCCCCBBBBBBBBBBBBBBBBBBBB
224124231134212414231441411413
BBBBBBBBAAAAAAAAACCCCCBBBBBBBB
221211134211222123344442123212
AAAAAAAAAAAAABBBBBBBBCCAABBBAA
121213242141441434114234441324
AAAAAAACCCCCCCCCCCCCCCCCCCBBBB
432141211113444144344341224344
BBBBBBBBBBBBBBBBBBBBBBBBBBCCCC
112121312211412121141234424243
AABBBBBAAAAAAAAAAACCCCCCCBBBBB
124331422434224442223312444442
ABBBBBBBBBBBBBCCCCBBBBBBBBBBBB
211222132414314241412442332214
AAAAAAAAABBBBBBBBBBBBBBBBBBBBB
124244223431343111221333444341
AAAACCBBBBBBBBBCAAAAABBBCCCCCB
312234341141231212112124224114
BBBBBBBBBBBBBBAAAAAAAAAAAAABBC
443142434111224421214444434141
BBBABBBBBBBBBBBBBAAACCCCCCCCCA
424231444444333234442444232312
BBBBBBCCCCCBBBBBBCCCCCCCBBBBBB
244142441144344424144244443344
ACCCCCCCCCCCCCCCCCCCCCCCCCCCCC
243441133413232221221113324223
BBBBCBBBBBAAAAAAAAAAABBBBBCCCC
111314412334443443141211112111
BBBBBBBBAAABBBBBBBBBAAAAAAAAAA
113114111144332431434444442442
BBBBBBBBCCCCCCCCCCCCCCCCCCCCCA
122221334144444444244431132122
AAAAAABBCCCCCCCCCCCCCCBBBBBBBA
112221222121212242211212211142
AAAAAAAAAAAAAAAAAAAAAAAAAAAAAA
244441434213112312213212342432
BBCCCCCCCCBBBBBBAAAAAAABBBBBBB
434244444141344111241422332444
CCCCCCCCCCCCCCCBBBBBBBBBBBBBBB
413124313423122414323234331132
BBBBBBBBBBBBBBBBBBBBBBBBBBBAAA
112211231111142122122411112211
BAAAAAAAAAAAAAAAAAAAAAAAAAAAAA
434321211211111212112122221222
CCCCAAAAAAAAAAAAAAAAAAAAAAAAAB
214442243121211141122122113212
AACCABBBBAAAAAAAAAAAAAAAAABBBB
434134422112444414442241122123
BBBBCCCAAAAACCCCCCCCAAAAAAAAAC
221434442444414144321222422123
AACCCCCCCCCCCCCCCCCCAAAAAAAAAA
211111122123324323222243121443
AAAAAAAABBBBBBBBBBBBBBBBBBBBBB
222233313314314223112121244124
BBBBBBBBBBBBBBBAAAAAAAAAACCACC
221233114121113241221122311434
AAAABBBBAAAAAABBBBBBBBBBBBBBBB
232113133142341222134144334444
AAAAABBBBBBBBBBBBBBBBBCCCCCCCC
111111121112222443444422142121
AAAAAAAAAAAAAACCCCCCCCAAAAAAAA
233322213142214114142441324311
BBBBBBBBBBBBBBBBBCCCCCBBBBBBBB
122122212334131142344434244234
AAAAAAAAABBBBBBBBBBCCCCCCCCBBB
213322121442444444412314321122
ABBBAAAAABBCCCCCCCCCCCBBBBBBBA
313314322431112221124434444444
BAABBBBBBCCAAAAAAAAAACCCCCCCCC
342412111444421144444443414444
CCCCAAACCCCCCCCCCCCCCCCCCCCCCC
444444244442444222122231142242
CCCCCCCCCCCCCCCAAAAAAABBBBBBBB
121322214142241234232114312224
AAABBBBBBBBBBBBBBBBBBBBBBAAAAC
112413111222213142122112121123
AAAAAAAAAAAABBBBBBBBAAAAAAAAAB
141212211121144111214441434211
AAAAAAAAAAAAAAAAAAAACCCCCCCAAA
422132212221221411222112113433
BBBBBBAAAAAAAAAAAAAAAAAAAAACCC
213243243311112244414411133221
AABBBBBBBBBBBBBCCCCCCCBBBBBBBA
211321132211211141234444412444
AAAAAAAAAAAAAAAAAAAABCCCCCCCCC
242144142334433222132144224442
CCCCCBBBBBBBBBBBBBBBBBBBBBBCCC
221421142221311322212122242144
AAAAAAABBBBBBBBBAAAAAAAAACCCCC
112422344444424121112112122122
AAAAAACCCCCCCCCCAAAAAAAAAAAACC
113412111221113213133322211444
BBBCAAAAAAAAAABBBBBBBBAAAAACCB
142444441311423111423444434444
BBBCCCCCBBBBBBBBBBBBBCCCCCCCCC
113331222121212132324343111113
ABBBAAAAAAAAAAAABBBBBBBBAAAAAA
213431414444144414242431222113
AAACCCCBCCCCBCCCCCCCBBBBBBBBBB
441434444343344144442422142311
CCCCCCCCCCCCCCCCCCCCCCAAAAAAAA
212212122121121222112211432341
AAAAAAAAAAAAAAAAAAAAAAAACCCCCC
234144444221411131212211121131
AACCCCCCCAAAAAAAAAAAAAAAAAAAAA
112433143423433143132442114233
ABBBBBBBBBBBBBBBBBBBBBBBBBBBBB
214443424441421221241132441414
ABBCCCCCCCCCCCAAAAAAAAACCCAAAA
111442244434344414444434144343
AAACCBCCCCCCCCCCCCCCCCCCCCCCCC
122212132321122222244414443342
AAAAAAAAAAAAAAAAAAACCCCCCCBBBB
121321141422222221221121222333
AAAAAAAAAAAAAAAAAAAAAAAAABBBBB
434244444414434441222222221112
CCCCCCCCCCCCCCCCCCCAAAAAAAAAAA
122121211221431422322211134144
AAAAAAAAAAAABBBBBBBBBBBBABCCCC
444314441242144434441444441212
CCCCCCCCCCBBBCCCCCCCCCCCCCAAAA
212313411212212212211221311123
AAAAAAAAAAAAAAAAAAAAAAAAAABBBB
121212114121341242343411244144
AAAAAAAACBBBBBBBBBBBBBAAACCCCC
144444244214144124332432222223
CCCCCCCCCCCCCCBBBBBBBBAAAAAAAA
212111244444434423111111211141
AAAAAACCCCCCCCCCCCAAAAAAAAAAAA
412211343314432414411111112113
BAAAAABBBBBBBBBBCCBAAAAAAAAABB
114243113212222122221324311124
AACBBBBBBBBBBAAAAAAAAABBBBBBBB
241221211142424314411311444343
AAAAAAAAAAABBBBBBBBBBBBBCCCCCC
212333342111122114442122211214
AAABBBBBAAAAAAAAACCCAAAAAAAAAA
444242122123434444414442444444
CCCCCAAAAAACCCCCCCCCCCCCCCCCCC
414233213424432311323424444242
BBBBBBBBBBBBBBBBBBBBBBBCCCCCCC
241244241124444444442443144414
BCABBBBBBBBBCCCCCCCCCCCCCCCCCC
434444344114212444244244332234
BBBBBBBBBBAAAACCCCCCCCCCCCCCCC
244232122221222141144413443144
BBBBBBAAAAAAAAAACCCCCCCCCCCCCC
144212322212221121121222113441
AAAAAAAAAAAAAAAAAABBAAAAAABBBB
122112221114222312414321322331
AAAAAAAAAAABBBBBBBBBBBBBBBBBBB
113232243342111212113432213244
BBBBBBBBBAAAAAAAAAAAACCAAAACCC
133214343444444444242414441322
BBBCCCCCCCCCCCCCCCCCCCACBBBBBB
244444144112444144444444142424
BBCCCCCCCCCCCCCCCCCCCCCCCCBBBB
211221344444342421444444242444
AAAAAACCCCCCCCCCCCCCCCCCBCCCCC
112224414124243444444412444424
AAAAABBBBBCCCCCCCCCCCCCCCCCCCC
214444211112412344221424414423
AACCCCCAAAABBBBBBBBBBBBBBBBBBB
221112424213444143234144414442
AAAABBBBBBBBBBBBBBBBBBCCCCCCCC
432442244442213221123224344233
BBBBBBCCCCCAAABBBBBBBBBBBBBBBB
421211222131323241231123244344
AAAAAAAAAAAAAABBBBBBBBBCCCCCCC
424212241122212211143221221321
BAAAAAAAAAAAAAAAAAAAAAAAAAAAAA
424131424413113322112412332234
BBBBBBBBBBBBBBBBBBAAABBBBBBBBB
124122444143114112144242242343
BBBBBBBBBBBBCCCAAAACCBBBBBBBBB
112121423314241211222112112442
BBBBBBBBBBBBBBBAAAAAAAAAAAACCA
211124114444444444444442141122
AAAAACCCCCCCCCCCCCCCCCCCCCAAAA
231424412341433114414434444422
BBBCCCBBBBBBBBBBBCCCCCCCCCCCCC
224331332322433132122134211242
BBBBBBCBBBBBBBBBBBBBBBBBBBBBBB
111141133132211322222131222113
AAABBBBBAAAAAAAAAAAAAAAAAAAABB
224323442323241111214313224232
AABBBBBBBBBAAAAAAAAABBBBBBBBBB
212322111224231121141243144422
AAAAAAAAAAABBBAAAABBCCCCCCCCAA
221132124241332343342342322123
AAAAAAAABBBBBBBBBBBBBBBBBBBBBB
134422121122122214134434244344
AACCCAAAAAAAAAAAAAACCCCCCCCCCC
343123441241424244312111444441
BBBBBBBBBBBBBBBBBBBBAAAACCCCCC
211212222421214221242434424431
AAAAAAAAAAAAAAAAAAACCCCCCCCCCC
244414243121111312224344443434
ACCCCCCCCAAAAAAAAAAACCCCCCCCCC
112444444244244443431424224122
CCCCCCCCCCCCCCCCCBBBBBBBBBBBBB
111221214313314221413134242434
BAAAAAAAABBBBCCBBBBBBBBBBBBBBB
213111311434432313411121132112
AAAAAAAAACCCCCBBBBBAAAAAAAAAAA
441244424441413344344331242224
CCCCCCCCCCCCCBBBCCCCCCCCACBBBB
114244443414424144242411222212
AACCCCCCCCCCCCCCCCCCBBAAAAAAAA
414421231121121212111141121212
BBBBAAAAAAAAAAAAAAAAAAAAAAAAAA
212222224433414132141213114214
AAAAAAABBBBBBBBBBBCAAAAAAAAAAC
221232342242312114332212111244
AAABBBBBBBBBBCBBBBBBBBAAAAACCC
324424444143444311411111434442
CCCCCCCCCCCCCCCBBAAAAACBBBBBBB
122341444444444134244443441211
BBBBBBCCCCCCCCCCCCCCCCCCCCCAAA
211132434444444421211121241334
AAAAAACCCCCCCCCCAAAAAAAABBBBBB
321134121241312321112222443444
BBBBBBBBBBBBBBBBAAAAAAAACCCCCC
222242141241314211421333123141
AAAABBBBBBBBBBBBBBBBBBBBBBBBBA
232142213141121232432224233411
AAAAAAAABCCCBBBBBBBBBBABBBBBBB
433212134112111412141221121114
AAAAAAABBBBBBBBBBBBBAAAAAAAAAA
422141314323421212143143221344
BBBBBBBBBBBBBBBBBBBBBBBBBBBBCC
441142333333323134342342441441
BBBBCBBBBBBBBBBBBBBCACCCCCCCCC
211112242144444434141132142241
AAAAAAAAAACCCCCCCCAAAAAAAAAAAA
224111223212112112212211144442
AAAAAAAAAAAAAAAAAAAAAAAAACCCCC
311122211142114211242211343331
AAAAAAAAAABBAAAAAAAAAABBBBBBBA
124113112212143122221342212131
AAAAAAAAAAAAAAAAAAAAACCAAABBBB
122122133221311422142144221221
AAAAAAABBBBBBBBBBBBCCCCCAAAAAA
122241223442113222444443441441
AAABBBBBBBBBBBBAACCCCCCCCCCCAA
143334123244444444142424414421
BBBBBBBBBBCCCCCCCCCCCCCCCCCCCC
112222122222231111214222443144
AAAAAAAAAAAAAAAAAAAAAAAACCCCCC
222241121212111432144444121111
AAAAAAAAAAAAAAAABBBBBBBBAAAAAA
112223121212232243112344144444
AAAAAAAAAAAABBAACCCCCCCCCCCCCC
321311112222221243241424324233
BBBAAAAAAAAAAAABBBBBBBBBBCBBBB
111233124134444443142243443241
AAAAAAAACCCCCCCCCCCCCCCCCCCCCB
212212111112211222231212344341
AAAAAAAAAAAAABBAAAAAAAAACCCCCC
122212212222121444144442221221
AAAAAAAAAAAAAAACCCCCCCAAACBAAA
432444444412144244213444132211
BBBBCCCCCCCCCCCCCCBBBBBBBBAAAA
143342114212211122122321111134
ACBBBAAAAAAAAAAAAAAAAAAAAAAACC
111122211211212111121123244144
AAAAAAAAAAAAAAAAAAAAAABBBBBBBB
122142211323441141424444434244
AAAAAAAABBBBBBBBCCCCCCCCCCCCCC
132342343312343444132111121113
BBBCCBBBBBBBBBBBCCCAAAAAAAAABB
214121141244243444344412444444
AAAAAAAAACCCCCCCCCCCCCCCCCCCCC
132334442441344211121222212243
BBBCBBBBBBBBBCCAAAAAAAAAAAAACB
211432231121411241114422413233
BBCCBBBBBBBBBBBBBBBBCAAAABBBBB
111242444342444241144132332212
AAAACCCCCCCCCCCCCBBCCBBBBBBBBB
134112124443442441441214132441
BBBBBAAACCCCCCCCCCCCABBBBBBBBB
121121321211334212241444444421
AAAAABBBBBAAAAAAAAACCCCCCCCCCA
142422341112211222214421122222
ACCCAABBBBBAAAAAAAABBBAAAAAAAA
411444113241224424144442221112
CCCCCCAAABBBBBBBBCCCCCCCAAAAAA
222241221222221332144212122113
AAAACBBBAAAAAAAAAABBBBBBBBBBBB
212213112343314411144144343423
BBBBBBBBBBBBBBCCCCCCCCCCCCCCCC
122111142221122122234432122222
AAAAAAAAAAAAAAAAAAAACCCAAAAAAA
221122123112122212211221111211
AAAAAAAAAAAAAAAAAAAAAAAAAAAAAA
411144112444134132442421212222
BAAACCAABBBBBBBBBBBBBBBBBBAAAA
211224144444344322411444432242
AAAAAAABCCCCCCCCCACCCCCCCCBBBB
323341444444443444441443244413
BBBBBCCCCCCCCCCCCCCCCCCCCCCCCC
242314342344444334412242411211
ACCBBBBBBBCCCCCBBBBBBBBBBBBBAA
422211211211441132333324443444
AAAAAAAAAAAACCCCCCCBBBBCCCCCCC
241222244444113212312143124424
ACBBBAACCCBBBBBBBBBBBBBBBBBBBB
214442444233411234332244342423
AACCCCCCCBBBBBBBBBBBBBCCCCCCBB
144413444444243444444341411424
BBBBCCCCCCCCCCCCCCCCCCCCCCCCCC
233311422132314333322222134141
BBBBBBBBBBBBBBBBBAAAAAAAABBBBB
212324124424312444444234122432
BBBBBBBBCCCCCCCCCCCCCBBBBBBBBB
122121241142214124342114142232
AAAAAAAAAABBBBBBBBBBBBBBBBBBBB
212211212122121144212221424121
AAAAAAAAAAAAAAAACCAAAAAAAAAAAA
443441121223311112244343444414
BBBBBAAAAAABBBBBBBCCCCCCCCCCCC
121111123212221411424443144444
AAABBBBBBBAAAAABBBBBBBBCCCCCCA
122234444344444444414144443421
AAAACCCCCCCCCCCCCCCCCCCCCBBBBB
111122144444444134134224441411
AAAAAAACCCCCCCCCBBBBBBBCCCCCCC
232221414222212122122222111222
AAAAAACCCAAAAAAAAAAAAAAAAAAAAA
212241212141143412123122142341
AAABBBBBBBBBCCBBAAAAAAAAACCCCC
132431313141132221211212122211
BBBBBBCCCCCAAABBBBAAAAAAAAAAAA
212223442421122131211113121224
AAAAACCCAAAAAAAAAAAAAAAAAAAAAA
231244212221422321413221244442
AAAACCAAAAAAAAACBBBBBBBBBCCCCC
141441444432124444342444423444
ABBBACCCCCCCCCCCCCCCCCCCCCCCCC
222112112114212122242221222143
CCCAAAAAAAAAAAAAAAACAAAAAAAABC
112121312222112111413444411212
AAAAAAAAAAAAAAAAABBBBBBBBBAAAA
221242441114143431314112424413
BBBBCCCCBBBBBBBBBBBBBBBBBBBBBB
311121141434441211221121111222
AAAAAACCCCCCCCAAAAAAAAAAAABBBB
332132334411241432222342411244
BAAAACBBBBBBBBBBBBBBBBBBBAAACC
211214342344222112213222222323
AAAAACCCCCCCCCCCCAAAAAAAAAABBB
311122122111212214211112113112
AAAAAAAAAAAAAAAABBAAAAAAAAAAAA
444432212224211212112213414112
BBBBBBCCAAAAAAAAAAAAAAAAAACAAA
212212214442211434111212214214
AAAAAAAABBBBBBBBBBBAAAAAAAAAAC
113223442242133312112121121221
BAABBBBBBBBBBBBBAAAAAAAAAAAAAA
434443433232313311244314133412
BBBBBBBBBBBBBBBBBBBBBBBBBBBBBB
434141312312432233311212122221
BBBBBBBBAAAABBBBBBBAAAAAAAAAAA
121223111112244212222141341422
BBBBBBBAAAAAAAAAAAAAAAABBBBBBB
212211121341443322421344424444
AAAAAAAAABBBBBBBBBBBCCCCCCCCCC
443444421232111212444442122343
CCCCCCCCAAAAAAAAAACCCCCAAACCCC
144121242112211131313132234422
BBBBBBBBAAAAAAABBBBBBBBBBBBBBB
111212422321144231213211421222
AAAAAAAAAAAAAAAAAAAAAAAAAAAAAA
112124442414422231441411342413
AAAAACCCCCCCCBBBBBBBBBBBBBBCCC
212111442114321413441144443444
AAAAAABBBBBBBBBBBBBBBBBCCCCCCC
211111144444414444244341212421
AAAAAAACCCCCCACCCCCCCCCAAAAAAA
144232121212114222244444444443
BBBBBBBBBBAAAAAAAAACCCCCCCCCCA
243331421114241242242222444444
BBBBBBBAAAAAAAAACCCCBBACCCCCCC
112214344242434432144224112112
AAAACCCCCBCCCCCCCCCCCAACAAAAAA
441441144421222222222443423434
BBBBBAACCCBBAAAABBBBBBBBBBBBBB
212111122144344224441442244423
AAAAAAAAAACCCCBBBBBBBBBAACCCBB
411212212221214442212244234442
AAAAAAAAAAAAAACCCAAABBBCBBBBBB
422411121214444434424241144344
BBBBAAAAAAACCCCCCCCCCBCCCCCCCC
333211231424422423222314243444
BBBBAAAAABBBBBBBBBBBBBBBBBBCCC
121313343442332131432231444444
AAAABBBBBBBBBBBBBBBBBBBBCCCCCC
222421221242221222111332221421
AAAAAAAAAAAAAAAAAAAABBBBBBBBBB
214244244444444144221111113122
ACCCCCCCCCCCCCCCCCCCAAAAAAAAAA
214244433414413344324113344414
BBBBBBCCCCBBBBBBCCCCCCCCCCCCBC
214442443244421214132121222121
AACCCCCCCCCCCCBBBBBBBAAAAAAAAA
444444421221444444412444441441
CCCCCCCCAAAACCCCCCCCCCCCCCCCCB
231412122121121112122444442144
BBBBAAAAAAAAAAAAAAAAAAACCCCCCC
112312121222314331234121121122
AAAAAAAAAAAAAABBBBBBBAAAAAAAAA
111211112112122221112211112134
AAAAAAAAAAAAAAAAAAAAAAAAAAAABB
312431312442241423143434424443
BBBBBBBBBBAAACCCAAABBCCCCCCCCB
112234134414412221224322212234
AAAABBBBBBBBBBBAAAAAAAAAAAAAAA
212444322444234444443214434444
ACCCCCCCCCCCCCCCCCCCCCCCCCCCCB
124122211212111222121211142121
AAAAAAAAAAAAAAAAABAAAAAAAAAAAA
