24222211423331434222
AAAABBBBBBBBBBBBBAAA
12221212122222132121
AAAACAAAAAAAAAAAAAAA
13412111113441443342
BBBBBBBBBBBBBBBBBBBB
12112111112111121122
AAAAAAAAAAAAAAAAAAAA
12111122222221213311
AAAAAAAAAAAAAAAAAAAA
11111221112231241241
AAAAAAAAAAAAAAAAAAAA
44344414443114224141
CCCCCCCCCCBBBBBBCCCC
42221422422111211211
BBBBBBBBBBBBAAAAAAAA
31424422444441321311
AABBBBBBCCCCCCBBBBBB
12324221412444444422
AABBBBBBBBBBCCCCCCAA
32331223141121412212
BBBBBBBBBBAAAAAAAAAA
22121222411223442411
AAAAAAAAAAAAACCCCCAA
42314412224124421222
BBBBBBAAAAAAAACAAAAA
21211124442144144233
AAAAAAACCCBBBBBCABBB
23321113121121242144
BBBAAAAAAAAAAACCCCCC
42441121111444444443
CAAAAAAAACCCCCCCCCCB
31312112321421242242
BBBAAAAACBBBBBBBBBCA
44444432222434234231
CCCCCCBBBBBBBBBBCBAA
21332334433324444414
AAAAACCCCCCCCCCCCCCC
24412222211123434244
ACCAAAAAAAAAACCCCCCC
44243413411123122212
CCCCBBBBBAAAAAAAAAAA
11224134114334144441
AAAACCCCCCCCCCCCCCCC
22211142412211111441
AAAAAAAAAAAAAABBBBCC
21244344442412444431
ACCCCCCCCCCCCCCCCCCC
34444411124321211422
BCCCCCAAAACAAAAAABBA
23321123214424444414
BBBAAAAAAAACCCCCCCCC
21123121222221114442
AAAAAAAAAAAAAAACCCCC
31224311114442443444
AAAABBBBCCCCCCCCCCCC
12224444134444422211
AAAACCCCCCCCCCCAAAAA
21112121214242434444
AAAAAAAAAACCCCCCCCCC
42214333414423221212
BBBBBBBBBBCCBBAAAAAA
11324441214444444233
AAACCCCCBBCCCCCCBACC
42122324232122331112
BBBBBBBBBBBBBBBBBBBB
31211232332444444222
BBBBBBBBBBACCCCCCAAA
12112322422222344444
AAAAAAAAAAAAAACCCCCC
23143242444134342442
AAABBBBBBBBBBBBBBBCC
24244444334442413414
BBBBBCCCCCCCCCCCCCCC
11421111222222344441
BBBBBAAAAAAAAACCCCCC
32122224423124314112
AAAAAAABBBBBBBBBBBBB
23111122342211211222
BBBBBBBBBBBAAAAAAAAA
14433312422244111121
ACCCCCBBBBBBBBBBBBBB
41122121214441444444
BAAAAAAAAACCCCCCCCCC
22111222241444424414
AAAAAAAAACCCCCCCCCCC
44134222444443211224
CCBBAAAACCCCBBBBBBBB
22122144312441341112
AAAACAAAAABCCCCCAAAA
42432134414421221134
CCCCBBCCCCCCAAAAAAAA
21411123412321224111
AABAAAAAAAAAAAABBBBB
22122344244444114312
BBBBCCCCCCCCCCCCCCAA
12111231234143223212
AAAAAAAABBBBBBBBBAAA
22212211322443441444
AAAAAAAAAAACCCCCCCCB
14434424144411211421
CCCCCCCCCCCCAAAAAAAA
13413313431423144444
BBBBBBBBBBBBBBBBBCCC
11343224243314424211
AAABBBBBBCCCCCCCCCCC
12124212424211414123
AAAAAAACCBBBBBBBBBBB
21431132344441434431
AABBABCCCCCCCCCCCCCC
22222121111212223112
AAAAAAAAAAAAAAAAAAAA
11114121132114214312
AAAAAAAAAAAAAAAACCCC
41241442343241121111
BBBBBBBBBBBBCCBBBAAA
33144432121231112223
BBBBBBBBBBBBBBBBBBBB
44444422414444122231
ACCCCCCCCCCCCCAAAAAA
11314423424444124112
BBBBBBBBBBBBBBBBBBBB
12122242212433222333
AAAAAAAAABBBBBBBBBBB
41243214114342444314
BBBBBBBBBBBBCCCCCCCC
21232222312222222221
AAAAAAAAAAAAAAAAAAAA
41244143434342114444
CCCCCACCCCCCCCCCCCCC
44134432421442442144
CCCCCCCCCCCCCCCCBBBB
43234224244223422411
BBBBBBBCCCCCCCCBBBBB
43422244224444414441
BBBBCCCCCCCCCCCCCCCB
22222124144213333141
AAAAAABBBBBBBBBBBBBB
22242444422142411121
AAACCCCCCAAAAABBBBBB
11222432113431211334
BAAAABBBBBBBBBBBBBBC
23433411442413241444
BBBBBBBCCCCCBBACCCCC
33223424343142211224
BBBBBBBBBBBBCAAAAAAA
32134231221213311122
BBBBBBBBBBBBBBBBAAAA
32221444141121114414
BBBACCCCCCAAAAAACCCC
42334444122434244334
CCCCCCCCBBBBBBBBCCBB
44344434212121241122
CCCCCCCAAAAAAAAAAAAA
14334421421432113124
ABBBBBBBCCCCBBBBBBCC
21112221112421434421
AAAAAAAAAAABBBBBCCAA
32334141133323323342
BBBCCCCBBBBBBBBBBBCC
31123122212444144433
AAAAAAAAAAACCCCCCCBB
33434334343442424314
BBBBBBBBBBBBBBBBCCCC
42212111222123123211
AAAAAAAAAAAAAAAAAABB
21122131222112122122
AAAAAAAAAAAAAAAAAAAA
11423334322434324313
AABBBBBBBBBBBBBBBBBB
11322334212222222214
ABBBBBBBBAAAAAAAAAAC
21122212413244211121
AAAAAAABBBBBBBAAAAAA
43243124112344414141
BBBBBCAAAAABBCCCCCCC
32442434232243122433
BBCCCCBBBBBBBBBBBBBB
11221121111121222222
AAAAAAAAAAAAAAAAAAAA
44423441421113311343
CBBBCCCCCBABBBBBBBBB
33324211231121424122
BBBBBBAAAAAAAAAAAAAA
41341214144444444444
CBBBAAAAACCCCCCCCCCC
12244234444444444424
AAACCCCCCCCCCCCCCCCC
32432421121423132132
AAABBBBBBBBBBBBBBBBB
11121134122221114122
AAAAAABBBBBBAAAAAAAA
22232214223112121121
AAAAAAAAAAAAAAAAAAAA
13112142412124413433
AAAAACBBBBBBBBBBBBBB
21211121112212222123
AAAAAAAAAAAAAABBBBBB
42212323224233424124
BBBBBBBBBBBBBBBBBBBB
