41114244442134213112
AAAAAACCCCBBBBBBBBBB
31411221112111211212
BBCAAAAAAAAAAAAAAAAA
12214244244241434414
AAABBBCCCCCCCCCCCCCC
11134113211111114442
AAAABBAAAAAAAAAACCCC
12132211122422444444
AAAAAAAAAAACCCCCCBCC
12142411444242121242
AAACAAAACCCCCCAAAAAA
22412111121424444113
AAAAAAAAAAACCCCCCCCC
42444444114212112222
CCCCCCCCAAAAAAAAAAAA
24434442444434441341
CCCCCCCCCCCCCBCBBBBB
22211214121112231124
AAAAAAAAAAAAAAAAAAAA
21423333122231142212
BBBBBBBBAAAAAAAAAAAA
22441144441141142231
AACCCCCCCAAAAAABBBBB
13144123212114113212
BBBBBAABBAAAAAAAAAAA
21124131134132424142
AAAABBBBBBBBBBBBBBBB
11321434233342434444
BBBBBBBBBBBBBBBBCCCC
14442444444141123212
CCCCCCCCCCCCBCBBBBAA
22212144144424144222
AAAAACCCCCCCCCCCCCBB
31424142213244341121
BBBBBBBAAACCCCCCAAAA
41324121211212242424
BBBAAAAAAAAAAAAAACCC
24411342444344224111
BCCCCCCCCCCCCCBAAAAA
12314422142412234241
BBBAAAAAABAAAAAAAAAA
44444141144444444444
CCBBCACCCCCCCCCCCCCC
21412212222211444111
AAAAAAAAAAAAAACCCAAA
34433211141133142324
BBBBBAAAABBBBBBBBBBB
21441414141322323434
BCCCCBACCCBBBBBBBBBB
12422222322221321211
AAAAAAAAAAAAAAAAAAAA
12113114434242242111
AAAAAAACCBBBBBAAAAAA
22122222441344444341
AAAAAAAABBBBBCCCCCCB
21141444434441234444
AAAAACCCCCCCCCCCCCCC
41344443444142244144
CCCCCCCCCCCCCCCCCCCC
32224222114431444444
BBBCCCAAAACCCCCCCCCC
11111214444143141113
AAAAAAACCCCCCBBBBBBB
22143232212222222122
AAAAAAAAAAAAAAAAAAAA
12221211122111141122
AAAAAAAAAAAAAAAAAAAA
24232414224112121344
BBBBBBBBBAAAAAAAACCC
23111221212214224414
AAAAAAAAAAAAAAAACCBB
14444432444341221312
ACCCCCCCCCCBBBBBBBBB
21311211111344444441
AAAAAAAAAAACCCCCCCCB
11112114343223234444
AAAAAABBBBBAAAAACCBB
12121212232111311143
AAAAAAAAAAAAAAAAAACC
12114141112122422242
AAAAAAAAAAAAABBBBBBB
23124444221311341144
AAAACCCCAAAAAAAAAACC
14443134331322211111
ACCCCAABBBBBAAAAAAAA
32121112232343214434
AAAAAAAAABBBBBBBCCCC
12112223343414423442
AAAAAACCBBBBBBCCCCCC
22312221121111112113
AAAAAAAAAAAAAAAAAAAA
32111122132122122112
AAAAAAAAAAAAAAAAAAAA
13124444431121111212
AAAACCCCCCAAAAAAAAAA
22234441411413112322
AAABBBBBBBBBBBBBBBAA
12121413422123232221
AAAAABCCCAAAABBBBBBB
11114221211442432434
AAAAAAAAAAACCCCCCCCC
24234444412414234144
ACCCCCCCCBBBBBBBBBBB
11212111444143244444
AAAAAAAACCCCCCCCCCCC
11222212212112211231
AAAAAAAAAAAAAAAAAAAA
11121223222222444341
AAAAAAAAAAAAAACCCCCC
33231121112222214444
AAAAAAAAAAAAABCCCCCC
41211221212214344442
AAAAAAAAAAAAAAACCCCA
21212111313212113244
AAAAAAAABBBBBBBBBBBB
21221222121212122221
AAAAAAAAAAAAAAAAAAAA
31121112323324321221
AAAAAABBBBBBBCBBBAAA
44444424444444144442
BBCCCCACCCCCBCCCCCCC
11114144444444114241
AAACCCCCCCCCCCBBBBBB
31414443314121111114
BBBBBBBBBBBBBBBBAAAA
41144321444422422413
CAACCCCCCCCCCCCBBBBB
22332121442333441213
AAAAAABBCBBBBBBBBBBB
31433411211211141121
BBBBBBBBBBBBBBBBBAAA
22122121222113222144
AAAAAAAAAAAAAAAAAACC
11112413211221244442
AAAAAAAAAAAAAAACCCCA
44422421123444444423
CCCAAAAAAACCCCCCCCCC
42112314314324344312
AAAABBBBBBBBBBBBBBBC
12231222242422122221
AAAAAAAAAAAAAAAAAAAA
42122242332122214111
BAAAAAAAAAAAAAAAAAAA
23211121211131334434
AAAAAAAAAAAAAACCCCCC
23121112222231121421
AAAAAAAAAAAAAAAAAAAA
21121111121213313241
AAAAAAAAAAAABBBBBBCC
12231121222141143441
AAAAAAAAAAAAAAACCCCC
22422243112321233213
ABBBBBBBBBBBBBBBBBBB
11241122111111423444
AAAAAAAAAAAAAAAACCCC
23444441323144442414
AACCCCCCBBBBCCCBBBBB
11111123241211212111
AAAAAAAAAAAAAAAAAAAC
24423434331121112112
BBBBBBBBBBAAAAAAABBB
12332244432344321141
AABBBBBBBCCCCCBBBBBA
41321131322332123232
BBBBBBBBBBBBBBBBBBBB
12334222132223421444
AABBBBBBBBBBBBCCCCCC
14442231414214241321
ABBBBBBBBBBBACCCAAAA
11214222411221223242
AAAAAAAAAAAAAAAABBBB
22222141312414231211
AAAAAABBBBBBBBBBAAAA
34324321321112244123
BBBBBBBBBBBBBBCCCAAB
23223122211444324244
AAAAAAAAAAACCCCCCCCC
14141424122312243113
BBBBBBBBBBBBBBBBBBBB
22322443313433141122
ABBBBBBBBBBBBCCCBBBB
11322213122311212131
AAAAAAAAAAAAAAAAAAAA
44323332331441141432
BBBBBBBBBBBBBBBBBBBB
14244121222112121232
BBCCCCAAAAAAAAAABBBB
21241414321142223341
AAACBBBBBBBBBBBBBBBB
14344443424214212124
BBBBCCCCCCCABBBBAACC
11222111321214342324
AAAAAABBBBBBBBBBBBBB
13342124433324112123
BBBBBBBBBBBBBBAAAAAA
23213422124133414442
BBBBBBBBBBBBBBBBCCCA
11141242112144143422
AAAAAAAAAAAACCCCCCCC
22114222122123114223
AAAAAAAAAAAAAAAAAAAB
44441444221212212222
CCCCCCCCAAAAAAAAAAAA
12222244444424244334
AAAAAACCCCCCCCCCCBBB
31342231413314334322
BBBBBBBBBBBBBBBBBBBB
12211111122412211241
AAAAAAAAAAAAAAAAAAAA
31431141444214442444
AABBABCCCCCBBCCCCCCC
33314122221212221122
BBBBBBAAAAAAAAAAAAAA
11114111244424244441
AAAABBBBCCCCCCCCCCCC
21321121242114124244
AABBAAAAAAAAACCCCCCC
12122113344422411231
BBBBBBBCCCCCCCCAAAAA
44444444444134444141
CCCCCCCCCCCCCCCCCBBB
12234131412441112111
BBBBBBBBBBBBBAAAAAAA
44133134124313132213
BBBBBBBBBBBBBBBBBBBB
34421342112444424434
BBBBBBBBACCCCCCCCCCC
12314444244434133332
BBBCCCCCCCCCCCBBBBBB
24322342131441312431
BBBBBBBBBBBBBBBBBBBB
41444342444441243123
CCCCCCCCCCCCCCBBBBBB
21221122112412444434
AAAAAAAAAAABBCCCCCCC
11311111111121122121
AABBAAAAAAAAAAAAAAAA
21111112111222442131
AAAAAAAAAAAAAACCCCAA
43432412144142123243
BBBBBBBBBBBBBBBBBBBB
22212221444244442444
AAAAAAAACCBCCCCCCCCC
21231322213243142221
AAABBBBBBBBBCCCCAAAA
21212212123344114232
AAAAAAAAAABBBBBBBBBA
14232131424221111123
AAAAAABBBBBBBBBBBBBB
23141221114442121242
BAABAAAAAACCCCCCAAAA
21121444423214134334
AAAAACCCCCBBBBBBBBBB
32121212122121214444
AAAAAABAAAAAAAAACCCC
32322434122242444441
BBBBBBBBBBBBCCCCCCCC
22414424423423122424
AACACCCCCCBBBBBBBBBB
11121141222421114131
AAAABBAAAAAAAAAACCCC
44131324443224444444
BBBBBBCCCCCCCCBCCCAA
21111313232332234343
AAAABBBBBBBBBBBBBBBB
24444431331311444224
ABBBBBBBBBBCCCCCCBBB
11212221221343332241
AAAAAAAAAAABBBBBBBBA
24432124121422444341
AACBBBAAAAAAAABBBBBA
42312331221341211443
BBBBBBBBBBBBBCCCCCCC
32212211122212122222
AAAAAAAAAAAAAAAAAAAA
12423241124441144441
AABBBBBBBBBCCCBBBBBB
13122442422241233141
AAAACCCAAAAABBBBBBCC
24244211231112122111
BBBBBBBBBBAAAAAAAAAA
22111332112331212421
AACBBBBBBBBBBAAABBBB
22111111121341231222
AAAAAABBBBBBBBBBAAAA
13444221121334314434
BBCCCAAABBBBBBBBBBBB
11434444444224444444
AACCCCCCCCCCCCCCCCCC
23212231114232212124
BBBBBBAAAAAAAAAAAACC
21132112121111212213
AAAAAAAAAAAAAAAAAAAA
14222211421121222142
AAAAAAAAAAAAAAAAAAAA
12111212112232424422
AAAAAAAAAAAAABBBBAAA
21222411212221214122
AAAAAAAAAAAAAABBBBAA
12112112111324122223
AAAAAAAAAABBBBBBBBBB
32443144424432414344
AABBBBCCCCCCBBBBBBBC
43121424214424244234
BBBBBBBBCCCCCCCCCCCC
13444444334234434142
BBBBCCCCCCCCCCCCCCCC
31212133221211214122
AAAAAAAAAAAAAAAAAAAA
21241232244443424443
AAAABBBBBCCCCCCCCCCC
11212121311212221212
AAAAAAAAAAAAAAAAAAAA
22241413323113111221
ABBBBBBBBBBBBBAAAAAA
44444443444444444443
BCCCCCCCCCCCCCCCCCCB
11111323344131442233
BBBABBBBBBBBBBBBBBBB
12241132422223141421
AAAAAAAAAAAAAAABBBAA
13242331442122323112
BBBBBBBBCCAAAAAAAAAA
11111211224224111121
AAAAAAAABBBBBBBAAAAA
24444431123212222112
CCCCCCCAAAAAAAAAAAAA
32112231142421323234
AAAAAAAAAAAAAABBBBCC
11132121414214442333
AAAAAAABBBBBBCCCCBBB
12434211222221141212
AABBBBBBBAAAAAAAAAAA
23242131122112241134
BBBCAAAAAAAAAACCCCCC
13222121444444434241
AAAAAACCCCCCCCCCCCCC
42344232414413422444
CCCCCCCCCCCCCCCCCCCC
22244433434223221211
AAAABBBBBBBBAAAAAAAA
21113232443421134134
AABBBBBBBBBBBBBCCAAA
12121444444444434344
AAAAACCCCCCCCCCCCCCC
11123423443422112134
BBBBBBBBBCBBBBBABBBB
24214223331141342124
BBBBBBBBBBBBBBBBBBBB
11121132122412144344
AAAAAABBBBBBBBBCCCCC
22121122411343412311
AAAAAAAAAAABBBBBBBBA
34334233221222334433
BBBBBBBBBBBBBBBBBBBB
11212133414341441221
AAAAAAAACCCCCCCCAAAA
21231131221111122112
AAAAAAAAAAAAAAAAAAAA
44313312311213321223
BBBBBBBBBBABBBBBBBBB
22114114444334413444
BBBBBBCCCCBCCCCCCCCC
32311434222142343412
BBBBBCCCAABBBBBBBBBB
24414212221111112212
AACCCAAAAAAAAAAAAAAA
14443312121133113114
ACCCCCAAAAABBBBBBBBB
24431223211132442121
BBBBBBBAAAABBBBBAAAA
31234313243311434234
BBBBBBBBBBBBBBBCCBBB
11123214434444242423
AAAAAAACCCCCCCCCCCCC
33124423333334131112
BBBBBBBABBBBBBBBAAAA
32341441312444323211
BBBBBBBBBBBBBBBBBBBB
32241444442411231124
BBBCCCCCCAAAAAAAABBB
11244444444211211142
AAACCCCCCCCAAAAAABBB
24423144444444414133
BBBBBBCCCCCCCCCCCCCC
11412221112222221121
AAAAAAAAAAAAAAAAAAAA
11111122212211232111
AAAAAAAAAAAAAAAAAAAA
24221114444414444442
AAAAAACCCCCCCCCCCCCC
14331132412443323213
BBBBABBBBBBBBBBBBBBB
22222211244344331441
AAAAAAAAACCCCCBBBBBB
11243111222212112442
AAABBBBBBBAAAAAAAACA
41222211221241224212
AAAAAAAAAAAABBBBBBBB
