43212111212224432444
BBAAAAAAAAAAACCCCCCC
24112222211144444444
AAAAAAAAAAABCCCCCCCC
11223444414221224414
AAAACCCCCCCCCCCCCCCC
23214144244421444444
BCCCCCCCCCCCCCCCCCCC
22212111222222222241
AAAAAAAAAAAAAAAAABBC
24412312213222234432
ACCBBBBBBBBABBBBBBBB
21114134312122212313
BBBBCCBBBBAAAAAAAAAA
32112221414444444444
AAAAAAAACCCCCCCCCCCC
21231221113342432233
CCAAAAAAAAABBBBBBBBB
22121114244442122444
AAAAAAACCCCCCCCCCCCC
12411112222142232322
BBAAAAAAAAAAAAAAAAAA
21342414123221244144
AABBBBBBBBAABBBCCCCC
21412222221242212224
BCBAAAAAAABBBAAAAACC
21111232132422112231
AAAAAABBBBBBAAAAAAAA
21324324431314222241
BBBBBBBBBBBBBBBBBBAA
43321324132122224224
BBBBBBBBBBBBAAAAAAAC
11243411344432444212
AAABBCCCCCCCCCCCCAAA
22422122334443334212
BBBBBBBBBBBBBBBBBAAA
12421344331414444444
AAAAAACBBBBCCCCCCCCC
14423243211222111244
BBBBBBBBBBBBBBBAAACC
12323234231244243233
BBBBBBBBBBBBBBBBBBBB
11211214444444421144
AAAAAAACCCCCCCCBBCCC
21241111211121211112
AAAAAAAAAAAAAAAAAAAA
44224432421211111211
CCCCCCCCCBBBAAAAAAAA
12211223234342241443
AAAAAAAAAACCCCCCCCCC
22142142222331242232
BBBBBBBBAAAAAAAAAAAA
11112112122411322211
AAAAAAAAAAABBBBBBBBA
44443444444444444141
BCCCCCCCCCCCCCCCCCCC
22224432342443424444
AAAACCCCCCCCCCCCCCCC
41214444224414444444
BBBACCCCCCCCCCCCCCCC
32244441212221232112
CCCCCCCAAAAAAAAAAAAA
22111121112313223444
AAAAAAAAAABBBBBBCCCC
23112141444441142314
AAAABCCCCCCCCCCCCBBB
44311423243443124214
BBBBCCBBBBBBCCBBBBBB
21212421322121212444
AAAAAAAAAAAAAAAAACCC
44243344122421212122
BBBBBBCCCCCCBBBBBBBB
22214333443413443323
AAAACCCCCCCCBBBBBBBB
34143331121324423112
BBBBBBBBBBBBBBBCBBBB
21424344421144444142
AACCCCCCCCCCCCCCCCCA
41341333313112111322
BBBBBBBBBBBBAAABBBAA
23212112212232414124
AAAAAAAAAAAAAAAAAAAA
11112231121212414231
AAAAAAAAAAAAAAAABBBB
31421112311121133343
BAAAAAAAAAAAAAAABCCA
21111321122114442443
ABBAAAAAAAAAAACCCCCC
22223244444114222222
AAAAAACCCCCCCCAAAAAA
12122121121412122222
AAAAAAAAAAAAAAAAAAAA
11443344441442331332
CCCCCCCCCCCCCCBBBBBB
23321444424444414444
BBBBBCCCCCCCCCCCCCCC
12222112134212212122
AAAAAAAAAAAAAAAAAAAA
13222221123134144141
AAAAAAAAAABBCCCCBBCA
21112221112242444444
AAAAAAAAAAAACCCCCCCC
42333432234412212112
BBBBBBBBBBCAAAABAAAA
41223143241432311412
BBBBBBBBBBBBBBBABBAA
11211222121431122444
AAAAAAAAAAAAAAAAACCC
12344344111433412443
BBBACCCCCBBBBBBBBCCA
12211111211444214143
AAAAAAAAAAACCCCCCCCC
43421122212213223131
CCCAAAAAAABBBBBBBBBB
21324422111232244441
AAAACCAAAAAACCCCCCCC
22211212221414114243
AAAAAAAAAAAAAAAACCCB
14142123222334422143
BBBCCBBBBBBBBBBBBBBA
21212211221231122123
AAAAAAAAAAAAAAAAAAAA
43222443224144312111
ABBBBBBBBBBBCCCAAAAA
14444324441222212144
BBBCCCCCCCAAAAAAAACC
31331324232132311433
BBBBBBBBBBBBBBBBBBBB
24424332222214111212
BBBBBBBCAAAAAAAAAAAA
11424234444433442324
BABBBBBCCCCCCCCCCCCC
23212432341222122212
BBBBBBBBBBAAAAAAAAAA
12122234441143414314
AAABBBBBBBBBBBBBBBBB
11121211211121131111
AAAAAAAAAAAAAAAAAAAA
22444444444423414444
BACCCCCCCCCCCCCCCCCC
11422222121331333332
AAAAAAAAAABBBBBBBBBB
11212231341221223332
AAAABBBBBBAAAAABBBBB
33323433144441444441
BBBBCCCCCCCCCCCCCCCA
12114433444441444144
BAAACCCCCCCCCCCCCCCC
43343234131211444142
BBBBBBBBBBBBBBBBBBCA
22131322411132342332
AAAAAAAAAAAABBBBBBBB
34443112413124332244
BBBBAAAAAABBBBBBAACC
11244111211111111222
AAACCAAAAAAAAAAAAAAA
22442422342331412241
BBBBBBBBBBBBBBBBBBBB
14413124421314223314
BBBBBBBBBBBBBBBBBBBB
11121124344244311211
AAAAAACCCCCCCBAAAAAA
11113323221343224222
BBBBBBBBBBBBBBBBBAAA
22113431212313412221
BBBBBBBBBBBBBBBBBBAA
12444144421423444441
AACCCCCCCCCCCCCCCCCA
21222224222124441122
AAAAAAAAAAAACCCCAAAA
11444224444412123332
BCCCCCCCCCCCAAAAAAAA
42442443423424444414
CCCCCCCCCCCCCCCCCCCB
14124111211221244444
BBBAAAAAAAAAAABCCCCC
13241424311411231112
BBBBBBBBBBBBBBBBAAAA
44241124444443444244
BCCCCCCCCCCCCCCCCCCC
12222231121434312311
AAAAABBBBBBBBCCAAAAA
22121111422134343121
BBBBBBBBBBBBBBBBBBAB
11344421121221241212
BBBCCCCAAAAAAAAAAAAA
21312221122124333134
AAAAAAAAAAAABBBBBBBB
14424142111231211212
BCCCCCCAAAAAAAAAAAAA
43111444214444424444
BBBBBBCCCCCCCCCCCCBB
13443331444422414444
BBBBAACCCCCCCCCCCCCC
12312344341444144112
AAAAACCCCCCCCCCCCAAA
41212221214444412121
AAAAAAAACCCCCCCAAAAA
11211211112132221424
AAAAAAAAAAAAAAAAACCC
44244442241121211111
CCCCCCCAAAAAAAAAAAAA
11121213223211214221
AAAAAAAAAAAAAAAAAAAA
41311421113212112242
AAAAAAAAAAAAAAAAAACC
12424344444224411313
BBBBBBCCCCCCCCCBBBBB
11124341224344312211
AAABBBBCBBBBBBBBBBBB
12331231423314421244
ABBBBBBBBBBBCCCAABCC
12224122111211232141
AAAAAAAAAAAAAAAAAACC
11432421443442423413
AACCCCCCCBBBBBBBBCCC
22123424324134231411
BBBBBBBBBBBBBBABBBBB
21221221122222142222
AAAAAAAAAAAAAAAAAAAA
21221232111111132232
AAAAAABAAAAAAAAAAACC
22211312112122441443
AAAAAAAAABBBBBBBBBBB
11112412121312221142
BAAAAAAAAAAAAAAACCAA
23134424444334111224
ABBBCCCCCCCCCCAAAAAC
21212411111421231434
AAAAAAAAAAAAAAAAACCC
41432123323413234313
CCCCAAABBBBBBBBBBBBB
22241114211244434444
AAABBBBBBBBBCCCCCCCC
22444444412124433313
AACCCCCCCBBBBBBBBBBB
24111211121111121222
AAAAAAAAAAAAAAAAAAAB
13241444434244442212
AAAAACCCCCCCCCCCCAAA
22121222241344444444
AAAABBBBBBBBCCCCCCCC
24243342332214234244
CCCCCCBBBBBBACCCCCCC
11232321134442211112
AAAAAAAAACBBBAAAAAAA
11231223241113234344
AAAAABBBBBBBBBBBBBBB
22113244444444441443
AAAAACCCCCCCCCCCCCCC
12234423442312211212
AAAACCCCCCAAAAAAAAAA
22241122431422121221
AAAAAAABBBBBBAAAAAAA
12121212123132111222
AAAAAAAAAAAAAAAAAAAA
14344123424442421122
BCCCCCBBBACCBBBBBBBB
13224444414212222121
BBBCCCCCCCCCAAAAAAAA
21112432113222131114
AAAAABBBBBBBBBBBBBBB
12111114222211134243
AAAAABBAAAAAAAAACCCC
44414124221121322111
CCCCCCCBBBBAAAAAAAAA
32144342141113121111
BBBBBBBBABBBBBAAAAAA
24434124434444232112
BCCCCCCCCCCCCCAAAAAA
12222222414421141434
AAAAAAAAAACCAAABBBBB
22123212231412222111
AAAAAAAAAAAAAAAAAAAA
32142211112133122122
BBBBBAABBBBBBBAAAAAA
21221141314112222222
AAABBBBBBBBAAAAAAAAA
22222221121122212221
AAAAAAAAAAAAAAAAAAAA
22442222141222112421
AAAAAAAAAAAAAAAAABBB
31133233134324442244
BBBBBBBBBBBBBBBBBBCC
34114122331132223431
BBBBBAAABBBBBBBBBBBB
21112422222212422444
AAAAAAAAAAAAAACAABBB
12122212413343342343
AAAAAABBBBBBBBBBBBBB
24142222431113343143
BBBBBBBBBBBBBBBCCCCC
14424444112112112211
BCCCCCCCAAAAAAAAAAAA
22121321133241243433
AAABBBBBBBBBBBBBBCBB
24212244432323134212
BBBBBBBBBBBBBBBBBAAA
21242124121144144432
AAAAAAAAAAAACCCCCCCA
34313143411111241243
BBBBBBBBBAAAAAABBBBB
12224134243434421314
AAAACCCBBBBBBBBBBBBB
31414444111421221343
BBBBBBCCAAAAAAAABBBB
23242223111244142334
BBBBAABBBBBBCCCCCCCA
34431222124111121114
BBBBBAAAAAAAAAAAAAAC
22122111242124414444
AAAAAAAAAAACCCCCCCCC
31332311233332132243
BBBBBBBBBBBBBBBBBBBB
31241431122221421413
BBBBAAAAAAAAAAAAABBB
44443113131111222222
CCCCCAABAAAAAAAAAAAA
13242331332111341442
BBBBBBBBBBBBBBBBBBBB
12131211111112211222
AAAAAAAAAAAAAAAAAAAA
11232313331244412112
AAABBBBBBBBBBBAABAAA
21434444444412343433
BBCCCCCCCCCCCCCCCCCC
11444442222221331243
ABCCCCCCCAAAAABBBBBB
21312123414221423444
BBBBBBBBBBBAACCCCCCC
23441243231122111112
BBBBBBBBBBAAAAAAAAAA
44444444442423434414
CCCCCCCCCCCCCCCCCCCC
14213424442314441444
BBBBBBBBBBCCCCCCCCCC
32144431214422121142
BBCCCCCCCCCCCAAAAAAA
12211343224421331433
AAAAAABBBBBBBBBBBBBB
21411222334442422441
AAAAAAAABBBBBBBCCCCC
13234444444444414213
BBCCCCCCCCCCCCCAAAAA
14213432324211112412
ABBBBBBBBBBBBBBBBBBA
12122141122134444434
AAAAAAAAAAAACCCCCCCC
34444244444144444444
BCCCCCCCCCCCCCCCCCCC
11142221122121232211
AAAAAAAAAAAAAAAAAAAA
43342441233443113423
BBBBBBBBBBBBBBBBBBBB
42332311134213214344
BBBBBBBBBBBBBBAACCCC
22112234434344134423
AAAAAACCCCCBBCBBBBBB
24212411344244111221
BBBBCCCCCBBBBCAAAAAA
14243431444424221424
BCCCACCCCCCCCCCBBCCC
44141143414414231424
CCCCCCCCCCCCCCCCCCCC
24441124113433112212
BBBBBBBBBBBBBBBBBBBC
43444321121112211122
CCCCCCCAAAAAAAAAAAAA
14424132443422131313
CCCCCAAACBBBCBBBBBBB
12111122224441444434
AAAAAAAABACCCCCCCCCC
11144144234331312442
AAACCCCCCCCBBBBCCCCC
44442441244444423343
CCCCBBCCCCCCCCCBBBBB
41242444444441242313
CCCCCCCCCCCBBBBBBBBB
43121222232431322222
AAAAAAAAAAACCCCCAAAA
31232444121414424444
BBBBBCCCCCCCCCCCCCCC
44442431442424144244
CCCCCCCCCCCCCCCCCCCC
22212221211212131212
AAAAAAAAAAAAAAAAAAAA
33111222321314424444
BAAAAAAAAAABBBCCCCCC
42221221111221222212
BBAAAAAAAAAAAAAAAAAA
13212412244444241444
AAAABBBBBCCCCCCCACCC
11123121311221214314
AAAAAAAAAAAAAAAABBBB
14442232341233241343
ACCCBBBBBBBBBBBBBBBB
12423242121222144422
ACCCCAAAAAAAAAAAABBA
23222121234312442111
AAAAAAACCBBBBBBBBBBB
