	Correctness:	0.5776
	Correctness:	0.5934
	Correctness:	0.5884
	Correctness:	0.5836
	Correctness:	0.5844
	Correctness:	0.5848
	Correctness:	0.5840
	Correctness:	0.5810
	Correctness:	0.5906
	Correctness:	0.5876
	Correctness:	0.6024
	Correctness:	0.5684
	Correctness:	0.5826
	Correctness:	0.5880
	Correctness:	0.5838
	Correctness:	0.5748
	Correctness:	0.5856
	Correctness:	0.6082
	Correctness:	0.5898
	Correctness:	0.5838
	Correctness:	0.6056
	Correctness:	0.5922
	Correctness:	0.5954
	Correctness:	0.5974
	Correctness:	0.6006
	Correctness:	0.5932
	Correctness:	0.5900
	Correctness:	0.5866
	Correctness:	0.5912
	Correctness:	0.6056
	Correctness:	0.5638
	Correctness:	0.5898
	Correctness:	0.5934
	Correctness:	0.6070
	Correctness:	0.5848
	Correctness:	0.6072
	Correctness:	0.6202
	Correctness:	0.5752
	Correctness:	0.5970
	Correctness:	0.5944
	Correctness:	0.5944
	Correctness:	0.5944
	Correctness:	0.5882
	Correctness:	0.6008
	Correctness:	0.5626
	Correctness:	0.6076
	Correctness:	0.5828
	Correctness:	0.5990
	Correctness:	0.5768
	Correctness:	0.5946
Average:	0.5903
	Correctness:	0.9128
	Correctness:	0.9164
	Correctness:	0.9188
	Correctness:	0.9092
	Correctness:	0.9096
	Correctness:	0.9194
	Correctness:	0.9162
	Correctness:	0.9220
	Correctness:	0.9072
	Correctness:	0.9050
	Correctness:	0.9014
	Correctness:	0.9014
	Correctness:	0.9208
	Correctness:	0.9154
	Correctness:	0.9120
	Correctness:	0.9044
	Correctness:	0.9038
	Correctness:	0.9192
	Correctness:	0.9164
	Correctness:	0.9178
	Correctness:	0.9026
	Correctness:	0.9060
	Correctness:	0.9040
	Correctness:	0.9166
	Correctness:	0.9218
	Correctness:	0.9056
	Correctness:	0.9082
	Correctness:	0.9120
	Correctness:	0.9086
	Correctness:	0.9106
	Correctness:	0.9060
	Correctness:	0.9160
	Correctness:	0.9150
	Correctness:	0.8994
	Correctness:	0.9178
	Correctness:	0.9142
	Correctness:	0.9150
	Correctness:	0.9068
	Correctness:	0.9214
	Correctness:	0.9168
	Correctness:	0.9176
	Correctness:	0.9156
	Correctness:	0.9012
	Correctness:	0.9186
	Correctness:	0.9160
	Correctness:	0.9138
	Correctness:	0.9098
	Correctness:	0.9160
	Correctness:	0.9110
	Correctness:	0.9174
Average:	0.9122
	Correctness:	0.4166
	Correctness:	0.4478
	Correctness:	0.4258
	Correctness:	0.4248
	Correctness:	0.4292
	Correctness:	0.4426
	Correctness:	0.4398
	Correctness:	0.4266
	Correctness:	0.4392
	Correctness:	0.4230
	Correctness:	0.4486
	Correctness:	0.4024
	Correctness:	0.4254
	Correctness:	0.4268
	Correctness:	0.4208
	Correctness:	0.4172
	Correctness:	0.4204
	Correctness:	0.4484
	Correctness:	0.4312
	Correctness:	0.4348
	Correctness:	0.4666
	Correctness:	0.4394
	Correctness:	0.4376
	Correctness:	0.4440
	Correctness:	0.4792
	Correctness:	0.4356
	Correctness:	0.4322
	Correctness:	0.4270
	Correctness:	0.4380
	Correctness:	0.4400
	Correctness:	0.3804
	Correctness:	0.4294
	Correctness:	0.4382
	Correctness:	0.4576
	Correctness:	0.4194
	Correctness:	0.4512
	Correctness:	0.4784
	Correctness:	0.4232
	Correctness:	0.4254
	Correctness:	0.4416
	Correctness:	0.4332
	Correctness:	0.4338
	Correctness:	0.4448
	Correctness:	0.4412
	Correctness:	0.3976
	Correctness:	0.4512
	Correctness:	0.4270
	Correctness:	0.4454
	Correctness:	0.4378
	Correctness:	0.4554
Average:	0.4349
	Correctness:	0.1010
	Correctness:	0.0930
	Correctness:	0.0924
	Correctness:	0.0992
	Correctness:	0.0978
	Correctness:	0.0904
	Correctness:	0.0926
	Correctness:	0.0872
	Correctness:	0.0978
	Correctness:	0.1060
	Correctness:	0.1094
	Correctness:	0.1088
	Correctness:	0.0884
	Correctness:	0.0964
	Correctness:	0.0962
	Correctness:	0.1004
	Correctness:	0.1068
	Correctness:	0.0906
	Correctness:	0.0894
	Correctness:	0.0916
	Correctness:	0.1044
	Correctness:	0.1048
	Correctness:	0.0980
	Correctness:	0.0924
	Correctness:	0.0872
	Correctness:	0.1016
	Correctness:	0.1022
	Correctness:	0.1006
	Correctness:	0.1018
	Correctness:	0.0950
	Correctness:	0.1040
	Correctness:	0.0940
	Correctness:	0.0958
	Correctness:	0.1056
	Correctness:	0.0914
	Correctness:	0.0936
	Correctness:	0.0916
	Correctness:	0.1032
	Correctness:	0.0900
	Correctness:	0.0942
	Correctness:	0.0936
	Correctness:	0.0922
	Correctness:	0.1078
	Correctness:	0.0896
	Correctness:	0.0920
	Correctness:	0.0940
	Correctness:	0.0964
	Correctness:	0.0904
	Correctness:	0.0926
	Correctness:	0.0972
Average:	0.0967
	Correctness:	0.0870
	Correctness:	0.0834
	Correctness:	0.0808
	Correctness:	0.0904
	Correctness:	0.0898
	Correctness:	0.0800
	Correctness:	0.0820
	Correctness:	0.0764
	Correctness:	0.0946
	Correctness:	0.0940
	Correctness:	0.0994
	Correctness:	0.0978
	Correctness:	0.0786
	Correctness:	0.0840
	Correctness:	0.0862
	Correctness:	0.0960
	Correctness:	0.0936
	Correctness:	0.0790
	Correctness:	0.0798
	Correctness:	0.0818
	Correctness:	0.0984
	Correctness:	0.0916
	Correctness:	0.0922
	Correctness:	0.0824
	Correctness:	0.0768
	Correctness:	0.0936
	Correctness:	0.0906
	Correctness:	0.0878
	Correctness:	0.0906
	Correctness:	0.0858
	Correctness:	0.0944
	Correctness:	0.0856
	Correctness:	0.0830
	Correctness:	0.1006
	Correctness:	0.0796
	Correctness:	0.0856
	Correctness:	0.0848
	Correctness:	0.0932
	Correctness:	0.0788
	Correctness:	0.0830
	Correctness:	0.0834
	Correctness:	0.0846
	Correctness:	0.0970
	Correctness:	0.0786
	Correctness:	0.0792
	Correctness:	0.0856
	Correctness:	0.0898
	Correctness:	0.0820
	Correctness:	0.0858
	Correctness:	0.0828
Average:	0.0868
	Correctness:	0.0870
	Correctness:	0.0834
	Correctness:	0.0842
	Correctness:	0.0910
	Correctness:	0.0916
	Correctness:	0.0808
	Correctness:	0.0836
	Correctness:	0.0780
	Correctness:	0.0930
	Correctness:	0.0942
	Correctness:	0.0988
	Correctness:	0.0980
	Correctness:	0.0786
	Correctness:	0.0848
	Correctness:	0.0874
	Correctness:	0.0972
	Correctness:	0.0966
	Correctness:	0.0824
	Correctness:	0.0822
	Correctness:	0.0824
	Correctness:	0.0976
	Correctness:	0.0936
	Correctness:	0.0938
	Correctness:	0.0836
	Correctness:	0.0784
	Correctness:	0.0944
	Correctness:	0.0918
	Correctness:	0.0910
	Correctness:	0.0896
	Correctness:	0.0858
	Correctness:	0.0932
	Correctness:	0.0866
	Correctness:	0.0852
	Correctness:	0.1012
	Correctness:	0.0820
	Correctness:	0.0860
	Correctness:	0.0862
	Correctness:	0.0932
	Correctness:	0.0788
	Correctness:	0.0830
	Correctness:	0.0822
	Correctness:	0.0842
	Correctness:	0.0994
	Correctness:	0.0800
	Correctness:	0.0820
	Correctness:	0.0864
	Correctness:	0.0904
	Correctness:	0.0858
	Correctness:	0.0872
	Correctness:	0.0828
Average:	0.0878
	Correctness:	0.4750
	Correctness:	0.4772
	Correctness:	0.4724
	Correctness:	0.4800
	Correctness:	0.4768
	Correctness:	0.4716
	Correctness:	0.4790
	Correctness:	0.4740
	Correctness:	0.4726
	Correctness:	0.4806
	Correctness:	0.4776
	Correctness:	0.4758
	Correctness:	0.4730
	Correctness:	0.4780
	Correctness:	0.4756
	Correctness:	0.4806
	Correctness:	0.4810
	Correctness:	0.4782
	Correctness:	0.4756
	Correctness:	0.4744
	Correctness:	0.4788
	Correctness:	0.4776
	Correctness:	0.4792
	Correctness:	0.4758
	Correctness:	0.4788
	Correctness:	0.4784
	Correctness:	0.4728
	Correctness:	0.4708
	Correctness:	0.4782
	Correctness:	0.4786
	Correctness:	0.4686
	Correctness:	0.4730
	Correctness:	0.4740
	Correctness:	0.4748
	Correctness:	0.4772
	Correctness:	0.4822
	Correctness:	0.4780
	Correctness:	0.4788
	Correctness:	0.4738
	Correctness:	0.4816
	Correctness:	0.4780
	Correctness:	0.4744
	Correctness:	0.4766
	Correctness:	0.4778
	Correctness:	0.4718
	Correctness:	0.4768
	Correctness:	0.4750
	Correctness:	0.4784
	Correctness:	0.4716
	Correctness:	0.4756
Average:	0.4763
	Correctness:	0.3172
	Correctness:	0.3472
	Correctness:	0.3274
	Correctness:	0.3226
	Correctness:	0.3308
	Correctness:	0.3374
	Correctness:	0.3282
	Correctness:	0.3268
	Correctness:	0.3372
	Correctness:	0.3280
	Correctness:	0.3568
	Correctness:	0.2978
	Correctness:	0.3256
	Correctness:	0.3278
	Correctness:	0.3294
	Correctness:	0.3098
	Correctness:	0.3296
	Correctness:	0.3594
	Correctness:	0.3324
	Correctness:	0.3348
	Correctness:	0.3754
	Correctness:	0.3408
	Correctness:	0.3442
	Correctness:	0.3562
	Correctness:	0.3774
	Correctness:	0.3358
	Correctness:	0.3396
	Correctness:	0.3272
	Correctness:	0.3430
	Correctness:	0.3502
	Correctness:	0.2730
	Correctness:	0.3346
	Correctness:	0.3422
	Correctness:	0.3680
	Correctness:	0.3212
	Correctness:	0.3648
	Correctness:	0.3944
	Correctness:	0.3174
	Correctness:	0.3326
	Correctness:	0.3378
	Correctness:	0.3368
	Correctness:	0.3382
	Correctness:	0.3504
	Correctness:	0.3438
	Correctness:	0.2816
	Correctness:	0.3652
	Correctness:	0.3270
	Correctness:	0.3460
	Correctness:	0.3316
	Correctness:	0.3588
Average:	0.3372
	Correctness:	0.9128
	Correctness:	0.9164
	Correctness:	0.9186
	Correctness:	0.9092
	Correctness:	0.9096
	Correctness:	0.9194
	Correctness:	0.9162
	Correctness:	0.9220
	Correctness:	0.9072
	Correctness:	0.9050
	Correctness:	0.9014
	Correctness:	0.9014
	Correctness:	0.9208
	Correctness:	0.9154
	Correctness:	0.9120
	Correctness:	0.9022
	Correctness:	0.9038
	Correctness:	0.9192
	Correctness:	0.9178
	Correctness:	0.9178
	Correctness:	0.9026
	Correctness:	0.9080
	Correctness:	0.9058
	Correctness:	0.9166
	Correctness:	0.9218
	Correctness:	0.9056
	Correctness:	0.9082
	Correctness:	0.9120
	Correctness:	0.9092
	Correctness:	0.9116
	Correctness:	0.9070
	Correctness:	0.9146
	Correctness:	0.9150
	Correctness:	0.8994
	Correctness:	0.9178
	Correctness:	0.9142
	Correctness:	0.9150
	Correctness:	0.9068
	Correctness:	0.9214
	Correctness:	0.9168
	Correctness:	0.9176
	Correctness:	0.9156
	Correctness:	0.9012
	Correctness:	0.9204
	Correctness:	0.9174
	Correctness:	0.9138
	Correctness:	0.9098
	Correctness:	0.9160
	Correctness:	0.9130
	Correctness:	0.9174
Average:	0.9124
	Correctness:	0.5114
	Correctness:	0.5052
	Correctness:	0.5068
	Correctness:	0.5056
	Correctness:	0.5044
	Correctness:	0.5082
	Correctness:	0.5070
	Correctness:	0.5050
	Correctness:	0.5078
	Correctness:	0.5062
	Correctness:	0.5088
	Correctness:	0.5104
	Correctness:	0.5082
	Correctness:	0.5094
	Correctness:	0.5064
	Correctness:	0.5066
	Correctness:	0.5074
	Correctness:	0.5076
	Correctness:	0.5064
	Correctness:	0.5050
	Correctness:	0.5016
	Correctness:	0.5100
	Correctness:	0.5070
	Correctness:	0.5086
	Correctness:	0.5116
	Correctness:	0.5084
	Correctness:	0.5046
	Correctness:	0.5084
	Correctness:	0.5062
	Correctness:	0.5024
	Correctness:	0.5088
	Correctness:	0.5024
	Correctness:	0.5074
	Correctness:	0.5076
	Correctness:	0.5060
	Correctness:	0.5072
	Correctness:	0.5040
	Correctness:	0.5076
	Correctness:	0.5062
	Correctness:	0.5068
	Correctness:	0.5086
	Correctness:	0.5044
	Correctness:	0.5092
	Correctness:	0.5098
	Correctness:	0.5080
	Correctness:	0.5052
	Correctness:	0.5078
	Correctness:	0.5048
	Correctness:	0.5102
	Correctness:	0.5040
Average:	0.5070
