55421526411644626351351154411535266324316644311432
FFFFFFFFFFFFFFFFFFFFFFFFFFFFFFFFFFFFFFFFFFFFFFFFFF
66254134215513632214452656662666664534133144525263
FFFFFFFFFFFFFFFFFFFFFFFFFFLLLLLLLLLFFFFFFFFFFFFFFF
24663456325565512361362666245142226666666166652451
FFFFFFFFFFFFFFFFFFFFFFFFFFFFFFFFFFFLLLLLLLLLLLFFFF
32364434566631361164666655146442222163635453335221
FFFFFFFFFFLLLFFFFFFLLLLLFFFFFFFFFFFFFFFFFFFFFFFFFF
15312666154443322222212112116456345566666666666566
FFFFFFLLFFFFFFFFFFFFFFFFFFFFFFFFFFFFLLLLLLLLLLLLLL
55553514125533321563153321626663663336522221414553
FFFFFFFFFFFFFFFFFFFFFFFFFFLLLLLLLLFFFFFFFFFFFFFFFF
53254532466666166255416552535465431614635436414424
FFFFFFFFLLLLLLLLLFFFFFFFFFFFFFFFFFFFFFFFFFFFFFFFFF
44225644143353226116666466656132615115654615621146
FFFFFFFFFFFFFFFFFFFLLLLLLLLFFFFFFFFFFFFFFFFFFFFFFF
66666666663621516461453161646646526536466666166666
LLLLLLLLLLFLLFFFFFFFFFFFFFLLLLLLFFFFFFFLLLLLLLLLLL
63612463326616636534464541664266666666666161266662
FFFFFFFFFLLLLLLLLLFFFFFFFFLFFFFLLLLLLLLLLLLLFLLLLL
23364245666666634426666366666324526161531516266664
FFFFFFFFLLLLLLLLFFFLLLLLLLLLFFFFFFFFFFFFFFFLLLLLLL
61261251126566452666666616663636613636556526532146
LFFFFFFFFFFFFFFFFLLLLLLLLLLLLLLLLLLLLLLFFFFLLLFFFF
16546435524663232466425563152531145131221421631252
FFFFFFFFFFFFFFFFFFFFFFFFFFFFFFFFFFFFFFFFFFFFFFFFLL
15166666261666221136453144223551544645624316533416
FFFLLLLLLLLLLFFFFFFFFFFFFFFFFFFFFFFFFFFFFFFFFFFFFF
65232213211226246324411232664262521666566666566266
LFFFFFFFFFFFFFFFFFFFFFFFFFLFFFFFFFFFFFFLLLLLLLLLLL
55636145153651245161264254221255512666166656666666
FFFFFFFFFFFFFFFFFFFFFFFFFFFFFFFFFFFFLLLLLLLLLLLLLL
54543154363634465455423451166666616666666431532633
FFFFFFFFFFFFFFFFFFFFFFFFFFFLLLLLLLLLLLLLFFFFFFFFFF
11464464456156255214536645156666666666566666661326
FFFFFFFFFFFFFFFFFFFFFFFFFFFFLLLLLLLLLLLLLLLLLLFFFL
54562545265115552153455464666662541654232456651654
FFFFFFFFFFFFFFFFFFFFFFFFLLLLLLLFFFFFFFFFFFFFLFFFFF
55265112566666161362661121361531443463116114225666
FFFFFFFFLLLLLLFFFLLFFFFFFFFFFFFFFFFFFFFFFFFFFFLLLL
56316252536431246144523433216353666666666666663335
FFFFFFFFFFFFFFFFFFFFFFFFFFFLLLLLLLLLLLLLLLLLLLFFFF
43153115252141524361663666314426316664666636242541
FFFFFFFFFFFFFFFFFFFFLLLLLFFFFFFFFFLLLLLLLLFFFFFFFF
66666646666666666666665636626666666636626366666666
LLLLLLLLLLLLLLLLLLLLLLLLLLLLLLLLLLLLLLLLLLLLLLLLLL
51363643566666666666622626366131211363654566454663
FFFFFFFFFLLLLLLLLLLLLLLLLFFLLFFFFFFFFFFFFFLLLLLLLF
66666666643645315632641666663351426336651255131131
LLLLLLLLLFFFFFFFFFFFLLLLLLLLLFFFFFFFFFFFFFFFFFFFFL
23162466433523354625536666666166666566666436316563
FFFFFFFFFFFFFFFFFFFFFFLLLLLLLLLLLLLLLLLLLFFFFFFFFF
34511566612446466142666166615152253236446653356311
FFFFFFLLLFFFFFFFFFFFFFLLLLLLFFFFFFFFFFFFLLFFFFFFFF
55612461324463233443136363216626314665666566636634
FFFFFFFFFFFFFFFFFFFFFFFFFFFLLLLLLLLLLLLLLLLLLLLLFF
42514636115366113634645645213524566266363626541242
FFFFFFFFFFFFFFFFFFFFFFFFFFFFFFFFFLLLLLFFFFFFFFFFFF
26312564241662452661453664556526522414134364354265
FFFFFFFFFFFFFFFFFFFFFLLLLFFFFFFFFFFFFFFFFFFFFFFFFF
43144454335653556566536666664666634154446436421555
FFFFFFFFFFFFFFFFLLLLLLLLLLLLFFLLLFFFFFFFFFFFFFFFFF
51611364451465666666366166666666626666666245152536
FFFFFFFFFFFFFFLLLLLLLLLLLLLLLLLLLLLLLLLLLFFFFFFFFL
12513511155366665162446333262645166566666646622623
FFFFFFFFFFFLLLLLFFFFFFFFFFFFFFFFFLLLLLLLLLLLLLLLFF
21666666666666364666666623666666666636166666565664
FFLLLLLLLLLLLLLLLLLLLLLLLLLLLLLLLLLLLLLLLLLLFLLLLF
66243166136426566631261566413153214553346665326566
LLLFFFFFFFFFFLLLLFFFFFFFFFFFFFFFFFFFFFFFLLLLLLLLLL
11212412426654643666366662645231444421354245365636
FFFFFFFFFFFFFFFFFLLLLLLLLFFFFFFFFFFFFFFFFFFFFLLLLL
64662266666646251613346225624566315566666664666666
LLLLLLLLLLLLLFFFFFFFFFFFFFFFFFFFFFFFLLLLLLLLLLLLLL
61361314413636242366563216524121666466666664446623
FFFLFFFFFFFFFLLLFFLLLLFFFFFFFFFFLLLLLLLLLLLLLLLLFF
24462265326256366226613415142653336666612355462422
FFFFFFFFFFFFFFFFFFFFFFFFFFFFFFFFFLLLLLLLFFFFFFFFFF
16666561315232651341655116166666611452661666666663
LLLLLLLLFFFFFFFFFFFFFFFFFLLLLLLLFFFFFFLLLLLLLLLLLL
26551512216245662666666654246666642531346442145644
FFFFFFFFFFFFFFFFFLLLLLLLFFFFLLLLFFFFFFFFFFFFFFFFFF
12246366624632163343146251564212622231244243516566
FFFFFFFFFFFFFFFFFFFFFFFFFFFFFFFFFFFFFFFFFFFFFLLLLF
64652666654366244254444666531214512666326665661231
LFFFFLLLFFFFLLLFFFFFFFFFFFFFFFFFFFLLLLLLLLLLLLFFFF
24461132144665646666642435666665111364222624336641
FFFFFFFFFFFLLLLLLLLLLFFFFFFFFLLFFFFFFFFFFFFFFFFFFF
36611246244652362556663335533622564451533426666443
FFFFFFFFFFFFFFFFFFFFLFFFFFFFFFFFFFFFFFFFFFFFFFFFFF
66666314244422164525216521335544654356242643136441
LLLLLFFFFFFFFFFFFFFFFFFFFFFFFFFFFFFFFFFFFFFFFFFFFF
36666412215346666666615362265466636526651432524666
LLLLLFFFFFFFFLLLLLLLLFFFFFFFFFFFFFLLLLLFFFFFFFFLLL
66651466313314665541211462144424356562343361112326
LLLFFFFFFFFFFFFFFFFFFFFFFFFFFFFFFFFFFFFFFFFFFFFLLL
56324135622435455365424234146346235431666666462266
FFFFFFFFFFFFFFFFFFFFFFFFFFFFFFFFFFFFFFFFLLLLLLLLLL
36255566666623656666666355613316611166636666666616
FFFFLFLLLLLLLLLLLLLLLLFFFFFFFFFLFFFLLLLLLLLLLLLLFF
44544666626466666666263124254554344524442155252665
FFFFFFLLLLLLLLLLLLLLFFFFFFFFFFFFFFFFFFFFFFFFFFFLLL
36666322634554146241131455566666663616666631661562
LLLLLFFFFFFFFFFFFFFFFFFFFFFLLLLLLLLLLLLLLLLLLFFFFF
32523423465114646553366662266646166564264423434666
FFFFFFFFFFFFFFFFFFFFFLLLLLLLLLFFFLLFFFFFFFFFFFFLLL
42236363463414661162336166466666566666666616662616
FFFFFFFFFFFFFFFFFFFFFFLLLLLLLLLLLLLLLLLLLLLLLLLLFF
32545315326363332546166636666663154635455564651243
FFFFFFFFFFFFFFFFFFFFFLLLFLLLLLLFFFFFFFFFFFFFFFFFFF
51126262545666666646365666666666666666665441313623
FFFFFFFFFFLLLLLLLLLLLLLLLLLLLLLLLLLLLLLLFFFFFFFFFF
64656631361534412115132126553664666646663666666616
LLLLLLFFFFFFFFFFFFFFFFFFFFFFFLLLLLLLLLLLLLLLLLLLLL
31425566656666666664452131412255224512325213551612
FFFFFFLLLLLLLLLLLLLLFFFFFFFFFFFFFFFFFFFFFFFFFFFFFF
13361221433161366222253553455554122115342336545153
FFFFFFFFFFFFFFFFLLLFFFFFFFFFFFFFFFFFFFFFFFFFFFFFFF
66646166666336555211462155666232512256666666311362
LLLLLLLLLFFFFFFFFFFFFFFFFLLLLFFFFFFLLLLLLLLFFFFFFF
65232111655533335146666661666666666266356111614322
FFFFFFFFFFFFLFFFFFFLLLLLLLLLLLLLLLLLLLFFFFFFFFFLLF
55241464562323136561624526166666625614355151526254
FFFFFFFFFFFFFFFFFFFFFFFFFLLLLLLLLLLLFFFFFFFFFFFFFF
41344451421641263326253132213511653334223514234652
FFFFFFFFFFFFFFFFFFFFFFFFFFFFFFFFFFFFFFFFFFFFFFLLFF
36522123314131451363243362225254145354365123636445
FFFFFFFFFFFFFFFFFFFFFFFFFFFFFFFFFFFFFFFFFFFFFFFFFF
66661666666664666636633556662266666166666466241266
LLLLLLLLLLLLLLLLLLLLLLLLLLLLLLLLLLLLLLLFFFFFFFFFLL
46166666641666651666666662652616666333426134331435
FFFLLLLLLLLLLLLFFLLLLLLLLLLFFFFLLLLFFFFFFFFFFFFFFF
66646664656666666233366664151636216125151461661261
LLLLLLLLLLLLLLLFFFFFFFFFFFFFFLFFFFFFFFFFFFFFFFFFFF
64556441513415311362631443633661323463666666366666
FFFFFFFFFFFFFFFFFFFFFFFFFFFFFFFFFFFFFFLLLLLLLLLLLL
66615615366551666454666666666656666263453426351226
LLLLLLLLLLLFFFFFFFFFLLLLLLLLLLLLLLLLLFFFFFFFFFFFFF
16666665666654555245652312451666251435616362665656
LLLLLLLLLLLLLLFFFFFFFFFFFFFFFLLLFFFFFFFFFFFFLLLLLL
56125511636253262255136122335216432656662666566666
FFFFFFFFLLLFFFFFFFFFFFFFFFFFFFFFFFFFFFFLLLLLLLLLLL
14146466656664314563131456261443666644236321245464
FFFFLLLLLLLLLFFFFFFFFFFFFFFFFFFFFFLLLFFFFFFFFFFFFF
44124364656413162462463666624532635455356635352436
FFFFFFLFFFFFFFFFFFFFFFFFLLLFFFFFFFFFFFFFFFFFFFFFFF
35565321313566243166636321245222612331236266536535
FFFFFFFFFFFFFFFFFFFFFFFFFFFFFFFFFFFFFFFFLLLLFFFFFF
62646666664651446411656666466666666366666612663424
FFFFLLLLLLLLFFFFFFFFFFLLLLLLLLLLLLLLLLLLLLLFFFFFFF
26666661452665525416614314534614642112166636665131
FLLLLLLLLFFFFFFFFFFFLFFFFFFFFFFFFFFFFFFLLLLLLLFFFF
44232563261251542214556644656225315665311616513235
FFFFFFFFFFFFFFFFFFFFFFFFFFFFFFFFFFFFFFFFFFFFFFFFFF
16325351641653366666615356324551136666666141551366
FFFFFFFFFFFFFFFLLLLLLFFFFFFFFFFFFFLLLLLLLFFFFFFFLL
51316432264666664642646266665515513556451646432152
FFFFFFFFFFLLLLLLFFFFFFLLLLLLFFFFFFFFFFFFFFFFFFFFFF
66636651666666416343662215513352564256566666666111
LLLLLLLLLLLLLLFFFFFFFFFFFFFFFFFFFFFFFFFLLLLLLLLLLL
53515421445213612316346366116666265264266522333245
LFFFFFFFFFFFFFFFFFFFFFFFFFFFLLLLLLLFFFFFFFFFFFFFFF
54532641544164466312115156346511326665165532425114
FFFFFFFFFFFFFFFFFFFFFFFFFFFFFFFFFFLLLFFFFFFFFFFFFF
36666666666256664626566663651433556666666666666666
LLLLLLLLLLLFFLLLLLLLLLLLLFFFFFFLLLLLLLLLLLLLLLLLLL
21554226662666412346661115236136665414165426342353
FFFFFFLLLLLLLLFFFFFLLLFFFFFFFFLLLLFFFFFFFFFFFFFFFF
66666531132662351622421321616266513634653565132652
LLLLLLFFFFFFFFFFFFFFFFFFFFLFFFFFFFFFFFFFFFFFFFFFFF
44433631651264644215464364316211213623462261441421
FFFFFFFFFFFFFFFFFFFFFFFFFFFFFFFFFFFFFFFFFFFFFFFFFF
41451261641166255213635662566666666466616531566644
FFFFFFFFFFFFFFFFFFFFFFFLLLLLLLLLLLLFLLLLLFFFFFFFFF
35456433366663526535166636534422351634256646255433
FFFFFFFFFLLLLFFFFFFFFLLLLLFFFFFFFFFFFFFFFFFFFFFFFF
34122556632314556241321356666516645222164561331466
FFFFFFFFFFFFFFFFFFFFFFFFLLLLLLLLLLFFFFFFFFFFFFFFFF
36244333261615243666666666166666666666641366661662
FFFFFFFFFFFFFFFFFFLLLLLLLLLLLLLLLLLLLLLFFFLLLLLLLL
66266666636466564423531466243532211333441444515233
LLLLLLLLLLLLLFFFFFFFFFFFFFFFFFFFFFFFFFFFFFFFFFFFFF
66666431126366666666243414522464115255242666666611
LLLLLFFFFFLLLLLLLLLLFFFFFFFFFFFFFFFFFFFFLLLLLLLLFF
63116261446252366533166666666666666666163535413533
FFFFFFFFFFFFFFFLLLLFFLLLLLLLLLLLLLLLLLFFFFFFFFFFFF
36424446664612126131451131661632444353616622621666
FFFFFFFFFFFFFFFFFFFFFFFFFFFFFFFFFFFFFLLLLLFFFFFFLL
61665662625115166631632226166242412613315632656666
LLLLLLLFFFFFFFFLLLFFFFFFFFFLLFFFFFFFFFFFFFFFFFFFLL
13611646144165514261536666263635526656124624651321
FFFFFFFFFFFFFFFFFFFFFFLLLLLLFFFFFFLLLLLFFFFFFFFFFF
66121334323143334116554465221113666665664662233324
LLFFFFFFFFFFFFFFFFFFFFFFFFFFFFFFLLLLLLLLLLLFFFFFFF
51141666666666612324216322156355421264221541153514
FFFFFLLLLLLLLLLLFFFFFFFFFFFFFFFFFFFFFFFFFFFFFFFFLL
63135512311264251166662566666326633666661644124162
FFFFFFFFFFFFFFFFLLLLLLLLLLLLLLLLLLLLLLLLLLFFFFFFLF
63126335363253463516545265456234433415355514461426
FFFFFFFFFFFFFFFFFFFFFFFFFFFFFFFFFFFFFFFFFFFFFFFFFF
63166666634666666665553166666665314612316566655216
LLLLLLLLLLLLLLLLLLLFFFFFLLLLLLLFFFFFFFFFFLLLLFFFFF
56136156221624614452641614634346116455136423442156
FFFLLFFFFFFFFFFFFFFFFFFFFFFFFFFFFFFFFFFFFFFFFFFFFF
66366535114353156264125162256123625416261555452123
LLLLLFFFFFFFFFFFFFFFFFFFFFFFFFFFFFFFFFFFFFFFFFFFFF
41546116543526666656666665166666616666162216662354
FFFFFFFFFFFFFLLLLLLLLLLLLLLLLLLLLLLLLLLLFFFLLLFFFF
66664666666644324543343336666666661632423266616651
FLLLLLLLLLLFFFFFFFFFFFFFFLLLLLLLLLFFFFFFFFLLLLLLLL
51614556662664666666666662616666644666625666666666
FFFFFLLLLLLLLLLLLLLLLLLLLLLLLLLLLLLLLLLLLLLLLLLLLL
24346121635236451454114125245135253356415551143221
FFFFFFFFFFFFFFFFFFFFFFFFFFFFFFFFFFFFFFFFFFFFFFFFFF
66466661541666366662666666666666666666466621626631
LLLLLLLFFFFLLLLLLLLLLLLLLLLLLLLLLLLLLLLLLLLLFFFFFF
45361524666624245661666656166322136565366626266666
FFFFFFFFLLLLLLLFFFFLLLLLLLLLFFFFFFFFFFFLLLLLLLLLFL
44253642322231626661626224421161532266666666665662
FFFFFFFFFFFFFFFFLLLLLLFFFFFFFFFFFFFFLLLLLLLLLLLLLL
15611665534411513612545164615544231553532255263621
FFFFFFFFFFFFFFFFFFFFFFFFFFFFFFFFFFFFFFFFFFFFFFFFFF
66342262514414144514611215121255146314662244426413
LLFFFFFFFFFFFFFFFFFFFFFFFFFFFFFFFFFFFFFFFFFFFFFFFF
65163152362366646431355661543444414344215363614443
LFFFFFFFFFFFFFFFFFFFFFFFFFFFFFFFFFFFFFFFFFFFFFFFFF
16566666666623163125466646666656245425536162333466
LLLLLLLLLLFFFFFFFFFFLLLLLLLLLLLLLFFFFFFFFFFFFFFFLL
64162635266666666662121653163433252462451356361544
FFFFFFFFLLLLLLLLLLLLFFFFFFFFFFFFFFFFLLLLLFFFFFFFFF
31666553266666136455666666666666121465351536242154
LLLLLFFLLLLLLLFFFFFFLLLLLLLLLLLLFFFFFFFFFFFFFFFFFF
34522311136625465656661642625346666666666666646466
FFFFFFFFLLLLLLLLLLLLLLLLFFFFFFFFLLLLLLLLLLLLLLLLLL
16566666656666636636336116653264463663166625445466
LLLLLLLLLLLLLLLFLLLLLLLFFFFFFFFFFFFFFFFFLLFFFFFFFL
16433321566664666666136133366666665661212426166666
FFFFFFFFFLLLLLLLLLLLFFFFFFLLLLLLLLLLLLFFFFFFLLLLLF
44144666362361431565265115142153146464541341666624
FFFFFLLLFFFFFFFFFFFFFFFFFFFFFFFFFFFFFFFFFFFFLLLFFF
21422555436536663614666666666661322224221436333111
FFFFFFFFFFFFFLLLLLLLLLLLLLLLLLLFFFFFFFFFFFFFFFFFFF
44124111466163641564366113542443665113514561533516
FFFFFFFFFFFFFFFFFFFFFLLFFFFFFFFFFFFFFFFFFFFFFFFFFF
22146265435552266664666565666666566666525426666666
FFFFFFFFLLLFFFLLLLLLLLLLLLLLLLLLLLLLLLFFFFFLLLLLLL
36332262113552665662153553324246615665524126366616
FFFFFFFFFFFFFFLLLLLFFFFFFFFFFFFFFFFFFFFFFFFFFLLLLL
54355115546533564614346116132516556434166636643345
FFFFFFFFFFFFFFFFFFFFFFFFFFFFFFFFFFFFFFLLLLFFFFFFFF
31152562463233362656364662663566661554423361425565
FFFFFFFFFFFFFFFFFFFLLLLLLLLLFFLLLLFFFFFLFFFFFFFFFF
22353454344661633111645356161345636621155244611666
FFFFFFFFFFLLLFFFFFFFFFFFFFFFFFFFLLLLFFFFFFFFFFFFFF
21212666666666666664236666345661666666466166121351
FFFFLLLLLLLLLLLLLLLLLLLLLLFFFFFFLLLLLLLLLLLLLFFFFF
16643343345466523252116444335436146361665466246164
LLLFFFFFFFFFFFFFFFFFFFFFFFFFFFFFFFFFLLLLFFLLLLLLLL
63341666652655344136253666666664553522156212556621
FFFFFLLLFFFFFFFFFFFFFFFLLLLLLLLLFFFFFFFFFFFFFFFFFF
25635523566665665522444424361666664664126122346164
FFFFFFFFFLLLLLLLLFFFFFFFFFFLLLLLLFFFFFFFFFFFFFFFFF
66636666651666123466646662162551542635261136425612
LLLLLLLLLLLLLLFFFFFLLLLLLLFFFFFFFFFFFFFFFFFFFFFFFF
64344566524665513236114432522361423136225353135624
FFFFFFFFFFFLLFFFFFFFFFFFFFFFFFFFFFFFFFFFFFFFFFFFFF
66446544222245413236542242543331666666266666612614
LLLLLFFFFFFFFFFFFFFFFFFFFFFFFFFFLLLLLLLLLLLLLFFFFF
24666415335366664342161663164423645535322314515141
FFFLLLFFFFFFLLLLFFFFFFFFFFFFFFFFFFFFFFFFFFFFFFFFFF
26666666666625333114666666666625242614355666666666
FLLLLLLLLLLLFFFFFFLLLLLLLLLLLLFFFFFFFFFFFFLLLLLLLL
63645616443455133314132211666266513152612663521566
LLLFFFFFFFFFFFFFFFFFFFFFFLLLLLLLFFFFFFFFFFFFFFFFFF
63164631222236252621655466666666643533234411335652
LFFFFFFFFFFFFFFFFFFFFFFFLLLLLLLLFFFFFFFFFFFFFFLLFF
43261425366656666666666626666662566666636165255342
FFFFFFFFFLLLLLLLLLLLLLLLLLLLLLLLLLLLLLLFFFLFFFFFFF
26362664523254666666166656666642556364331322644112
FFFLLLLLFFFFLLLLLLLLLLLLLLLLLFFFFFFFFFFFFFFFFFFFFF
63343454666566666666641332522465626232616365661646
FFFFFFFFLLLLLLLLLLLLLFFFFFFFFFFFFFFFFFFFLLLLLLLLLL
43566466666166666463444423625536213353425566663151
FFFFFLLLLLLLLLLLLLLFFFFFFFFFFFFFFFFFFFFFFFFLLLLFFF
55312444145366153624411113514546325666365636666216
FFFFFFFFFFFFFFFFFFFFFFFFFFFFFFFFFFFFLLLLLLLLLLLFFL
66466656161666242615235523566233626366366666363244
LLLLLLLLLLLLLFFFFFFFFFFFFFFFFFFFLLLLLLLLLLLLFFFFFF
66656466241212314236426634531434446616662663666563
LLFFFFLLLFFFFFFFFFFFFFFFFFFFFFFFFFLLLLLLLLLLLLLLLF
31243541424123446445266665565153613611342622243166
FFFFFFFFFFFFFFFFFFFFFLLLLFFFFFFFFFFFFFFFFFFFFFFFLL
44566325662626666622363636662352466352661211445351
FLLLLFFFFLLLLLLLLLFFFFFFFLLLLFFFFFFFFFLLFFFFFFFFFF
66356653615665236141146366166626666266666666663624
LLLLLLLLLLLLLFFFFFFFFFFFLLLLLLLLLLLLLLLLLLLLLLLLFF
43232123241412661551141265333626621666666312363215
FFFFFFFFFFFFFFFFFFFFFFFFFFFFFFFFFFFFLLLLLLFFFFFFFF
53653215666266666616666646666666653131156213142213
FFFFFFFFLLLLLLLLLLLLLLLLLLLLLLLLLFFFFFFFFFFFFLFFFF
21315226264332334542441551153615466646555241511145
FFFFFFFFFFFFFFFFFFFFFFFFFFFFFFFFFLLLFFFFFFFFFFFFFF
66663666562641232446666666532366656666665666565666
LLLLLLLLLLFFFFFFFFFLLLLLLFFFFFLLLLLLLLLLLLLLLLLLLL
55263313313216232216416263442626432461413424535564
FFFFFFFFFFFFFFFFFFFFFFFFFFFFFFFFFFFFFFFFFFFFFFFFFF
66266613336666643643665442666646662661664222416466
LLFFFFFFFFLLLFFFFFFFFFFFFFLLLLLLLLLLLLLFFFFFFFFFLL
66666666666636631255264642526665666662665456666646
LLLLLLLLLLLLLLLLFFFFFFFFFFFFFLLLLLLLLLLLFFFFLLLLLL
66661665146652164656666116623126665525654452346646
LLLLLLLFFFFFFFLLLLFLLLLLLLLFFFFFFLLFFFLFFFFFFFLLLL
65665656666666312452624231554116432423425334524316
FFLLLLLLLLLLLLFFFFFFLFFFFFFFFFFFFFFFFFFFFFFFFFFFFF
66666663424216165636666666166666666253264623366664
LLLLLLLFFFFFFFFFFLFLLLLLLLLLLLLLLLLFFFFFFFFFFLLLLL
63243552214112523146153536666663666666546126346113
FFFFFFFFFFFFFFFFFFFFFFFFFLLLLLLLLLLLLLLFFFFFFFFFFF
61356614666562614536224622252411664566666661264431
LFFFLLLLLLLLLFFFFFFFFFFFFFFFFFFFFFFFLLLLLLLFFFFFFF
65541335451222666666662154422311135443654365252124
FFFFFFFFFFFFFFFLLLLLLLLFFFFFFFFFFFFFFFLFFFFFFFFFFF
14156516646666666536465113316562656263622362361423
FFLLLLLLLLLLLLLLFFFFFFFFFFFFFFLLFFFFFFFFFFFFFFFFFF
16456256666663664666666612664361651254246532531235
FFFFFFFLLLLLLLLLLLLLLLLLLLLLFFFFFFFFFFFFFFFFFFFFFF
15534346661666666666266662666666642623662664266666
FFFFFFFLLLLLLLLLLLLLLLLLLLLLLLLLLFFFFFFLLLLLLLLLLL
15441315453633361144241155511122213664666656634313
FFFFFFFFFFFFFFFFFFFFFFFFFFFFFFFFFFFLLLLLLLLLLFFFFF
23465266626666651363232232466646666666666666566646
FFFFFFLLLLLLLLLFFFFFFFFFFFFLLLLLLLLLLLLLLLLLLLLLLL
66366666322555266666366665366666115111644665152421
LLLLLLLLFFFFFFFFLLLLLLLLLLLLLLLLLFFFFFFFFFFFFFFFFF
52133625261426326666663343613125666435463243545564
FFFFFFFFFFFFFLLLLLLLLLFFFFFFFFFFLLLFFFFFFFFFFFFFFF
66451323416263665326622623644152122121234365664645
FFFFFFFFFFLLLLLLFLLLLFFFFFFFFFFFFFFFFFFFFFFFFFFFFF
32653343222656664512665225566666663233643232112465
FFFFFFFFFFFFFLLLFFFFFFFFFFLLLLLLLFFFFFFFFFFFFFFFFF
55616666663256666266463126612145114615454624265266
LLLLLLLLLLFLLLLLLLLLLLLFFFFFFFFFFFFFFFFFFFFFFFFFFF
56163461123144311424141134666616534164254311223561
FFFFFFFFFFFFFFFFFFFFFFFFFFLLLLFFFFFFFFFFFFFFFFFFLL
42251625262262235643314463514444135523552345366311
FFFFFFFFFFFFFFFFFFFFFFFFFFFFFFFFFFFFFFFFFFFFFFFFFF
15623151151312643333366661456654333451364556344231
FFFFFFFFFFFFFFFFFFFLLLLLFFFFFFFFFFFFFFFFFFFFFFFFFF
16663666361166666655454564556542425621553611641135
LLLLLLLLLLFLLLLLLLFFFFFFFFFFFFFFFFFFFFFFFFFFFFFFFF
64566666666344231363431543416643536424646666323535
LLLLLLLLLLLFFFFFFFFFFFFFFFFFFFFFFFLFFFLLLLLLLFFFFF
25551653535444335543616661666626616666666666666666
FFFFFFFFFFFFFFFFFFFFLLLLLLLLLLLLLLLLLLLLLLLLLLLLLL
21315663531246144444625236246616666466564316461666
FFFFFFFFFFFFFFFFFFFFFFFFFFFFLLLLLLLLLLLLFFFFFFFLLL
12151513125231642226666636666566666666666666666654
FFFFFFFFFFFFFFFFFFFLLLLLLLLLLLLLLLLLLLLLLLLLLLLLLL
63251324242633666666666666666266656662455531363222
FFFFFFFFFFFLLLLLLLLLLLLLLLLLLLLLLLLLLFFFFFFFFFFFFF
31241141141446462235224152232156542521453314614135
FFFFFFFFFFFFFFFFFFFFFFFFFFFFFFFFFFFFFFFFFFFFFFFFFF
51121416666616664666236666666621225355616353451641
FFFFFFFLLLLLLLLLLLLLLLLLLLLLLLFFFFFFFFFFFFFFFFFFFF
42544441421542524435222546666536636566414314115114
FFFFFFFFFFFFFFFFFFFFFFFFFFFFFFLLLLLLLLFFFFFFFFFFFF
43364666441443616236645555341564565426515326422215
FFFFFLLLFFFFFFFFFFFFFFFFFFFFFFFFFFFFFFFFFFFFFFFFFF
36566656666366666666664663136666616464664666664666
FFFLLLLLLLLLLLLLLLLLLLLLLFFFLLLLLLLLLLLLLLLLLLLLLL
16566662526665631215436121322532532654321643535146
LLLLLLLLLLLLLFFFFFFFFFFFFFFFFFFFFFFFFFFFFFFFFFFFFF
21633246664666666664666666666644626255444261323525
FFFFFFFLLLFLLLLLLLLLLLLLLLLLLLFFLLFFFFFFFFFFFFFFFF
36666366666666632161516666466663615636122335454314
LLLLLLLLLLLLLLLFFFFFFFLLLLLLLLLLFFFFFFFFFFFFFFFFFF
43123266516265525515111525666416666365225422343253
FFFFFFFLLFFFFFFFFFFFFFFFFFFFFFFFLLFFLFFFFFFFFFFFFF
42442154244446645646254346144231351665134643631565
FFFFFFFFFFFFFFFFFFFFFFFFFFFFFFFFFFFFFFFFFFFFFFFFFF
66644566666252421422433262223161521216666666666516
LLLLLLLFFFFFFFFFFFFFFFFFFFFFFFFFFFFFFLLLLLLLLLLLFF
16341445652344251531116441512564561625213466216224
FFLFFFFFFFFFFFFFFFFFFFFFFFFFFFFFFFFFFFFFFFLLFFFFFF
44232436421345544615626666235216141246666566262666
FFFFFFFFFFFFFFFFFFFFFLLLLLFFFFFFFFFFFFFLLLLLLLLLLL
41112216353633224223645525554316631466661566556266
FFFFFFFFFFFFFFFFFFFFFFFFFFFFFFFFFFFLLLLLFFFFLLLLLL
56152532116544616463636641666566544166666661666216
LLFFFFFFFFFFFFFFFFFFLLLLLLLLLLLLFFFFLLLLLLLLLLLLLL
33352433362543634354236455466666366634521266663663
FFFFFFFFFFFFFFFFFFFFFFFFFFFLLLLLLLLLFFFFFFLLLLLLLF
22265562132464343466666666666464126666666145125155
FFFFFFFFFFFFFFFFFLLLLLLLLLLLLLLLLLLLLLLLLFFFFFFFFF
66366123314624424146514636563546544135442516636356
LLLLLLFFFFFFFFFFFFFFFFFFFFFFFFFFFFFFFFFFFFFFFFFFFF
66663134266511465642666666633226234324663524662654
LLLFFFFFFLLFFLLLLLLLLLLLLLLFFFFFFFFFFFFFFFFFFFFFFF
66666613366666666666666646666666166666446523254642
LLLLLLLLLLLLLLLLLLLLLLLLLLLLLLLLLLLLLLFFFFFFFFFFFF
53156142323443665316526461246425141245666461121615
FFFFFFFFFFFFFFFFFFFFFFFFFFFFFFFFFFFFFFFFFFLFFFFFFF
63432665166626515516126664666666666666622666666666
FFFFFFLLLLLLLLFFFFFFLLLLLLLLLLLLLLLLLLLLLLLLLLLLLL
26533546351666524665666666666261262621611324353643
FFFFFFFFFFFFLLLLLLLLLLLLLLLLLFFFFFFFFFFFFFFFFFFFFF
55221456546332215422366266464666566353124564624145
FFFFFFFFFFFFFFFFFFFFFLLLLLLLLLLLLLLFFFFFFFFFFFFFFL
55611666566626416415252165666266666666666516646266
FFFFFLLLLLLLLLFFFFFFFFFFLLLLLLLLLLLLLLLLLLLLLFFLLL
44532533422116466535662652464634231112663351424141
FFFFFFFFFFFFFFFFFFFFFFFFFFFFFFFFFFFFFFFFFFFFFFFFFL
43616426116253362651542666646662213536352425354442
FFFFFFFFFFLFFFFFFFFFFFFLLLLLLLLFFFFFFLFFFFFFFFFFFF
63115263524566226612235623144236666661524312431562
FFFFFFFFFFFFFFFFFFFFFFFFFFFFFFFFLLLLLLLFFFFFFFFFFF
35262466666566666263456666666253324666666666626666
FFFFFFFLLLLLLLLLFFFFFLLLLLLLLFFFFFFLLLLLLLLLLLLLLL
23242161666666654454514522226661666666663646666435
FFFFFFLLLLLLLLLFFFFFFFFFFFFFFFLLLLLLLLLLFLLLLLFFFF
66646553624146356464345366666661266626235612662316
LLLLLFFFFFFFFFFFFFFFFFFFLLLLLLLLLLLFFFFFFFFFFFFFFF
34635335514134542621636662654311432342666661665646
FFFFFFFFFFFFFLFFFLFFLLLLLLLLFFFFFFFFFFLLLLLLLLLLLL
34156666332436653435353246442236256666665633626666
FFFFFLLLFFFFFFFFFFFFFFFFFFFFFFFFFFLLLLLLLLLLLLLLLF
26236666435144266652566636636624265656435625524665
FFFFLLLLFFFFFFFLLLLLLLLLLLLLLFFFFFFFFFFFFFFFFFFFFF
22562544134264453663464556446536366112611251525354
FFFLFFFFFFFFFFFFFFFFFFFFFFFFFFFLLLLLFFFFFFFFFFFFFF
52134214135314434461221643666666666666663463366666
FFFFFFFFFFFFFFFFFFFFFFFFFFLLLLLLLLLLLLLFFFFFFFLLLL
53626525626666664656661514415533142156142543524343
FFFFFFFFLLLLLLLLLLLLLLLLFFFFFFFFFFFFFFFFFFFFFFFFFF
12613534251634334552663566653655462366211525344221
FFFFFFFFFFFFFFFFFFFFFFFFLLLFFFFFFFFFFFFFFFFFFFFFFF
56234212126663666166663636666661612363155166466666
FFFFFFFFFFFLLLLLLLLLLLLLLLLLLLLLLFFFFFFFFFLLLLLLLL
56434264465216616666246666616666261666314146361455
FFFFFFFFFFFFFFFFLLLLFFLLLLLLLLLLLLLLLLFFFFFFFFFFFF
65622343132414136265231124544555364266366566666432
FFFFFFFFFFFFFFFLLLLLFFFFFFFFFFFFFFFFLLFLLLLLLLFFFF
16316666666466646635655151153455142333412344621412
LLLLLLLLLLLLLLLLLLLLLFFFFFFFFFFFFFFFFFFFFFFFFFFFFF
46426145135143322413433434325131511216441242535365
FFFFFFFFFFFFFFFFFFFFFFFFFFFFFFFFFFFFFFFFFFFFFFFFFF
42466114336661615166652433221412215466644565213555
FFFFFFFFFLLLLLLLLLLLLFFFFFFFLLFFFFFLLLFFFFFFFFFFFF
66324143515462252641354254651126366166651666666265
FFFFFFFFFFFFFFFFFFFFFFFFFFLLFFFFFLLFLLLLLLLLLLLLLF
23453413262632211535363666116336366335226614134546
FFFFFFFFFFFFFFFFFFFFFFFFLLLLLLLLLLLFFFFFFFFFFFFFFF
16356311345256226651326566666666663663255133253356
LFFFFFFFFFFFLLLLLLFFFFLLLLLLLLLLLLLLLFFFFFFFFFFFFF
26541665131221262645651461123666542261636663666665
FFFFFFFFFFFFFFFFFFFFFFFFFFFFFFFFFFFFLLLLLLLLLLLLLF
11621666663144363466666266666626666236436666163666
FFFFFLLLFFFFFFFLLLLLLLLLLLLLLLLLLLLLLLLLLLLLFFFLLL
16616661325616661236636665666666666666666156156432
FFLLLLLFFFFFFFLLLLLLLLLLLLLLLLLLLLLLLLLLLFFFFFFFFF
14425422634252663232646462431521216412565546645462
FFFFFFFFFFFFFFFFFFFFFFFFFFFFFFFFFFLFFFFFFFFFFFFFFF
52415463542662161525254414222616133551263333666413
FFFFFFFFFFFFFFFFFFFFFFFFFFFFFFFFFFFFFFFFFFFFFFFFFF
64516252663444164433222134336112256666254466266666
FFFFFFFFLLFFFFFLFFFFFFFFFFFFFFFFFFLLLLLLFFFLLLLLLL
44121425211244446451551666144365125266332546566656
FFFFFFFFFFFFFFFFLLFFFFFFFFFFFFFFFFFFFFFFFFFLLLLLLL
33346536643131513251515331665326126565561615516555
FFFFFFFFFFFFFFFFFFFFFFFFFFFFFFFFFFFFFFFFFFFFFFFFFF
66626666455513653434112326132311555552155316636631
LLLLLLLLFFFFFFFFFFFFFFFFFFFFFFFFFFFFFFFFFFFFFFFFFF
63166516256163666466664532113666666563464641314242
LLLLLLLLLLLLLLLLLLLLLLFFFLFFLLLLLLLLLLLLFFFFFFFFFF
55552353166125224151255325551231225241254436162311
FFFFFFFFFFFFFFFFFFFFFFFFFFFFFFFFFFFFFFFFFFFFFFFFFF
63456443366666666666656656664624451343262551152544
FFFFFFFFLLLLLLLLLLLLLLLLLLLLLLFFFFFFFFFFFFFFFFFFFF
44626666666646666651336141244563121462554336131132
FLLLLLLLLLLLLLLLLLFFFFFFFFFFFFFFFFFFFFFFFFFFFFFFFF
56333444655636146562525542433626666236626266666666
FFFFFFFFFFFFFFFFFFFFFFFFFFFFFLLLLLLLLLLLLLLLLLLLLL
14644412636611626614266421435432235144655422446653
FFFFFFFFLLLLLLLLLLLLLLLLFFFFFFFFFFFFFFFFFFFFFFFFFF
11264656263666662666264211522553623552163234652623
FFFLFLLLLLLLLLLLLLLLLLFFFFFFFFFFFFFFFFFFFFFFFFFFFF
11425232416222231132666631362464423543222352341521
FFFFFFFFFFFFFFFFFFFFFLLLFFFFFFFFFFFFFFFFFFFFFFFFFF
52353466436635664246666123151314345346134433551411
FFFFFFLLLLLLFFFFFFFFFFFFFFFFFFFFFFFFFFFFFFFFFFFFFF
61534361253266411245163251662535666662666345234666
LFFFFFFFFFFFFFFFFFFFFFFFFFLFFFFFFLLLLFLLLLFFFFFLLL
36665525666666666651666666616666625264214231243456
LLLLLFFFFFFLLLLLLLLLLLLLLLLLLLLLLFFFFFFFFFFFFFFFFF
66236626466566666426514664154633343531566533331564
LLLLLLLLLLLLLLLLLFFFFFFFFFFFFFFFFFFFFFLLLFFFFFFFFF
66636666646616645665613333166321661256642143113223
LLLLLLLLLLLLFLLLLLFFFFFFFFFFFFFFLLFFFFFFFFFFFFFFFF
11542243226462325262643666226666662646632223524253
FFFFFFFFFFFFFFFFFFFFFFFLLLLLLLLLLLLLLLFFFFFFFFFFFF
66666666666611242145516512561166626466266566665254
LLLLLLLLLLLLFFFFFFFFFFFFFFFFFFLLLFLLLLLLLLLLLLLLFF
23666666166646636626666646661462325213224316212365
LLLLLLLLLLLLLLLLLLLLLLLLLLLLLFFFFFFFFFFFFFFFFFFFFF
62253454346356664444456326666466565323266146244536
LFFFFFFFFFFFFFFFFFFFFFFFFLLLLLLLFFFFFFFFFFLLFFFFFF
66666666636463332125556532212626152556113146211163
LLLLLLLLLLLFFFFFFFFFFFFFFFFFFLLLFFFFFFFFFFFFFFFFFF
13352345432254515512156663611412345133221446264243
FFFFFFFFFFFFFFFFFFFFFFFFFFFFFFFFFFFFFFFFFFFLLFFFFF
35242556561624666666561666661631216666666534245636
FFFFFFFLLLLLLLLLLLLLLLLLLLLLLLFFFFFLLLLLFFFFFFFFFF
16312256134666512323645156153626521141134331446654
FFFFFFFFFFFLFFFFFFFFFFFFFFFFFFFFFFFFFFFFFFFFFFFFFF
66666616142561116666464643626544526364555326224313
LLLLLLFFFFFFFFFFLLLLFFFFFFFFFFFFFFFFFFFFFFFFFFFFFF
36662666366624616266366664166266666656653666665666
FLLLLLLLLLLLLLLLLFLLLLLLLLLLLFFLLLLLLLLFFFLLLLLLLF
53553212566666666461332316666216666652164523644314
FFFFFFFFFLLLLLLLLLLFFFFFFLLLLFFLLLLFFFFFFFFFFFFFFF
54125356635123325164442463352444434663325353324254
FFFFFFFFFFFFFFFFFFFFFFFFFFFFFFFFFFFFFFFFFFFFFFFFFF
21224161561656366663514146661266365546624625351425
FFFFFFFFFLLLLLLLLLLLFFFFFLLLFFFFFFFFFFFFFFFFFFFFFF
66216453564623621331143643644154446156261231116524
LLFFFFFFFFFFFFFFFFFFFFFFFFFFFFFFFFFFFFFFFFFFFFFFFF
11266653532222622145126554313563153513644366166136
FFFLLLFFFFFFFFFFFFFFFFFFFFFFFFFFFFFFFFFFFFLLLLLLLL
11466666636166645463221253433635156646262232155616
FFFFLLLLLLLLLLFFFFFFFFFFFFFFFFFFFFFFFFFFFFFFFFFFLL
66422533122464564666442666446416532561633342253565
FFFFFFFFFFFFFFFLLLLLFFFLLLFFFFFFFFFFFFFFFFFFFFFFFF
22665616633225455664641213441154425666666666666566
FFFFFLLLFFFFFFFFFFFFFFFFFFFFFFFFFFFLLLLLLLLLLLLLLL
15522133536366666612626521442344323223353364261266
FFFFFFFFFFFLLLLLLLLLLLLFFFFFFFFFFFFFFFFFFFFFFFFFLL
36566356433116514125133414113622614632644651626666
FFFLLFFFFFFFFFFFFFFFFFFFFFFFFFFFFFFFFFFFFFFFFFLLLL
33361443154166663263666666162363666566666661346154
FFFFFFFFFFFFLLLLLFLLLLLLLLLLFLLLLLLLLLLLLLLFFFFFFL
66666666366665666666656666266666666635241632566666
LLLLLLLLLLLLLLLLLLLLLLLLLLLLLLLLLLLLFFFFFFFFFLLLLL
33156446665166665122221652551544434556445643233666
FFFFFFFLLLLLLLLFFFFFFFFFFFFFFFFFFFFFFFFFFFFFFFFLLL
64662161266626656666666666656665166666646666666662
LLLLLLLLLLLLLLLLLLLLLLLLLLLFFFFFLLLLLLLLLLLLLLLLLF
56662221156246621135445556156236543234321622666666
LLLLFFFFFFLLLLLFFFFFFFFFFFFFFFFFFFFFFFFFFFFFLLLLLL
25366642232264152454423646126662363462266251366351
FFFLLLFFFFFFFFFFFFFFFFFFFFFFFFFFFFFFFFFFFFFFFFFFFF
36666646156666655213154126523656116616266656235561
LLLLFLLLLLLLLLLFFFFFFFFFFFFFFFFFFLLLLLLLFFFFFFFFFF
64366356654356666613613646661666365666616625333426
LFFFFFFFFFFFFLLLLLFFFFFFFLLLLLLLLLLLLLLLLLFFFFFFFF
11661666666666666642666662666666666666666361466161
FFLLLLLLLLLLLLLLLLLLLLLLLLLLLLLLLLLLLLLLLLLLLLLLLL
33535542114564243361463241131653315553514326542335
FFFFFFFFFFFFFFFFFFFFFFFFFFFFFFFFFFFFFFFFFFFFFFFFFF
41124226633462214626432616342653662642366636244424
FFFFFFFFFFFFFFFFFFFFFFFFFFFFFFFFFFFFFFFLLLFFFFFFFF
66666666666414646264651312526114143646626616666666
LLLLLLLLLLLFFFFFFFLLLFFFFFFFFFFFFFFFFLLLLLLLLLLLLL
61666661366666333545162362625553136666666666366666
LLLLLLLFFLLLLLFFFFFFFFFFFFFFFFFFFFLLLLLLLLLLLLLLLL
52114332424461361456361114661316655612652116335412
FFFFFFFFFFFFFFFFFFFFFFFFFFLLLFFFFFFFFFFFFFFFFFFFFF
16666666666645224665666356662666646666666146333334
FLLLLLLLLLLLFFFFFLLLLLLFFLLLLLLLLLLLLLLLLFFFFFFFFF
34414535365343343126613162436246653134322651221426
FFFFFFFFFFFFFFFFFFFFFFFFFFFFFFFFFFFFFFFFFFFFFFFFFF
65332645462511624432156415453113143434423126666616
FFFFFFFFFFFFFFFFFFFFFFFFFFFFFFFFFFFFFFFFFFFLLLLLLL
61556345531523345234413652465452126365142644541261
FFFFFFFFFFFFFFFFFFFFFFFFFFFFFFFFFFFFFFFFFFFFFFFFLF
12563224112142233131551334342356666666666666664123
FFFFFFFFFFFFFFFFFFFFFFFFFFFFFFLLLLLLLLLLLLLLLFFFFF
64661666624244122663115233214131136315266445615353
LLLLFLLLLFFFFFFFFFFFFFFFFFFFFFFFFFFFFFFFFFFFLFFFFF
16426142326656666666666665444621666266325313456364
FFFFFFFFFFLLLLLLLLLLLLLLLLLLFFFLLLLLFFFFFFFFFFLFFF
15614666646666662546254565666616456333231426265145
FFFFFLLLLLLLLLLLFFFFFFFFFFFFFFFFFFFFFFFFFFFFFFFFFF
61654526221245461552626666216466663652115432111666
FFFFFFFFFFFFFFFFFFFFFFLLLFFFLLLLLLFFFFFFFFFFFFFLLL
66131315626532144222342252465563325133132534663135
LLFFFFFFLFFFFFFFFFFFFFFFFFFFFFFFFFFFFFFFFFFFLLFFFF
52464521111666166664124243454123162535426464313326
FFFFFFFFFFFLLLLLLLLFFFFFFFFFFFFFFFFFFFFFFFFFFFFFFF
14215444333323256513262431215513344144436132326334
LLFFFFFFFFFFFFFFFFFFFFFFFFFFFFFFFFFFFFFFFFFFFFFFFF
64341521211225466531421252313323163666654651215335
FFFFFFFFFFFFFFFFFFFFFFFFFFFFFFFLLLLLLLLFFFFFFFLFFF
44632414555236632241665621514632536546455126666156
FFFFFFFFFFFFFFFFFFFFFFFFFFFFFFFFFFFFFFFFFFFFLLLFFF
66566661241212355213162326513155223134632563556234
LLLLLLLFFFFFFFFFFFFFFFFFLLFFFFFFFFFFFFFFFFFFFFFFFF
32124645642132166666666666656663461251263366161552
FFFFFFFFFFFFFFLLLLLLLLLLLLLLLLLFFFFFFFFFLLLLLLLFFF
33262111522614436456622233666153425544451546346414
FFFFFFFFFFFFFFFFFFFFLFFFFFLLLLFFFFFFFFFFFFFFFFFFFF
45666226256666652152625546561163133445362423435345
FLLLLLLLLLLLLLLFFFFFFFFFFFFFFFFFFFFFFFFFFFFFFFFFFF
34645551223111166625665223643262433252345414424626
FFFFFFFFFFFFFFFFLLLLFFFFFFLFFFFFFFFFFFFFFFFFFFFFFL
63546543622662666662511315533323263666666666666243
FFFFFFFFFFFFLLLLLLFFFFFFFFFFFFFFFLLLLLLLLLLLLLFFFF
45666635365614265651164655256262411161666463126614
FFLLLLFFFFFFFFFFFFFFFFFFFFFFFFFFFFFFFFLLLLLLFFFFFF
43444444266266662623125456612233421666665531235266
FFFFFFFFFLLFLLLLFFFFFFFFFFFFFFFFFFLLLLLLFFFFFFFFLL
24353555524663314242612413152116153463465634666666
FFFFFFFFFFFFFFFFFFFFFFFFFFFFFFFFFFFFFFFFFFFFLLLLLL
66665661656126626666665666534552531262666666624541
LLLLLLLLLFFFFFLLLLLLLLLLLLFFFFFFFFFFFFFLLLLLLFFFFF
66666636666636664656646663463516532456666665656134
LLLLLLLLLLLLLLLLLLLLLLLLLFFFFFFFFFFFLLLLLLLLLLLFFF
63666661524362666663246262653666666466666622322343
LLLLLLLFFFFFFFLLLLLFFFFFLFFFFLLLLLLLLLLLLLFFFFFFFF
66666656666666666266666322535626555446343661611642
FLLLLLFLLLLLLLLLLLLLLLLFFFFFFFFFFFFFFFFFFFFFFFFFFF
64165666666661426662666666466531662344263623623425
LLLLLLLLLLLLLLLLLLLLLLLLLLFFFFFFFFFFFFFLLLFFFFFFFF
35455552353464334335351332216664234436214416666262
FFFFFFFFFFFFFFFFFFFFFFFFFFFFFLLLLLFFFLLFFFFFLLLLLL
33253261132415551113123545624426361163666666656554
FFFFFFFFFFFFFFFFFFFFFFFFFFFFFFFFFFFFFFLLLLLLLFFFFF
26666661146416556156566136634445423666613666661666
LLLLLLLLFFFFFFFFFFFFFFFFFFFFFFFFFFFFLLLLLLLLLLLLLL
22354624316666666466666666663661651633461142611466
FFFFFFFFFFLLLLLLLLLLLLLLLLLLLLFFFFLLFFFLLFFFFFFFLL
61525213222263426352616255561635353544666666662436
FFFFFFFFFFFFFFFFFFFFFFFFFFFFFFFFFFFFFFFLLLLLLLFFFF
14552131265311146653552111443115632556262234565444
FFFFFFFFFFFFFFFFFFFFFFFFFFFFFFFFFFFFFFFLFFFFFFFFFF
13111331323331523243555626335533564616625165665521
FFFFFFFFFFFFFFFFFFFFFFFFFFFFFFFFFFFLLLLLLLLLLLLLFF
24343222554232266531533626666666666666666666664436
FFFFFFFFFFFFFFFFFFFFFFFFFLLLLLLLLLLLLLLLLLLLLLFFFF
56666666652512154335114226653166666666521661356435
LLLLLLLLLFFFFFFFFFFFFFFFFFFFFFLLLLLLLLLFFFFFFFFFFF
13312616313626664326543653426423412146651364211466
FFFFFFFFFFLLLLLLFFFFFFFFFFFFFFFFFFFFFLLFFFFFFFFLLL
66666162663636626465324626621323515533336622644446
LLLLLLLLLLLLLLLLLLLFFFFLLLLLFFFFFFFFFFFFFLFFFFFFFF
66666266666666645466636164516661313522466166666664
LLLLLLLLLLLLLLLLLLLLFFFFFFFFLLLFFFFFFFFFFFLLLLLLLL
64116153611162666114656115521224443214266246226231
FFFFFFFFFFFFFFFLLFFFFFLFFFFFFFFFFFFFFFFFFFFFFFFFFF
24564336421554516546222216315614422544552421511656
FFFFFFFFFFFFFFFFFFFFFFFFFFFFFFFFFFFFFFFFFFFFFFFFFF
41213666166666666641446321654553316216414451245336
FFFFFLLLLLLLLLLLLLLLFFFFFFFFFFFFFFFFFFFFFFFFFFFFFL
66664666335616666316666626666566665461155465666666
LLLLLLLLFFFFFLLLLLLLLLLLLLLLLLLLLLFFFFFFFFFLLLLLLL
66666641413223261165455624116561133441221141546623
LLLLLFFFFFFFFFFFFFFFFFFFFFFFLFFFFFFFFFFFFFFFFFFFFF
34366623514552236666664666636666666663666466666655
FFFFFFFFFFFFFFFFLLLLLLLLLLLLLLLLLLLLLLLLLLLLLLLLFF
66166666663664666466666666666155244331332116646636
LLLLLLLLLLLLLFLLLLLLLLLLLLLLLFFFFFFFFFFFFFLLLLLLLL
62664141112161336534222325425561141253634246666665
FFFFFFFFFFFFFFFFFFFFFFFFFFFFFFFFFFFFFLLLLLLLLLLLLL
33454125366666661666515534524442333256216422351353
FFFFFFFFFLLLLLLLLLLLFFFFFFFFFFFFFFFFFFFFFFFFFFFFFF
61556653312142631422464612663432152631152346642513
FFFFFFFFFFFFFFFFFFFFFFFFFFLLFFFFFFFFFFFFFFFFFFFFFF
26136434643244614466563231232666224346162431531626
FFFFFFFFFFFFFFFFFFFFFFFFFFFFFFFFFFFFFFFLFFFFFFFFFF
42646661236466636666644625321566656666666665612564
FFFFLLLLLLLLLLLLLLLLFFFFFFFFFFLLLLLLLLLLLLLLLFFFFF
63651215136323164215654416243434426422136666112666
LFFFFFFFFFFFFFFFFFFFFFFFFFFFFFFFFFFFFFFLLLLLLLLLLL
66666666665666166514416366166214121613241341664666
LLLLLLLLLLLLLLLLLFFFFFFLLLLLLFFFFFFFFFFFFFFFLLLLLL
11451266314233336624642453626516523533662443412116
FFFFFFFFFFFFFFFFLLFFFFFFFFFFFFFFFFFFFFFLFFFFFFFFFF
61643416662145151223224244655256666615446152466616
LFFFFFFLLLLFFFFFFFFFFFFFFFFFFFFFLLLLLFFFFFFFFLLLLL
24214153514136231643666665661666666666224461254162
FFFFFFFFFFFFFFFFFFFFLLLLLLLLLLLLLLLLLFFFFFFFFFFFLF
42646566515134616426666323662661666666666666336666
FFFFFFFFFFFFFFFFFFFFLLFFFFLLLLLLLLLLLLLLLLLLLFFLLL
66662666166663666666666655633415664351325316566666
LLLLLLLLLFLLLLLLLLLLLLLLFFFFFFFFFFFFFFFFFFFLLLLLLL
66614114624425146124321246125334565653161436644351
LLLFFFFFFFFFFFFFFFFFFFFFFFFFFFFFFFFFFFFFFFFFFLFFFF
12666665666662666666365164415135213263663551363434
FFLLLLLLLLLLLLLLLLLLLLLLLLLLFFFFFFFFFFFFFFFFFFFFFF
24236666661613646455131364422331465636143262231215
FFFFLLLLLLLLLLFFFFFFFFFFFFFFFFFFFFFFFLFFFFFFFFFFFF
23152632513132515252554626446513646114355452252666
FFFFFFFFFFFFFFFFFFFFFFFFFFFFFFFFFFFFFFFFFFFFFFFFFF
42144455654155636321666666666666666466666463524133
FFFFFFFFFFFFFFFFFFFFLLLLLLLLLLLLLLLLLLLLLFFFFFFFFF
24523116666663636613633122144555136364535223431216
FFFFFFFLLLLLLLLLLLLLFFFFFFFFFFFFFFFFFFFFFFFFFFFFFF
21634444453666666166666625522451543532232423664144
FFFFFFFFFFFLLLLLLLLLLLLLLFFFFFFFFFFFFFFFFFFFLLFFFF
66666366266666666166624653651245643165526325311443
LLLLLLLLLLLLLLLLLLLFFFFFFFFFFFFFFFFFFFFFFFFFFFFFFF
51664655566236266662446646666646656256666666666666
FFFFFFFFFFFFFFFFLLLLLLLLLLLLLLLLLLLLLLLLLLLLLLLLLL
66666366166553642262111636664631454663666465513161
LLLLLLLLLLFFFFFFFFFFFFFFFLLLFLLLFFFLLLLLLLLFFFFFFF
26424566612545263454246445462353166626563264261236
FFFFFFLLLFFFFFFFFFFFFFFFFFFFFFFFFFFFFFFFFFFFFFFFFF
44152646366666666166214661666615341135262666666666
FFFFFFFFFLLLLLLLLLLLLLLLLLLLLLFFFFFFFFFLLLLLLLLLLL
65114625625445223654333562563216323265666666666666
FFFFFFFFFFFFFFFFFFFFFFFFFFFLFFFFFFFFLLLLLLLLLLLLLL
14151164536156446252233312534444263665466556666666
FFFFFFFFFFFFFFFFFFFFFFFFFFFFFFFFFFFFFFFLLLLLLLLLLL
66646636636666666626164233546355224526141542666666
LLLLLLLLLLLLLLLLLLLLFFFFFFFFFFFFFFFFFFFFFFFLLLLLLL
56556566661656364542464666666661646666626165264634
FFFLLLLLLLLLLLFFFFFFFFFLLLLLLLLLLLLLLLLFFFFFFFFFFF
26366666666666626654134256523421513414666611363212
FFFLLLLLLLLLLLLLLLFFFFFFFFFFFFFFFFFFFFLLLLFFFFFFFF
56312642456344244166662663215415511436445352352161
FFFFFFFFFFFFFFFFFFLLLLLLLFFFFFFFFFFFFFFFFFFFFFFFLF
35156646462235243226216366466166613626234144552316
FFFFFFFFFFFFFFFFFFFFFFFFLLLLLLLLLFFFFFFFFFFFFFFFFF
62265164441424211661666666666663666666611653643613
FFFFFFFFFFFFFFFFLLLLLLLLLLLLLLLLLLLLLLLLLLFFFFFFFF
53566566666624125365235353653411641536213214445431
FFFLFFLLLLLLFFFFFFFFFFFFFFFFFFFFFFFFFLFFFFFFFFFFFF
66666666666663345114643534616552316533266366664652
LLLLLLLLLLLLLFFFFFFFFFFFFFFFLLFFFFFFFFLLLLLLLFFFLL
15325133253145266126353245461265566431146646656313
FFFFFFFFFFFFFFFLLLLLFFFFFFFFFFFFFFFFFFFLLLLLLLLLLL
65666466646666626626466666526622464233216662123346
LLLLLLLLLLLLLLLLLLLLFLLLLLLLLLFFFFFFFFFFFFFFFFFFLL
66566266666666665633361413456655115536331462566666
LLLLLLLLLLLLLLLLLLFFLLFFFFFFFFFFFFFFFFFFFFLLLLLLLL
21135414253133415233531354666656266112345666123613
FFFFFFFFFFFFFFFFFFFFFFFFFFLLLLLLLLFFFFFFFFFFFFFFFF
21634156666666663614552335261333152652352515433432
FFFFFLLLLLLLLLLLLLLFFFFFFFFFFFFFFFFFFFFFFFFFFFFFFF
23635323144124163433146666666666664613226632331544
FFFFFFFFLFFFFFFFFFFFFFFLLLLLLLLLLLLLFFFFLLFFFFFFFF
46266414425115646463453312532531135563664131366661
FFFFFFFFFFFFFFFFFFFFFFFFFFFFFFFFFFFFFFFFFFFFFFLLLL
41264415636421132536622461322561652353336122656636
FFFFFFFFFFFFFFFFFFFFFFFFFFFFFFFFFFFFFFFFLFFFFFFFFF
51441313134621615544225344155256654221446166166366
FFFFFFFFFFFFFFFFFFFFFFFFFFFFFFFFFFFFFFFFFFLLLLLLLL
63126136242353166666663636562241316413456666666633
FFFFFFFFFFFFFFLLLLLLLLLLLFFFFFFFFFFFFFFFFLLLLLLFFF
33141161666166665666666652623134242553616234256466
FFFFFFFFLLLLLLLLLLLLLLLFFFFFFFFFFFFFFFFFFFFFFFFFFF
66666656661662215166113654243534262251443666646353
LLLLLLLLLLLLLFFFFFFFFFFFFFFFFFFFFFFFFFLLLLLLLLLFFF
25632525445345664512636666135366661266626354365553
FFFFFFFFFFFFFFFFFFFFLLLLLLFFFFLLLLLLLLLLLFFFLLFFFF
52146512125643133644366666521264155115132531156342
FFFFFFFFFFFFFFFFFLFFFFLLLFFFFFFFFFFFFFFFFFFFFFFFFF
46614215151312342445425433266666666666664662353463
FLLFFFFFFFFFFFFFFFFFFFFFFFFLLLLLLLLLLLLLLLLLFFFFFF
34245626666666666616666626665355362666666612426411
FFFFFFFLLLLLLLLLLLLLLLLLLLLFFFFFFLLLLLLLLLFFFFFFFF
36636626666666656666666566646666663666666666656666
LLLLLLLLLLLLLLLLLLLLLLLLLLLLLLLLLLLLLLLLLLLLLLLLLL
61664166616666655525165616666633666666436241642342
LLLLLLLLLLLLLLLLLFFFLLLLLLLLLLLLLLLLLLFFFFFFFFFFFF
63235421636626455521566666626164462144552613562666
FFFFFFFFFFLLLLLFFFFFFLLLLLLLFFFFFFFFFFFLLFFFFFFFFF
52644334444355666266211552451533444646321356165212
FFFFFFFFFFFFFFFFFFFFFFFFFFFFFFFFFFFFFFFFFFFFFFFFFF
33211666462236666666136664666663246423445643344424
FFFFLLLLLLFFLLLLLLLLLLLLLLLLLLLFFFFFFFFFFFFFFFFFFF
36644325663626666166664656663666646666666166656666
FFFFFFFFLLLLLLLLLLLLLLLLLLLLLLLLLLLLLLLLLLLLLLLLLL
45665613252516624352321463466214444336666666666554
FFLLLFFFFFFFFFFFFFFFFFFFFFFFLFFFFFFFFLLLLLLLLLFFFF
43325232556532542146666662266366346646321536123665
FFFFFFFFFFFFFFFFFLLLLLLLFFFFFLLLLLLLLLFFFFFFFFFFFF
32463524333335462651241615121446634334262535666666
FFFFFFFFFFFFFFFFFFFFFFFFFFFFFFFFFFFFFFFFFFFFLLLLLL
32125413526546666666626644263161635246632634412332
FFFFFFFFFFFFFLLLLLLLLLLLFFFFFFFFFFFFFFFFFFFFFFFFFF
21465556432626123232246362442466651562623631121353
FFFFFFFFFFFFFFFFFFFFFFFFFFFFFFLLLFFFFFFFFFFFFFFFFF
13244223533214664131511624511521364142266614121225
FFFFFFFFFFFFFFFLFFFFFFFFFFFFFFFFFFFFFFFFLLFFFFFFFF
66244244445215344345462234466462626144353116621336
LFFFFFFFFFFFFLFFFFFFFFFFFFFFFFFFFFFFFFFFFFLLLFFFFL
26546442146163352214654626655634134445154261666566
FFFFFFFFFFFFFFFFFFFFFFFFFFFFFFFFFFFFFFFFFFLFFLLLLL
41635356636145654424666636656666666316221133535433
FFFFFFFFFFFFFFFFFFFFFLLLLLLFLLLLLLLFFFFFFFFFFFFFFF
66162431335154626666626655344336155236611141232555
FFFFFFFFFFFFFFFFLLLLLLLLLLFFFFLLFFFFFFFFFFFFFFFFFF
66666464666633415623666332644363435246662666163621
LLLLLLLLLLLLFFFFLFFFFFFFFFFFFFFFFFFFLLLLLLLLLLFFFF
41521144552164426442244346115546441423445653443666
FFFFFFFFFFFFFFFFFFFFFFFFFFFFFFFFFFFFFFFFFFFFFFFLLL
14615333561464241546666656666662466466366566666266
FFFFFFFFLLFFFFFFFFFLLLLLFLLLLLLLLLLLLLLLLLLLLLLLLL
26113546643212563546453422564563112665563666666463
FFFFFFFFFFFFFFFFFFFFFFFFFFFFFFFFFFFLLLLLLLLLLLLFFF
