,Correctness:,0.4300,0.4300,0,, ,Correctness:,0.3300,0.3300,0,, ,Correctness:,0.4000,0.4000,0,, ,Correctness:,0.4000,0.4000,0,, ,Correctness:,0.4400,0.4400,0,, 
,Correctness:,0.3300,0.3300,0,, ,Correctness:,0.3900,0.3900,0,, ,Correctness:,0.3500,0.3500,0,, ,Correctness:,0.2400,0.2400,0,, ,Correctness:,0.3400,0.3400,0,, 
,Correctness:,0.3400,0.3400,0,, ,Correctness:,0.3100,0.3100,0,, ,Correctness:,0.3200,0.3200,0,, ,Correctness:,0.3600,0.3600,0,, ,Correctness:,0.3900,0.3900,0,, 
,Correctness:,0.2600,0.2600,0,, ,Correctness:,0.1700,0.1700,0,, ,Correctness:,0.3100,0.3100,0,, ,Correctness:,0.3400,0.3400,0,, ,Correctness:,0.5000,0.5000,0,, 
,Correctness:,0.2700,0.2700,0,, ,Correctness:,0.1800,0.1800,0,, ,Correctness:,0.2800,0.2800,0,, ,Correctness:,0.4300,0.4300,0,, ,Correctness:,0.4800,0.4800,0,, 
,Correctness:,0.3200,0.3200,0,, ,Correctness:,0.3800,0.3800,0,, ,Correctness:,0.3400,0.3400,0,, ,Correctness:,0.2600,0.2600,0,, ,Correctness:,0.3600,0.3600,0,, 
,Correctness:,0.4300,0.4300,0,, ,Correctness:,0.3200,0.3200,0,, ,Correctness:,0.4500,0.4500,0,, ,Correctness:,0.1600,0.1600,0,, ,Correctness:,0.4000,0.4000,0,, 
,Correctness:,0.3300,0.3300,0,, ,Correctness:,0.3500,0.3500,0,, ,Correctness:,0.3500,0.3500,0,, ,Correctness:,0.3000,0.3000,0,, ,Correctness:,0.3300,0.3300,0,, 
,Correctness:,0.5800,0.5800,0,, ,Correctness:,0.3900,0.3900,0,, ,Correctness:,0.5600,0.5600,0,, ,Correctness:,0.1200,0.1200,0,, ,Correctness:,0.4000,0.4000,0,, 
,Correctness:,0.2700,0.2700,0,, ,Correctness:,0.1900,0.1900,0,, ,Correctness:,0.3300,0.3300,0,, ,Correctness:,0.3200,0.3200,0,, ,Correctness:,0.4500,0.4500,0,, 
,Correctness:,0.4450,0.4450,0,, ,Correctness:,0.3900,0.3900,0,, ,Correctness:,0.4500,0.4500,0,, ,Correctness:,0.2500,0.2500,0,, ,Correctness:,0.4550,0.4550,0,, 
,Correctness:,0.4350,0.4350,0,, ,Correctness:,0.2700,0.2700,0,, ,Correctness:,0.4100,0.4100,0,, ,Correctness:,0.2350,0.2350,0,, ,Correctness:,0.3800,0.3800,0,, 
,Correctness:,0.4550,0.4550,0,, ,Correctness:,0.3250,0.3250,0,, ,Correctness:,0.4550,0.4550,0,, ,Correctness:,0.2350,0.2350,0,, ,Correctness:,0.4450,0.4450,0,, 
,Correctness:,0.5500,0.5500,0,, ,Correctness:,0.3500,0.3500,0,, ,Correctness:,0.5300,0.5300,0,, ,Correctness:,0.2400,0.2400,0,, ,Correctness:,0.4100,0.4100,0,, 
,Correctness:,0.3250,0.3250,0,, ,Correctness:,0.2100,0.2100,0,, ,Correctness:,0.3450,0.3450,0,, ,Correctness:,0.3100,0.3100,0,, ,Correctness:,0.5050,0.5050,0,, 
,Correctness:,0.3450,0.3450,0,, ,Correctness:,0.3350,0.3350,0,, ,Correctness:,0.3300,0.3300,0,, ,Correctness:,0.3500,0.3500,0,, ,Correctness:,0.4000,0.4000,0,, 
,Correctness:,0.3850,0.3850,0,, ,Correctness:,0.2350,0.2350,0,, ,Correctness:,0.3800,0.3800,0,, ,Correctness:,0.2950,0.2950,0,, ,Correctness:,0.5150,0.5150,0,, 
,Correctness:,0.4300,0.4300,0,, ,Correctness:,0.2950,0.2950,0,, ,Correctness:,0.4300,0.4300,0,, ,Correctness:,0.2800,0.2800,0,, ,Correctness:,0.4100,0.4100,0,, 
,Correctness:,0.4300,0.4300,0,, ,Correctness:,0.3850,0.3850,0,, ,Correctness:,0.4400,0.4400,0,, ,Correctness:,0.2250,0.2250,0,, ,Correctness:,0.3500,0.3500,0,, 
,Correctness:,0.4350,0.4350,0,, ,Correctness:,0.3150,0.3150,0,, ,Correctness:,0.4400,0.4400,0,, ,Correctness:,0.2750,0.2750,0,, ,Correctness:,0.3200,0.3200,0,, 
,Correctness:,0.3325,0.3325,0,, ,Correctness:,0.2550,0.2550,0,, ,Correctness:,0.3375,0.3375,0,, ,Correctness:,0.3050,0.3050,0,, ,Correctness:,0.4175,0.4175,0,, 
,Correctness:,0.4100,0.4100,0,, ,Correctness:,0.2650,0.2650,0,, ,Correctness:,0.4275,0.4275,0,, ,Correctness:,0.3100,0.3100,0,, ,Correctness:,0.4050,0.4050,0,, 
,Correctness:,0.3575,0.3575,0,, ,Correctness:,0.3050,0.3050,0,, ,Correctness:,0.3500,0.3500,0,, ,Correctness:,0.3275,0.3275,0,, ,Correctness:,0.4650,0.4650,0,, 
,Correctness:,0.3850,0.3850,0,, ,Correctness:,0.3125,0.3125,0,, ,Correctness:,0.4025,0.4025,0,, ,Correctness:,0.2600,0.2600,0,, ,Correctness:,0.3200,0.3200,0,, 
,Correctness:,0.3975,0.3975,0,, ,Correctness:,0.3075,0.3075,0,, ,Correctness:,0.4125,0.4125,0,, ,Correctness:,0.3100,0.3100,0,, ,Correctness:,0.4525,0.4525,0,, 
,Correctness:,0.3800,0.3800,0,, ,Correctness:,0.2850,0.2850,0,, ,Correctness:,0.3900,0.3900,0,, ,Correctness:,0.2525,0.2525,0,, ,Correctness:,0.4375,0.4375,0,, 
,Correctness:,0.3600,0.3600,0,, ,Correctness:,0.3100,0.3100,0,, ,Correctness:,0.3500,0.3500,0,, ,Correctness:,0.3775,0.3775,0,, ,Correctness:,0.4500,0.4500,0,, 
,Correctness:,0.3975,0.3975,0,, ,Correctness:,0.3450,0.3450,0,, ,Correctness:,0.4075,0.4075,0,, ,Correctness:,0.2850,0.2850,0,, ,Correctness:,0.3750,0.3750,0,, 
,Correctness:,0.3825,0.3825,0,, ,Correctness:,0.2925,0.2925,0,, ,Correctness:,0.3925,0.3925,0,, ,Correctness:,0.2425,0.2425,0,, ,Correctness:,0.3425,0.3425,0,, 
,Correctness:,0.4425,0.4425,0,, ,Correctness:,0.3100,0.3100,0,, ,Correctness:,0.4350,0.4350,0,, ,Correctness:,0.2800,0.2800,0,, ,Correctness:,0.3600,0.3600,0,, 
,Correctness:,0.4200,0.4200,0,, ,Correctness:,0.2537,0.2537,0,, ,Correctness:,0.4163,0.4163,0,, ,Correctness:,0.2637,0.2637,0,, ,Correctness:,0.4100,0.4100,0,, 
,Correctness:,0.3387,0.3387,0,, ,Correctness:,0.2137,0.2137,0,, ,Correctness:,0.3500,0.3500,0,, ,Correctness:,0.2587,0.2587,0,, ,Correctness:,0.4000,0.4000,0,, 
,Correctness:,0.3812,0.3812,0,, ,Correctness:,0.2787,0.2787,0,, ,Correctness:,0.3937,0.3937,0,, ,Correctness:,0.2587,0.2587,0,, ,Correctness:,0.4113,0.4113,0,, 
,Correctness:,0.3775,0.3775,0,, ,Correctness:,0.2700,0.2700,0,, ,Correctness:,0.3887,0.3887,0,, ,Correctness:,0.2725,0.2725,0,, ,Correctness:,0.3900,0.3900,0,, 
,Correctness:,0.4088,0.4088,0,, ,Correctness:,0.2913,0.2913,0,, ,Correctness:,0.4037,0.4037,0,, ,Correctness:,0.2700,0.2700,0,, ,Correctness:,0.4200,0.4200,0,, 
,Correctness:,0.4850,0.4850,0,, ,Correctness:,0.3613,0.3613,0,, ,Correctness:,0.4713,0.4713,0,, ,Correctness:,0.2325,0.2325,0,, ,Correctness:,0.3325,0.3325,0,, 
,Correctness:,0.3812,0.3812,0,, ,Correctness:,0.2750,0.2750,0,, ,Correctness:,0.3925,0.3925,0,, ,Correctness:,0.2988,0.2988,0,, ,Correctness:,0.4025,0.4025,0,, 
,Correctness:,0.3800,0.3800,0,, ,Correctness:,0.2575,0.2575,0,, ,Correctness:,0.3725,0.3725,0,, ,Correctness:,0.2800,0.2800,0,, ,Correctness:,0.4012,0.4012,0,, 
,Correctness:,0.4700,0.4700,0,, ,Correctness:,0.3412,0.3412,0,, ,Correctness:,0.4863,0.4863,0,, ,Correctness:,0.2275,0.2275,0,, ,Correctness:,0.3325,0.3325,0,, 
,Correctness:,0.4437,0.4437,0,, ,Correctness:,0.3025,0.3025,0,, ,Correctness:,0.4300,0.4300,0,, ,Correctness:,0.2637,0.2637,0,, ,Correctness:,0.3900,0.3900,0,, 
,Correctness:,0.3769,0.3769,0,, ,Correctness:,0.2913,0.2913,0,, ,Correctness:,0.3856,0.3856,0,, ,Correctness:,0.2944,0.2944,0,, ,Correctness:,0.4088,0.4088,0,, 
,Correctness:,0.4206,0.4206,0,, ,Correctness:,0.3106,0.3106,0,, ,Correctness:,0.4238,0.4238,0,, ,Correctness:,0.2875,0.2875,0,, ,Correctness:,0.4194,0.4194,0,, 
,Correctness:,0.4350,0.4350,0,, ,Correctness:,0.3100,0.3100,0,, ,Correctness:,0.4400,0.4400,0,, ,Correctness:,0.2662,0.2662,0,, ,Correctness:,0.4069,0.4069,0,, 
,Correctness:,0.4169,0.4169,0,, ,Correctness:,0.3063,0.3063,0,, ,Correctness:,0.4275,0.4275,0,, ,Correctness:,0.2838,0.2838,0,, ,Correctness:,0.4081,0.4081,0,, 
,Correctness:,0.4694,0.4694,0,, ,Correctness:,0.3119,0.3119,0,, ,Correctness:,0.4731,0.4731,0,, ,Correctness:,0.2675,0.2675,0,, ,Correctness:,0.4062,0.4062,0,, 
,Correctness:,0.4756,0.4756,0,, ,Correctness:,0.3256,0.3256,0,, ,Correctness:,0.4763,0.4763,0,, ,Correctness:,0.2625,0.2625,0,, ,Correctness:,0.3787,0.3787,0,, 
,Correctness:,0.3931,0.3931,0,, ,Correctness:,0.2825,0.2825,0,, ,Correctness:,0.4062,0.4062,0,, ,Correctness:,0.2863,0.2863,0,, ,Correctness:,0.3919,0.3919,0,, 
,Correctness:,0.3987,0.3987,0,, ,Correctness:,0.2956,0.2956,0,, ,Correctness:,0.4125,0.4125,0,, ,Correctness:,0.2963,0.2963,0,, ,Correctness:,0.4175,0.4175,0,, 
,Correctness:,0.4475,0.4475,0,, ,Correctness:,0.3187,0.3187,0,, ,Correctness:,0.4550,0.4550,0,, ,Correctness:,0.2487,0.2487,0,, ,Correctness:,0.3756,0.3756,0,, 
,Correctness:,0.3844,0.3844,0,, ,Correctness:,0.2525,0.2525,0,, ,Correctness:,0.3919,0.3919,0,, ,Correctness:,0.2850,0.2850,0,, ,Correctness:,0.4387,0.4387,0,, 
Average:,0.3989,,,,, Average:,0.2992,,,,, Average:,0.4040,,,,, Average:,0.2796,,,,, Average:,0.4049,,,,, 
,Correctness:,0.4300,0.4300,0,, ,Correctness:,0.3800,0.3800,0,, ,Correctness:,0.4200,0.4200,0,, ,Correctness:,0.4200,0.4200,0,, ,Correctness:,0.2600,0.2600,0,, 
,Correctness:,0.3300,0.3300,0,, ,Correctness:,0.4800,0.4800,0,, ,Correctness:,0.4400,0.4400,0,, ,Correctness:,0.3300,0.3300,0,, ,Correctness:,0.3500,0.3500,0,, 
,Correctness:,0.3400,0.3400,0,, ,Correctness:,0.3300,0.3300,0,, ,Correctness:,0.3300,0.3300,0,, ,Correctness:,0.3200,0.3200,0,, ,Correctness:,0.2200,0.2200,0,, 
,Correctness:,0.2600,0.2600,0,, ,Correctness:,0.3200,0.3200,0,, ,Correctness:,0.3500,0.3500,0,, ,Correctness:,0.2600,0.2600,0,, ,Correctness:,0.2400,0.2400,0,, 
,Correctness:,0.2800,0.2800,0,, ,Correctness:,0.3300,0.3300,0,, ,Correctness:,0.3000,0.3000,0,, ,Correctness:,0.2800,0.2800,0,, ,Correctness:,0.2300,0.2300,0,, 
,Correctness:,0.3300,0.3300,0,, ,Correctness:,0.4600,0.4600,0,, ,Correctness:,0.3800,0.3800,0,, ,Correctness:,0.3200,0.3200,0,, ,Correctness:,0.3800,0.3800,0,, 
,Correctness:,0.4400,0.4400,0,, ,Correctness:,0.5300,0.5300,0,, ,Correctness:,0.4800,0.4800,0,, ,Correctness:,0.4200,0.4200,0,, ,Correctness:,0.4000,0.4000,0,, 
,Correctness:,0.3500,0.3500,0,, ,Correctness:,0.4400,0.4400,0,, ,Correctness:,0.4400,0.4400,0,, ,Correctness:,0.3700,0.3700,0,, ,Correctness:,0.3300,0.3300,0,, 
,Correctness:,0.5800,0.5800,0,, ,Correctness:,0.4500,0.4500,0,, ,Correctness:,0.5000,0.5000,0,, ,Correctness:,0.5100,0.5100,0,, ,Correctness:,0.3200,0.3200,0,, 
,Correctness:,0.3100,0.3100,0,, ,Correctness:,0.2900,0.2900,0,, ,Correctness:,0.2900,0.2900,0,, ,Correctness:,0.2700,0.2700,0,, ,Correctness:,0.2200,0.2200,0,, 
,Correctness:,0.4600,0.4600,0,, ,Correctness:,0.3600,0.3600,0,, ,Correctness:,0.3650,0.3650,0,, ,Correctness:,0.4400,0.4400,0,, ,Correctness:,0.2900,0.2900,0,, 
,Correctness:,0.4450,0.4450,0,, ,Correctness:,0.3450,0.3450,0,, ,Correctness:,0.3900,0.3900,0,, ,Correctness:,0.4100,0.4100,0,, ,Correctness:,0.2450,0.2450,0,, 
,Correctness:,0.4650,0.4650,0,, ,Correctness:,0.4100,0.4100,0,, ,Correctness:,0.4550,0.4550,0,, ,Correctness:,0.4750,0.4750,0,, ,Correctness:,0.2650,0.2650,0,, 
,Correctness:,0.5300,0.5300,0,, ,Correctness:,0.4750,0.4750,0,, ,Correctness:,0.4900,0.4900,0,, ,Correctness:,0.5350,0.5350,0,, ,Correctness:,0.2850,0.2850,0,, 
,Correctness:,0.3400,0.3400,0,, ,Correctness:,0.2900,0.2900,0,, ,Correctness:,0.2850,0.2850,0,, ,Correctness:,0.3150,0.3150,0,, ,Correctness:,0.2150,0.2150,0,, 
,Correctness:,0.3450,0.3450,0,, ,Correctness:,0.3750,0.3750,0,, ,Correctness:,0.3600,0.3600,0,, ,Correctness:,0.3300,0.3300,0,, ,Correctness:,0.3050,0.3050,0,, 
,Correctness:,0.4000,0.4000,0,, ,Correctness:,0.3350,0.3350,0,, ,Correctness:,0.3950,0.3950,0,, ,Correctness:,0.3750,0.3750,0,, ,Correctness:,0.2450,0.2450,0,, 
,Correctness:,0.4400,0.4400,0,, ,Correctness:,0.3050,0.3050,0,, ,Correctness:,0.3850,0.3850,0,, ,Correctness:,0.3850,0.3850,0,, ,Correctness:,0.2550,0.2550,0,, 
,Correctness:,0.4300,0.4300,0,, ,Correctness:,0.4600,0.4600,0,, ,Correctness:,0.4350,0.4350,0,, ,Correctness:,0.4100,0.4100,0,, ,Correctness:,0.3450,0.3450,0,, 
,Correctness:,0.4400,0.4400,0,, ,Correctness:,0.3750,0.3750,0,, ,Correctness:,0.3950,0.3950,0,, ,Correctness:,0.4250,0.4250,0,, ,Correctness:,0.2750,0.2750,0,, 
,Correctness:,0.3475,0.3475,0,, ,Correctness:,0.3425,0.3425,0,, ,Correctness:,0.3400,0.3400,0,, ,Correctness:,0.3350,0.3350,0,, ,Correctness:,0.2550,0.2550,0,, 
,Correctness:,0.4175,0.4175,0,, ,Correctness:,0.3375,0.3375,0,, ,Correctness:,0.4025,0.4025,0,, ,Correctness:,0.4075,0.4075,0,, ,Correctness:,0.2725,0.2725,0,, 
,Correctness:,0.3525,0.3525,0,, ,Correctness:,0.4150,0.4150,0,, ,Correctness:,0.4025,0.4025,0,, ,Correctness:,0.3550,0.3550,0,, ,Correctness:,0.2575,0.2575,0,, 
,Correctness:,0.3825,0.3825,0,, ,Correctness:,0.4375,0.4375,0,, ,Correctness:,0.4150,0.4150,0,, ,Correctness:,0.3750,0.3750,0,, ,Correctness:,0.2900,0.2900,0,, 
,Correctness:,0.4050,0.4050,0,, ,Correctness:,0.4175,0.4175,0,, ,Correctness:,0.4325,0.4325,0,, ,Correctness:,0.3925,0.3925,0,, ,Correctness:,0.3225,0.3225,0,, 
,Correctness:,0.3950,0.3950,0,, ,Correctness:,0.3725,0.3725,0,, ,Correctness:,0.3750,0.3750,0,, ,Correctness:,0.3725,0.3725,0,, ,Correctness:,0.2925,0.2925,0,, 
,Correctness:,0.3450,0.3450,0,, ,Correctness:,0.3550,0.3550,0,, ,Correctness:,0.3650,0.3650,0,, ,Correctness:,0.3550,0.3550,0,, ,Correctness:,0.2725,0.2725,0,, 
,Correctness:,0.3900,0.3900,0,, ,Correctness:,0.4150,0.4150,0,, ,Correctness:,0.4375,0.4375,0,, ,Correctness:,0.3900,0.3900,0,, ,Correctness:,0.3175,0.3175,0,, 
,Correctness:,0.3975,0.3975,0,, ,Correctness:,0.4250,0.4250,0,, ,Correctness:,0.3950,0.3950,0,, ,Correctness:,0.3725,0.3725,0,, ,Correctness:,0.3075,0.3075,0,, 
,Correctness:,0.4300,0.4300,0,, ,Correctness:,0.3750,0.3750,0,, ,Correctness:,0.4200,0.4200,0,, ,Correctness:,0.4325,0.4325,0,, ,Correctness:,0.2850,0.2850,0,, 
,Correctness:,0.4163,0.4163,0,, ,Correctness:,0.3613,0.3613,0,, ,Correctness:,0.3738,0.3738,0,, ,Correctness:,0.3912,0.3912,0,, ,Correctness:,0.2700,0.2700,0,, 
,Correctness:,0.3500,0.3500,0,, ,Correctness:,0.3500,0.3500,0,, ,Correctness:,0.3200,0.3200,0,, ,Correctness:,0.3225,0.3225,0,, ,Correctness:,0.2675,0.2675,0,, 
,Correctness:,0.3900,0.3900,0,, ,Correctness:,0.3500,0.3500,0,, ,Correctness:,0.3775,0.3775,0,, ,Correctness:,0.3762,0.3762,0,, ,Correctness:,0.2575,0.2575,0,, 
,Correctness:,0.3912,0.3912,0,, ,Correctness:,0.3700,0.3700,0,, ,Correctness:,0.3675,0.3675,0,, ,Correctness:,0.3588,0.3588,0,, ,Correctness:,0.2913,0.2913,0,, 
,Correctness:,0.4037,0.4037,0,, ,Correctness:,0.3887,0.3887,0,, ,Correctness:,0.3675,0.3675,0,, ,Correctness:,0.3950,0.3950,0,, ,Correctness:,0.2888,0.2888,0,, 
,Correctness:,0.4775,0.4775,0,, ,Correctness:,0.4450,0.4450,0,, ,Correctness:,0.4500,0.4500,0,, ,Correctness:,0.4550,0.4550,0,, ,Correctness:,0.3225,0.3225,0,, 
,Correctness:,0.3850,0.3850,0,, ,Correctness:,0.3438,0.3438,0,, ,Correctness:,0.3688,0.3688,0,, ,Correctness:,0.3675,0.3675,0,, ,Correctness:,0.2600,0.2600,0,, 
,Correctness:,0.3775,0.3775,0,, ,Correctness:,0.3500,0.3500,0,, ,Correctness:,0.3475,0.3475,0,, ,Correctness:,0.3525,0.3525,0,, ,Correctness:,0.2437,0.2437,0,, 
,Correctness:,0.4725,0.4725,0,, ,Correctness:,0.3862,0.3862,0,, ,Correctness:,0.4325,0.4325,0,, ,Correctness:,0.4475,0.4475,0,, ,Correctness:,0.3275,0.3275,0,, 
,Correctness:,0.4375,0.4375,0,, ,Correctness:,0.3600,0.3600,0,, ,Correctness:,0.4238,0.4238,0,, ,Correctness:,0.4138,0.4138,0,, ,Correctness:,0.2612,0.2612,0,, 
,Correctness:,0.3869,0.3869,0,, ,Correctness:,0.3969,0.3969,0,, ,Correctness:,0.4094,0.4094,0,, ,Correctness:,0.3738,0.3738,0,, ,Correctness:,0.2900,0.2900,0,, 
,Correctness:,0.4238,0.4238,0,, ,Correctness:,0.3787,0.3787,0,, ,Correctness:,0.3994,0.3994,0,, ,Correctness:,0.4125,0.4125,0,, ,Correctness:,0.2844,0.2844,0,, 
,Correctness:,0.4431,0.4431,0,, ,Correctness:,0.3675,0.3675,0,, ,Correctness:,0.4144,0.4144,0,, ,Correctness:,0.4250,0.4250,0,, ,Correctness:,0.2594,0.2594,0,, 
,Correctness:,0.4219,0.4219,0,, ,Correctness:,0.3906,0.3906,0,, ,Correctness:,0.4081,0.4081,0,, ,Correctness:,0.4000,0.4000,0,, ,Correctness:,0.2769,0.2769,0,, 
,Correctness:,0.4781,0.4781,0,, ,Correctness:,0.3469,0.3469,0,, ,Correctness:,0.4062,0.4062,0,, ,Correctness:,0.4494,0.4494,0,, ,Correctness:,0.2575,0.2575,0,, 
,Correctness:,0.4819,0.4819,0,, ,Correctness:,0.3756,0.3756,0,, ,Correctness:,0.4338,0.4338,0,, ,Correctness:,0.4569,0.4569,0,, ,Correctness:,0.2706,0.2706,0,, 
,Correctness:,0.4031,0.4031,0,, ,Correctness:,0.3738,0.3738,0,, ,Correctness:,0.4125,0.4125,0,, ,Correctness:,0.3856,0.3856,0,, ,Correctness:,0.2750,0.2750,0,, 
,Correctness:,0.4100,0.4100,0,, ,Correctness:,0.3469,0.3469,0,, ,Correctness:,0.3837,0.3837,0,, ,Correctness:,0.3944,0.3944,0,, ,Correctness:,0.2725,0.2725,0,, 
,Correctness:,0.4562,0.4562,0,, ,Correctness:,0.3987,0.3987,0,, ,Correctness:,0.4288,0.4288,0,, ,Correctness:,0.4356,0.4356,0,, ,Correctness:,0.2894,0.2894,0,, 
,Correctness:,0.3887,0.3887,0,, ,Correctness:,0.3525,0.3525,0,, ,Correctness:,0.3738,0.3738,0,, ,Correctness:,0.3681,0.3681,0,, ,Correctness:,0.2650,0.2650,0,, 
Average:,0.4040,,,,, Average:,0.3813,,,,, Average:,0.3954,,,,, Average:,0.3874,,,,, Average:,0.2816,,,,, 
,Correctness:,0.1900,0.1900,0,, ,Correctness:,0.0400,0.0400,0,, ,Correctness:,0.0700,0.0700,0,, ,Correctness:,0.3600,0.3600,0,, ,Correctness:,0.6400,0.6400,0,, 
,Correctness:,0.4100,0.4100,0,, ,Correctness:,0.0600,0.0600,0,, ,Correctness:,0.0900,0.0900,0,, ,Correctness:,0.5400,0.5400,0,, ,Correctness:,0.5700,0.5700,0,, 
,Correctness:,0.3200,0.3200,0,, ,Correctness:,0.0200,0.0200,0,, ,Correctness:,0.0700,0.0700,0,, ,Correctness:,0.6400,0.6400,0,, ,Correctness:,0.6500,0.6500,0,, 
,Correctness:,0.3300,0.3300,0,, ,Correctness:,0.0600,0.0600,0,, ,Correctness:,0.0800,0.0800,0,, ,Correctness:,0.4800,0.4800,0,, ,Correctness:,0.7300,0.7300,0,, 
,Correctness:,0.3000,0.3000,0,, ,Correctness:,0.0600,0.0600,0,, ,Correctness:,0.0900,0.0900,0,, ,Correctness:,0.6500,0.6500,0,, ,Correctness:,0.7300,0.7300,0,, 
,Correctness:,0.4200,0.4200,0,, ,Correctness:,0.1200,0.1200,0,, ,Correctness:,0.1200,0.1200,0,, ,Correctness:,0.5700,0.5700,0,, ,Correctness:,0.6100,0.6100,0,, 
,Correctness:,0.4000,0.4000,0,, ,Correctness:,0.0800,0.0800,0,, ,Correctness:,0.1400,0.1400,0,, ,Correctness:,0.4200,0.4200,0,, ,Correctness:,0.5700,0.5700,0,, 
,Correctness:,0.3600,0.3600,0,, ,Correctness:,0.1300,0.1300,0,, ,Correctness:,0.1100,0.1100,0,, ,Correctness:,0.4800,0.4800,0,, ,Correctness:,0.5200,0.5200,0,, 
,Correctness:,0.3000,0.3000,0,, ,Correctness:,0.0100,0.0100,0,, ,Correctness:,0.0700,0.0700,0,, ,Correctness:,0.3500,0.3500,0,, ,Correctness:,0.5900,0.5900,0,, 
,Correctness:,0.3200,0.3200,0,, ,Correctness:,0.1000,0.1000,0,, ,Correctness:,0.1600,0.1600,0,, ,Correctness:,0.5700,0.5700,0,, ,Correctness:,0.6200,0.6200,0,, 
,Correctness:,0.3100,0.3100,0,, ,Correctness:,0.0950,0.0950,0,, ,Correctness:,0.1050,0.1050,0,, ,Correctness:,0.4200,0.4200,0,, ,Correctness:,0.5050,0.5050,0,, 
,Correctness:,0.3250,0.3250,0,, ,Correctness:,0.1000,0.1000,0,, ,Correctness:,0.1300,0.1300,0,, ,Correctness:,0.4550,0.4550,0,, ,Correctness:,0.4950,0.4950,0,, 
,Correctness:,0.2950,0.2950,0,, ,Correctness:,0.0600,0.0600,0,, ,Correctness:,0.0850,0.0850,0,, ,Correctness:,0.4300,0.4300,0,, ,Correctness:,0.5500,0.5500,0,, 
,Correctness:,0.2600,0.2600,0,, ,Correctness:,0.0750,0.0750,0,, ,Correctness:,0.0850,0.0850,0,, ,Correctness:,0.3550,0.3550,0,, ,Correctness:,0.4700,0.4700,0,, 
,Correctness:,0.3400,0.3400,0,, ,Correctness:,0.1100,0.1100,0,, ,Correctness:,0.1400,0.1400,0,, ,Correctness:,0.5350,0.5350,0,, ,Correctness:,0.6200,0.6200,0,, 
,Correctness:,0.3050,0.3050,0,, ,Correctness:,0.0600,0.0600,0,, ,Correctness:,0.0950,0.0950,0,, ,Correctness:,0.5300,0.5300,0,, ,Correctness:,0.6400,0.6400,0,, 
,Correctness:,0.2900,0.2900,0,, ,Correctness:,0.0700,0.0700,0,, ,Correctness:,0.1200,0.1200,0,, ,Correctness:,0.4700,0.4700,0,, ,Correctness:,0.6450,0.6450,0,, 
,Correctness:,0.2800,0.2800,0,, ,Correctness:,0.0600,0.0600,0,, ,Correctness:,0.1150,0.1150,0,, ,Correctness:,0.5000,0.5000,0,, ,Correctness:,0.6100,0.6100,0,, 
,Correctness:,0.3300,0.3300,0,, ,Correctness:,0.1350,0.1350,0,, ,Correctness:,0.1800,0.1800,0,, ,Correctness:,0.4150,0.4150,0,, ,Correctness:,0.5050,0.5050,0,, 
,Correctness:,0.2550,0.2550,0,, ,Correctness:,0.0800,0.0800,0,, ,Correctness:,0.1050,0.1050,0,, ,Correctness:,0.4800,0.4800,0,, ,Correctness:,0.5650,0.5650,0,, 
,Correctness:,0.3275,0.3275,0,, ,Correctness:,0.0825,0.0825,0,, ,Correctness:,0.1175,0.1175,0,, ,Correctness:,0.5275,0.5275,0,, ,Correctness:,0.5900,0.5900,0,, 
,Correctness:,0.2600,0.2600,0,, ,Correctness:,0.0875,0.0875,0,, ,Correctness:,0.1025,0.1025,0,, ,Correctness:,0.4225,0.4225,0,, ,Correctness:,0.5700,0.5700,0,, 
,Correctness:,0.3375,0.3375,0,, ,Correctness:,0.0675,0.0675,0,, ,Correctness:,0.0900,0.0900,0,, ,Correctness:,0.5175,0.5175,0,, ,Correctness:,0.5975,0.5975,0,, 
,Correctness:,0.3375,0.3375,0,, ,Correctness:,0.0800,0.0800,0,, ,Correctness:,0.1000,0.1000,0,, ,Correctness:,0.5125,0.5125,0,, ,Correctness:,0.5875,0.5875,0,, 
,Correctness:,0.2625,0.2625,0,, ,Correctness:,0.0800,0.0800,0,, ,Correctness:,0.1150,0.1150,0,, ,Correctness:,0.4275,0.4275,0,, ,Correctness:,0.5975,0.5975,0,, 
,Correctness:,0.3725,0.3725,0,, ,Correctness:,0.0750,0.0750,0,, ,Correctness:,0.1250,0.1250,0,, ,Correctness:,0.5225,0.5225,0,, ,Correctness:,0.6150,0.6150,0,, 
,Correctness:,0.2575,0.2575,0,, ,Correctness:,0.0750,0.0750,0,, ,Correctness:,0.0850,0.0850,0,, ,Correctness:,0.4825,0.4825,0,, ,Correctness:,0.6000,0.6000,0,, 
,Correctness:,0.3075,0.3075,0,, ,Correctness:,0.0875,0.0875,0,, ,Correctness:,0.1125,0.1125,0,, ,Correctness:,0.4250,0.4250,0,, ,Correctness:,0.5350,0.5350,0,, 
,Correctness:,0.3575,0.3575,0,, ,Correctness:,0.0875,0.0875,0,, ,Correctness:,0.1425,0.1425,0,, ,Correctness:,0.5325,0.5325,0,, ,Correctness:,0.5750,0.5750,0,, 
,Correctness:,0.2950,0.2950,0,, ,Correctness:,0.0875,0.0875,0,, ,Correctness:,0.1125,0.1125,0,, ,Correctness:,0.4825,0.4825,0,, ,Correctness:,0.5325,0.5325,0,, 
,Correctness:,0.3137,0.3137,0,, ,Correctness:,0.0862,0.0862,0,, ,Correctness:,0.1288,0.1288,0,, ,Correctness:,0.4612,0.4612,0,, ,Correctness:,0.5763,0.5763,0,, 
,Correctness:,0.3563,0.3563,0,, ,Correctness:,0.1138,0.1138,0,, ,Correctness:,0.1588,0.1588,0,, ,Correctness:,0.5200,0.5200,0,, ,Correctness:,0.6138,0.6138,0,, 
,Correctness:,0.3275,0.3275,0,, ,Correctness:,0.1000,0.1000,0,, ,Correctness:,0.1313,0.1313,0,, ,Correctness:,0.5125,0.5125,0,, ,Correctness:,0.5800,0.5800,0,, 
,Correctness:,0.3237,0.3237,0,, ,Correctness:,0.1200,0.1200,0,, ,Correctness:,0.1588,0.1588,0,, ,Correctness:,0.5038,0.5038,0,, ,Correctness:,0.5375,0.5375,0,, 
,Correctness:,0.3200,0.3200,0,, ,Correctness:,0.0688,0.0688,0,, ,Correctness:,0.1000,0.1000,0,, ,Correctness:,0.4725,0.4725,0,, ,Correctness:,0.5825,0.5825,0,, 
,Correctness:,0.2988,0.2988,0,, ,Correctness:,0.0737,0.0737,0,, ,Correctness:,0.1237,0.1237,0,, ,Correctness:,0.3912,0.3912,0,, ,Correctness:,0.5062,0.5062,0,, 
,Correctness:,0.2963,0.2963,0,, ,Correctness:,0.1000,0.1000,0,, ,Correctness:,0.1338,0.1338,0,, ,Correctness:,0.5075,0.5075,0,, ,Correctness:,0.5763,0.5763,0,, 
,Correctness:,0.3350,0.3350,0,, ,Correctness:,0.0737,0.0737,0,, ,Correctness:,0.1187,0.1187,0,, ,Correctness:,0.5212,0.5212,0,, ,Correctness:,0.6188,0.6188,0,, 
,Correctness:,0.3013,0.3013,0,, ,Correctness:,0.1212,0.1212,0,, ,Correctness:,0.1588,0.1588,0,, ,Correctness:,0.4000,0.4000,0,, ,Correctness:,0.4900,0.4900,0,, 
,Correctness:,0.2913,0.2913,0,, ,Correctness:,0.0912,0.0912,0,, ,Correctness:,0.1187,0.1187,0,, ,Correctness:,0.4275,0.4275,0,, ,Correctness:,0.5262,0.5262,0,, 
,Correctness:,0.3144,0.3144,0,, ,Correctness:,0.0856,0.0856,0,, ,Correctness:,0.1119,0.1119,0,, ,Correctness:,0.5031,0.5031,0,, ,Correctness:,0.5938,0.5938,0,, 
,Correctness:,0.2881,0.2881,0,, ,Correctness:,0.0988,0.0988,0,, ,Correctness:,0.1313,0.1313,0,, ,Correctness:,0.4406,0.4406,0,, ,Correctness:,0.5387,0.5387,0,, 
,Correctness:,0.2863,0.2863,0,, ,Correctness:,0.0838,0.0838,0,, ,Correctness:,0.1081,0.1081,0,, ,Correctness:,0.4544,0.4544,0,, ,Correctness:,0.5731,0.5731,0,, 
,Correctness:,0.2975,0.2975,0,, ,Correctness:,0.0788,0.0788,0,, ,Correctness:,0.1237,0.1237,0,, ,Correctness:,0.4381,0.4381,0,, ,Correctness:,0.5500,0.5500,0,, 
,Correctness:,0.2575,0.2575,0,, ,Correctness:,0.0944,0.0944,0,, ,Correctness:,0.1250,0.1250,0,, ,Correctness:,0.3887,0.3887,0,, ,Correctness:,0.5369,0.5369,0,, 
,Correctness:,0.2687,0.2687,0,, ,Correctness:,0.0750,0.0750,0,, ,Correctness:,0.1056,0.1056,0,, ,Correctness:,0.4144,0.4144,0,, ,Correctness:,0.5200,0.5200,0,, 
,Correctness:,0.2988,0.2988,0,, ,Correctness:,0.0944,0.0944,0,, ,Correctness:,0.1156,0.1156,0,, ,Correctness:,0.4813,0.4813,0,, ,Correctness:,0.5744,0.5744,0,, 
,Correctness:,0.2812,0.2812,0,, ,Correctness:,0.1069,0.1069,0,, ,Correctness:,0.1294,0.1294,0,, ,Correctness:,0.4319,0.4319,0,, ,Correctness:,0.5700,0.5700,0,, 
,Correctness:,0.2775,0.2775,0,, ,Correctness:,0.0894,0.0894,0,, ,Correctness:,0.1288,0.1288,0,, ,Correctness:,0.4281,0.4281,0,, ,Correctness:,0.5269,0.5269,0,, 
,Correctness:,0.3006,0.3006,0,, ,Correctness:,0.0806,0.0806,0,, ,Correctness:,0.1150,0.1150,0,, ,Correctness:,0.4587,0.4587,0,, ,Correctness:,0.5881,0.5881,0,, 
Average:,0.3098,,,,, Average:,0.0834,,,,, Average:,0.1158,,,,, Average:,0.4732,,,,, Average:,0.5763,,,,, 
,Correctness:,0.5700,0.5700,0,, ,Correctness:,0.4200,0.4200,0,, ,Correctness:,0.5500,0.5500,0,, ,Correctness:,0.2800,0.2800,0,, ,Correctness:,0.4500,0.4500,0,, 
,Correctness:,0.4100,0.4100,0,, ,Correctness:,0.3100,0.3100,0,, ,Correctness:,0.5700,0.5700,0,, ,Correctness:,0.1400,0.1400,0,, ,Correctness:,0.3300,0.3300,0,, 
,Correctness:,0.6000,0.6000,0,, ,Correctness:,0.3100,0.3100,0,, ,Correctness:,0.5900,0.5900,0,, ,Correctness:,0.2300,0.2300,0,, ,Correctness:,0.4100,0.4100,0,, 
,Correctness:,0.6200,0.6200,0,, ,Correctness:,0.2500,0.2500,0,, ,Correctness:,0.5800,0.5800,0,, ,Correctness:,0.2700,0.2700,0,, ,Correctness:,0.4800,0.4800,0,, 
,Correctness:,0.6500,0.6500,0,, ,Correctness:,0.2700,0.2700,0,, ,Correctness:,0.5900,0.5900,0,, ,Correctness:,0.2100,0.2100,0,, ,Correctness:,0.4600,0.4600,0,, 
,Correctness:,0.4600,0.4600,0,, ,Correctness:,0.3300,0.3300,0,, ,Correctness:,0.3600,0.3600,0,, ,Correctness:,0.2700,0.2700,0,, ,Correctness:,0.3700,0.3700,0,, 
,Correctness:,0.3900,0.3900,0,, ,Correctness:,0.4200,0.4200,0,, ,Correctness:,0.4200,0.4200,0,, ,Correctness:,0.1400,0.1400,0,, ,Correctness:,0.3600,0.3600,0,, 
,Correctness:,0.3700,0.3700,0,, ,Correctness:,0.3600,0.3600,0,, ,Correctness:,0.4200,0.4200,0,, ,Correctness:,0.3300,0.3300,0,, ,Correctness:,0.3700,0.3700,0,, 
,Correctness:,0.5200,0.5200,0,, ,Correctness:,0.5500,0.5500,0,, ,Correctness:,0.3600,0.3600,0,, ,Correctness:,0.1600,0.1600,0,, ,Correctness:,0.4100,0.4100,0,, 
,Correctness:,0.5800,0.5800,0,, ,Correctness:,0.2500,0.2500,0,, ,Correctness:,0.6200,0.6200,0,, ,Correctness:,0.1800,0.1800,0,, ,Correctness:,0.3800,0.3800,0,, 
,Correctness:,0.5450,0.5450,0,, ,Correctness:,0.4700,0.4700,0,, ,Correctness:,0.3800,0.3800,0,, ,Correctness:,0.1850,0.1850,0,, ,Correctness:,0.4150,0.4150,0,, 
,Correctness:,0.5650,0.5650,0,, ,Correctness:,0.4300,0.4300,0,, ,Correctness:,0.4450,0.4450,0,, ,Correctness:,0.1900,0.1900,0,, ,Correctness:,0.3850,0.3850,0,, 
,Correctness:,0.4800,0.4800,0,, ,Correctness:,0.4450,0.4450,0,, ,Correctness:,0.4450,0.4450,0,, ,Correctness:,0.1500,0.1500,0,, ,Correctness:,0.3900,0.3900,0,, 
,Correctness:,0.4650,0.4650,0,, ,Correctness:,0.5400,0.5400,0,, ,Correctness:,0.3700,0.3700,0,, ,Correctness:,0.1800,0.1800,0,, ,Correctness:,0.3650,0.3650,0,, 
,Correctness:,0.6300,0.6300,0,, ,Correctness:,0.3200,0.3200,0,, ,Correctness:,0.5100,0.5100,0,, ,Correctness:,0.2350,0.2350,0,, ,Correctness:,0.4750,0.4750,0,, 
,Correctness:,0.5500,0.5500,0,, ,Correctness:,0.3450,0.3450,0,, ,Correctness:,0.4650,0.4650,0,, ,Correctness:,0.2250,0.2250,0,, ,Correctness:,0.4100,0.4100,0,, 
,Correctness:,0.6050,0.6050,0,, ,Correctness:,0.3500,0.3500,0,, ,Correctness:,0.5150,0.5150,0,, ,Correctness:,0.2550,0.2550,0,, ,Correctness:,0.4650,0.4650,0,, 
,Correctness:,0.6600,0.6600,0,, ,Correctness:,0.4100,0.4100,0,, ,Correctness:,0.4100,0.4100,0,, ,Correctness:,0.2350,0.2350,0,, ,Correctness:,0.4550,0.4550,0,, 
,Correctness:,0.4500,0.4500,0,, ,Correctness:,0.4250,0.4250,0,, ,Correctness:,0.3850,0.3850,0,, ,Correctness:,0.2350,0.2350,0,, ,Correctness:,0.3150,0.3150,0,, 
,Correctness:,0.5600,0.5600,0,, ,Correctness:,0.4250,0.4250,0,, ,Correctness:,0.3950,0.3950,0,, ,Correctness:,0.2650,0.2650,0,, ,Correctness:,0.3900,0.3900,0,, 
,Correctness:,0.5775,0.5775,0,, ,Correctness:,0.3300,0.3300,0,, ,Correctness:,0.5100,0.5100,0,, ,Correctness:,0.2450,0.2450,0,, ,Correctness:,0.4300,0.4300,0,, 
,Correctness:,0.5400,0.5400,0,, ,Correctness:,0.4100,0.4100,0,, ,Correctness:,0.4350,0.4350,0,, ,Correctness:,0.2600,0.2600,0,, ,Correctness:,0.4150,0.4150,0,, 
,Correctness:,0.5150,0.5150,0,, ,Correctness:,0.3425,0.3425,0,, ,Correctness:,0.5250,0.5250,0,, ,Correctness:,0.2825,0.2825,0,, ,Correctness:,0.3825,0.3825,0,, 
,Correctness:,0.4975,0.4975,0,, ,Correctness:,0.3675,0.3675,0,, ,Correctness:,0.4650,0.4650,0,, ,Correctness:,0.2450,0.2450,0,, ,Correctness:,0.3400,0.3400,0,, 
,Correctness:,0.5350,0.5350,0,, ,Correctness:,0.4050,0.4050,0,, ,Correctness:,0.4375,0.4375,0,, ,Correctness:,0.2450,0.2450,0,, ,Correctness:,0.4525,0.4525,0,, 
,Correctness:,0.5575,0.5575,0,, ,Correctness:,0.3525,0.3525,0,, ,Correctness:,0.4675,0.4675,0,, ,Correctness:,0.2400,0.2400,0,, ,Correctness:,0.4050,0.4050,0,, 
,Correctness:,0.5550,0.5550,0,, ,Correctness:,0.3400,0.3400,0,, ,Correctness:,0.5150,0.5150,0,, ,Correctness:,0.2350,0.2350,0,, ,Correctness:,0.4375,0.4375,0,, 
,Correctness:,0.5000,0.5000,0,, ,Correctness:,0.3825,0.3825,0,, ,Correctness:,0.4625,0.4625,0,, ,Correctness:,0.2475,0.2475,0,, ,Correctness:,0.3425,0.3425,0,, 
,Correctness:,0.5125,0.5125,0,, ,Correctness:,0.3725,0.3725,0,, ,Correctness:,0.4525,0.4525,0,, ,Correctness:,0.2325,0.2325,0,, ,Correctness:,0.3925,0.3925,0,, 
,Correctness:,0.5400,0.5400,0,, ,Correctness:,0.4300,0.4300,0,, ,Correctness:,0.4225,0.4225,0,, ,Correctness:,0.2325,0.2325,0,, ,Correctness:,0.3825,0.3825,0,, 
,Correctness:,0.5575,0.5575,0,, ,Correctness:,0.4025,0.4025,0,, ,Correctness:,0.4400,0.4400,0,, ,Correctness:,0.1737,0.1737,0,, ,Correctness:,0.4288,0.4288,0,, 
,Correctness:,0.5925,0.5925,0,, ,Correctness:,0.3663,0.3663,0,, ,Correctness:,0.4475,0.4475,0,, ,Correctness:,0.2550,0.2550,0,, ,Correctness:,0.4363,0.4363,0,, 
,Correctness:,0.5575,0.5575,0,, ,Correctness:,0.3688,0.3688,0,, ,Correctness:,0.4163,0.4163,0,, ,Correctness:,0.2850,0.2850,0,, ,Correctness:,0.4375,0.4375,0,, 
,Correctness:,0.5413,0.5413,0,, ,Correctness:,0.3837,0.3837,0,, ,Correctness:,0.4400,0.4400,0,, ,Correctness:,0.2087,0.2087,0,, ,Correctness:,0.4088,0.4088,0,, 
,Correctness:,0.5725,0.5725,0,, ,Correctness:,0.3962,0.3962,0,, ,Correctness:,0.4300,0.4300,0,, ,Correctness:,0.2213,0.2213,0,, ,Correctness:,0.4025,0.4025,0,, 
,Correctness:,0.4788,0.4788,0,, ,Correctness:,0.4550,0.4550,0,, ,Correctness:,0.3513,0.3513,0,, ,Correctness:,0.2188,0.2188,0,, ,Correctness:,0.3663,0.3663,0,, 
,Correctness:,0.5625,0.5625,0,, ,Correctness:,0.3825,0.3825,0,, ,Correctness:,0.4600,0.4600,0,, ,Correctness:,0.2375,0.2375,0,, ,Correctness:,0.4000,0.4000,0,, 
,Correctness:,0.5663,0.5663,0,, ,Correctness:,0.3750,0.3750,0,, ,Correctness:,0.4813,0.4813,0,, ,Correctness:,0.2375,0.2375,0,, ,Correctness:,0.4000,0.4000,0,, 
,Correctness:,0.5000,0.5000,0,, ,Correctness:,0.4600,0.4600,0,, ,Correctness:,0.3500,0.3500,0,, ,Correctness:,0.2200,0.2200,0,, ,Correctness:,0.3825,0.3825,0,, 
,Correctness:,0.5437,0.5437,0,, ,Correctness:,0.4475,0.4475,0,, ,Correctness:,0.4050,0.4050,0,, ,Correctness:,0.1988,0.1988,0,, ,Correctness:,0.4113,0.4113,0,, 
,Correctness:,0.5244,0.5244,0,, ,Correctness:,0.3700,0.3700,0,, ,Correctness:,0.4675,0.4675,0,, ,Correctness:,0.2356,0.2356,0,, ,Correctness:,0.4012,0.4012,0,, 
,Correctness:,0.5156,0.5156,0,, ,Correctness:,0.4219,0.4219,0,, ,Correctness:,0.4169,0.4169,0,, ,Correctness:,0.2150,0.2150,0,, ,Correctness:,0.4144,0.4144,0,, 
,Correctness:,0.5600,0.5600,0,, ,Correctness:,0.4275,0.4275,0,, ,Correctness:,0.4300,0.4300,0,, ,Correctness:,0.2181,0.2181,0,, ,Correctness:,0.4163,0.4163,0,, 
,Correctness:,0.5269,0.5269,0,, ,Correctness:,0.4094,0.4094,0,, ,Correctness:,0.4325,0.4325,0,, ,Correctness:,0.2144,0.2144,0,, ,Correctness:,0.4075,0.4075,0,, 
,Correctness:,0.5650,0.5650,0,, ,Correctness:,0.4775,0.4775,0,, ,Correctness:,0.3844,0.3844,0,, ,Correctness:,0.2431,0.2431,0,, ,Correctness:,0.4188,0.4188,0,, 
,Correctness:,0.5450,0.5450,0,, ,Correctness:,0.4706,0.4706,0,, ,Correctness:,0.3950,0.3950,0,, ,Correctness:,0.2288,0.2288,0,, ,Correctness:,0.4031,0.4031,0,, 
,Correctness:,0.5431,0.5431,0,, ,Correctness:,0.3869,0.3869,0,, ,Correctness:,0.4525,0.4525,0,, ,Correctness:,0.2294,0.2294,0,, ,Correctness:,0.4150,0.4150,0,, 
,Correctness:,0.5606,0.5606,0,, ,Correctness:,0.4075,0.4075,0,, ,Correctness:,0.4537,0.4537,0,, ,Correctness:,0.2194,0.2194,0,, ,Correctness:,0.4306,0.4306,0,, 
,Correctness:,0.5238,0.5238,0,, ,Correctness:,0.4487,0.4487,0,, ,Correctness:,0.3862,0.3862,0,, ,Correctness:,0.2131,0.2131,0,, ,Correctness:,0.4044,0.4044,0,, 
,Correctness:,0.5725,0.5725,0,, ,Correctness:,0.3844,0.3844,0,, ,Correctness:,0.4806,0.4806,0,, ,Correctness:,0.2269,0.2269,0,, ,Correctness:,0.4275,0.4275,0,, 
Average:,0.5384,,,,, Average:,0.3921,,,,, Average:,0.4519,,,,, Average:,0.2266,,,,, Average:,0.4056,,,,, 
,Correctness:,0.5100,0.5100,0,, ,Correctness:,0.0500,0.0500,0,, ,Correctness:,0.0900,0.0900,0,, ,Correctness:,0.4000,0.4000,0,, ,Correctness:,0.4200,0.4200,0,, 
,Correctness:,0.4800,0.4800,0,, ,Correctness:,0.0600,0.0600,0,, ,Correctness:,0.1200,0.1200,0,, ,Correctness:,0.2900,0.2900,0,, ,Correctness:,0.3300,0.3300,0,, 
,Correctness:,0.5600,0.5600,0,, ,Correctness:,0.0200,0.0200,0,, ,Correctness:,0.1400,0.1400,0,, ,Correctness:,0.2500,0.2500,0,, ,Correctness:,0.3300,0.3300,0,, 
,Correctness:,0.5200,0.5200,0,, ,Correctness:,0.0600,0.0600,0,, ,Correctness:,0.1700,0.1700,0,, ,Correctness:,0.3000,0.3000,0,, ,Correctness:,0.2600,0.2600,0,, 
,Correctness:,0.5800,0.5800,0,, ,Correctness:,0.0600,0.0600,0,, ,Correctness:,0.1500,0.1500,0,, ,Correctness:,0.5300,0.5300,0,, ,Correctness:,0.2700,0.2700,0,, 
,Correctness:,0.3600,0.3600,0,, ,Correctness:,0.1400,0.1400,0,, ,Correctness:,0.3200,0.3200,0,, ,Correctness:,0.3700,0.3700,0,, ,Correctness:,0.3300,0.3300,0,, 
,Correctness:,0.2800,0.2800,0,, ,Correctness:,0.0700,0.0700,0,, ,Correctness:,0.2900,0.2900,0,, ,Correctness:,0.2400,0.2400,0,, ,Correctness:,0.4600,0.4600,0,, 
,Correctness:,0.5000,0.5000,0,, ,Correctness:,0.1300,0.1300,0,, ,Correctness:,0.2200,0.2200,0,, ,Correctness:,0.2300,0.2300,0,, ,Correctness:,0.3300,0.3300,0,, 
,Correctness:,0.3600,0.3600,0,, ,Correctness:,0.0300,0.0300,0,, ,Correctness:,0.0800,0.0800,0,, ,Correctness:,0.3100,0.3100,0,, ,Correctness:,0.5700,0.5700,0,, 
,Correctness:,0.6200,0.6200,0,, ,Correctness:,0.1200,0.1200,0,, ,Correctness:,0.1900,0.1900,0,, ,Correctness:,0.3000,0.3000,0,, ,Correctness:,0.2500,0.2500,0,, 
,Correctness:,0.3350,0.3350,0,, ,Correctness:,0.0950,0.0950,0,, ,Correctness:,0.1900,0.1900,0,, ,Correctness:,0.3750,0.3750,0,, ,Correctness:,0.4750,0.4750,0,, 
,Correctness:,0.4000,0.4000,0,, ,Correctness:,0.1050,0.1050,0,, ,Correctness:,0.2050,0.2050,0,, ,Correctness:,0.2900,0.2900,0,, ,Correctness:,0.4400,0.4400,0,, 
,Correctness:,0.3950,0.3950,0,, ,Correctness:,0.0600,0.0600,0,, ,Correctness:,0.1350,0.1350,0,, ,Correctness:,0.2800,0.2800,0,, ,Correctness:,0.4600,0.4600,0,, 
,Correctness:,0.3900,0.3900,0,, ,Correctness:,0.0850,0.0850,0,, ,Correctness:,0.1450,0.1450,0,, ,Correctness:,0.3150,0.3150,0,, ,Correctness:,0.5250,0.5250,0,, 
,Correctness:,0.4850,0.4850,0,, ,Correctness:,0.1200,0.1200,0,, ,Correctness:,0.1900,0.1900,0,, ,Correctness:,0.3450,0.3450,0,, ,Correctness:,0.3250,0.3250,0,, 
,Correctness:,0.4900,0.4900,0,, ,Correctness:,0.0600,0.0600,0,, ,Correctness:,0.1500,0.1500,0,, ,Correctness:,0.2650,0.2650,0,, ,Correctness:,0.3550,0.3550,0,, 
,Correctness:,0.5000,0.5000,0,, ,Correctness:,0.0750,0.0750,0,, ,Correctness:,0.1300,0.1300,0,, ,Correctness:,0.3850,0.3850,0,, ,Correctness:,0.3700,0.3700,0,, 
,Correctness:,0.3750,0.3750,0,, ,Correctness:,0.1050,0.1050,0,, ,Correctness:,0.2300,0.2300,0,, ,Correctness:,0.4150,0.4150,0,, ,Correctness:,0.4300,0.4300,0,, 
,Correctness:,0.3450,0.3450,0,, ,Correctness:,0.1400,0.1400,0,, ,Correctness:,0.2400,0.2400,0,, ,Correctness:,0.3750,0.3750,0,, ,Correctness:,0.4200,0.4200,0,, 
,Correctness:,0.3700,0.3700,0,, ,Correctness:,0.0750,0.0750,0,, ,Correctness:,0.2050,0.2050,0,, ,Correctness:,0.3150,0.3150,0,, ,Correctness:,0.4400,0.4400,0,, 
,Correctness:,0.4875,0.4875,0,, ,Correctness:,0.0850,0.0850,0,, ,Correctness:,0.1825,0.1825,0,, ,Correctness:,0.3075,0.3075,0,, ,Correctness:,0.3350,0.3350,0,, 
,Correctness:,0.4500,0.4500,0,, ,Correctness:,0.0850,0.0850,0,, ,Correctness:,0.1550,0.1550,0,, ,Correctness:,0.4025,0.4025,0,, ,Correctness:,0.4125,0.4125,0,, 
,Correctness:,0.5300,0.5300,0,, ,Correctness:,0.0675,0.0675,0,, ,Correctness:,0.1500,0.1500,0,, ,Correctness:,0.3000,0.3000,0,, ,Correctness:,0.3575,0.3575,0,, 
,Correctness:,0.4400,0.4400,0,, ,Correctness:,0.0950,0.0950,0,, ,Correctness:,0.1725,0.1725,0,, ,Correctness:,0.2750,0.2750,0,, ,Correctness:,0.3825,0.3825,0,, 
,Correctness:,0.3900,0.3900,0,, ,Correctness:,0.0850,0.0850,0,, ,Correctness:,0.1850,0.1850,0,, ,Correctness:,0.3625,0.3625,0,, ,Correctness:,0.4075,0.4075,0,, 
,Correctness:,0.4525,0.4525,0,, ,Correctness:,0.0800,0.0800,0,, ,Correctness:,0.2100,0.2100,0,, ,Correctness:,0.3500,0.3500,0,, ,Correctness:,0.3825,0.3825,0,, 
,Correctness:,0.4925,0.4925,0,, ,Correctness:,0.0675,0.0675,0,, ,Correctness:,0.1575,0.1575,0,, ,Correctness:,0.4375,0.4375,0,, ,Correctness:,0.3525,0.3525,0,, 
,Correctness:,0.4275,0.4275,0,, ,Correctness:,0.0875,0.0875,0,, ,Correctness:,0.1625,0.1625,0,, ,Correctness:,0.3175,0.3175,0,, ,Correctness:,0.3975,0.3975,0,, 
,Correctness:,0.3975,0.3975,0,, ,Correctness:,0.0975,0.0975,0,, ,Correctness:,0.2150,0.2150,0,, ,Correctness:,0.2625,0.2625,0,, ,Correctness:,0.3700,0.3700,0,, 
,Correctness:,0.4250,0.4250,0,, ,Correctness:,0.0875,0.0875,0,, ,Correctness:,0.2100,0.2100,0,, ,Correctness:,0.3500,0.3500,0,, ,Correctness:,0.4200,0.4200,0,, 
,Correctness:,0.4188,0.4188,0,, ,Correctness:,0.0963,0.0963,0,, ,Correctness:,0.1862,0.1862,0,, ,Correctness:,0.3962,0.3962,0,, ,Correctness:,0.4175,0.4175,0,, 
,Correctness:,0.3912,0.3912,0,, ,Correctness:,0.1225,0.1225,0,, ,Correctness:,0.2462,0.2462,0,, ,Correctness:,0.3825,0.3825,0,, ,Correctness:,0.3350,0.3350,0,, 
,Correctness:,0.3900,0.3900,0,, ,Correctness:,0.1050,0.1050,0,, ,Correctness:,0.2425,0.2425,0,, ,Correctness:,0.3675,0.3675,0,, ,Correctness:,0.3800,0.3800,0,, 
,Correctness:,0.4225,0.4225,0,, ,Correctness:,0.1313,0.1313,0,, ,Correctness:,0.2150,0.2150,0,, ,Correctness:,0.3775,0.3775,0,, ,Correctness:,0.3762,0.3762,0,, 
,Correctness:,0.4138,0.4138,0,, ,Correctness:,0.0750,0.0750,0,, ,Correctness:,0.1975,0.1975,0,, ,Correctness:,0.3063,0.3063,0,, ,Correctness:,0.4100,0.4100,0,, 
,Correctness:,0.3600,0.3600,0,, ,Correctness:,0.0788,0.0788,0,, ,Correctness:,0.2062,0.2062,0,, ,Correctness:,0.3550,0.3550,0,, ,Correctness:,0.4838,0.4838,0,, 
,Correctness:,0.4662,0.4662,0,, ,Correctness:,0.1025,0.1025,0,, ,Correctness:,0.1825,0.1825,0,, ,Correctness:,0.3250,0.3250,0,, ,Correctness:,0.3787,0.3787,0,, 
,Correctness:,0.4738,0.4738,0,, ,Correctness:,0.0850,0.0850,0,, ,Correctness:,0.1650,0.1650,0,, ,Correctness:,0.3588,0.3588,0,, ,Correctness:,0.3775,0.3775,0,, 
,Correctness:,0.3550,0.3550,0,, ,Correctness:,0.1313,0.1313,0,, ,Correctness:,0.2288,0.2288,0,, ,Correctness:,0.3550,0.3550,0,, ,Correctness:,0.4637,0.4637,0,, 
,Correctness:,0.3750,0.3750,0,, ,Correctness:,0.0950,0.0950,0,, ,Correctness:,0.1800,0.1800,0,, ,Correctness:,0.3725,0.3725,0,, ,Correctness:,0.4387,0.4387,0,, 
,Correctness:,0.4575,0.4575,0,, ,Correctness:,0.0887,0.0887,0,, ,Correctness:,0.1956,0.1956,0,, ,Correctness:,0.3106,0.3106,0,, ,Correctness:,0.3631,0.3631,0,, 
,Correctness:,0.4125,0.4125,0,, ,Correctness:,0.1019,0.1019,0,, ,Correctness:,0.1781,0.1781,0,, ,Correctness:,0.3506,0.3506,0,, ,Correctness:,0.4213,0.4213,0,, 
,Correctness:,0.4150,0.4150,0,, ,Correctness:,0.0887,0.0887,0,, ,Correctness:,0.1719,0.1719,0,, ,Correctness:,0.3719,0.3719,0,, ,Correctness:,0.4338,0.4338,0,, 
,Correctness:,0.4163,0.4163,0,, ,Correctness:,0.0912,0.0912,0,, ,Correctness:,0.2087,0.2087,0,, ,Correctness:,0.3756,0.3756,0,, ,Correctness:,0.4200,0.4200,0,, 
,Correctness:,0.3744,0.3744,0,, ,Correctness:,0.1031,0.1031,0,, ,Correctness:,0.1694,0.1694,0,, ,Correctness:,0.4206,0.4206,0,, ,Correctness:,0.4662,0.4662,0,, 
,Correctness:,0.3912,0.3912,0,, ,Correctness:,0.0806,0.0806,0,, ,Correctness:,0.1681,0.1681,0,, ,Correctness:,0.3806,0.3806,0,, ,Correctness:,0.4775,0.4775,0,, 
,Correctness:,0.4412,0.4412,0,, ,Correctness:,0.0869,0.0869,0,, ,Correctness:,0.1812,0.1812,0,, ,Correctness:,0.3356,0.3356,0,, ,Correctness:,0.3844,0.3844,0,, 
,Correctness:,0.4350,0.4350,0,, ,Correctness:,0.1144,0.1144,0,, ,Correctness:,0.1781,0.1781,0,, ,Correctness:,0.3831,0.3831,0,, ,Correctness:,0.4050,0.4050,0,, 
,Correctness:,0.3812,0.3812,0,, ,Correctness:,0.0944,0.0944,0,, ,Correctness:,0.1944,0.1944,0,, ,Correctness:,0.3762,0.3762,0,, ,Correctness:,0.4494,0.4494,0,, 
,Correctness:,0.4669,0.4669,0,, ,Correctness:,0.0856,0.0856,0,, ,Correctness:,0.1725,0.1725,0,, ,Correctness:,0.3925,0.3925,0,, ,Correctness:,0.3812,0.3812,0,, 
Average:,0.4321,,,,, Average:,0.0891,,,,, Average:,0.1852,,,,, Average:,0.3448,,,,, Average:,0.3974,,,,, 
,Correctness:,0.4200,0.4200,0,, ,Correctness:,0.3300,0.3300,0,, ,Correctness:,0.1200,0.1200,0,, ,Correctness:,0.4100,0.4100,0,, ,Correctness:,0.5300,0.5300,0,, 
,Correctness:,0.2100,0.2100,0,, ,Correctness:,0.3000,0.3000,0,, ,Correctness:,0.1200,0.1200,0,, ,Correctness:,0.4900,0.4900,0,, ,Correctness:,0.5700,0.5700,0,, 
,Correctness:,0.2600,0.2600,0,, ,Correctness:,0.2500,0.2500,0,, ,Correctness:,0.1400,0.1400,0,, ,Correctness:,0.3800,0.3800,0,, ,Correctness:,0.6200,0.6200,0,, 
,Correctness:,0.3300,0.3300,0,, ,Correctness:,0.2500,0.2500,0,, ,Correctness:,0.1600,0.1600,0,, ,Correctness:,0.2900,0.2900,0,, ,Correctness:,0.6500,0.6500,0,, 
,Correctness:,0.3900,0.3900,0,, ,Correctness:,0.2800,0.2800,0,, ,Correctness:,0.1500,0.1500,0,, ,Correctness:,0.2900,0.2900,0,, ,Correctness:,0.7000,0.7000,0,, 
,Correctness:,0.2500,0.2500,0,, ,Correctness:,0.3500,0.3500,0,, ,Correctness:,0.3000,0.3000,0,, ,Correctness:,0.4500,0.4500,0,, ,Correctness:,0.5600,0.5600,0,, 
,Correctness:,0.1200,0.1200,0,, ,Correctness:,0.3100,0.3100,0,, ,Correctness:,0.1000,0.1000,0,, ,Correctness:,0.5300,0.5300,0,, ,Correctness:,0.4500,0.4500,0,, 
,Correctness:,0.3200,0.3200,0,, ,Correctness:,0.3100,0.3100,0,, ,Correctness:,0.2100,0.2100,0,, ,Correctness:,0.4800,0.4800,0,, ,Correctness:,0.5100,0.5100,0,, 
,Correctness:,0.1400,0.1400,0,, ,Correctness:,0.3200,0.3200,0,, ,Correctness:,0.1000,0.1000,0,, ,Correctness:,0.4900,0.4900,0,, ,Correctness:,0.4100,0.4100,0,, 
,Correctness:,0.4600,0.4600,0,, ,Correctness:,0.3100,0.3100,0,, ,Correctness:,0.1800,0.1800,0,, ,Correctness:,0.3100,0.3100,0,, ,Correctness:,0.6200,0.6200,0,, 
,Correctness:,0.1550,0.1550,0,, ,Correctness:,0.3000,0.3000,0,, ,Correctness:,0.1700,0.1700,0,, ,Correctness:,0.3450,0.3450,0,, ,Correctness:,0.4550,0.4550,0,, 
,Correctness:,0.2400,0.2400,0,, ,Correctness:,0.3900,0.3900,0,, ,Correctness:,0.2000,0.2000,0,, ,Correctness:,0.3500,0.3500,0,, ,Correctness:,0.4700,0.4700,0,, 
,Correctness:,0.2150,0.2150,0,, ,Correctness:,0.3300,0.3300,0,, ,Correctness:,0.1400,0.1400,0,, ,Correctness:,0.4500,0.4500,0,, ,Correctness:,0.4700,0.4700,0,, 
,Correctness:,0.2250,0.2250,0,, ,Correctness:,0.3250,0.3250,0,, ,Correctness:,0.1550,0.1550,0,, ,Correctness:,0.4700,0.4700,0,, ,Correctness:,0.3900,0.3900,0,, 
,Correctness:,0.2950,0.2950,0,, ,Correctness:,0.3400,0.3400,0,, ,Correctness:,0.1900,0.1900,0,, ,Correctness:,0.2550,0.2550,0,, ,Correctness:,0.5750,0.5750,0,, 
,Correctness:,0.3200,0.3200,0,, ,Correctness:,0.2650,0.2650,0,, ,Correctness:,0.1700,0.1700,0,, ,Correctness:,0.3850,0.3850,0,, ,Correctness:,0.6000,0.6000,0,, 
,Correctness:,0.3500,0.3500,0,, ,Correctness:,0.2900,0.2900,0,, ,Correctness:,0.1300,0.1300,0,, ,Correctness:,0.3600,0.3600,0,, ,Correctness:,0.5400,0.5400,0,, 
,Correctness:,0.3000,0.3000,0,, ,Correctness:,0.3450,0.3450,0,, ,Correctness:,0.2200,0.2200,0,, ,Correctness:,0.3350,0.3350,0,, ,Correctness:,0.5050,0.5050,0,, 
,Correctness:,0.2650,0.2650,0,, ,Correctness:,0.3850,0.3850,0,, ,Correctness:,0.2300,0.2300,0,, ,Correctness:,0.4400,0.4400,0,, ,Correctness:,0.4650,0.4650,0,, 
,Correctness:,0.2550,0.2550,0,, ,Correctness:,0.2900,0.2900,0,, ,Correctness:,0.2100,0.2100,0,, ,Correctness:,0.4050,0.4050,0,, ,Correctness:,0.4900,0.4900,0,, 
,Correctness:,0.3150,0.3150,0,, ,Correctness:,0.3275,0.3275,0,, ,Correctness:,0.1825,0.1825,0,, ,Correctness:,0.3375,0.3375,0,, ,Correctness:,0.5775,0.5775,0,, 
,Correctness:,0.3050,0.3050,0,, ,Correctness:,0.3050,0.3050,0,, ,Correctness:,0.1525,0.1525,0,, ,Correctness:,0.3425,0.3425,0,, ,Correctness:,0.5000,0.5000,0,, 
,Correctness:,0.3375,0.3375,0,, ,Correctness:,0.2975,0.2975,0,, ,Correctness:,0.1425,0.1425,0,, ,Correctness:,0.4025,0.4025,0,, ,Correctness:,0.5700,0.5700,0,, 
,Correctness:,0.2350,0.2350,0,, ,Correctness:,0.3425,0.3425,0,, ,Correctness:,0.1375,0.1375,0,, ,Correctness:,0.4100,0.4100,0,, ,Correctness:,0.5300,0.5300,0,, 
,Correctness:,0.2875,0.2875,0,, ,Correctness:,0.2725,0.2725,0,, ,Correctness:,0.1825,0.1825,0,, ,Correctness:,0.4025,0.4025,0,, ,Correctness:,0.5200,0.5200,0,, 
,Correctness:,0.2050,0.2050,0,, ,Correctness:,0.3200,0.3200,0,, ,Correctness:,0.2050,0.2050,0,, ,Correctness:,0.3625,0.3625,0,, ,Correctness:,0.5500,0.5500,0,, 
,Correctness:,0.4200,0.4200,0,, ,Correctness:,0.2625,0.2625,0,, ,Correctness:,0.1675,0.1675,0,, ,Correctness:,0.3675,0.3675,0,, ,Correctness:,0.5675,0.5675,0,, 
,Correctness:,0.2925,0.2925,0,, ,Correctness:,0.3300,0.3300,0,, ,Correctness:,0.1575,0.1575,0,, ,Correctness:,0.4100,0.4100,0,, ,Correctness:,0.5175,0.5175,0,, 
,Correctness:,0.2150,0.2150,0,, ,Correctness:,0.3225,0.3225,0,, ,Correctness:,0.2200,0.2200,0,, ,Correctness:,0.4425,0.4425,0,, ,Correctness:,0.5325,0.5325,0,, 
,Correctness:,0.3350,0.3350,0,, ,Correctness:,0.3275,0.3275,0,, ,Correctness:,0.2200,0.2200,0,, ,Correctness:,0.3700,0.3700,0,, ,Correctness:,0.4800,0.4800,0,, 
,Correctness:,0.2600,0.2600,0,, ,Correctness:,0.3250,0.3250,0,, ,Correctness:,0.1800,0.1800,0,, ,Correctness:,0.3713,0.3713,0,, ,Correctness:,0.4938,0.4938,0,, 
,Correctness:,0.2612,0.2612,0,, ,Correctness:,0.3212,0.3212,0,, ,Correctness:,0.2487,0.2487,0,, ,Correctness:,0.3250,0.3250,0,, ,Correctness:,0.5537,0.5537,0,, 
,Correctness:,0.2350,0.2350,0,, ,Correctness:,0.3187,0.3187,0,, ,Correctness:,0.2525,0.2525,0,, ,Correctness:,0.3513,0.3513,0,, ,Correctness:,0.5200,0.5200,0,, 
,Correctness:,0.2875,0.2875,0,, ,Correctness:,0.3325,0.3325,0,, ,Correctness:,0.2112,0.2112,0,, ,Correctness:,0.3887,0.3887,0,, ,Correctness:,0.5125,0.5125,0,, 
,Correctness:,0.2700,0.2700,0,, ,Correctness:,0.3275,0.3275,0,, ,Correctness:,0.1925,0.1925,0,, ,Correctness:,0.3563,0.3563,0,, ,Correctness:,0.5250,0.5250,0,, 
,Correctness:,0.2425,0.2425,0,, ,Correctness:,0.3312,0.3312,0,, ,Correctness:,0.2112,0.2112,0,, ,Correctness:,0.4487,0.4487,0,, ,Correctness:,0.4462,0.4462,0,, 
,Correctness:,0.2900,0.2900,0,, ,Correctness:,0.3375,0.3375,0,, ,Correctness:,0.1850,0.1850,0,, ,Correctness:,0.3663,0.3663,0,, ,Correctness:,0.5212,0.5212,0,, 
,Correctness:,0.2888,0.2888,0,, ,Correctness:,0.3113,0.3113,0,, ,Correctness:,0.1575,0.1575,0,, ,Correctness:,0.3463,0.3463,0,, ,Correctness:,0.5487,0.5487,0,, 
,Correctness:,0.2112,0.2112,0,, ,Correctness:,0.3488,0.3488,0,, ,Correctness:,0.2175,0.2175,0,, ,Correctness:,0.4125,0.4125,0,, ,Correctness:,0.4150,0.4150,0,, 
,Correctness:,0.2637,0.2637,0,, ,Correctness:,0.3675,0.3675,0,, ,Correctness:,0.1988,0.1988,0,, ,Correctness:,0.3862,0.3862,0,, ,Correctness:,0.4725,0.4725,0,, 
,Correctness:,0.2762,0.2762,0,, ,Correctness:,0.3225,0.3225,0,, ,Correctness:,0.1931,0.1931,0,, ,Correctness:,0.4012,0.4012,0,, ,Correctness:,0.5437,0.5437,0,, 
,Correctness:,0.2944,0.2944,0,, ,Correctness:,0.3275,0.3275,0,, ,Correctness:,0.1781,0.1781,0,, ,Correctness:,0.3837,0.3837,0,, ,Correctness:,0.4788,0.4788,0,, 
,Correctness:,0.3050,0.3050,0,, ,Correctness:,0.3269,0.3269,0,, ,Correctness:,0.1688,0.1688,0,, ,Correctness:,0.3744,0.3744,0,, ,Correctness:,0.4813,0.4813,0,, 
,Correctness:,0.2988,0.2988,0,, ,Correctness:,0.3175,0.3175,0,, ,Correctness:,0.2081,0.2081,0,, ,Correctness:,0.4144,0.4144,0,, ,Correctness:,0.4988,0.4988,0,, 
,Correctness:,0.2644,0.2644,0,, ,Correctness:,0.3431,0.3431,0,, ,Correctness:,0.1694,0.1694,0,, ,Correctness:,0.3550,0.3550,0,, ,Correctness:,0.4375,0.4375,0,, 
,Correctness:,0.2362,0.2362,0,, ,Correctness:,0.3469,0.3469,0,, ,Correctness:,0.1656,0.1656,0,, ,Correctness:,0.4000,0.4000,0,, ,Correctness:,0.4462,0.4462,0,, 
,Correctness:,0.2894,0.2894,0,, ,Correctness:,0.3212,0.3212,0,, ,Correctness:,0.1862,0.1862,0,, ,Correctness:,0.3769,0.3769,0,, ,Correctness:,0.5150,0.5150,0,, 
,Correctness:,0.3113,0.3113,0,, ,Correctness:,0.3463,0.3463,0,, ,Correctness:,0.1744,0.1744,0,, ,Correctness:,0.3544,0.3544,0,, ,Correctness:,0.4938,0.4938,0,, 
,Correctness:,0.2394,0.2394,0,, ,Correctness:,0.3469,0.3469,0,, ,Correctness:,0.1888,0.1888,0,, ,Correctness:,0.4025,0.4025,0,, ,Correctness:,0.4625,0.4625,0,, 
,Correctness:,0.3013,0.3013,0,, ,Correctness:,0.3225,0.3225,0,, ,Correctness:,0.1769,0.1769,0,, ,Correctness:,0.3444,0.3444,0,, ,Correctness:,0.5344,0.5344,0,, 
Average:,0.2779,,,,, Average:,0.3204,,,,, Average:,0.1805,,,,, Average:,0.3864,,,,, Average:,0.5165,,,,, 
,Correctness:,0.5800,0.5800,0,, ,Correctness:,0.4700,0.4700,0,, ,Correctness:,0.5500,0.5500,0,, ,Correctness:,0.5500,0.5500,0,, ,Correctness:,0.3000,0.3000,0,, 
,Correctness:,0.3500,0.3500,0,, ,Correctness:,0.5300,0.5300,0,, ,Correctness:,0.4600,0.4600,0,, ,Correctness:,0.6100,0.6100,0,, ,Correctness:,0.3500,0.3500,0,, 
,Correctness:,0.6000,0.6000,0,, ,Correctness:,0.5100,0.5100,0,, ,Correctness:,0.5400,0.5400,0,, ,Correctness:,0.6500,0.6500,0,, ,Correctness:,0.2700,0.2700,0,, 
,Correctness:,0.6700,0.6700,0,, ,Correctness:,0.5500,0.5500,0,, ,Correctness:,0.6000,0.6000,0,, ,Correctness:,0.6900,0.6900,0,, ,Correctness:,0.2300,0.2300,0,, 
,Correctness:,0.5600,0.5600,0,, ,Correctness:,0.4900,0.4900,0,, ,Correctness:,0.6200,0.6200,0,, ,Correctness:,0.6700,0.6700,0,, ,Correctness:,0.2200,0.2200,0,, 
,Correctness:,0.3300,0.3300,0,, ,Correctness:,0.4100,0.4100,0,, ,Correctness:,0.4400,0.4400,0,, ,Correctness:,0.5300,0.5300,0,, ,Correctness:,0.3200,0.3200,0,, 
,Correctness:,0.3300,0.3300,0,, ,Correctness:,0.4200,0.4200,0,, ,Correctness:,0.4400,0.4400,0,, ,Correctness:,0.4900,0.4900,0,, ,Correctness:,0.3200,0.3200,0,, 
,Correctness:,0.4300,0.4300,0,, ,Correctness:,0.4200,0.4200,0,, ,Correctness:,0.4300,0.4300,0,, ,Correctness:,0.5600,0.5600,0,, ,Correctness:,0.3700,0.3700,0,, 
,Correctness:,0.4500,0.4500,0,, ,Correctness:,0.4400,0.4400,0,, ,Correctness:,0.4500,0.4500,0,, ,Correctness:,0.4900,0.4900,0,, ,Correctness:,0.4000,0.4000,0,, 
,Correctness:,0.5900,0.5900,0,, ,Correctness:,0.4900,0.4900,0,, ,Correctness:,0.4900,0.4900,0,, ,Correctness:,0.6400,0.6400,0,, ,Correctness:,0.1900,0.1900,0,, 
,Correctness:,0.4850,0.4850,0,, ,Correctness:,0.4200,0.4200,0,, ,Correctness:,0.5300,0.5300,0,, ,Correctness:,0.5450,0.5450,0,, ,Correctness:,0.3300,0.3300,0,, 
,Correctness:,0.4600,0.4600,0,, ,Correctness:,0.5000,0.5000,0,, ,Correctness:,0.4600,0.4600,0,, ,Correctness:,0.4850,0.4850,0,, ,Correctness:,0.2650,0.2650,0,, 
,Correctness:,0.3700,0.3700,0,, ,Correctness:,0.4900,0.4900,0,, ,Correctness:,0.4750,0.4750,0,, ,Correctness:,0.5400,0.5400,0,, ,Correctness:,0.3700,0.3700,0,, 
,Correctness:,0.4550,0.4550,0,, ,Correctness:,0.4100,0.4100,0,, ,Correctness:,0.4200,0.4200,0,, ,Correctness:,0.4100,0.4100,0,, ,Correctness:,0.3800,0.3800,0,, 
,Correctness:,0.6200,0.6200,0,, ,Correctness:,0.4650,0.4650,0,, ,Correctness:,0.5600,0.5600,0,, ,Correctness:,0.5650,0.5650,0,, ,Correctness:,0.2450,0.2450,0,, 
,Correctness:,0.5550,0.5550,0,, ,Correctness:,0.4600,0.4600,0,, ,Correctness:,0.5200,0.5200,0,, ,Correctness:,0.6050,0.6050,0,, ,Correctness:,0.3500,0.3500,0,, 
,Correctness:,0.6400,0.6400,0,, ,Correctness:,0.4600,0.4600,0,, ,Correctness:,0.5700,0.5700,0,, ,Correctness:,0.5350,0.5350,0,, ,Correctness:,0.2050,0.2050,0,, 
,Correctness:,0.6250,0.6250,0,, ,Correctness:,0.4500,0.4500,0,, ,Correctness:,0.5450,0.5450,0,, ,Correctness:,0.5250,0.5250,0,, ,Correctness:,0.2500,0.2500,0,, 
,Correctness:,0.4550,0.4550,0,, ,Correctness:,0.4500,0.4500,0,, ,Correctness:,0.3900,0.3900,0,, ,Correctness:,0.4850,0.4850,0,, ,Correctness:,0.3700,0.3700,0,, 
,Correctness:,0.5400,0.5400,0,, ,Correctness:,0.4000,0.4000,0,, ,Correctness:,0.4700,0.4700,0,, ,Correctness:,0.5050,0.5050,0,, ,Correctness:,0.2800,0.2800,0,, 
,Correctness:,0.4825,0.4825,0,, ,Correctness:,0.4650,0.4650,0,, ,Correctness:,0.5275,0.5275,0,, ,Correctness:,0.5800,0.5800,0,, ,Correctness:,0.2775,0.2775,0,, 
,Correctness:,0.5050,0.5050,0,, ,Correctness:,0.4475,0.4475,0,, ,Correctness:,0.5000,0.5000,0,, ,Correctness:,0.4900,0.4900,0,, ,Correctness:,0.3125,0.3125,0,, 
,Correctness:,0.5350,0.5350,0,, ,Correctness:,0.4475,0.4475,0,, ,Correctness:,0.5050,0.5050,0,, ,Correctness:,0.5650,0.5650,0,, ,Correctness:,0.3150,0.3150,0,, 
,Correctness:,0.4425,0.4425,0,, ,Correctness:,0.4725,0.4725,0,, ,Correctness:,0.4700,0.4700,0,, ,Correctness:,0.5725,0.5725,0,, ,Correctness:,0.3075,0.3075,0,, 
,Correctness:,0.5275,0.5275,0,, ,Correctness:,0.4500,0.4500,0,, ,Correctness:,0.4950,0.4950,0,, ,Correctness:,0.5275,0.5275,0,, ,Correctness:,0.3075,0.3075,0,, 
,Correctness:,0.4900,0.4900,0,, ,Correctness:,0.4750,0.4750,0,, ,Correctness:,0.4925,0.4925,0,, ,Correctness:,0.5425,0.5425,0,, ,Correctness:,0.2725,0.2725,0,, 
,Correctness:,0.5650,0.5650,0,, ,Correctness:,0.4725,0.4725,0,, ,Correctness:,0.5200,0.5200,0,, ,Correctness:,0.5575,0.5575,0,, ,Correctness:,0.3025,0.3025,0,, 
,Correctness:,0.4850,0.4850,0,, ,Correctness:,0.4675,0.4675,0,, ,Correctness:,0.4475,0.4475,0,, ,Correctness:,0.5300,0.5300,0,, ,Correctness:,0.3625,0.3625,0,, 
,Correctness:,0.4400,0.4400,0,, ,Correctness:,0.4350,0.4350,0,, ,Correctness:,0.4475,0.4475,0,, ,Correctness:,0.5700,0.5700,0,, ,Correctness:,0.2900,0.2900,0,, 
,Correctness:,0.5225,0.5225,0,, ,Correctness:,0.4625,0.4625,0,, ,Correctness:,0.4425,0.4425,0,, ,Correctness:,0.4850,0.4850,0,, ,Correctness:,0.3225,0.3225,0,, 
,Correctness:,0.4875,0.4875,0,, ,Correctness:,0.4637,0.4637,0,, ,Correctness:,0.5000,0.5000,0,, ,Correctness:,0.4963,0.4963,0,, ,Correctness:,0.2725,0.2725,0,, 
,Correctness:,0.5587,0.5587,0,, ,Correctness:,0.4813,0.4813,0,, ,Correctness:,0.4838,0.4838,0,, ,Correctness:,0.5525,0.5525,0,, ,Correctness:,0.2013,0.2013,0,, 
,Correctness:,0.4963,0.4963,0,, ,Correctness:,0.4487,0.4487,0,, ,Correctness:,0.4925,0.4925,0,, ,Correctness:,0.5200,0.5200,0,, ,Correctness:,0.2863,0.2863,0,, 
,Correctness:,0.4963,0.4963,0,, ,Correctness:,0.4500,0.4500,0,, ,Correctness:,0.4600,0.4600,0,, ,Correctness:,0.5238,0.5238,0,, ,Correctness:,0.2662,0.2662,0,, 
,Correctness:,0.5212,0.5212,0,, ,Correctness:,0.4487,0.4487,0,, ,Correctness:,0.4838,0.4838,0,, ,Correctness:,0.5212,0.5212,0,, ,Correctness:,0.2963,0.2963,0,, 
,Correctness:,0.4363,0.4363,0,, ,Correctness:,0.4188,0.4188,0,, ,Correctness:,0.4375,0.4375,0,, ,Correctness:,0.4675,0.4675,0,, ,Correctness:,0.3700,0.3700,0,, 
,Correctness:,0.5262,0.5262,0,, ,Correctness:,0.4325,0.4325,0,, ,Correctness:,0.5050,0.5050,0,, ,Correctness:,0.5238,0.5238,0,, ,Correctness:,0.2775,0.2775,0,, 
,Correctness:,0.5300,0.5300,0,, ,Correctness:,0.4637,0.4637,0,, ,Correctness:,0.4975,0.4975,0,, ,Correctness:,0.5600,0.5600,0,, ,Correctness:,0.2587,0.2587,0,, 
,Correctness:,0.4400,0.4400,0,, ,Correctness:,0.4075,0.4075,0,, ,Correctness:,0.4125,0.4125,0,, ,Correctness:,0.4125,0.4125,0,, ,Correctness:,0.3237,0.3237,0,, 
,Correctness:,0.5312,0.5312,0,, ,Correctness:,0.4437,0.4437,0,, ,Correctness:,0.4662,0.4662,0,, ,Correctness:,0.4587,0.4587,0,, ,Correctness:,0.3237,0.3237,0,, 
,Correctness:,0.4756,0.4756,0,, ,Correctness:,0.4394,0.4394,0,, ,Correctness:,0.4975,0.4975,0,, ,Correctness:,0.5606,0.5606,0,, ,Correctness:,0.3069,0.3069,0,, 
,Correctness:,0.4913,0.4913,0,, ,Correctness:,0.4200,0.4200,0,, ,Correctness:,0.4781,0.4781,0,, ,Correctness:,0.4875,0.4875,0,, ,Correctness:,0.3063,0.3063,0,, 
,Correctness:,0.5406,0.5406,0,, ,Correctness:,0.4400,0.4400,0,, ,Correctness:,0.4994,0.4994,0,, ,Correctness:,0.4756,0.4756,0,, ,Correctness:,0.2894,0.2894,0,, 
,Correctness:,0.5038,0.5038,0,, ,Correctness:,0.4338,0.4338,0,, ,Correctness:,0.4731,0.4731,0,, ,Correctness:,0.4919,0.4919,0,, ,Correctness:,0.3063,0.3063,0,, 
,Correctness:,0.5494,0.5494,0,, ,Correctness:,0.4200,0.4200,0,, ,Correctness:,0.4844,0.4844,0,, ,Correctness:,0.4412,0.4412,0,, ,Correctness:,0.3025,0.3025,0,, 
,Correctness:,0.5000,0.5000,0,, ,Correctness:,0.4163,0.4163,0,, ,Correctness:,0.4556,0.4556,0,, ,Correctness:,0.4637,0.4637,0,, ,Correctness:,0.3156,0.3156,0,, 
,Correctness:,0.5275,0.5275,0,, ,Correctness:,0.4506,0.4506,0,, ,Correctness:,0.4919,0.4919,0,, ,Correctness:,0.5256,0.5256,0,, ,Correctness:,0.2850,0.2850,0,, 
,Correctness:,0.5050,0.5050,0,, ,Correctness:,0.4431,0.4431,0,, ,Correctness:,0.4956,0.4956,0,, ,Correctness:,0.5000,0.5000,0,, ,Correctness:,0.2806,0.2806,0,, 
,Correctness:,0.4569,0.4569,0,, ,Correctness:,0.4294,0.4294,0,, ,Correctness:,0.4475,0.4475,0,, ,Correctness:,0.4894,0.4894,0,, ,Correctness:,0.3225,0.3225,0,, 
,Correctness:,0.5525,0.5525,0,, ,Correctness:,0.4450,0.4450,0,, ,Correctness:,0.5125,0.5125,0,, ,Correctness:,0.5419,0.5419,0,, ,Correctness:,0.2694,0.2694,0,, 
Average:,0.5043,,,,, Average:,0.4525,,,,, Average:,0.4876,,,,, Average:,0.5303,,,,, Average:,0.2989,,,,, 
,Correctness:,0.4700,0.4700,0,, ,Correctness:,0.6000,0.6000,0,, ,Correctness:,0.5000,0.5000,0,, ,Correctness:,0.3900,0.3900,0,, ,Correctness:,0.2900,0.2900,0,, 
,Correctness:,0.4000,0.4000,0,, ,Correctness:,0.2400,0.2400,0,, ,Correctness:,0.5300,0.5300,0,, ,Correctness:,0.4000,0.4000,0,, ,Correctness:,0.2800,0.2800,0,, 
,Correctness:,0.5400,0.5400,0,, ,Correctness:,0.3600,0.3600,0,, ,Correctness:,0.5300,0.5300,0,, ,Correctness:,0.3200,0.3200,0,, ,Correctness:,0.2000,0.2000,0,, 
,Correctness:,0.5600,0.5600,0,, ,Correctness:,0.5600,0.5600,0,, ,Correctness:,0.6000,0.6000,0,, ,Correctness:,0.2700,0.2700,0,, ,Correctness:,0.1800,0.1800,0,, 
,Correctness:,0.5700,0.5700,0,, ,Correctness:,0.4300,0.4300,0,, ,Correctness:,0.6400,0.6400,0,, ,Correctness:,0.2500,0.2500,0,, ,Correctness:,0.1500,0.1500,0,, 
,Correctness:,0.3900,0.3900,0,, ,Correctness:,0.3800,0.3800,0,, ,Correctness:,0.5400,0.5400,0,, ,Correctness:,0.3800,0.3800,0,, ,Correctness:,0.2100,0.2100,0,, 
,Correctness:,0.3300,0.3300,0,, ,Correctness:,0.3800,0.3800,0,, ,Correctness:,0.5000,0.5000,0,, ,Correctness:,0.4100,0.4100,0,, ,Correctness:,0.3100,0.3100,0,, 
,Correctness:,0.4400,0.4400,0,, ,Correctness:,0.3000,0.3000,0,, ,Correctness:,0.4700,0.4700,0,, ,Correctness:,0.4200,0.4200,0,, ,Correctness:,0.3000,0.3000,0,, 
,Correctness:,0.2900,0.2900,0,, ,Correctness:,0.4400,0.4400,0,, ,Correctness:,0.4200,0.4200,0,, ,Correctness:,0.4900,0.4900,0,, ,Correctness:,0.3200,0.3200,0,, 
,Correctness:,0.5800,0.5800,0,, ,Correctness:,0.5100,0.5100,0,, ,Correctness:,0.5600,0.5600,0,, ,Correctness:,0.2700,0.2700,0,, ,Correctness:,0.1900,0.1900,0,, 
,Correctness:,0.3650,0.3650,0,, ,Correctness:,0.3850,0.3850,0,, ,Correctness:,0.5100,0.5100,0,, ,Correctness:,0.4200,0.4200,0,, ,Correctness:,0.2750,0.2750,0,, 
,Correctness:,0.4000,0.4000,0,, ,Correctness:,0.4150,0.4150,0,, ,Correctness:,0.5300,0.5300,0,, ,Correctness:,0.3650,0.3650,0,, ,Correctness:,0.2550,0.2550,0,, 
,Correctness:,0.3950,0.3950,0,, ,Correctness:,0.3400,0.3400,0,, ,Correctness:,0.5000,0.5000,0,, ,Correctness:,0.4150,0.4150,0,, ,Correctness:,0.3150,0.3150,0,, 
,Correctness:,0.3700,0.3700,0,, ,Correctness:,0.4600,0.4600,0,, ,Correctness:,0.4050,0.4050,0,, ,Correctness:,0.4550,0.4550,0,, ,Correctness:,0.3450,0.3450,0,, 
,Correctness:,0.4950,0.4950,0,, ,Correctness:,0.4650,0.4650,0,, ,Correctness:,0.6350,0.6350,0,, ,Correctness:,0.3000,0.3000,0,, ,Correctness:,0.1750,0.1750,0,, 
,Correctness:,0.4650,0.4650,0,, ,Correctness:,0.4950,0.4950,0,, ,Correctness:,0.5350,0.5350,0,, ,Correctness:,0.3300,0.3300,0,, ,Correctness:,0.2250,0.2250,0,, 
,Correctness:,0.4650,0.4650,0,, ,Correctness:,0.6050,0.6050,0,, ,Correctness:,0.5150,0.5150,0,, ,Correctness:,0.3100,0.3100,0,, ,Correctness:,0.1950,0.1950,0,, 
,Correctness:,0.4200,0.4200,0,, ,Correctness:,0.4750,0.4750,0,, ,Correctness:,0.5400,0.5400,0,, ,Correctness:,0.3400,0.3400,0,, ,Correctness:,0.1950,0.1950,0,, 
,Correctness:,0.3200,0.3200,0,, ,Correctness:,0.4400,0.4400,0,, ,Correctness:,0.3750,0.3750,0,, ,Correctness:,0.4100,0.4100,0,, ,Correctness:,0.2950,0.2950,0,, 
,Correctness:,0.4200,0.4200,0,, ,Correctness:,0.4950,0.4950,0,, ,Correctness:,0.4900,0.4900,0,, ,Correctness:,0.4000,0.4000,0,, ,Correctness:,0.2600,0.2600,0,, 
,Correctness:,0.4750,0.4750,0,, ,Correctness:,0.4500,0.4500,0,, ,Correctness:,0.5425,0.5425,0,, ,Correctness:,0.3300,0.3300,0,, ,Correctness:,0.2050,0.2050,0,, 
,Correctness:,0.4325,0.4325,0,, ,Correctness:,0.5000,0.5000,0,, ,Correctness:,0.4800,0.4800,0,, ,Correctness:,0.3825,0.3825,0,, ,Correctness:,0.2650,0.2650,0,, 
,Correctness:,0.4850,0.4850,0,, ,Correctness:,0.4275,0.4275,0,, ,Correctness:,0.4800,0.4800,0,, ,Correctness:,0.3550,0.3550,0,, ,Correctness:,0.2725,0.2725,0,, 
,Correctness:,0.4575,0.4575,0,, ,Correctness:,0.4425,0.4425,0,, ,Correctness:,0.4600,0.4600,0,, ,Correctness:,0.3800,0.3800,0,, ,Correctness:,0.2725,0.2725,0,, 
,Correctness:,0.3975,0.3975,0,, ,Correctness:,0.5075,0.5075,0,, ,Correctness:,0.4725,0.4725,0,, ,Correctness:,0.4025,0.4025,0,, ,Correctness:,0.2525,0.2525,0,, 
,Correctness:,0.4100,0.4100,0,, ,Correctness:,0.4500,0.4500,0,, ,Correctness:,0.4700,0.4700,0,, ,Correctness:,0.3625,0.3625,0,, ,Correctness:,0.2050,0.2050,0,, 
,Correctness:,0.5025,0.5025,0,, ,Correctness:,0.5050,0.5050,0,, ,Correctness:,0.5250,0.5250,0,, ,Correctness:,0.3450,0.3450,0,, ,Correctness:,0.2625,0.2625,0,, 
,Correctness:,0.4175,0.4175,0,, ,Correctness:,0.4100,0.4100,0,, ,Correctness:,0.4675,0.4675,0,, ,Correctness:,0.4050,0.4050,0,, ,Correctness:,0.3050,0.3050,0,, 
,Correctness:,0.3975,0.3975,0,, ,Correctness:,0.4075,0.4075,0,, ,Correctness:,0.4650,0.4650,0,, ,Correctness:,0.3525,0.3525,0,, ,Correctness:,0.2250,0.2250,0,, 
,Correctness:,0.4000,0.4000,0,, ,Correctness:,0.4575,0.4575,0,, ,Correctness:,0.4300,0.4300,0,, ,Correctness:,0.4150,0.4150,0,, ,Correctness:,0.2675,0.2675,0,, 
,Correctness:,0.3950,0.3950,0,, ,Correctness:,0.4738,0.4738,0,, ,Correctness:,0.4963,0.4963,0,, ,Correctness:,0.3738,0.3738,0,, ,Correctness:,0.2300,0.2300,0,, 
,Correctness:,0.4012,0.4012,0,, ,Correctness:,0.5062,0.5062,0,, ,Correctness:,0.4675,0.4675,0,, ,Correctness:,0.3113,0.3113,0,, ,Correctness:,0.1388,0.1388,0,, 
,Correctness:,0.4000,0.4000,0,, ,Correctness:,0.4913,0.4913,0,, ,Correctness:,0.4838,0.4838,0,, ,Correctness:,0.3450,0.3450,0,, ,Correctness:,0.1963,0.1963,0,, 
,Correctness:,0.3787,0.3787,0,, ,Correctness:,0.4350,0.4350,0,, ,Correctness:,0.4850,0.4850,0,, ,Correctness:,0.3400,0.3400,0,, ,Correctness:,0.2250,0.2250,0,, 
,Correctness:,0.4138,0.4138,0,, ,Correctness:,0.4713,0.4713,0,, ,Correctness:,0.4975,0.4975,0,, ,Correctness:,0.3613,0.3613,0,, ,Correctness:,0.2338,0.2338,0,, 
,Correctness:,0.3175,0.3175,0,, ,Correctness:,0.4325,0.4325,0,, ,Correctness:,0.4037,0.4037,0,, ,Correctness:,0.4363,0.4363,0,, ,Correctness:,0.2963,0.2963,0,, 
,Correctness:,0.4475,0.4475,0,, ,Correctness:,0.4412,0.4412,0,, ,Correctness:,0.4713,0.4713,0,, ,Correctness:,0.3463,0.3463,0,, ,Correctness:,0.2325,0.2325,0,, 
,Correctness:,0.4688,0.4688,0,, ,Correctness:,0.4500,0.4500,0,, ,Correctness:,0.5175,0.5175,0,, ,Correctness:,0.3463,0.3463,0,, ,Correctness:,0.2288,0.2288,0,, 
,Correctness:,0.3325,0.3325,0,, ,Correctness:,0.4400,0.4400,0,, ,Correctness:,0.3862,0.3862,0,, ,Correctness:,0.3975,0.3975,0,, ,Correctness:,0.2750,0.2750,0,, 
,Correctness:,0.3725,0.3725,0,, ,Correctness:,0.4163,0.4163,0,, ,Correctness:,0.4400,0.4400,0,, ,Correctness:,0.3625,0.3625,0,, ,Correctness:,0.2487,0.2487,0,, 
,Correctness:,0.4387,0.4387,0,, ,Correctness:,0.4231,0.4231,0,, ,Correctness:,0.4850,0.4850,0,, ,Correctness:,0.3669,0.3669,0,, ,Correctness:,0.2450,0.2450,0,, 
,Correctness:,0.3987,0.3987,0,, ,Correctness:,0.4444,0.4444,0,, ,Correctness:,0.4625,0.4625,0,, ,Correctness:,0.3762,0.3762,0,, ,Correctness:,0.2669,0.2669,0,, 
,Correctness:,0.4131,0.4131,0,, ,Correctness:,0.4437,0.4437,0,, ,Correctness:,0.4769,0.4769,0,, ,Correctness:,0.3769,0.3769,0,, ,Correctness:,0.2544,0.2544,0,, 
,Correctness:,0.4169,0.4169,0,, ,Correctness:,0.4925,0.4925,0,, ,Correctness:,0.4681,0.4681,0,, ,Correctness:,0.3694,0.3694,0,, ,Correctness:,0.2606,0.2606,0,, 
,Correctness:,0.3781,0.3781,0,, ,Correctness:,0.5056,0.5056,0,, ,Correctness:,0.4844,0.4844,0,, ,Correctness:,0.3844,0.3844,0,, ,Correctness:,0.2587,0.2587,0,, 
,Correctness:,0.3769,0.3769,0,, ,Correctness:,0.4750,0.4750,0,, ,Correctness:,0.4344,0.4344,0,, ,Correctness:,0.4006,0.4006,0,, ,Correctness:,0.2806,0.2806,0,, 
,Correctness:,0.4238,0.4238,0,, ,Correctness:,0.4400,0.4400,0,, ,Correctness:,0.4931,0.4931,0,, ,Correctness:,0.3644,0.3644,0,, ,Correctness:,0.2437,0.2437,0,, 
,Correctness:,0.4194,0.4194,0,, ,Correctness:,0.4738,0.4738,0,, ,Correctness:,0.4806,0.4806,0,, ,Correctness:,0.3538,0.3538,0,, ,Correctness:,0.2525,0.2525,0,, 
,Correctness:,0.3787,0.3787,0,, ,Correctness:,0.4444,0.4444,0,, ,Correctness:,0.4394,0.4394,0,, ,Correctness:,0.3981,0.3981,0,, ,Correctness:,0.2781,0.2781,0,, 
,Correctness:,0.4444,0.4444,0,, ,Correctness:,0.4437,0.4437,0,, ,Correctness:,0.5112,0.5112,0,, ,Correctness:,0.3563,0.3563,0,, ,Correctness:,0.2281,0.2281,0,, 
Average:,0.4215,,,,, Average:,0.4495,,,,, Average:,0.4900,,,,, Average:,0.3688,,,,, Average:,0.2474,,,,, 
,Correctness:,0.3400,0.3400,0,, ,Correctness:,0.0600,0.0600,0,, ,Correctness:,0.6000,0.6000,0,, ,Correctness:,0.5500,0.5500,0,, ,Correctness:,0.0800,0.0800,0,, 
,Correctness:,0.3600,0.3600,0,, ,Correctness:,0.0600,0.0600,0,, ,Correctness:,0.5100,0.5100,0,, ,Correctness:,0.5800,0.5800,0,, ,Correctness:,0.1200,0.1200,0,, 
,Correctness:,0.3300,0.3300,0,, ,Correctness:,0.0200,0.0200,0,, ,Correctness:,0.6400,0.6400,0,, ,Correctness:,0.6300,0.6300,0,, ,Correctness:,0.0700,0.0700,0,, 
,Correctness:,0.2500,0.2500,0,, ,Correctness:,0.0600,0.0600,0,, ,Correctness:,0.6900,0.6900,0,, ,Correctness:,0.6700,0.6700,0,, ,Correctness:,0.1200,0.1200,0,, 
,Correctness:,0.3300,0.3300,0,, ,Correctness:,0.0500,0.0500,0,, ,Correctness:,0.6900,0.6900,0,, ,Correctness:,0.7000,0.7000,0,, ,Correctness:,0.1100,0.1100,0,, 
,Correctness:,0.3400,0.3400,0,, ,Correctness:,0.1300,0.1300,0,, ,Correctness:,0.4800,0.4800,0,, ,Correctness:,0.5600,0.5600,0,, ,Correctness:,0.1900,0.1900,0,, 
,Correctness:,0.2500,0.2500,0,, ,Correctness:,0.1000,0.1000,0,, ,Correctness:,0.3800,0.3800,0,, ,Correctness:,0.4800,0.4800,0,, ,Correctness:,0.1700,0.1700,0,, 
,Correctness:,0.4100,0.4100,0,, ,Correctness:,0.1100,0.1100,0,, ,Correctness:,0.4500,0.4500,0,, ,Correctness:,0.5200,0.5200,0,, ,Correctness:,0.1300,0.1300,0,, 
,Correctness:,0.4500,0.4500,0,, ,Correctness:,0.0100,0.0100,0,, ,Correctness:,0.5200,0.5200,0,, ,Correctness:,0.4000,0.4000,0,, ,Correctness:,0.0900,0.0900,0,, 
,Correctness:,0.2900,0.2900,0,, ,Correctness:,0.0600,0.0600,0,, ,Correctness:,0.6600,0.6600,0,, ,Correctness:,0.6200,0.6200,0,, ,Correctness:,0.1700,0.1700,0,, 
,Correctness:,0.4450,0.4450,0,, ,Correctness:,0.0800,0.0800,0,, ,Correctness:,0.5400,0.5400,0,, ,Correctness:,0.4550,0.4550,0,, ,Correctness:,0.1100,0.1100,0,, 
,Correctness:,0.4150,0.4150,0,, ,Correctness:,0.1050,0.1050,0,, ,Correctness:,0.6350,0.6350,0,, ,Correctness:,0.4700,0.4700,0,, ,Correctness:,0.1250,0.1250,0,, 
,Correctness:,0.4300,0.4300,0,, ,Correctness:,0.0550,0.0550,0,, ,Correctness:,0.5300,0.5300,0,, ,Correctness:,0.4700,0.4700,0,, ,Correctness:,0.0900,0.0900,0,, 
,Correctness:,0.4600,0.4600,0,, ,Correctness:,0.0850,0.0850,0,, ,Correctness:,0.5400,0.5400,0,, ,Correctness:,0.3900,0.3900,0,, ,Correctness:,0.0900,0.0900,0,, 
,Correctness:,0.2750,0.2750,0,, ,Correctness:,0.1000,0.1000,0,, ,Correctness:,0.6400,0.6400,0,, ,Correctness:,0.5750,0.5750,0,, ,Correctness:,0.1550,0.1550,0,, 
,Correctness:,0.3650,0.3650,0,, ,Correctness:,0.0450,0.0450,0,, ,Correctness:,0.5750,0.5750,0,, ,Correctness:,0.6000,0.6000,0,, ,Correctness:,0.1150,0.1150,0,, 
,Correctness:,0.2850,0.2850,0,, ,Correctness:,0.0650,0.0650,0,, ,Correctness:,0.6450,0.6450,0,, ,Correctness:,0.5400,0.5400,0,, ,Correctness:,0.1150,0.1150,0,, 
,Correctness:,0.3400,0.3400,0,, ,Correctness:,0.0650,0.0650,0,, ,Correctness:,0.6450,0.6450,0,, ,Correctness:,0.5000,0.5000,0,, ,Correctness:,0.1000,0.1000,0,, 
,Correctness:,0.4400,0.4400,0,, ,Correctness:,0.1200,0.1200,0,, ,Correctness:,0.4650,0.4650,0,, ,Correctness:,0.4650,0.4650,0,, ,Correctness:,0.1800,0.1800,0,, 
,Correctness:,0.4600,0.4600,0,, ,Correctness:,0.0650,0.0650,0,, ,Correctness:,0.5800,0.5800,0,, ,Correctness:,0.4900,0.4900,0,, ,Correctness:,0.0850,0.0850,0,, 
,Correctness:,0.3225,0.3225,0,, ,Correctness:,0.0800,0.0800,0,, ,Correctness:,0.6025,0.6025,0,, ,Correctness:,0.5775,0.5775,0,, ,Correctness:,0.1225,0.1225,0,, 
,Correctness:,0.3475,0.3475,0,, ,Correctness:,0.0800,0.0800,0,, ,Correctness:,0.5725,0.5725,0,, ,Correctness:,0.4975,0.4975,0,, ,Correctness:,0.1150,0.1150,0,, 
,Correctness:,0.3725,0.3725,0,, ,Correctness:,0.0700,0.0700,0,, ,Correctness:,0.5850,0.5850,0,, ,Correctness:,0.5700,0.5700,0,, ,Correctness:,0.0925,0.0925,0,, 
,Correctness:,0.3850,0.3850,0,, ,Correctness:,0.0725,0.0725,0,, ,Correctness:,0.5425,0.5425,0,, ,Correctness:,0.5300,0.5300,0,, ,Correctness:,0.1200,0.1200,0,, 
,Correctness:,0.3725,0.3725,0,, ,Correctness:,0.0725,0.0725,0,, ,Correctness:,0.5400,0.5400,0,, ,Correctness:,0.5200,0.5200,0,, ,Correctness:,0.1125,0.1125,0,, 
,Correctness:,0.3650,0.3650,0,, ,Correctness:,0.0600,0.0600,0,, ,Correctness:,0.5825,0.5825,0,, ,Correctness:,0.5500,0.5500,0,, ,Correctness:,0.1350,0.1350,0,, 
,Correctness:,0.3500,0.3500,0,, ,Correctness:,0.0800,0.0800,0,, ,Correctness:,0.5900,0.5900,0,, ,Correctness:,0.5725,0.5725,0,, ,Correctness:,0.0975,0.0975,0,, 
,Correctness:,0.3925,0.3925,0,, ,Correctness:,0.0850,0.0850,0,, ,Correctness:,0.5175,0.5175,0,, ,Correctness:,0.5175,0.5175,0,, ,Correctness:,0.1400,0.1400,0,, 
,Correctness:,0.4250,0.4250,0,, ,Correctness:,0.0750,0.0750,0,, ,Correctness:,0.5600,0.5600,0,, ,Correctness:,0.5325,0.5325,0,, ,Correctness:,0.1575,0.1575,0,, 
,Correctness:,0.3775,0.3775,0,, ,Correctness:,0.0900,0.0900,0,, ,Correctness:,0.5625,0.5625,0,, ,Correctness:,0.4800,0.4800,0,, ,Correctness:,0.1175,0.1175,0,, 
,Correctness:,0.3438,0.3438,0,, ,Correctness:,0.0887,0.0887,0,, ,Correctness:,0.5900,0.5900,0,, ,Correctness:,0.4950,0.4950,0,, ,Correctness:,0.1462,0.1462,0,, 
,Correctness:,0.3387,0.3387,0,, ,Correctness:,0.1013,0.1013,0,, ,Correctness:,0.6350,0.6350,0,, ,Correctness:,0.5537,0.5537,0,, ,Correctness:,0.1638,0.1638,0,, 
,Correctness:,0.3575,0.3575,0,, ,Correctness:,0.0950,0.0950,0,, ,Correctness:,0.6050,0.6050,0,, ,Correctness:,0.5200,0.5200,0,, ,Correctness:,0.1462,0.1462,0,, 
,Correctness:,0.3550,0.3550,0,, ,Correctness:,0.1062,0.1062,0,, ,Correctness:,0.5500,0.5500,0,, ,Correctness:,0.5125,0.5125,0,, ,Correctness:,0.1750,0.1750,0,, 
,Correctness:,0.3550,0.3550,0,, ,Correctness:,0.0688,0.0688,0,, ,Correctness:,0.5775,0.5775,0,, ,Correctness:,0.5250,0.5250,0,, ,Correctness:,0.1150,0.1150,0,, 
,Correctness:,0.4375,0.4375,0,, ,Correctness:,0.0737,0.0737,0,, ,Correctness:,0.5038,0.5038,0,, ,Correctness:,0.4462,0.4462,0,, ,Correctness:,0.1212,0.1212,0,, 
,Correctness:,0.3563,0.3563,0,, ,Correctness:,0.0900,0.0900,0,, ,Correctness:,0.5913,0.5913,0,, ,Correctness:,0.5212,0.5212,0,, ,Correctness:,0.1350,0.1350,0,, 
,Correctness:,0.3450,0.3450,0,, ,Correctness:,0.0750,0.0750,0,, ,Correctness:,0.6088,0.6088,0,, ,Correctness:,0.5487,0.5487,0,, ,Correctness:,0.1125,0.1125,0,, 
,Correctness:,0.4012,0.4012,0,, ,Correctness:,0.1062,0.1062,0,, ,Correctness:,0.5162,0.5162,0,, ,Correctness:,0.4150,0.4150,0,, ,Correctness:,0.1512,0.1512,0,, 
,Correctness:,0.3563,0.3563,0,, ,Correctness:,0.0875,0.0875,0,, ,Correctness:,0.5887,0.5887,0,, ,Correctness:,0.4738,0.4738,0,, ,Correctness:,0.1338,0.1338,0,, 
,Correctness:,0.3812,0.3812,0,, ,Correctness:,0.0737,0.0737,0,, ,Correctness:,0.5637,0.5637,0,, ,Correctness:,0.5437,0.5437,0,, ,Correctness:,0.1206,0.1206,0,, 
,Correctness:,0.3856,0.3856,0,, ,Correctness:,0.0938,0.0938,0,, ,Correctness:,0.5513,0.5513,0,, ,Correctness:,0.4794,0.4794,0,, ,Correctness:,0.1431,0.1431,0,, 
,Correctness:,0.3581,0.3581,0,, ,Correctness:,0.0769,0.0769,0,, ,Correctness:,0.5863,0.5863,0,, ,Correctness:,0.4819,0.4819,0,, ,Correctness:,0.1138,0.1138,0,, 
,Correctness:,0.3606,0.3606,0,, ,Correctness:,0.0775,0.0775,0,, ,Correctness:,0.5706,0.5706,0,, ,Correctness:,0.5000,0.5000,0,, ,Correctness:,0.1212,0.1212,0,, 
,Correctness:,0.3544,0.3544,0,, ,Correctness:,0.0869,0.0869,0,, ,Correctness:,0.5781,0.5781,0,, ,Correctness:,0.4375,0.4375,0,, ,Correctness:,0.1294,0.1294,0,, 
,Correctness:,0.3719,0.3719,0,, ,Correctness:,0.0700,0.0700,0,, ,Correctness:,0.5706,0.5706,0,, ,Correctness:,0.4462,0.4462,0,, ,Correctness:,0.1062,0.1062,0,, 
,Correctness:,0.3744,0.3744,0,, ,Correctness:,0.0813,0.0813,0,, ,Correctness:,0.5781,0.5781,0,, ,Correctness:,0.5150,0.5150,0,, ,Correctness:,0.1288,0.1288,0,, 
,Correctness:,0.3456,0.3456,0,, ,Correctness:,0.0981,0.0981,0,, ,Correctness:,0.5806,0.5806,0,, ,Correctness:,0.4938,0.4938,0,, ,Correctness:,0.1419,0.1419,0,, 
,Correctness:,0.3912,0.3912,0,, ,Correctness:,0.0788,0.0788,0,, ,Correctness:,0.5450,0.5450,0,, ,Correctness:,0.4625,0.4625,0,, ,Correctness:,0.1212,0.1212,0,, 
,Correctness:,0.3169,0.3169,0,, ,Correctness:,0.0781,0.0781,0,, ,Correctness:,0.6038,0.6038,0,, ,Correctness:,0.5350,0.5350,0,, ,Correctness:,0.1175,0.1175,0,, 
Average:,0.3652,,,,, Average:,0.0784,,,,, Average:,0.5713,,,,, Average:,0.5184,,,,, Average:,0.1254,,,,, 
,Correctness:,0.5400,0.5400,0,, ,Correctness:,0.3700,0.3700,0,, ,Correctness:,0.2400,0.2400,0,, ,Correctness:,0.0400,0.0400,0,, ,Correctness:,0.3600,0.3600,0,, 
,Correctness:,0.6000,0.6000,0,, ,Correctness:,0.3600,0.3600,0,, ,Correctness:,0.2600,0.2600,0,, ,Correctness:,0.0600,0.0600,0,, ,Correctness:,0.4400,0.4400,0,, 
,Correctness:,0.6400,0.6400,0,, ,Correctness:,0.3000,0.3000,0,, ,Correctness:,0.1700,0.1700,0,, ,Correctness:,0.0300,0.0300,0,, ,Correctness:,0.3200,0.3200,0,, 
,Correctness:,0.6700,0.6700,0,, ,Correctness:,0.2500,0.2500,0,, ,Correctness:,0.1400,0.1400,0,, ,Correctness:,0.0400,0.0400,0,, ,Correctness:,0.3000,0.3000,0,, 
,Correctness:,0.6600,0.6600,0,, ,Correctness:,0.3000,0.3000,0,, ,Correctness:,0.1500,0.1500,0,, ,Correctness:,0.0800,0.0800,0,, ,Correctness:,0.2200,0.2200,0,, 
,Correctness:,0.5700,0.5700,0,, ,Correctness:,0.4100,0.4100,0,, ,Correctness:,0.2700,0.2700,0,, ,Correctness:,0.1100,0.1100,0,, ,Correctness:,0.4000,0.4000,0,, 
,Correctness:,0.4800,0.4800,0,, ,Correctness:,0.4800,0.4800,0,, ,Correctness:,0.3100,0.3100,0,, ,Correctness:,0.1300,0.1300,0,, ,Correctness:,0.4400,0.4400,0,, 
,Correctness:,0.5300,0.5300,0,, ,Correctness:,0.4400,0.4400,0,, ,Correctness:,0.2600,0.2600,0,, ,Correctness:,0.0900,0.0900,0,, ,Correctness:,0.3900,0.3900,0,, 
,Correctness:,0.4100,0.4100,0,, ,Correctness:,0.4500,0.4500,0,, ,Correctness:,0.2700,0.2700,0,, ,Correctness:,0.0700,0.0700,0,, ,Correctness:,0.4800,0.4800,0,, 
,Correctness:,0.6200,0.6200,0,, ,Correctness:,0.2700,0.2700,0,, ,Correctness:,0.1600,0.1600,0,, ,Correctness:,0.1400,0.1400,0,, ,Correctness:,0.3100,0.3100,0,, 
,Correctness:,0.4500,0.4500,0,, ,Correctness:,0.3600,0.3600,0,, ,Correctness:,0.2500,0.2500,0,, ,Correctness:,0.1350,0.1350,0,, ,Correctness:,0.3650,0.3650,0,, 
,Correctness:,0.4750,0.4750,0,, ,Correctness:,0.3300,0.3300,0,, ,Correctness:,0.3050,0.3050,0,, ,Correctness:,0.1400,0.1400,0,, ,Correctness:,0.3300,0.3300,0,, 
,Correctness:,0.4750,0.4750,0,, ,Correctness:,0.4100,0.4100,0,, ,Correctness:,0.2900,0.2900,0,, ,Correctness:,0.0800,0.0800,0,, ,Correctness:,0.3550,0.3550,0,, 
,Correctness:,0.3900,0.3900,0,, ,Correctness:,0.4300,0.4300,0,, ,Correctness:,0.3500,0.3500,0,, ,Correctness:,0.1000,0.1000,0,, ,Correctness:,0.4400,0.4400,0,, 
,Correctness:,0.5750,0.5750,0,, ,Correctness:,0.2600,0.2600,0,, ,Correctness:,0.2100,0.2100,0,, ,Correctness:,0.1600,0.1600,0,, ,Correctness:,0.2500,0.2500,0,, 
,Correctness:,0.6000,0.6000,0,, ,Correctness:,0.3600,0.3600,0,, ,Correctness:,0.1950,0.1950,0,, ,Correctness:,0.0850,0.0850,0,, ,Correctness:,0.3550,0.3550,0,, 
,Correctness:,0.5400,0.5400,0,, ,Correctness:,0.3200,0.3200,0,, ,Correctness:,0.1550,0.1550,0,, ,Correctness:,0.1000,0.1000,0,, ,Correctness:,0.2850,0.2850,0,, 
,Correctness:,0.5100,0.5100,0,, ,Correctness:,0.2950,0.2950,0,, ,Correctness:,0.1800,0.1800,0,, ,Correctness:,0.1250,0.1250,0,, ,Correctness:,0.3050,0.3050,0,, 
,Correctness:,0.4550,0.4550,0,, ,Correctness:,0.4250,0.4250,0,, ,Correctness:,0.2300,0.2300,0,, ,Correctness:,0.1450,0.1450,0,, ,Correctness:,0.4400,0.4400,0,, 
,Correctness:,0.4900,0.4900,0,, ,Correctness:,0.3400,0.3400,0,, ,Correctness:,0.2200,0.2200,0,, ,Correctness:,0.1150,0.1150,0,, ,Correctness:,0.3500,0.3500,0,, 
,Correctness:,0.5725,0.5725,0,, ,Correctness:,0.3275,0.3275,0,, ,Correctness:,0.2350,0.2350,0,, ,Correctness:,0.1125,0.1125,0,, ,Correctness:,0.3025,0.3025,0,, 
,Correctness:,0.4875,0.4875,0,, ,Correctness:,0.3400,0.3400,0,, ,Correctness:,0.2300,0.2300,0,, ,Correctness:,0.1025,0.1025,0,, ,Correctness:,0.3250,0.3250,0,, 
,Correctness:,0.5700,0.5700,0,, ,Correctness:,0.3800,0.3800,0,, ,Correctness:,0.2225,0.2225,0,, ,Correctness:,0.0750,0.0750,0,, ,Correctness:,0.3150,0.3150,0,, 
,Correctness:,0.5275,0.5275,0,, ,Correctness:,0.3825,0.3825,0,, ,Correctness:,0.2600,0.2600,0,, ,Correctness:,0.1000,0.1000,0,, ,Correctness:,0.3875,0.3875,0,, 
,Correctness:,0.5200,0.5200,0,, ,Correctness:,0.3825,0.3825,0,, ,Correctness:,0.2100,0.2100,0,, ,Correctness:,0.1025,0.1025,0,, ,Correctness:,0.3800,0.3800,0,, 
,Correctness:,0.5500,0.5500,0,, ,Correctness:,0.3750,0.3750,0,, ,Correctness:,0.1800,0.1800,0,, ,Correctness:,0.0875,0.0875,0,, ,Correctness:,0.3125,0.3125,0,, 
,Correctness:,0.5800,0.5800,0,, ,Correctness:,0.3400,0.3400,0,, ,Correctness:,0.2225,0.2225,0,, ,Correctness:,0.0750,0.0750,0,, ,Correctness:,0.3275,0.3275,0,, 
,Correctness:,0.5150,0.5150,0,, ,Correctness:,0.4100,0.4100,0,, ,Correctness:,0.2725,0.2725,0,, ,Correctness:,0.0975,0.0975,0,, ,Correctness:,0.3775,0.3775,0,, 
,Correctness:,0.5375,0.5375,0,, ,Correctness:,0.3900,0.3900,0,, ,Correctness:,0.2500,0.2500,0,, ,Correctness:,0.1250,0.1250,0,, ,Correctness:,0.3950,0.3950,0,, 
,Correctness:,0.4800,0.4800,0,, ,Correctness:,0.3625,0.3625,0,, ,Correctness:,0.2350,0.2350,0,, ,Correctness:,0.0925,0.0925,0,, ,Correctness:,0.3650,0.3650,0,, 
,Correctness:,0.4963,0.4963,0,, ,Correctness:,0.3412,0.3412,0,, ,Correctness:,0.2450,0.2450,0,, ,Correctness:,0.1187,0.1187,0,, ,Correctness:,0.3675,0.3675,0,, 
,Correctness:,0.5537,0.5537,0,, ,Correctness:,0.2925,0.2925,0,, ,Correctness:,0.1487,0.1487,0,, ,Correctness:,0.1338,0.1338,0,, ,Correctness:,0.3463,0.3463,0,, 
,Correctness:,0.5162,0.5162,0,, ,Correctness:,0.3187,0.3187,0,, ,Correctness:,0.1825,0.1825,0,, ,Correctness:,0.1187,0.1187,0,, ,Correctness:,0.3200,0.3200,0,, 
,Correctness:,0.5050,0.5050,0,, ,Correctness:,0.3438,0.3438,0,, ,Correctness:,0.2325,0.2325,0,, ,Correctness:,0.1500,0.1500,0,, ,Correctness:,0.3412,0.3412,0,, 
,Correctness:,0.5212,0.5212,0,, ,Correctness:,0.3538,0.3538,0,, ,Correctness:,0.2100,0.2100,0,, ,Correctness:,0.0950,0.0950,0,, ,Correctness:,0.3412,0.3412,0,, 
,Correctness:,0.4462,0.4462,0,, ,Correctness:,0.4288,0.4288,0,, ,Correctness:,0.2562,0.2562,0,, ,Correctness:,0.1062,0.1062,0,, ,Correctness:,0.4163,0.4163,0,, 
,Correctness:,0.5212,0.5212,0,, ,Correctness:,0.3212,0.3212,0,, ,Correctness:,0.2288,0.2288,0,, ,Correctness:,0.1237,0.1237,0,, ,Correctness:,0.3262,0.3262,0,, 
,Correctness:,0.5437,0.5437,0,, ,Correctness:,0.3275,0.3275,0,, ,Correctness:,0.2275,0.2275,0,, ,Correctness:,0.1087,0.1087,0,, ,Correctness:,0.3312,0.3312,0,, 
,Correctness:,0.4150,0.4150,0,, ,Correctness:,0.3700,0.3700,0,, ,Correctness:,0.2562,0.2562,0,, ,Correctness:,0.1525,0.1525,0,, ,Correctness:,0.3725,0.3725,0,, 
,Correctness:,0.4763,0.4763,0,, ,Correctness:,0.3412,0.3412,0,, ,Correctness:,0.2525,0.2525,0,, ,Correctness:,0.1200,0.1200,0,, ,Correctness:,0.3412,0.3412,0,, 
,Correctness:,0.5437,0.5437,0,, ,Correctness:,0.3694,0.3694,0,, ,Correctness:,0.2275,0.2275,0,, ,Correctness:,0.0994,0.0994,0,, ,Correctness:,0.3656,0.3656,0,, 
,Correctness:,0.4800,0.4800,0,, ,Correctness:,0.3644,0.3644,0,, ,Correctness:,0.2475,0.2475,0,, ,Correctness:,0.1212,0.1212,0,, ,Correctness:,0.3538,0.3538,0,, 
,Correctness:,0.4819,0.4819,0,, ,Correctness:,0.3381,0.3381,0,, ,Correctness:,0.2406,0.2406,0,, ,Correctness:,0.1037,0.1037,0,, ,Correctness:,0.3319,0.3319,0,, 
,Correctness:,0.4994,0.4994,0,, ,Correctness:,0.3569,0.3569,0,, ,Correctness:,0.2238,0.2238,0,, ,Correctness:,0.1094,0.1094,0,, ,Correctness:,0.3663,0.3663,0,, 
,Correctness:,0.4375,0.4375,0,, ,Correctness:,0.3337,0.3337,0,, ,Correctness:,0.2394,0.2394,0,, ,Correctness:,0.1325,0.1325,0,, ,Correctness:,0.3362,0.3362,0,, 
,Correctness:,0.4487,0.4487,0,, ,Correctness:,0.3625,0.3625,0,, ,Correctness:,0.2387,0.2387,0,, ,Correctness:,0.1081,0.1081,0,, ,Correctness:,0.3806,0.3806,0,, 
,Correctness:,0.5112,0.5112,0,, ,Correctness:,0.3500,0.3500,0,, ,Correctness:,0.2306,0.2306,0,, ,Correctness:,0.1156,0.1156,0,, ,Correctness:,0.3325,0.3325,0,, 
,Correctness:,0.4938,0.4938,0,, ,Correctness:,0.3350,0.3350,0,, ,Correctness:,0.2331,0.2331,0,, ,Correctness:,0.1313,0.1313,0,, ,Correctness:,0.3412,0.3412,0,, 
,Correctness:,0.4600,0.4600,0,, ,Correctness:,0.3738,0.3738,0,, ,Correctness:,0.2581,0.2581,0,, ,Correctness:,0.1219,0.1219,0,, ,Correctness:,0.3663,0.3663,0,, 
,Correctness:,0.5375,0.5375,0,, ,Correctness:,0.3269,0.3269,0,, ,Correctness:,0.2256,0.2256,0,, ,Correctness:,0.1106,0.1106,0,, ,Correctness:,0.3419,0.3419,0,, 
Average:,0.5182,,,,, Average:,0.3560,,,,, Average:,0.2307,,,,, Average:,0.1065,,,,, Average:,0.3529,,,,, 
