11222221121411233244
AAAAAAAAAAAAABBCCCCC
21224112124211113422
AAAAAAAAAAAAAAAAACCB
44131122214212112413
BBBBBBAAAAAAAAAAAAAB
11212214434432113321
AAAAAACCCCCBBBBBBBBA
23111122342114121121
AAAAAAAAAAAAAAAAAAAB
11222241133413112342
AAAAAAAABBBBBBBBBBBB
24144332444444444441
ACCCCCCCCCCCCCCCCCCC
12322112322241221121
AAAAAAAAAAAAAAAAAAAA
11244444442434242442
AAACCCCCCCCCCCCCCCCC
14124444441244444222
AAAACCCBCCCCCCCCCBBB
12111222122242122233
AAAAAAAAAAAAAAAAAAAB
44142242423424444244
BBBBBBBBCCCCCCCCCBBB
44444221411122422143
CCCCCCCCCAAAAACCBBBB
21122244234223422424
AAAAAABBBBBCCCCCCCCC
21112143444433344143
AAABBBCCCCCCCCCCCCCC
33444243414431212244
ACCCCCCCCCCCCAAAAABB
12322122241344224412
AAAAAAAABBBBBBBBBBBB
33142221221221221121
BBBBBBBAAAAAAAAAAAAA
12144422223222114224
AAACCCBBAAAAAAAAAAAC
11112112312431321132
AAAAAAAAABBBBBBBBBBB
22212232242214214424
BBBBBBBBBCCCCCCCCCCC
12141414444144122212
BAAAACCCCCCCCCAAABBB
12421233211222122141
AAAAABBBAAAAAAAAAAAA
14221122314243123134
AAAAAAAABBBBBBBBBBBB
44444444244424424444
CCAACCCCCCCCCCCCCCCC
22122112222421211131
AAAAAAAAAAAAAAAAAABB
42412131222111121221
BBBBBBBAAAACAAAAAAAA
21134341412221111222
BBBCCCCAAAAAAAAAAAAA
44344112133141231111
CCCCCAAAAAAABBBBBBBB
21312321122121113112
AAAAAAAAAAAAAAAAAAAA
22122122344144443233
AAAAAAAACCCCCCCCCCCC
22223414223331212213
AAAAAAAAAACCCCAAAAAA
44121332333211113424
CBBBBBBBBBBBBBBBBBBB
14231143111334443121
BBBBBBBBBBCCCCCCBAAA
34434424444444422212
BBBBBCCCCCCCCCAAAAAA
12212214141214134414
AAABBBBBBBBBBBBBBBBB
12244314241212434414
AAABBBBBBBAAAACCCCCC
11221413132413314241
AAAAACCBBBBBBBBBBBBB
44431434341124241414
BBBBBBBBBBBCCCCCCCCC
21222244421432434212
AAAAAACCCBBCCCCCCAAA
34433222212221111322
BBBBBBAAAAAAAAAAAAAA
32122121212112211112
AAAAAAAAAAAAAAAAAAAA
12224344444414143432
AAACCCCCCCCCCCCCCCCC
21231122124424212414
AAAAAAAAAACCBBBBBBBB
41144412433141134132
CCBBBBBBBBBBBBBBBBBB
33314214232342444444
BBBBBBBBBBBBBBCCCCBC
43232122444212112211
BBBBBBAACBBBAAAAAAAA
31344321232234322444
BBBBBBBBBBBBBBBBBBCC
41112212411112114441
AAAAAAAAAAAAAAAABBBB
42114221221222212112
AAAAAAAAAAAAAAAAAAAA
14444443123131213411
CCCCCCCCCBBBBBBBBBBB
12124224444432444244
AAAAAACCCCCCCCCCCCCC
13241144432112112211
BAAAABBBBBAAAAAAAAAA
24442444122424434211
AACCCCCBBBBBBBBBBAAA
44444134424444414444
CCCCCCCCCCCCCCCCCCCC
43211243324131342222
ABBBBBBBBBBBBBBBAAAA
24411111312414444434
BBAAAAAAAAACCCCCCCCC
21121221431114222421
BBBBBBBBBBBBBBBBCCAA
13444131443342342441
BBBBBBBBBBBBCCCCACCC
31122211222111214422
BBBAAAAAABBBBBBBBBBA
31222121111122422112
AABAAAAAAAAAAAAAAAAA
13121224311331413344
BBAAAAABBBBBBBBBBBBB
34314242231234243212
BBBCCCCCBBBBBBBBBBBB
41241222243421134444
BBBBBBBBBBBCCCCCCCCC
31421242433134321224
BAABBBBBBBBBBBBBBBBB
22422224244144344341
AAAAAAACCCCCCCCCCCCC
34414112144444444444
BBBBBBBAAACCCCCCCCCC
32121132122142441232
BAAAAAAAAAABBBBBBBBB
21122122122431222124
AAAAAAAAAAAAAAAAAACC
42414422442211211221
BBBCCCCCCCAAAAAAAAAA
12121121222111111112
AAAAAAAAAAAAAAAAAAAA
12124444441321434241
AAAACCCBBBBBBBBCCCCC
24441421324322123414
ACCCCBBBBBBBBBBBBBBB
21222121212114422332
AAAAAAAAAAABBBBBBBBB
12222113433441224433
AAAAAAABBBBBBBBBCCCC
24444443322211312432
BBCCCCCCCAAAAAAAAAAA
21122222223211211244
AAAAAAAAAAAAAAAAAACC
11444431444122444321
AACCCCCCCCCCCCCCCBBB
22212322423411212323
AAAAAAAAAAAAAAAAAAAC
22121141143242444441
BBBBBBBBBBCABBCCCCCB
13323444343121222422
ACCCCCCCCCAAAAAAAAAA
14334212134233431433
BBBBBBBBBBBBBBBBBBBB
24422444242434434224
BBBBBCCCCCCCCCCCCCCC
42441444412233244444
CCCCCCCCCCCCCCCCCCCC
31211221212241211232
AAAAAAAAAAAAAAAAAAAA
31142444243132333242
BBBBBBBCCCCBBBAABBBA
12112334211243313244
BBBBBBBAABBBBBBBBBCC
24431231334444134443
BBBBBBBBBBBBBBCCCCCC
34444442442444411442
CCCCCCCCCCCCCCCCCCCC
22211224444414444422
AAAAAAACCCCCCCCCCCAA
31212244411324144444
BBAAAACCCCCCCCCCCCCC
11211213124322422122
AAAAAAABBBBBBBBBBCAA
22221111212212141412
AAAAAAAAAAAAAAAAAAAA
24112414442112221222
AAAACCCCCCAAAAAAAAAA
22212211232121111112
AAAAAAAAAAAAAAAAAAAA
43342241334411122133
ABBBBBBBBBBBBAAAABBB
23314314343211221111
BBBBBBBBBBBBAAAAAAAA
43444444444444444441
AACCCCCCCCCCCCCCCCCC
42111121111112313123
AAAAAAAAAAAAAAAAAAAA
11112122222112141432
AAAAAAAAAAAAAABBBBBB
24212444444422121123
ACAAACCCCCCCAAAAAAAA
24121122211211424311
BBAAAAAAAAAAAABBBBBB
22112111121211141221
AAAAAAAAAAAAAAAAAAAA
22441443444222242421
AACCCCCCCCCCCCAAAAAA
24321142211111143441
BBBAAAAAAAAABBBBBBCC
11113122241111222222
AAAAAAAAAAAAAAAAAAAA
21124221322222122421
BBAAAAAAAAAAAAAAAAAA
22211232324343443132
AAAAAABBBBBBBBBBBBBB
44232342344431112122
BBBBBBBBBCCCCCAAAAAA
24214411222114111111
ABBBCCCCAAAAAAAAAAAB
44111431214132132132
ABBBBBBBBBBBBBBBBBBB
22112421114421122312
AAAAAAAAAAAAAAAAAAAA
42244222341211444444
BBBBBBBBBCCAAACCCCCC
21424444443333424414
AAAACCCCCBBBBBBBBBBB
21212144132111212111
AAAAAACCAAAAAAAAAAAA
32212112211222124141
AAAAAAAAAAAAAAAACCCC
42444444242444344444
CCCCCCCCCCCCCCCCCCCC
41314143331411244234
BBBBBBBBBBBBBBBBBBBB
41223213222123223214
BBBBBAAAAAAAAAAAAAAB
12112221121211212311
AAAAAAAAAAAAAAAAAAAA
11221221221122243442
AAAAAAAAAAAAACBBBCCC
22224144424144434433
AAACCCCCCCCCCCCCCCCC
11422422331134134223
ABBBBBBBBBBBBBBBBBBB
43443244213144444241
CCCCCCCCCCCCCCCCCCCC
11421242122323342122
AABBBBBBBBBBBBBBBAAA
42224211141114414441
AAAAAAAAABCCCCCCCCCC
42123121222111111241
BAAAAAAAAAAAAAAAAAAA
41322121422121122212
AAAABBBBBBAAAAAAAAAA
11111142424344243412
AAAAAAAABBCCCCBBBBBA
32221111121222344442
AAAAAAAAAAAAAACCCCCA
31222221111122222332
AAABBAAAAAAAAAAAABBB
32441211112444444341
AAAAAAAAAAAACCCCCBBB
21122432144444434311
AAAAABBBBCCCCCCBCCCC
11132141113344441111
AAAAAAAAAACCCCCCCAAA
11111122112122231222
AAAAAAAAAAAAAAAAAAAA
11113332134322122221
AAAAAAAAAAAAAAAAAAAA
21121122211211112213
AAAAAAAAAAAAAAAAAAAA
11212112221111421322
AAAAAAAAAAAAAAAAAAAA
11331242434442122214
AABBBBBBCCCCCAAAAAAA
21142322111311211222
AAAAAAAAAAAAAAAAAAAA
22121122121212212111
AAAAAAAAAAAAAAAAAAAA
11124424444442114243
AAAACCCCCCCCCAAACBBB
12211312112211114122
AAAAAAAAAAAAAAAAAAAA
42124213342114444314
BBBBBBBBBBBBBBBBBBBB
21221212323441242212
AAAAAAAABBBBBBBBBAAA
24333331244324444112
BBBBBBBBBBBBBCCCCCBB
12112222214311223112
AAAAAAAAAAAAAAAAAAAA
13222211412234444444
BBBAAAAACAAACCCCCCCC
41134143123344431324
AABBBBBBBBBBBBBBBBBB
11122123443333442344
AAAAAAABBBBBBCCCCCCC
12211443322111221211
AAAAACCCCAAAAAAAAAAA
11212122311211412132
AAAAAAAAAAAAAAAAAAAA
34242321131341111334
ABBBBBBBBBBBBBBBBBBB
22311111222121243444
AAAAAAAAAAAAACCCCCCC
11223214444141422144
BBBBBBBBCCCCCCCCCCCC
11122112222111211231
AAAAAAAAAAAAAAABBBBB
12122122441444411441
AAAAAAAACCCCCCCCCCCC
13112222214341344434
AAAAAAAAAACCCCCCCCCC
12444121224411442243
BBCCCAAAABBBBBBBBBBB
21211212111211211111
AAAAAAAAAAAAAAAAAAAA
22121214433444424143
AAAAAAACCCCCCCCCCCCC
12131314421443241112
BBBBBBBBBBBBBBAAAAAA
12421422411111212134
AAACBBBBAAAAAAABBBBB
44442441243344341231
CCCCCCCCCCCCCCCCBBBB
33221432322143111331
BBBBBBBBBBBBBBBBBBBB
22444444424442421111
AACCCCCCCCCCCAAAAAAA
11142222244231224241
AAACAAAAACCCAAAACCCB
31232242221321132141
AAAAAACAAAAAAAABBBBB
12121221443314444134
AAAAAAAACCCCCCCCBBCC
31211111144441241144
AAAAAAAAACCBBBBBBCCC
21324344114242413424
BBBBBBBBBBBBBBBBBCCC
11341211112444244442
BBBBAAAAAACCCCCCCCCA
24324223234444444111
ABBBCCCCCCCCCCCCCAAA
21122421111414124444
AAAAAAAAAAACCCCCCCCC
31221122223111222122
BBAAAAAAAAAAAAAAAAAC
32241224243444442444
BAAAAAACCCCCCCCCCCCC
22211121231411111211
AAAAAAAAAAAAAAAAAAAA
12222314444441322212
AAAABBBBBBBBBBBAAAAA
32214441411444434444
AAAACCCCCAACCCCCCCCC
22144414344234443334
ABCCCCCCCCCCCCCCBBBB
21111111142212121342
AAAAAAAAAAAAAAAAABBB
32322142232111211211
BBBBBBBBBAAAAAAAAAAA
22111212122333342343
AAAAAAAAAAABBBBBAACC
11113121222431132442
AAAABAAAAAABBBBBBBBB
22114442444444443442
AAAACCCCCCCCCCCCCCCC
11142122112422114442
AAAAAAAAAAAAAAAABBBB
11222231221444144411
AAAAAAAAAACCCCCCCCCA
23324112431111212121
BBBBAAAACAAAAAAAAAAA
12132141244442211122
AAAAAACAACCCCAAAAAAA
11441444242444431214
BBACCCCBBBACCCBAAAAA
12112111444424144434
AAAAAAAACCCCCCCCCCCC
12121111411122222221
AAAAAAAAAAAAAAAAAAAA
13344443144441434243
BBBBBCCCCCCCCCCCCACA
21212124144234142423
AAAAAACCCCCCCCCCBBBB
34343334141233442444
BBBBBBBBBBBBBBBBBBBB
11412242314444424224
AAAAAABBBBBBBBBBBBBB
22212114221242344441
AAAAAAAAAAAAAACCCCCC
21122222121424122124
AAAAAAAAAAACCCAAAAAC
22233441434113221342
AAAACCCACCBBAAAAAAAA
11123211111412111211
AAABBAAAAAAAAAAAAAAA
12413212431423243413
BBBBBBBBBBBBBBBBBBBB
14134341221114431422
BBBCCCCCAAAAACCCCCCA
42221322121122444442
AAAAAAAAAAAAAACCCCCB
44222232411313113434
CCAAABBBBBBBBBBCCCAB
44341314442424343223
CCCCBBBBBBBBBBBBBBBB
13112331122311212244
AAAAABBBBAAAAAAAAAAA
11221224312212244211
BAAAAAAAAAAAAAAAAAAA
32444121221121211221
BBBBBBBAAAAAAAAAAAAA
12211311142211144422
AAAAAAAAAAAAAAACCCAA
11234421341434224313
BBBBBBBBBBBBBBBBBBAB
11111124121112224112
AAAAAAABBAAAAAAAAAAA
42142431143442222111
BBBBBBBBCCCCCAAAAAAA
21344114121122144244
BBBBBBBBAAAAAAACCCCC
21211424214224122112
AAAAABBBBBBBBBBBAAAA
31434334411213342122
BBBBBBBBBBBBBBBBBBBB
12222112144422424142
AAAAAAABBCCCCCCCCCCA
44112122412212234432
CCAAAAAAAAAAAAACCCBB
14443444434444444412
BCCCCCCCCCCCCCCCCCCA
21432144243413442424
BBBBBBBBBBBBCCCCCCCC
21131211214441124111
AAAAAAAAAACCCCCCCCCC
42232224414411112423
CCAAAAACCCCBAAAAAAAB
11211221112211112244
AAAAAAAAAAAAAAAAAACC
21441234242124313413
BBBBBBBBBBBBBBBBBCCC
42214111222121341312
BBBBBBBBBBAAAACBBBBB
42331213241214312132
BBBBBBBBBBBBBBBBBBBB
41121421322431444444
AAAAAAABBBBCCCCCCCCC
12112112132231142132
AAAAABBBBBBBBBBBBBBB
12431141322121112311
BBBBBBBBBAAAAAAAAAAA
21344144224324314121
ACCCCCBBBACBBBBBBAAA
41244443332212212111
BBBBBBBBBBBBBBAAAAAA
41443424141112221111
BBBBBCCCCAAAAAAAAABB
31222122311221221411
AABAAAAAAAAAAAAAAAAB
34211221211444121111
BAAAAAAAAAACCCBBBBBB
11413212112123421241
ABBBAAAAAAAAAACAABBA
22221144444244334444
AAAAAACCCCCCCCCCCCCC
21434214414212131112
BBBBBBBBBBBAAAAAAAAA
31213111223113422414
BAAAAAAAAAAAABCCCCCC
21423122344144444144
AABBBBBBBBCCCCCCCCCC
23434424411434441121
ACCCCCCCCCCCCCCCBBBB
23441143221443133311
BBBBBBBBBBBBBBBBBBAA
22222212211241144313
AAAAAAAAAAACCCCCCBBB
33433242313323332112
BBBBBBBBBBBBBCCCAAAA
24444444442444242132
ACCCCCCCCCCCCBBBBBBB
12331112221111112432
AAAAAAAAAAABBBBBBBBB
21112222444442422221
AAAAAAACCCCCCAAAAAAA
44444432333422233232
BCCCCCCCCCCCAAABBBBB
32222414424444242444
BBBBBBBBCCCCCCCCCCCC
14122122222212222431
AAAAAAAAAAAAAAAAACCC
12433424331124441124
ABBBBBBBBBBBBBCBBBBB
31121232112432221143
AAAAAAAAAAACCBBBBBCC
31344434321324133222
ACCCCCCCBAABBBBBBBBB
31422121121132134324
AAAAAAAAAAABBBBBBBBB
21124143244142444424
AABCCCCCCCCCCCCCCCCC
41344443444444442444
CCCCCCCCCCCCCCCCBBBB
22143243242422141313
AAACCCCBBBBBBBBBBBBB
11212311323311414231
BBBBBBBBBBBBBBBBBBBB
22122113122121424444
AAAAAAAAAAAAAACCCCCC
44312434444444344334
CCAAACCCCCCCCCCCCCCC
12213442121233434141
BAAABBBBBBBBBBCCBBBB
22221321111232211111
AAAAAAAAAAAAAAAAAAAA
31124232214444444443
BBAABBBAAACCCCCCCCCC
42122241121411224111
AAAAAAAAAAAAAAAAAAAA
22113121241442413343
AAABBBBBBBBBBBBBBBBB
41114213212411444414
BBBBBBBBAAAAAACCCCCC
23441421311121212111
BBBBBBBBBBBBAAAAAAAA
44441214442122422413
CCCCCCCCCCAAAAAAABBB
13231244314414442444
AAAABBCCCCCCCCCCCCCC
32224122414214222434
BBBBBBBBBBBBBBBBBBCC
44421321211224134421
CCCAAAAAAAAAACBBBBBB
21122221211221344444
AAAAAAAAAAAAAAAAACCC
14244344444312432434
ABCCCCCCCCBBBBBBBBBB
22142444444414114412
AAACCCCCCCCCCCCCCCBB
24122321121122121222
AAAABBBBBBBAAAAAAAAA
12243121122231141244
AAAAAAAAAAAABBBBBBBB
44443434342212241222
CCCCCCCCCCAAAAAAAAAA
11211222114433212343
ABBBBBBBBBBBBBBBBBBB
34341214324442242344
BBBBBBBBBCCCCCCCBBCC
22122122212121112122
AAAAAAAAAAAAAAAAAAAA
12221111211112444244
AAAAAAAAAAAAAACCBBCC
14232334314311124214
BBBBBBBBBBBBBBBBBBBB
21411222344414434131
AAAAAAAACCCCCCCCCBBB
21221313434321222141
AAAAAAABBBBBBAAAAACA
12324444444442241212
AAAACCCCCCCCCAAAAAAA
11124414211241444442
AAABBBBBBBBBBBCCCCCC
11144411424424211112
AAACCCCCCCCCAAAAAAAA
41311112222211112211
AAAAAAAAAAAAAAAAAAAB
13334344233233332144
BBBBBBBBBBBBBBBBBBCC
12112224222124124444
AAAAAAAAAAAABBBBBBBB
31121111132444341441
AAAAAAAAABBCCCCCCCCC
21111222122112221241
AAAAAAAAAAAAAAAAAAAA
13244321423132414444
BBBBBBBBBBBBBBBACCCC
22112111214112311121
AAAAAAAAAAAAAAAAAAAA
22114123142124333244
BBAACBBBBBBBBBBBBCCC
11212424444444444224
AAAACCCCCCCCCCCCCCCC
32323344214223343121
BBBCBBBBBBBBBBBBBBBB
12212111221212111211
AAAAAAAAAAAAAAAAAAAA
31333311233344434433
BBBBBBBBBBBBBCCCCBBB
44444434424424444434
CCCCCCCCCCCCCCCCCCCC
43322221412221444344
BBAAAAAAAAAAAACCCACC
11234244443241224424
AAACCCCCCCBBBBBBBBBB
