12132111444444434424
BBBBBBAACCCCCCCCCCCC
12121111311222212141
AAAAAAAAAAAAAAAAAACC
14133444424212112123
BBBBBBCCCAAAAAAAAAAA
22332221321231132244
BBBBAAAAAAAAAAAAAABB
44434413114214233111
CCCCCCAAAAAABBBBBBBC
43441311144222212222
CCCCCCAAACCAAAAAAAAA
13221111121112141121
ABBAAAAAAAAAAAAAAAAA
23123331234421312442
BBBBBBBBBBCCAAAAAAAA
43443434443444444442
CCCCCCCCCCCCCCCCCCCC
23413442212122244121
BBBBBBBAAAAAAACCCCCC
12444333444444324442
BCCCCCCCCCCCCCBBBBBB
13224213433114444412
CBCBBBBBCCAACCCCCAAA
14323143444414434244
ABBBBBCCCCCCCCCCCCCC
12241222244242444434
BBBBBBAAAACCCCCCCCCC
12221121212112124144
AAAAAAAAAAAAAAAAAAAB
21122212342212222112
AAAAAAAAAAAAAAAAAAAA
44112122124421433112
AAAAAAAAAABBBBBBBBBB
12122313234444444444
AAAAABBBBBCCCCCCCCCC
21234244444434422222
AAABCCCCCCCCCCCAAAAC
14114343444444444444
BBBCCCCCCCCCCCCCCBCC
22141222122222141422
BBAAAAAAAAAAAAAAAAAA
22113121112144432223
AAAAAACAAABBBBBBBBBB
21221212121113211112
AAAAAAAAAAAAAAAAAAAA
44434221444442421134
CCCCCCCCCCCCCCAAAACC
24344211444444434444
BBBBBAAACCCCCCCCCCCC
41212211211214431241
AAAAAAAAAAAACCCBBBCA
44244122222224314134
CCCCCAAAAAAAACCCCCCC
12221333144342114444
AAAAAAAAACCCCAAACCCC
34314414444234424214
CCBBCCCCCCCBBBBBBBCC
44412122213434323122
CCCAAAAAAABBBBBBBAAA
22211122222144211321
AAAAAAAAAAAACCAAAAAA
23241224222312121211
BBBBBBBBBBBAAAAAAAAA
14214313444412411441
BBBBBBCCCCCCCCCCCCCC
12213344444444344444
BAAACCCCCCCCCCCCCCCC
42122122441423124221
AAAAAAACCCCCCBBBCAAA
23222222122214144444
AAAAAAAAAAAACCCCCCCC
12232344442212322143
AAAAACCCCCAAAAAAAACC
44234423442444314444
CCCCCCCCCCCCCCCCCCCC
42331344424122223224
BBBBBBBBBBBAAAAACCCC
11123221214144221244
AAAACAAAAACCCCCAAABB
21322234344212212112
BBBBBBBBBBBAAAAAAAAA
43321112112211444414
BBBBBCAAAAAAABBCCCCC
12132241124222421424
BBBBBBBBBBBBBBCCCCCC
13441121111244322244
BBBBBAAAAAAACCAAAACC
23434344444444143344
AACCCCCCCCCCCCBBBBCC
12221122122222222411
AAAAAAAAAAAAAAAAAABB
44443233323131212222
BBBBBBBBBBBBBAAAAAAA
42122222211222211112
AAAAAAAAAAAAAAAAAAAA
34334311213324324312
BBBBBBBBBBBBBBBBBBBA
21122112132341343143
AAAAAAAAAAAAAABBBBBB
12433413443223143143
BBBBBBBBBBBBBBBCCCCC
33441212223424444231
BBBBBAAAAACCCCCCCCCA
41434443442412124224
CCCCCCCCCCAAAAAACCCC
21434444414444242444
CCCCCCCCCCCCCCCCCCCC
22221212221122144121
AAAAAAAAAAAAAAAAAAAA
22433233322124212223
AAABBBBBBAAAAAAAAAAB
22111221244222243211
AAAAAAAAACCAAAABBBBB
31242144234444122211
AACAABCCCCBCCCAAAAAA
22311114132311141121
AAAAAAAAAAAAAAAAAAAA
14444444441121114224
BCCCCCCCCCAAAAAAAAAA
22241211141124242211
AAAAAAAAAAAAAAAAAAAA
21243314223313431424
BBBBBBBBBBBBBBBBBBBB
42144444411244112122
AAACCCCCCCAAAAAAAAAA
11122412344444321331
AAAAAAAACCCCCCCAABBB
24444331441222412234
CCCCBBBBBCAAACCBBBBB
41144341222142221213
BCCCCCCAAAAAAAAAAAAA
11132122221431433442
AAAAAAAAAAABBBBBBBCB
14444424443423411123
ACCCCCCCCCCCCCCAAAAA
14444441333142242422
ACCCCCBBBBBBBBBBCCAA
32212213134414143112
AABBBBBBBBBBBBBCCCCC
22221112221222212222
AAAAAAAAAAAAAAAAAAAA
12112113212424123144
AAAACCAAAAAAACCCCCCB
14322141214121211321
BBBBBBBBBBBBAAAAABAA
22212211142321114241
AAAAAAABBBBBAAAAAAAA
33221344121433231234
BBBBBBBBBBBBBBBBBBBB
21121122112221122312
AAAAAAAAAAAAAAAAAAAA
22222232144344442444
AAAAAABBBCCCCCCCCCCC
13444443414343311311
CCCCCCCCCCCBBBBBBBBB
41223413442112212111
AAABBBBCCCAAAAAAAAAA
41112212211221423314
AAAAAAAAAAAABBBAABBB
14341211411222414433
AAACAAAAAAAAAAABBBBB
14212211142131223314
ACAAAAAAABBBBBBBBBBB
24212211124414441211
BBBBAABBBBBBBCCCCAAA
24242222334431211413
ACCCCBBBCCCBBBBBAAAA
12224244144244123122
AAAACCCCCCCCCCAAAAAA
21344443244444344444
ABBCCCCCCCCCCCCCCCCC
11122212122121231334
AAAAAAAAAAAABBBBBBBB
21444442133444314444
AACCCCCBBBACCCCACCCC
12311212123444412412
AAAAAAAAAAACCCCBBBBB
12121131222122111241
AAAAAAAAAAAAAAAAAAAC
11221311411211414111
AAAAABBBBBBBBBBBBBBB
44442444212411221124
CCCCCCCCCBBBBAAAAACC
32341121124221121113
BBBBBBBBBBBBAAAAAAAA
32134212112331142324
BBBBBBAAAAABBBBBBBBB
11221211144212111114
AAAAAAAAACCAAAAAAAAC
14211232122121344244
ACBABBBBAAAAAACCCCCC
14313121122112141212
AAAAAAAAAAAAAAAAAAAA
21432443412211224131
AACCCCCCCAAAAAAAAABB
22111444221211441344
BAAAACCCAAAAABBBBBBB
32222141412211122424
AAAAAACCBAAAAAAAABBB
44414432322314443132
BBBBBBBBBBBBBAAAAABB
11242211122121212224
AAAAAAAAAAAAAAAAAACC
22232123444333422112
AAAAABBBBBBBBBBAAAAA
31233244231413213132
BBBBBBBBBBBBBBBBBBBB
43144213331424414414
ABBBBBBBBBBBBBBBBBBC
33424214213342442331
BBCCBBBBBBBBBBBBBBBB
31122211112221231322
AAAAAAAAAAAAAAAAAAAA
12313442241444443223
AAAABCCCCCCCCCCCCCAA
42443111111111211114
BBBBBBAAAAAAAAAAAAAC
21444412322221242144
BBBBCCBBBBBBBBBBBBBB
44424344134341344241
CCCCCCCBBBBBBBBBBACC
24113222444424443444
BBBBBBBBCCCCCCCCCCCC
34211221422122421211
AAAAAAAAAAAAAAAAAAAA
22212122111122221212
AAAAAAAAAAAAAAAAAAAA
24324241114324411432
ABBBBBBBBBBBBBAAACCC
21422111221114112211
AACBAAAAAAAAAAAAAAAA
22414414331124122211
BBBBBBBBBBBAAAAAAAAA
14442212112121211112
BBBBAAAAAAAAAAAAAAAA
21441433144441341124
AACCCCBBBCCCCBBBBBAB
14341244342244424344
BCCCCCCCCCAACCCCCCCC
41341234434211142411
AABBBBBBBBBBBBBBBBBB
21123121122232412111
AAAAAAAAAAAAAAAAAAAA
12441312121122211231
ACCCAAAAAAAAAAAAAAAA
22222122121444444134
AAAAAAAAAAACCCBBBBBC
11214331231121222232
AABBBBBBBBBBBBBBBBBB
14444444444344434441
ACCCCCCCCCCCCCCCCCCC
44443144244443444244
CCCCCCCCCCCCCCCCCCCC
11121434221441144424
BBBBBBBBBBBCCCCCCCCC
23211143424344423121
AAAAAACCCBBBCCCCCAAA
22224233412321421144
AAAABBBBBBBAAAAAAACC
11122211224121444344
AAAAAAAAAACCCCCCCCCC
12121122111444422122
AAAAAAAAAACCCCBAAAAA
12114412221444344334
AAAAAAAABBBBCCCCCCCC
13113321111212111112
AAABBBBAAAAAAAAAAAAA
21212212221122111212
AAAAAAAAAAAAAAAAAAAA
43134241322111134212
BBBBBBBBBBAAAAAAAAAA
12222214422344444122
AAAAABBBCCCCCCCBBBBB
11224434442444443144
AAAACCCCCCCCCCCCCCCB
14412221121121444221
BBBAAAAAAAAAAACCCCAA
44233423411213344444
BBBBBBCBBBBCCCCCCCCC
21124222212232431111
AAAAAAAAAAAABBBBBBBB
32131422444234414442
BBBBBBBCCCCBBCCCCCAA
12212241444431212242
ABBBBBBBCCCCCABBBBCC
12143431211122442444
AACCBBBBBBAAAACCCCCC
13144411331322111221
BBBBBBBBBBBBBBBBBAAA
32122144411444414444
AAAAAACCCCCCCCCCCCCC
24412122221211421241
ACCCAAAAAAAAAAAAABBB
34424444244113212222
CCCCCCCCCCCAAAAAAAAA
13212322122411222111
BBBBBAAAAAAAAAAAAAAA
22311122111312112114
AAAAAAAAAAAAAAAAAACC
21221231214441221121
AAAAAAAAAAAAAAAAAAAA
44244444444313424214
CCCCCCCCCCCBBBBBBBBC
34142444421212224444
BCCCCCCCCCCAAAAACCCC
31244244421241341212
BBACCCCCCAAAAABBBCCA
12244442414224432122
AAAABBBBCCCCCCCCAAAA
43433322213143122314
CCCCBBBBAABBBBAAABBB
14212341444442144444
ABBBCCCCCCCCCCCCCCCC
14212214224311111112
BBAAAAACCBBBBAAAAAAA
33212332132111211121
AAAAABBBBBBBBBBBAAAA
11114414331331334414
AAAACCBBBBBBBBBBBBBB
13211214211222211414
AAAAAAAAAAAAAAABBBBB
31213233444342344424
BBBBBBBBBBBBBBBCCCCC
24434441442411122121
CCCCCCCCCCCCAAAAAAAA
44144211221121111111
CCCCCAAAAAAAAAAAAAAA
11144312234322121212
AAACCBBBBBBBABBBBBBB
22121141444412441441
AAAAAACCCCCCCCCCCCCC
11211144441121221412
AAAAAACCCCAAAAAAAAAA
21221211244141234441
AAAAAAAAACCBBBBBBBBB
44211132413241233113
BBAAABBBBBBBBBBBBAAA
21211233311111123222
AAAAAABBAAAAAAAAAAAA
11314341442422242214
AABBBBBBBBBBAAAAAAAC
41341211121444444444
BBAAAAAAAACCCCCCCCCC
22143224422142311414
BBBBBBBBBBBBBBBABBBB
11431443444434442423
AAAAACCCCCCCCCCCCCCB
12222122311111221111
AAAAAAAAAAAAAAAAAAAA
12112222122231231113
AAAAAAAAAAAAAAAAAAAA
21111222123222221223
AAAAAAAAAAAAAAAAAABB
22124431213141424211
AAABBBBBBBBBBBBAAAAA
24141114424432234112
ABBBBBBCCCCBBBBBBBBB
44133244244434224214
CCCCCCCCCCCCCCCCCCCC
31122211112111111122
AAAAAAAAAAAAAABBBBAA
23142412413441343212
BBBBAAAACCCCCCCCAAAA
12321111434242311441
AAAAAAAACCBBBBBBBBBB
22421222432412444433
BABBBBBBBBBBBBCCCCCB
13213224221111131431
BBAAAACCAAAAAAAAAAAA
31221211122443442241
AAAAAAAAAAAAABBBBBBB
22112331221221121223
AAAAAAAAAAAAAAAAAAAA
12322214134444433431
AAAAAAACCCCCCCCCCCAA
44444442413214341444
CCCCCCCBBBBAACCCCCCC
11314121114444111441
BBBBBBAAAACCCCAACCCC
34122134421224132222
AAAAAABCBBBBBBAAAAAA
22442433321122132424
ABBBBBBBBBAAAABBBBBC
11444444234411211211
AACCCCCCCCCBAAAAAAAA
21242221213111121211
AAAAAAAAAAAAAAAAAAAA
21112122121222231134
AAAAAAAAAAAAAABBBCCC
22432334143443212111
CCCAAAAAACCCCCAAAAAA
34244121441121131214
BBBCCCCCCCAAAAAAACCC
22311123213344444441
AAAAAAAAAACCCCCCCCCC
22422211231424123324
AAAAAAAABBBCCAAABBBB
41321434244444442414
BBBBBCCCCCCCCCCCCCCC
12111114242211223211
AAAAAAAAAAAAAAAAABBB
43212221111212221412
BBAAAAAAAAAAAAAABBAA
31421421112111111141
BBBBBBBBBAAAAAAAAAAA
22124442231321223412
AAAACCCCAAAAAAAAAAAA
31211141323133441242
BBBBBBBBBBBBBBBBAAAA
11444423431444214444
AABCCCCCCCCCCCCCCCCC
44324314313223211142
CBBBBBBBBBBBBBBBABBC
12241112224414322432
AAAAAAAAAACCCCBBBBBB
31122311212122234242
AAAAAAAAAAAAAAABBABB
11112322111121111132
AAAAAAAAAAAAAAAAAAAA
12444423334323214424
BBBBBBBBBBBBBBBBBCCC
12111121122222311122
AAAAAAAAAAAAAAAAAAAA
14134444344444442212
ABBBCCCCCCCCCCCCCCCC
14111212211122344432
AAAAAAAAAAAACCCCCCCC
23444444222444213122
BBBBCCBBAAAACCBBBBBB
11122112121223222222
AAAAAAAAAAABBBAAAAAA
13212411232424411111
AAAAAAAAAAAAAAAAAAAA
41232424114434144444
BBBBBCCCCCCCCCCCCCCC
12212234244214444444
AAABBBBBBCCAACCCCCCC
44442343212114311214
BBCBBBBBBBBABBBBBBBB
44444444134321414421
CCCCCCCCCCCCCCCCCCAA
21144244441424311441
AAACCCCCCCCCCBBBBBBB
12111211112111414444
AAAAAAAAAAAAAACCCCCC
21321212124214411444
AAAAAABBBAAAAAAAABBB
44444414244443441444
BBCCCCCCCCCCCCCCCCCC
43142313233241444314
BBBBBBBBBBCCCCCCCCCC
11222133144411443444
BBBBAABBACCCBBBBBCCC
32221212221422114444
AAAAAAAAAAAAAAAACCCC
21312124211324232412
AAAAAAAAAAABBBBBBBBB
12221112121122221233
AAAAAAAAAAAAAAAABBBB
21314244243334443241
BBBBBBBBBBBBBBBBBBBB
22321413324143111112
BBBBBBBBBBBBBAAAAAAA
13412241221222121222
BBBBBBAAAAAAAABAAAAA
22111212412322141233
AAAAAAACCBBBBBBBBBBB
24443221444222212313
CCCCCBBBBBBBAAAAABBB
23313324122221122444
BBBBCAAAAAAAAAAAAACC
11124242444342433141
AAABBBCCCCCCCBBBBBBB
12144444311314342133
AAACCCCCBBBBBBBBBBBB
22221114211421221221
AAAAAAAAAAAAAAAAAAAA
13112414121312122111
AAAAAAAAAAAAAAAAAAAA
34111122211222123122
BAAAAAAAAAAAAAAAAAAB
32444434414444412121
CCCCCCCCCCCCCCCAAAAA
31111311222144244334
AAAAAAAAAAAACCCCCCCC
11113211242121311224
AAAAAAAAAAAAAAAAAAAB
42424443112121114114
CCCCCCCAAAAAAAAAAAAB
32122441222123132223
AAAAACCBBBBBBBBBBBBB
23222121111422241441
AAAAAAAAAAAAAAABBBBB
21341124132121211314
AACCAAAAAAAAAAAAAAAA
44244444414433443424
CCCCCCCCCCCCCCCCCCCC
13324412313421241223
ACCCCCCCCBBAAAAAAAAA
44223442342233411322
BBCCCCCCCCCCCCCAAAAA
21412221112232323114
AAAAAAAAAAAAAAAAAACC
12112121212444421443
AAAAAAAAAAAACCCCCCCC
12221322122112411322
AAAAAAAAAAAAAABBBBBC
23322444414111222112
BBBBBBCCCCCAAAAAAAAA
43334422113223441444
BBBBCCAAAAAAACCCCCCC
12443414123311224134
AACCCCBBBBBBBBBBBBBB
24431142122221124244
BBBBBBBBBBAAAAAAACCC
33133431232121111223
CBBBBBBBBBBAAAAAAAAC
24412222222224114211
ACCCCAAAAACCCCAAAAAA
44122114132241444444
CCCAAAAAAAAAAACCCCCC
22111122121221123211
AAAAAAAAAAAAAAAABAAA
22221241241121212112
AAAAAAAAAAAAAAAAAAAA
11221221242112122441
AAAAAAAAAAAAAAAAACCC
12221212124121223221
AAAAAAAAAAAAAAAAAAAA
22241221124444221221
AAACAAAAAACCCCCAAAAA
23344444341142433444
CCCCCCCCCCCCCCCCCCCC
22414444443444413143
AAAACCCCCCCCCCCCCCCC
32121211114321121121
AAAAAAAAABBBAAAAAABB
12222112132242242222
AAAAAABBBBBBCCCCCAAA
11444424444424424444
BBBCCCCCCCCCCCCCCCCC
32222441144444343222
BBBBBBBAACCCCCCCCCAA
24212221214234434131
AAAAAAAAAAAABBBBBBBA
11213132221422112121
AAAAAAAAAAAAAAAAAAAA
22211332311212123212
BBBBBBBBBAAAAAAAAAAA
41121411344423411124
CCCCCCCCACCCBBBBCCCC
12124222222221222112
AAAACCAAAAAAAAAAAAAA
11124441444444422224
AAAACCCCCCCCCCCAAAAC
21122211122442444141
AAAAAAAAAACCCCCCCCCC
44244441424444214142
CCCCCCCCCCCCCCCCCCCC
43212112231112123242
BBBBAAAAAAAAACCCCCCC
21212414244124411442
AAAAACCCCCCABCCCCCCC
44144322242324113311
BBBBBBBBBBBBBBBBBBBB
44422222214111311224
AAAAAAAAAAAAAAAAABBC
41121121221112222212
AAAAAAAAAAAAAAAAAAAA
23243143324112342311
ABBBBBBBBBBBBBBBBBBB
21111343411211322414
AAABBBBBBBBBBBBBBBBB
21111111132444434424
AAAAAAAAACCCCCCCCCCC
41421414414242111222
BBBBBBBBBBBAAAAAAAAA
21131444444444424231
AAABCCCCCCCCCCCCCCCC
43444122112444442444
BBBBBBAAAAACCCCCCCCC
21333442431444444414
AABBCCCCCCCCCCCCCCCC
12111414234141311214
AAAAAABBBBBBBBBBBBBB
42222112212124224434
AAAAAAAAAAAAAAABBBBB
12213232112212121114
AAAAAAAAAAAAAAAAAABB
44444341444444141132
CCCCCCCCCCCCCCCBBBBB
43334214423331122422
BBBBBBBBBBBBBBBBBBAA
21121414142341444442
BBBBABBBBBBBBCCCCCCC
24412342121123244431
ACBBBBBAAAAAABBBCCCB
22311422121222222112
AAAAACAAAAAAAAAABBBB
