66622525316434532215252555511142621466462446462141
LLLFFFFFFFFFFFFFFFFFFFFFFFFFFFFFFFFFFFFFFFFFFFFFFF
25554464414266266163363326163264234321661233643544
FFFFFFFFFFFFFFFFFFFFFFFFFLLLFFFFFFFFFFFFFFFFFFFFFF
26111555122664255621124455361151253621226515256362
LLFFFFFFFFFFFFFFFLFFFFFFFFFFFFFFFFFFFFFFFFFFFFFFFF
66246124514214115663666666666666616221643466666665
LLFFFFFFFFFFFFFFFLLLLLLLLLLLLLLLLLLFFFFFFFFLLLLLLL
66316424224122455124325623515212114126566666666666
LLFFFFFFFFFFFFFFFFFFFFFFFFFFFFFFFFFFFFFLLLLLLLLLLL
66566646666666666661666646624534366665435523626654
LLLLLLLLLLLLLLLLLLLLLLLLLLLLFFFFFLLFFFFFFFFFFFFFFF
14653223221423634331613465343142224522653661236651
FFFFFFFFFFFFFFFFFFFFFFFLLLLFFFFFFFFFFFFFFFFFFFFFFF
66626146325136645532551445566666666664661666661661
LLLLFFFFFFFFFFFFFFFFFFFFFLLLLLLLLLLLLLLLLLLLLFFLFF
13353265212243122532265224265336445245516222616166
FFFFFFFFFFFFFFFFFFFFFFFFFFFFFFFFFFFFFFFFFFFFLLLLLL
56313141352511244245351265224666562666662531345625
FFFFFFFFFFFFFFFFFFFFFFFFFFFFLLLLLLLLLLLLFFFFFLLLLL
41436613562231223512533656432326623515566654121632
FFFFFFFFFFFFFFFFFFFFFFFFFFFFFFFFFFFFFFFLLLFFFFFFFF
41666666661613661666166645556464632644666666444454
LLLLLLLLLLLLLLLLLLLLFLLFFFFFFFFFFFFFFFLLLLLLFFFFFF
11241265464666666235644566666465666166665266211461
FFFFFFFFFFFLLLLLLFFFFFFFLLLLLLLLLLLLLLLLLFFFFFFFFF
62516666665436565335536611234163435563152611365514
FFFFLLLLLLLFFFFFFFFFFFFFFFFFFFFFFFFFFFFFFLFFFFFFFF
26146446666536666323643134544531523463636266626465
FFFFFFFLLLLFFLLLLFFFFFFFFFFFFFFFFFFFFFLLLLLLLLLFFF
65153156312654134223212163666662124646666524142256
FFFFFFFFFFFFFFFFFFFFFFFFFFLLLLLFFFFFFLLLLFFFFFFFFL
36421536564466342341231165265261231455655616266666
FFFFFFFFFFFFLLLFFFFFFFFFFFFFFFFFFFFFFFFFFFFLLLLLLL
33421424366636636661365533426144611243654634315544
FFFFFLFFFLLLLLLFLLLFFFFFFFFFFFFFFFFFFFFFFFFFFFFFFF
66666362252666233566212335451665165654156666556666
LLLLFFFFFFFLFFFFFFLFFFFFFFFFFFFFFFFFFFFFLLLLLLLLLL
62632216354414235112531665655263446625633442312312
LLLFFFFFFFFFFFFFFFFFFFFFFFFFFFFFFFFFFFFFFFFFFFFFFF
21435663352351241533422433514143135566145516466636
FFFFFFFFFFFFFFFFFFFFFFFFFFFFFFFFFFFFFFFFFFFFFLLLFF
66354544533136615132644645361515415252251646666666
LLFFFFFFFFFFFFFFFFFFFFFFFFFFFFFFFFFFFFFFFFFLLLLLLL
61366666643664666666146626362645514412346166663646
FFFLLLLLLLLLLLLLLLLLFFFFFFFFFFFFFFFFFFFFLLLLLLLLLL
12521143636455251512125565451432222142144452325266
FFFFFFFFFFFFFFFFFFFFFFFFFFFFFFFFFFFFFFFFFFFFFFFFLL
42666464456566512313666666616316656656146623624512
FFLLLFFFFFFFFFFFFFFFLLLLLLLLLLLLLFFFFFFFFFFFFFFFFF
52456514542132111212251422624444221245366666636624
FFFFFFFFFFFFFFFFFFFFFFFFFFFFFFFFFFFFFFFFFLLLLLLLFF
63256615255153444533541652254345411535441352154631
LFFFFFFFFFFFFFFFFFFFFFFFFFFFFFFFFFFFFFFFFFFFFFFFFF
21666666366665663666663452354562522566443256662666
FFFFFFFLLLLLLLLLLLLLLLFFFFFFFFFFFFFFFFFFFFFLLLLLLF
45666131641466366366531666166362466661616636566414
FFFFLFFFFFFFLLLLLLLLLLLLLLLLLFFFFFLLLLLLLLLLLLLFFF
45615666466226666666666664666666666656333465454555
FFFFLLLLLLLLLLLLLLLLLLLLLLLLLLLLLLLLFFFFFFFFFFFFFF
15436132652416116665266432656464123235454641111624
FFFFFFFFFFFFFFFFFLFFFLLFFFFFFFFFFFFFFFFFFFFFFFFFFF
33132434251635615162433616666426266662125131226654
FFFFFFFFFFFFFFFFFFFFFFFFFLLLLLLLLLLLLFFFFFFFFFFFFF
34666146565115324546333644561343624625264366666636
FFLLLFFFFFFFFFFFFFFFFFFFFFFFFFFFFFFFFFFFFFLLLLLLLL
16366646616146666656662563255456135353424533111651
LLLLLLLLLFFFFLLLLFFFFFFFFFFFFFFFFFFFFFFFFFFFFFFFFF
65666666662626566535435245332265654326641653533463
LLLLLLLLLLLLLLLLLFFFFFFFFFFFFFFFFFFFFLLLLLFFFFFFFF
66616646632666666666632343516666666315414355343535
LLLLLLLLLLLLLLLLLLLLLFFFFFFLLLLLLLLLFFFFFFFFFFFFFF
36542144312523323111365413362645663656666665662613
FFFFFFFFFFFFFFFFFFFFFFFFFFFFFFFFLLLLLLLLLLLLLLLLFF
26465353225252561262313113255544251666462552434656
FFFFFFFFFFFFFFFFFFFFFFFFFFFFFFFFFFFLLFFFFFFFFFFFFF
66666141566245666314632111513266641166661655464642
LLLLLLFFFFFFFFLLLLLLLFFFFFFFFFLLLLLLLLLLFFFFFLFFFF
61561121354124511442665263563244665166563666656666
FFFFFFFFFFFFFFFFFFFFFFFFFFFFFFFFLLLLLLLLLLLLLLLLLL
66363635563615254663451122546466556216423464626365
FFFFFFFFFFFFFFFFFLLFFFFFFFFFFFFFFFFFFFFFFFFFFFFFFF
31461436261626626534565521213123616661136666264522
FFFFFFFFFFFFFFFFFFFFLLFFFFFFFFFFFLLLLLFFLLLLFFFFFF
64114411421155241222156134425124461354126414254135
FFFFFFFFFFFFFFFFFFFFFFFFFFFFFFFFFFFFFFFFFFFFFFFFFF
25164552526336221544115345221261666661155141662364
FFFFFFFFFFFFFFFFFFFFFFFFFFFFFLLLLLLLLFFFFFFFFFFFFF
56666666666666666665114263255443252224155542214414
FLLLLLLLLLLLLLLLLLLLLLLLLLFFFFFFFFFFFFFFFFFFFFFFFF
66666615441344143334636436511155646666663616624362
LLLLLLFFFFFFFFFFFFFFFFFFFFFFFFFFFLLLLLLLLLLLLFFFFF
33656353445246446666666323666666166666656663663666
FFFFFFFFFFFFFFLLLLLLLLLLLLLLLLLLLLLLLLLLLLLLLLLLLL
46663153632535612423221266636616466661466241564232
LLLLLFFFFFFFFFFFFFFFFFFFLLLLLLLLLLLLLLLLLFFFFFFFFF
61616666666651462151136656666661211212234244132655
LLLLLLLLLLLLFFFFFFFFFFLLLLLLLLLFFFFFFFFFFFFFFFFFFF
44215515322615665666666666626423655443626624666666
FFFFFFFFFFFFFFLLLLLLLLLLLLFFFFFFFFFFFFFFFFFLLLLLLL
56355234313143126256166666663122622545155635266666
LFFFFFFFFFFFFFFFFFFFFLLLLLLLLFFFFFFFFFFFFFFFFFLLLL
66514465434166456666664656626616422653636666666166
LLFFFFFFFLLLLLFFLLLLLLLLLLLLLLFFFFFFFFLLLLLLLLLLLL
36613651443543415554343163644333334366652664344646
FFFFFFFFFFFFFFFFFFFFFFFFFFFFFFFFFFFFLLLFFFFFFFFLLL
54123225254112243315223544456664266135536654614513
FFFFFFFFFFFFFFFFFFFFFFFFFFFFLLLLLFFFFFFFFFFFFFFFFF
26364551526665662663666666263565236466666465321216
FFFFFFFFFFFLLLLLLLLLLLLLLLLFFFFFFFLLLLLLLLLLFFFFFF
36613422254316365163624114155365516454653162666664
LLLFFFFFFFFFFFFFFFFFFFFFFFFFFFFFFFFFFFFFFFFLLLLLLL
56662352653326533412211654213356552621256432134114
FLLLFFFFFFFFFFFFFFFFFFFFFFFFFFFFFFFFFFFFFFFFFFFFFF
12255166666646636666626666466666116626645516225214
FFFFFFLLLLLLLLLLLLLLLLLLLLLLLLLLLLLLLLLLFFFFFFFFFF
65166664444666666666664351564562346424626666162512
LLLLLLLLLLLLLLLLLLLLLFFFFFFFFFFFFFFFFFLLLLLFFFFFFF
13343554655666463322261561535446235666666624452146
FFFFFFFFFFFLLLLLFFFFFFFFFFFFFFFFFFFFLLLLLLFFFFFFFF
15135464362656624133352362666666215452311556666516
FFFFFFFFFFFFFLLLFFFFFFFFLLLLLLLLLFFFFFFFFFFLLLLLLL
12345143133363145232125663432316666666666112565516
FFFFFFFFFFFFFFFFFFFFFFFFFFFFFFLLLLLLLLLLFFFFFFFFFF
26665334411525336511661436552666215554643332355123
FFFFFFFFFFFFFFFFFFFFLLLFFFFFFLLLFFFFFFFFFFFFFFFFFF
54222565634466666666625345155312434653613316231432
FFFFFFFFLLLLLLLLLLLLLFFFFFFFFFFFFFFFFFFFFFFFFFFFFF
62466266666216646666666666662666664122324653534666
LLLLLLLLLLLFFLLLLLLLLLLLLLLLLLLLLLFFFFFFFFFFFFFLLL
66666221451424616426132166342646666662666433663652
LLLLFFFFFFFFFFFFFFFFFFFFFFFFFFLLLLLLLLLLLFFFFLLLFF
16526536353343533154216466454544341165546546156433
FFFFFFFFFFFFFFFFFFFFFFLLLLFFFFFFFFFFFFFFFFFFFFFFFF
21263661444513146313334214144236134415626534662666
FFFFFFFFFFFFFFFFFFFFFFFFFFFFFFFFFFFFFFFFFFFLLLLLLL
51152121516366666622216366666665151142156323516666
FFFFFFFFFFLLLLLLLLLFFFLLLLLLLLLFFFFFFFFFFFFFFFLLLL
56666612614665636315541445363645254521646656646666
FLLLLLFFFFFFFFFFFFFFFFFFFFFFFFFFFFFFLLLLLLLLLLLLLL
26634422252215312134624146352143466636666266666666
FLFFFFFFFFFFFFFFFFFFFFFFFFFFFFFFFLLLLLLLLLLLLLLLLL
12266666666666616665666366665366666666334246354633
FFFLLLLLLLFLLLLLLLLLLLLLLLLLLLLLLLLLLLFFFFFFFFFFFF
36466666566665661143623361316255111651553362643541
FFFLLLLLLLLLLLLFFFFFFFFFFFFFFFFFFFFFFFFFFFFFFFFFFF
24441462422116545453114223564542636666666666366666
LFFFFFFFFFFFFFFFFFFFFFFFFFFFFFFFFFLLLLLLLLLLLLLLLL
36251426666266636663555133666666366664552245436253
FFFFFFFFFLLLLLLLLLLLFFFFFFLLLLLLLLLLLFFFFFFFFFFFFF
31415553366221645216654124266366663166236341451256
FFFFFFFFFFFFFFFFFFFFFFFFFFFLLLLLLLFFFFFFFFFFFFFFFF
55626643164426666666666666663635665661666666456436
FFFLLLLFFFFFFLLLLLLLLLLLLLLLLLLLFFFFFFFLLLLLLLLFFF
15534165112241335564412122666111266534666666342662
FFFFFFFFFFFFFFFFFFFFFFFFFFFFFFFFFFFFFFLLLLLLLLLLLF
66466626661441325161524264313633421146163166335534
LLLLLLFFFFFFFFFFFFFFFFFFFFFFFFFFFFFFFFFFFFFFFFFFFF
13322132663646632621266666552126661666626661264336
FFFFFFFFLLLLLFFFFLFFFLLLLLLFFFFLLLLLLLLLLLLFFFFFFL
26443435136121513461466566664656666552321536265265
FFFFFFFFFFFFFFFFFFLLLLLLLLLLLLLLLLLFFFFFFFFFFFFFFF
66666666666462525363261433621261256234214564664466
LLLLLLLLLLLFFFFFFFFFFFFFFFFFFFFFFFFFFFFFFFLFFFLLLL
53224555332541324362562561142153356666666666646666
FFFFFFFFFFFFFFFFFFFFFFFFFFFFFFFFFFFFLLLLLLLLLLLLLL
66666666666422442143444246521551111361154464153342
LLLLLLLLLLLLFFFFFFFFFFFFFFFFFFFFFFFFFFFFFFFFFFFFFF
34164564213166666222544342342123613644326243565666
FFFFFFFFFFFFFFFLLFFFFFFFFFFFFFFFFFFFFFFFFFFFLLLLLL
44131664326664362634421516215646215216626546441623
FFFFFFFFFFFFFFFFFFFFFFFFFFFFFFFLFFFFFFFFFFFFFFFFFF
64666666663166665666666625613212552444613252335321
LLLLLLLLLLLLLLLLLLLLLLLLFFFFFFFFFFFFFFFFFFFFFFFFFF
23153162314516341636626415555523355235234124315546
FFFFFFLFFFFFFLFFFLLLLFFFFFFFFFFFFFFFFFFFFFFFFFFFLF
66661665266665654564513352615145245324122616661666
LLLLFFLLLLLLLLLFFFFFFFFFFFFFFFFFFFFFFFFFFFFLLLLLLL
62234151522451153243315513512666666666466662526535
LFFFFFFFFFFFFFFFFFFFFFFFFFFLLLLLLLLLLLLLLLLLFFFFFF
63666666666666666666626356411616646666266233516561
LLLLLLLLLLLLLLLLLLLLLLLFFFFLLLLLLLLLLLLLLFFFFFFFFF
34161663665126133415231266666661662456221535512652
FFFLLLLLLLFFFFFFFFFFFFFLLLLLLLLLLLFFFFFFFFFFFFFFFF
42333121221333315535351314432145142525434545456426
FFFFFFFFFFFFFFFFFFFFFFFFFFFFFFFFFFFFFFFFFFFFFFLFFF
51226265632435566666661666666226461422531566632663
FFFFFFFFFFFFFFFLLLLLLLLLLLLLLFFFFFFFFFFFFFLLLLLLLL
13666556665626263524664262624463642132265625666366
FFLLLFFFLLLLLLLFFFFFFFFFFFFFFFFFFFFFFFFFFFFFLLLLLL
36666666665314131412666266616666636514645564156666
FFLLLLLLLLFFFFFFFFFFLLLLLLLLLLLLLLLFFFFFFFFFFFLLLL
43351424266542666666366666661266666666666666666665
FFFFFFFFFLLLLLLLLLLLLLLLLLLLLLLLLLLLLLLLLLLLLFLLLL
12541516623246413562666646656556266643662666113436
FFFFFFFFFFFFFFFFFFFFLLLLLLLLLLLLLLLLLLLLLLLLFFFFFL
11455654366636632455156366431166666635443466361366
FFFFFFFFFLLLLLLFFFFFFFFFLLFFFFLLLLLLLLLFFLLLLLLLLL
23536626164551531321445665642656666663413441466116
FFLLLLLLLFFFFFFFFFFFFFFFFFFFFFLLLLLLFFFFFFFLLLLLLL
33335656666666666112325235223465165523612146641626
FFFFLLLLLLLLLLLLLFFFFFFFFFFFFFFFFFFFFFFFFFFFFFFFFL
21425514651631143636661156136662662666661166666466
FFFFFFFFFFFFFFFFLLLLLLLLFFLLLLLFFLLLLLLLLLLLLLFFFF
52364561425451123624251235666611624453163433446212
FFFFFFFFFFFFFFFFFFFFFFFFFFLLLLFFFFFFFFFFFFFFFFFFFF
54131461266566646666666466666666666666456263664566
FFFFFFFFFFLLLLLLLLLLLLLLLLLLLLLLLLLLLLFFLLLLLLFFFF
12131433356666641341442662526463541315626343365124
FFFFFFFFFFLLLLLFFFFFFFFFFFFFFFFFFFFFFFLLLFFFFFFFFF
31315251565263265353232556234534554252111463466626
FFFFFFFFFFFFFFFFFFFFFFFFFFFFFFFFFFFFFFFFFFFFFLLLFF
41643655551144564112454466666666666666666664663666
FFFFFFFFFFFFFFFFFFFFFFFFFFFLLLLLLLLLLLLLLLLLLLLLLL
55163351366626566666564666666665666166666666665466
FFFFFFFFFLLLLLLLLLLLLLLLLLLLLLLLLLLFLLLLLLLLLLLLLL
21321423336131334442541232512254215643661241426353
FFFFFFFFFFFFFFFFFFFFFFFFFFFFFFFFFFFFFLLLFFFFFFFFFF
32515116111545133446666614615335554666666666266616
FFFFFFFFFFFFFFFFFFFLLLLLLLLFFFFFFFLLLLLLLLLLLLLLLL
62263312212126262366666653323422266366266666666666
FFFFFFFFFFFFFLLLFFLLLLFFFFFFFFFFLLLLLLLLLLLLLLLLLF
63166616623366146664125145354252211523321665265625
FFFLLLLLLLLLLLFFFFFFFFFFFFFFFFFFFFFFFFFFFFFFFFFLLF
26536411122454554566651514224522323136145615225445
FFFFFFFFFFFFFFFFFFFFFFFFFFFFFFFFFFFFFFFFFFFFFFFFFF
33253245311262666656666666361453443666666666665662
FFFFFFFFFFFFLLLLLLLLLLLLLLLLFFFFFFLLLLLLLLLLLLLLLL
66546665666661423564213162465425646566466562126412
FFFFLLLLLLLLLFFFFFFFFFFFFFFFFFFFLLLLLLLLLFFFFFFFFF
66636656212236362666662423252331422536254546235145
FFFFFFFFFFFFFLLLLLLLLLFFFFFFFFFFFFFFFFFFFFFFFFFFFF
11666266666666561536462666414135326423126362636464
FFLLLLLLLLLLLLFFFFFFFFFLLLFFFFFFFFFFFFFFFFFFFFFFFF
15612414341646343233466666466646616666666666666666
FFFFFFFFFFFFFFFFFFFFFFLLLLLLLLLLLLLLLLLLLLLLLLLLLL
32421134366636622662433614431531443142346343666665
FFFFFFFFFLLLLLLLLLFFFFFFFFFFFFFFFFFFFFFFFFFFLLLLLF
11634262666244563445561624162125523665664232153424
FFFFFLLLLLLLFFFFFFFFFFFFFFFFFFFFFFFFFFFFFFFFFFFFFF
66355443164215561342545154612445234443632256146433
LLLFFFFFFFFFFFFFFFFFFFFFFFFFFFFFFFFFFFFFFFFFFFFFFF
13251436164346365516515553545266616666625466515433
FFFFFFFFFFFFFFFFFFFFFFFFFFFFFFLLLLLLLLFFFFLFFFFFFF
21346152346151236251266566666656344216265236333215
FFFFFFFFFFFFFFFFFFFFFFFFLLLLLLLLFFFFFFFFFFFFFFFFFF
54536344443243464143564646661565153166666663625666
FFFFFFFLFFFFFFFFFFFFFFFFFLLLFFFFFFFFLLLLLLLFFFFLLL
66664366632554353655364512541554332316131344563566
LLLLFLLLLFFFFFFFFFFFFFFFFFFFFFFFFFFFFFFFFFFFFFFFLL
35546354216656326562613666652153664665615521661236
FFFFFFFFFFFFFFFFLLLLLLLLLLLLLLLLLLLLLLLFFFFFLLLLLL
66635346442513535566165315442365656464164136412616
FLLFFFFFFFFFFFFFFFLLLLLFFFFFFFFLLLLFFFFFFFFFFFFFFF
16646666665666666425251513543224431632353515262351
LLLLLLLLLLLLLLLLLLLFFFFFFFFFFFFFFFFFFFFFFFFFFFFFFF
15142335246256136621254433122666553536326152634145
FFFFFFFFFFFFFFFFLLFFFFFFFFFFFLLLFFFFFFFFLFFFFFFFFF
65444233452152233535664366555634364515154632255623
FFFFFFFFFFFFFFFFFFFFFFFFFFFFFFFFFFFFFFFFFFFFFFFFFF
36632653316444322366666656666636666662366463666626
FFFFFFFFFFFFFFFFFFLLLLLLLLLLLLLLLLLLLFFFFFLLLLLLLL
34364332522355636165455114156331555123213312341314
FFFFFFFFFFFFFFLLLFFFFFFFFFFFFFFFFFFFFFFFFFFFFFFFFF
45336236566662666666661231613631451642415323154526
FFFFFFFLLLLLLLLLLLLLLLFFFFFFFFFFFFFFFFFFFFFFFFFFFF
66644442426666613661665633136336143335662666263252
LLLFFFFFFLLLLLLFFLLLLLFFFFFFFFFFFFFFFFLLLLLLLFFFFF
36432555516636666564655562166134524653461325413424
FFFFFFFFFFFFFLLLFFFFFFFLLFFFFFFFFFFFFFFFFFFFFFFFFF
45422666663644532214141516461323361145414555466666
FFFFFFLLLLLLFFFFFFFFFFFFFFFFFFFFFFFFFFFFFFFFFLLLLL
61166666666636636656564425215556614463243566424166
LLLLLLLLLLLLLLLLLLFFFFFFFFFFFFFLLFFFFFFFFFLLFFFFLL
15444555132521215666666666626666666614515562355623
FFFFFFFFFFFFFFFFFLLLLLLLLLLLLLLLLLFFFFFFFFFFFFFFFF
41161244212242466656324142324336365524123442351453
FFFFFFFFFFFFFFFFFFFFFFFFFFFFFFFFFFFFFFFFFFFFFFFFFF
52663666466656643411263566666654214141644342553545
FLLLLLLLLLLLLLLFFFFFFFLLLLLLLLLLFFFFFFFFFFFFFFFFFF
21363666666664666663666666666664146666325241235343
FFFLLLLLLLLLLLLLLLLLLLLLLLLLLLLLLLLLLFFFFFFFFFFFFF
66266666666666666556666266666634326625466114161411
FFFFLLLLLLLLLLLLLLLLLLLFLLLLLLFFFFFFFFFLLFFFFFFFFF
13124251234652524516522164266666354514661112462323
FFFFFFFFFFFFFFFFFFFFFFFFFFFLLLLLLFFFFFFFFFFFFFFLLL
51224214221625141243536353453623214614124516144364
FFFFFFFFFFFFFFFFFFFFFFFFFFFFFFFFFFFFFFFLLLFFFFFFFF
62262156325223626415342616661233334352142636315551
FFFFFFFFFFFFFFFFFFFFFFFLLLLLFFFFFFFFFFFFFLFFFFFFFF
66351241411626666666653466664565645644534351151162
FFFFFFFFFFFLLLLLLLLLLFFFLLLLLLLLLLFFFFFFFFFFFFFFFF
66644326241263662163531314134216132532122423162466
LLLFFFFFFFFFLLLFFFFFFFFFFFFFFFFFFFFFFFFFFFFFFFFFLL
66266636645416215666566615352626361514661416664126
LLLLLLLLLFFFFFFFFFFFFFFFFFFFFFFFFFFFFFFFFFFLLLFFFF
51565566323664656664441144225644152146646666166666
FFFFFLLLLLLLLLLLLLLFFFFFFFFFFFFFFFFFFFFFLLLLLLLLLL
24423253546515432654366621264466443163341256152535
FFFFFFFFFFFFFFFFFFFFFFFFFFFFFFFFFFFFFFFFFFFFFFFFFF
65666215325635554454566666666652524356266666666666
LLLLFFFFFFFFFFFFFFFFFLLLLLLLLLLFFFFFFLLLLLLLLLLLLL
66661114216244313632324255632214415346563562514446
LLLLLFFFFFFFFFFFFFFFFFFFFFFFFFFFFFFFFFFFFFFFFFFFFF
14142612114332654544316666662524412324666161165143
FFFFFFFFFFFFFFFFFFFFFFLLLLLLFFFFFFFFFFLLLLLFFFFFFF
41163213221224655146266131131316335666661666661666
FFFFFFFFFFFFFFFFFFFFFFLFFFFFFFFFFFFFFLLLLLLLLLLLLL
55466252346353445466564266266341561124434223531434
FFFFFFFFFFFFFFFFFFFFFFFFLLLLLFFFFFFFFFFFFFFFFFFFFF
43261321145531441255631613162633535614141652423466
LFFFFFFFFFFFFFFFFFFFFFFFFFFFFFFFFFFFFFFFFFFFFFFFLL
66636534643623154152225324646266316561142645215254
LLLLLLLFFFFFFFFFFFFFFFFFFFFFLFFFFFFFFFFFFFFFFFFFFF
11414353152443531435424612315365423632626636224351
FFFFFFFFFFFFFFFFFFFFFFFFFFFFFFFFFFFFFFFFFFFFFFFFFF
52513566345526644663655665111614666656666546664263
FFFFFFFFFFFFFLLFFFFFFFFFFFFFFFFFLLLLLLLLLFFLLLFFFF
34661662346241331435443656632664564634551551635153
FFFLLLLFFFFFFFFFFFFFFFFFFFFFFFFFFFFFFFFFFFFFFFFFFF
25662546666666621636663566643663444115233513245262
FFFFFFFLLLLLLLLLLLLLLLLLLLLFFFFFFFFFFFFFFFFFFFFFFF
32612633525645156242522242145411335325212433134663
FFFFFFFFFFFFFFFFFFFFFFFFFFFFFFFFFFFFFFFFFFFFFFFFFF
46666563345553132516211453421644223346266666662466
LLLLLLLFFFFFFFFFFFFFFFFFFFFFFFFFFFFFLLLLLLLLLLLLLL
15452232633665466666541152231335241146666641546236
FFFFFFFFFFFLLFFFLLLLLLFFFFFFFFFFFFFFLLLLLLFFFFFFLL
54363643621164556126666666665666666166666661666656
FFFFFFFFFFFFFFFFFFLLLLLLLLLLLLLLLLLLLLLLLLLLLLLLLL
45516666132116461456214263523214335545352221365316
FFFFLLLFFFFFFFFFFFFFFFFFFFFFFFFFFFFFFFFFFFFFFFFFFF
66646634465242461153135555636666665566666666666665
LLLLLLFFFLLLLFFFFFFFFFFFFFFFLLLLLLLLLLLLLLLLLLLLLL
66666166665666666644325166634666635553412455352525
LLLLLLLLLLLLLLLLLFFFFFFFLLLLLLLLLFFFFFFFFFFFFFFFFF
16616646524356666666666651111364111446465416613215
LLLLLLLLFFFFFLLLLLLLLLLLLFFFFFFFFFFFFFFFFFFFFFFFFF
36466256614256561646326646662664666663636564666666
LLLLLFLLFFFFFFFFFFFFFLLLLLLLLLLLLLLLLLLLLLLLLLLLLL
62322536132425535522556366366656653464152244356623
FFFFFFFFFFFFFFFFFFFFFLLLLLLLLLLLLLFFFFFFFFFFFFFFFF
13436552122433253346166313422366616345155231536462
FFFFFFFFFFFFFFFFFFFFFFFFFFFFFFLLLLFFFFFFFFFFFFFFFF
46533366354613656635666566636663665666161666133226
FFFFFFFFFFFFFFFFFFFLLLLLLLLLLLLLLLLLLLLLLLLFFFFFFF
41262156242152526255134266423161565451241562442236
FFFFFFFFFFFFFFFFFFFFFFFFFFFFFFFFFFFFFFFFFFFFFFFFFF
66326662465323324553265116662665665341542166354353
LLFFFFFFFFFFFFFFFFFFFFFFFFLLLLFFFFFFFFFFFFFFFFFFFF
66546466236666656363666566526666616462666115265212
LFFFLLLLLLLLLLLLLLLLLLLLLLLLLLLLLLLLLLLLLFFFFFFFFF
23531335223162666666666666662134216256133216644666
FFFFFFFFFFFFFFLLLLLLLLLLLLLLFFFFFFFFFFFFFFFFFFFLLL
66365443152113134646625666466215666664465244122313
LLLLFFFFFFFFFFLLLLLLLLLLLLLLLFFFLLLLLLFFFFFFFFFFFF
24162666666636666641626666664125432622224666666664
FFFLLLLLLLLLLLLLLLLLLLLLLLLLFFFFFFFFFFFFFLLLLLLLLF
21335152666266266666666666623444612242313665636466
FFFFFFFFLLLLLLLLLLLLLLLLLLLFFFFFFFFFFFFFLLLLLLLLLL
24665411646225466613346525321666666161445262666666
FFFFFFFFFFFFFFFFFFFFFFFFFFFFFLLLLLLLFFFFFFLLLLLLLL
54252222662344624516646166662656666641224551334336
FFFFFFFFLLFFFFFFFFFLLLLFLLLLLLLLLLLLFFFFFFFFFFFFFF
55531465356253335455561516244232462423156666665524
FFFFFFFFFFFFFFFFFFFFFFFFFFFFFFFFFFFFFFLLLLLLLLLLFF
66566666664634366633411366666621655122266633456463
LLLLLLLLLLLLLLLLLLFFFFFFLLLLLLFFFFFLFFFFFFFFFFFFFF
66666653534313422523132511131422216115344624661436
LLLLLLFFFFFFFFFFFFFFFFFFFFFFFFFFFFFFFFFFFFFFFFFFFF
65632566531666265666352311324642524612514666666161
FFFFFFFFFFFFFFFFFFFFFFFFFFFFFFFFFFFFFFFFFLLLLLLLLL
66161123444446136331446425614625464544261664141443
LLLLLLFFFFFFFFFFFFFFFFFFFFFFFFFFFFFFFFLLFFFFFFFFFF
23121221251223414542663231666666664666316646666662
FFFFFFFFFFFFFFFFFFFFFFFFFFFFFFLLLFFLLLLLLLLLLLLLLF
65616332553166665656313354366265666524356566266666
LLLLLLFFFFFFLLLLFFFFFFFFFFFFFFLLLLLFFFFFLLLLLLLLLL
12513461436213336131643244546464666662366364666666
FFFFFFFFFFFFFFFFFFFFFFFFFFFFLLLLLLLLLLLLLLLLLLLLLL
15441551416362266466666646636666666656666666666624
FFFFFFFFFFFFFFFFFFLLLLLLLLLLLLLLLLLLLLLLLLLLLLLLFF
64613265145215614631566646534533315432665545463464
FFFFFFFFFFFFFFFFFFFFFLLLLFFFFFFFFFFFFFFFFFFFFFFFFF
62664135551254124514514412445136531566366654443544
FFLLFFFFFFFFFFFFFFFFFFFFFFFFFFFFFFFLLLLLLLFFFFFFFF
16413621225451664666656666666661651566255666645125
FFFFFFFFFFFFFFFLLLLLLLLLLLLLLLLLLLLLLLLLLLLLLLFLLL
55542534126114413421223414436532562365113525612123
FFFFFFFFFFFFFFFFFFFFFFFFFFFFFFFFFFFFFFFFLFFFFFFFFF
24526546235354212133114666666666653142242126666666
FFFFFFFFFFFFFFFFFFFFFFFFLLLLLLLLLLLFFFFFFFFLLLLLLL
66651446326464424115122665614235632364241615416633
LLLFFFFFFFFFFFFFFFFFFFFLLLLFFFFFFFFFFFFFFFFFFFFFFF
32262466666646666665666266662666653612231425536664
FFFFFFLLLLLLLLLLLLLLLLLLLLLFFLLLLFFLFFFFFFFFFFLLLL
36416666216511115334616666626666666362362356666663
FLLLLLLLFFLFFFFFFFFFLLLLLLLLLLLLLLLFFFFFFFFLLLLLLL
55516266666622452462356314542462235514445314141413
FFFFFFFFLLLLFFFFFFFFFFFFFFFFFFFFFFFFFFFFFFFFFFFFFF
