2131221122
BBBAAAAAAA
1422424331
BBBBBBBBAA
4422342244
BBBBBBBACC
4444424343
CCCCCCCCCC
3331211114
BBBBBBBBAC
4421122121
BBAAAAAAAA
1121322443
ABBBBBBBBB
1311221113
AAAAAAAAAA
1214434442
AAACCCCCCC
2122111112
AAAAAAAAAA
2431121211
BBBAAAAAAA
3211112121
AAAAAAAAAA
1124311421
AACCCAAAAA
1114442444
AAACCCCCCC
1121242424
AAAABBBBBB
1112243444
AAAAABBCCC
2222123112
AAAAAAAAAA
2213122121
AAAAAAAAAA
2411121122
AAAAAAAAAA
2131121322
AAAAAAAAAA
4312211222
BBBAAAAAAA
4434224122
BBBBBBBBBB
1112122413
AAAAABBBCC
1122422433
AAAABBBBBB
2424442423
AABCCCCCCC
2143334221
BBBBBBBBBB
1242133444
AABBBBBBCC
4342444441
ACCCCCCCCC
4212231434
BBBBBCCCCC
2444414144
ACCCCCCCCC
3434414322
CCCCCCCCCC
3232444343
BBBBBBBBBB
1114122212
AAAAAAAAAA
4112222122
BAAAAAAAAA
1111224432
AAAAAAACCA
1211212112
BBBAAAAAAA
4113344424
BBBCCCCCCC
1111224121
AAAAAAAAAA
1232322443
BBBBBBBBBB
3244444441
AACCCCCCCC
3232221134
AAAAAAAACC
1122222211
AAAAAAAAAA
1214233344
BBBBBBCCCC
4444443224
CCCCCCAAAC
2444441424
BBBCCCCCCC
1122113211
AAAAAAAAAA
2211233424
AAAAAAACAC
1244444441
CCCCCCCCCA
2231222342
BAAAAAAAAA
3132124442
BBBBBBBBBB
2321422343
AAABBBBBBA
3122442232
BBBBBBBBBB
3113422332
BBBBBBBBBA
4441444124
CCCCCCCCBB
4443424434
CCCCCCCCCC
1223233422
AAABBBBBBB
1211143144
AAAAAAAACC
1414443431
BBBBBBBBBB
1222311122
AAAAAAAAAA
1441112444
BBBBBBBBCC
2312411212
AAAAAAAAAA
2322423132
ABBBBBBBBB
4142331121
CCCCCCAAAA
1121211142
AAAAAAAAAA
4412444344
CCCCCCCCCC
1112124121
AAAAAACAAA
4424121124
CAABBBBBBB
2122431413
AAAABBBBBB
3122344131
BBBBBBBBBB
2122441122
AACCCBBBBB
3112313234
BBBBBBBBCC
4342211242
CBBBBAAABB
1444113112
CCCCBBBBCC
1131432212
BABBBBBAAA
1222222421
AAAAAAAAAA
3344122224
BBCBBBBBBB
4122422411
BBBBBBBBBB
1144244442
AACCCCCCCC
2141221411
AAAAAAAAAA
3411142111
AAAAAAAAAA
2211414444
AABBCCCCCC
1311234342
ABBBBBBBCC
2244211221
BBBBAAAAAA
2214421323
AAACCAABBB
2211242234
ABBBBBBBCC
4223122222
AAAAAAAAAA
3112122221
AAAAAAAAAA
1443211143
ACCCCCAAAA
1114443433
CBBBCCCCCC
1144424442
AACCCCCCCC
2222443142
BBBBCCBBBB
4222211212
AAAAAAAAAA
1311244444
ACCCCCCCCC
2112141211
AAAAAAAAAA
4124311414
BBBBBAACCC
1441444441
CCCCCCCCCA
4124442111
AAABBBBABB
1441121331
BCCAAABBBB
4112322322
AAAAAAAAAA
4122222442
AAAAAAACBB
