4414111114
CCCCAAAAAC
2344444122
BBBCCCCAAA
1112222213
AAAAAAAAAA
1233244444
BBBBBCCCCC
1321112114
AAAAAAAABB
2123444241
BBBBCCCCBB
2411143124
BBBBBBBBBB
2212122314
AAAAAACCCC
1111444442
AAAACCCCAA
3132411421
BBBBBBBBBB
2412244243
BBBBBBBBBB
3132121321
AAAAAAAAAA
2111424144
AAAACCCCCC
1111222241
AAAAAAAACC
4214411424
BBBBBBBBBB
2314223111
BBBBBBBBBB
2114123211
AAAAAAAAAA
1211212141
AAAAAABBBA
2131214444
AABBBBBCCC
2111122222
AAAAAAAAAA
3111311121
AAAAAAAAAA
1111144244
AAAAACCCCC
2234214122
BBBBBBBBBB
1244234242
AABBBBBBBB
2221111223
AAAAAAAAAA
1232222112
AAAAAAAAAA
2243144423
AACBBBBBBB
2444444144
BCCCCCCCCC
2221424414
BBBBBBBBBB
4344144244
CCCCCCCCCC
2222112141
AAAAAAABBB
1221122444
AAAAAAACCC
4422133112
AAAAABBBBB
1334233134
CCCCCCCBBB
3113144441
AAAAAACCCC
4144421444
CCCCCCCCCC
3222122211
AAAAAAAAAA
2212122211
AAAAAAAAAA
1112221111
AAAAAAAABB
2212233212
AAAAABBAAA
1422334324
BBBBBBBBBB
1112411221
AAAAAAAAAA
2432344424
ABBBBCCCCC
4122244444
BBAAACCCCC
1211211141
AAAAAAAACC
1322333441
BBBBBBBBBB
1431422234
BBBBBBBBBB
4444441433
CCCCCCCCBB
3143433334
AABBBBBBBB
1444342334
BBBBBBBBBB
1423333112
ABBBBBBAAA
2423142244
CCCCCCCCCC
2221224241
BBBBBBBBBB
1424113222
BBBBBBBAAA
2112234444
AAABCCCCCC
3333323223
BBBBBBBAAA
1141112211
AAAAAAAAAA
2123122121
BBBBAAAAAA
2131241224
AAAAACCCAA
2132124211
BBBBBBBBBB
2222212122
AAAAAAAAAA
2222121421
AAAAAAAAAA
2143221122
ACCCAAAAAA
4114234441
BBBBBBBBBB
1211121244
AAAAAAAACC
1222411422
AAAACCCCBB
2314444411
AAACCCCCAA
3224414313
BBBBBBBBBB
4142324141
BBBBBBBCCC
2111114412
AAAAAACCCC
1123412343
BBBBBBBBBB
3433343243
BBBBBBBBBB
2421342323
AAABBBBBBB
1242444212
AAAAAABBBB
1112221111
AAAAAAAAAA
1214221122
AAAAAAAAAA
2413441232
BBBBBBBBBB
4344443442
CCCCCCCCCC
1231233323
AAAABBBBBB
1221111144
AAAAABBBCC
1122113122
AAAAAAAAAA
1122212424
AAAACCCCCC
1241114444
AACAACCCCC
1212122244
AAAAAAACCC
1124443332
AAABBBBBBB
2221133441
AAAABBBBBB
1221221234
AAAAAAAAAC
2123444442
AAACCCCCCC
1111121314
AAAAAAAAAA
3121422114
AAAAAABBBB
1124314121
AAACCCCAAA
2234441422
AACCCCBBBB
1224141411
BBAAABBBBB
2131144444
BBBBBCCCCC
1211232121
AAAAAAAAAA
1211221211
AAAAAAAAAA
2114444444
AAACCCCCCC
2434341221
BBBBBBAAAA
2211122212
AAAAAAAAAA
1144443234
BCCCCCCCCC
