2241131411
AAAAABBBAA
1113211242
AAAAAAAAAA
3211112121
AAAAAAAAAA
2242112122
AAAAAAAAAA
1114333111
AAABBBBBBB
1324213244
AAABAABBBB
3443441441
ACCCCCCCCC
2224111224
AAAAAAAAAC
4444213141
CCCCCCCCCC
2111213244
ABBBBBBBCC
1224334234
AAABBBBBBB
1242332231
AABBBBBBBB
1212112112
AAAAAAAAAB
2222332331
AAAABBBBBB
2142331212
BBBBBBAAAA
2432334334
ABBBBBBBCC
1112343143
AAAABBBBBB
4344312412
BBBBCAAAAA
4234112122
BBBBBBAAAA
2241231221
AAAAAAAAAA
1441333114
BBBBBBBBBB
3333343231
BBBBBBBBBB
2444244313
CCCCCCBBBB
1211121112
AAAAAAAAAA
3221243143
BBBBBBBBBB
2122112234
AAAAAAAABB
1443421411
ACCCCAAAAA
4134342321
ABBBBBBBAA
2112244223
AAAAAACCAA
1222213144
AAAAAAAACC
2413434112
BBBBBAAAAA
1221422314
AAAAAABBBB
4444334444
CCCCCCCCCC
1214431211
AAAAAAAABA
4211411111
BBBBBBBAAA
4221422221
AAAAAAAAAA
1322314414
BBBBBBCCCC
4434424443
CCCCCCCCCB
3411222221
BBBBBBAAAA
2121222211
AAAAAAAAAA
1112244441
ABBBBCCCCC
2221134131
ABBBBBCCBB
2223423432
ABBBBBBBBB
1242141112
AAAAAAAAAA
2221311112
AAAAAAAAAA
4134212241
BBBBBBBBBB
2242212444
AAAAAAACCC
2214432344
BBBBBBBBCC
2114432311
AAAABBBBBB
3132122121
BBAAAAAAAA
1214144334
BBBBBBBBBB
2222411241
AAAABBBBBB
1124344141
AAACCCCCCC
1212221113
AAAAAAAAAA
1221122243
AAAAAAAACC
1411333122
BBBBBBBAAA
3131123121
BBBBBBBBBB
2434443344
CCCCCCCCCC
1131211221
AAAAAAAAAA
3323221121
BBBAAAAAAA
1242113324
AACBBBBBBC
3321112211
BBBBBBAAAA
1111444424
AAAACCCCCC
3222444144
BBBBBBBBBB
3123211222
AAAAAAAAAA
2111444444
AABACCCCCC
4444444444
CCCCCCCCCC
2344444242
ABBCCCCCCC
2232211122
AAAAAAAAAA
2212221144
AAAAAAAACC
1243122124
AAAAAAAAAA
3442412411
CCCABBBBBA
2212122222
AAAAAAAAAA
1111231113
AAAAABBBBB
4141241311
CCCCCCBBBB
1324323334
BBBBBBBBBB
2122121414
AAAAAAABBB
1221211231
AAAAAAABBB
3112144144
BAAABBBBBC
2222421222
AAAAAAAAAA
4113213111
AAAAAAAAAA
4444144144
CCCCCCCCCC
3232222111
AAAAAAAAAA
2131221213
AAAAAAAAAC
2141212141
AAAAAAAAAA
4221311113
CBBAAAAAAA
2242442432
BBBBBBBBBB
4112122122
AAAAAAAAAA
2313341221
BBBBBBBBAA
2224232121
BBBBBBBBAA
1122121122
AAAAAAAAAB
1111242112
AAAAAABBBB
4444243244
BBCCCCCCCC
1211214414
AAAAAAACCC
4111423443
BBBBBBBBBB
1241121214
AAAAAAAAAB
4421411111
AAAAAAAAAB
1212224222
AAAAAAAAAA
4211411333
BBBBBBBBBB
1242444422
AAAACCCCCC
3131223444
BBBBBBBCCC
1342222241
BBBBBBBBBA
2123442343
AAABBBBBBB
4113123443
BBBBBBBBBB
2211421212
AAAACAAAAA
3114323123
BBBBBBBBBB
3144244112
BBBBBBBAAA
3424233234
BBBBBBBBBB
1112112224
AAAAAAAAAA
1211244124
AAAAAAABBB
4313232144
BBBBBBBBBB
1214423234
AACCCCCCCC
4221112411
AAAAAAAAAA
3223414221
BBBBBBBBBB
2244144414
AACCCCCCCC
1444144344
CCCCCCCCCC
1141111113
AAAAAAAAAA
1114222312
AAAAAAAAAA
1444414411
AACCCCCCCB
2122414432
AAAACCCCAA
4444322122
CCCCCAAAAA
3243422433
BBBBBBCBBB
2234244244
AABBBBBBCC
3244222214
BBCCAAAAAB
1112111124
AAAAAAAAAC
1222111443
AAAAAAABBB
4121311211
BAAAAAAAAA
4421144344
BBBBABBBBB
1222212134
AAAAAAACCC
1121212222
AAAAAAAAAA
2231211144
AAAAAAAACC
1141211212
AAAAAAAAAA
3443123213
CCCCCCBBBB
2222214414
AAAAAACCCC
4144444411
CCCCCCCCAA
2112132443
AAAAABBBBB
4132422211
BBBBCBBBBB
1111341141
BBBBBBBBBB
4211111244
AAAAAAAACC
2111344441
BBBACCCCCC
1121212144
AAAAABAACC
2123323143
AABBBBBBBB
3131141411
BBBBBBAAAA
2111231112
AAAAAAAAAA
1441443444
BBBBCCCCCC
3211433341
AAAACBBBBB
1121322133
AAAAAAAAAA
1411113422
BBBBBBBBBB
4413131411
CCBBBBBBBA
2211441221
AAAACAAAAA
2211434442
AAAACBBBBB
1214311414
BBBBBABBBB
1212331122
ABBBBBBBBB
2111212221
AAAAAAAAAA
2112334114
BBBBBBBBBB
1224444441
AAACCCCCCC
1143424424
BBBBBBCCCC
2122314423
AAABBBBAAA
2211212111
AAAAAAAAAA
4442312211
CCCAAAAAAA
3313242411
BBBBBBBBBC
2221221124
AAAAAAAAAC
3114144444
BBBCACCCCC
1213123332
BAAAABBBBB
4231224212
CCCAAAAAAA
1131212122
AAAAAAAAAA
2344121212
BBBBBBAAAA
1234114442
BBBBBBBBBB
4211112213
AAAAAAAAAA
2123134443
AAAAAACCCC
4312123121
AAAAAAAAAA
1441444434
ACCCCCCCCC
4111222444
BAAAAACCCC
2212211111
AAAAAAAAAA
4231312121
BBBBCAAAAA
1214231414
AABBBBBBBB
4342244434
BBBBBCCCCC
2224423132
AAABBBBBBB
4421111231
BBBBBBBBBB
2212434444
AAAAACCCCC
2224112111
AAAAAAAAAA
2432132232
ABBBBBBBBA
1214244241
BBBBBCCCCC
1212112411
AAAAAABBBB
2111144334
AAAAACCBBB
3221122421
AAAAAAAAAA
2111112111
AAAAAAAAAA
3222224444
BBBBAACCCC
3422311121
ACAAAAAAAA
3311313343
BBBBBBBBBB
2113343423
BBBBBBBBBB
1242431141
BBBBBBBBBB
2321222441
AAAAAAACCC
4112221213
AAAAAAAAAA
4213122221
AAAAAAAAAA
2322212414
ABAAAAACCC
1211211213
AAAAAAAAAA
1312221221
AAAAAAAAAA
2231324111
ABBBBBBBBA
1232432221
BBBBBBBBBB
