1212124113
AAAAAABBBB
2213222212
AAAAAAAAAA
2233414111
AAAAAAAAAA
4244444412
CCCCCCCCCB
1212212222
AAAAAAAAAA
3433114112
BBBBBBBBBB
2444434232
BBBBBBBBBB
2142444443
AACCCCCCCC
2441443411
BBBBCCCCAA
2211124344
AAAAAACCCC
4434234331
CCCBBBBBBB
2221212211
AAAAAAAAAA
1211222444
AAAAAAACCC
1211211421
AAAAAAAAAC
1413144343
BBBBBBBBBB
4421444444
CCCCCCCCCC
1343322114
CCCBBAABBB
4213141242
AABBBBBBBB
2211144441
AAAAACCBBB
1112214344
AAAAAACCCC
1142221442
AAAAAAACCA
4214444241
AAACCCCCCC
2142124321
BBBBAABBBB
1122312234
AAAABBBBBB
2312211132
BAAAABBBBB
3444342444
CCCCCCCCCC
1433444244
BBBBCCCCCC
1241414424
CCCCCCCCCC
2211124421
AAAAAACCBB
1121142221
BBAAAAAAAB
1122212144
AAAAAAAACC
3113212221
AAAAAAAAAA
2212124111
AAAAAAAAAA
2422323231
ACABBBAABB
2222211112
AAAAAAAAAA
2434322444
ABBBBBCCCC
2242143242
AAAAABBBBB
2112212142
AAAAAAAABB
3222123322
BBBBBBBBBB
3212121113
AAAAAAAAAC
1241144443
AAAAACCCCC
1441434144
ACCCCCCCCC
1222222222
AAAAAAAAAC
2223413112
BBBBBBBBBB
2441444444
BBBBBCCCCC
3113321223
BBBBBBBBBB
3113444444
BBBBCCCCCC
4341444131
BBCCCCCCBB
4422124444
CCAAAACCCC
1313231324
BBBBBCBBAC
1111122122
AAAAAAAAAA
1213241444
AAAAACCCCC
2312221241
AAAAAAAABB
4111324244
BBBBBBCCCC
3323212221
BBBBAABBBB
1421134121
BBBBBBBBBB
2124142413
CCCCCBBBBB
2234443341
AAACCCBBBB
1244224441
BBBBBBBBBB
2413442112
BBBBBBBBBB
2312223112
BBBAAABBBB
1324444324
ABACCCCBBB
2114342441
AAABBBBBBB
2343121111
AAAAAAAAAA
3221342222
BBBBBBBBBB
4212121224
AAAAAAABBB
2213112421
AAAAAAAAAA
2234423433
ABBBBBBBBB
1243211134
AACCBBBBBB
1134243343
BBBBBBBBBB
1142224141
AAAAAACCCC
1112442443
AAAACCCCCC
1122144314
AAAAACCCCC
1242423241
ABBBBBBBBB
2341234444
BBBBBCCCCC
2123113133
AAAABBBBBB
1233441443
BBBBBBBBBB
2213113243
AAABBBBBBB
2111122434
AAAAAAAACC
1222212222
AAAAAAAAAA
1143112122
AAABAAAAAA
4444444444
CCCCCCCCCC
4334221122
CCCCAAAAAA
1114211211
AAACAAAAAA
1123133223
AABBBBBBBB
1224121121
AABBBBBBBB
4444434341
CCCCCCCCCC
2122112124
AAAAAAAAAB
1422323412
BBBBBBBBBB
3221112211
BBBBBBBBBB
2441112212
CCCAAAAAAA
2212121344
AAAAAAAACC
2114444341
AAACCCCCCC
2131221122
BBBAAAAAAA
4414444421
CCCCCCCCCC
3142432432
AABBBBBBBB
3231212111
AAAAAAAAAA
1111114141
AAAAAAAACA
1122114443
AAAAAACCCC
2221234232
AAAAABBBBB
1141111224
BBBAAAAAAC
1433143221
BBBBBBBBBB
1141112231
ABBBBBBBBB
2313314422
AAABBBBBBB
4444443444
CCCCCCCCCC
1114144444
AAACCCCCCC
4441122224
CCCAAAAAAA
1111112122
AAAAAAAAAA
1122211222
AAAAAAAAAA
1111132133
AAAAABBBBB
1321343444
BBCCCCCCCC
2112121122
AAAAAAAAAA
1232121211
AAAAAAAAAA
3431134314
BBAAABBAAC
2342434444
AABBBBCCCC
1242142444
CCCCCCCCCB
4444443144
CCCCCCCCCC
3212223231
AAAABBAAAA
2221124342
AAAAAACCCC
2112414444
AAAACCCCCC
4424224414
CCCCCCCCAA
1122221112
AAAAAAAAAA
2114122322
AAAAAAAAAA
2114422343
BBBBBBBBBB
2442244341
BBBBBBCCCC
2112412112
AAAAAAAAAA
2114312121
BBBBBBBBBB
4414442122
BBBBBBBBBB
3223322213
BBBBBBBBBB
4443413313
CCCCCBBBBB
2112122321
AAAAAAAAAA
4111233132
BBBBBBBBBB
2223242114
AAAAAAAAAC
2112112321
AAAAAAAAAA
2211111122
AAAAAAAAAA
1143444244
AACCCCCCCC
4124221111
BBBBBAABBB
2441443441
ACCCCCCCCC
3133313224
BBBBBBBBBB
1212221222
AAAAAAAAAA
1413311244
ABBBBAAACC
2122212212
AAAAAAAAAA
1111112131
AAAAAAAAAA
4212223212
BBBBAAAAAA
1423112241
AAAAAAAAAA
2111112113
AAAABAAAAA
3322214112
AAAAAAAAAA
1414432444
BBBBBBBBCC
1244444212
BBCCCCCCCC
2122112211
AAAAABBBBB
4134414444
BBCCCCCCCC
1112211113
AAAAACABBB
2212121221
AAAAAAAAAA
1244242132
AAABBBBBBB
1211113323
AAAAAABBBB
3214344111
BBBBBBBBBB
1332134414
ABBBBBCCCC
2114223124
AAABBBBBBB
1232222112
AAAAAAAAAA
1123143442
AAAAACCCCC
1121422121
AAAABAAAAA
4413123342
BBBBBBBBBB
4422142444
BBAACCCCCC
2124112412
AAAAAAAAAA
1122422223
BBBBBBBBBB
4412241221
CCCCCAAAAA
4414324343
BBBBCCCCCC
1121423111
AAAAAAAAAA
2442413412
ACCCCCCCAA
1122242121
AAAAAAAABB
3112122134
BAAAAAABBB
4222144444
AAAAACCCCC
4434333124
BBBBBBBBBB
1211411212
AAAACAAAAA
4212221221
BAAAAAAAAA
1214441322
AAACCCAAAA
4124444414
AAACCCCCCC
4423311214
BBBBBBBBBC
1111222231
AAAAAAAAAA
1121112134
BAAAAAAAAC
1121222211
AAAAAAAAAB
1111414232
AAAAAAAABB
2224344121
AAABBBBBBB
1212123121
AAAAAAAAAA
4424223141
CCCBBBBABB
3431444111
BBBBCCCAAA
4344444423
CCCCCCCCAA
2121421121
AAAAAAAAAA
1131212212
AAAAAAAAAA
2342343111
BBBBBBBAAA
2433432213
BBBBBBBBBB
2212422122
AAAAAAAAAA
2224111111
AAAAAAAAAA
2344444311
CCCCCCCCCC
1343144244
ACCCCCCCCC
4444434414
CCCCCCCCCC
2241444431
AACCCCCCCC
1212124444
AAAAACCCCC
2221144133
AAAAABBBBB
2222211444
AAAAAAACCC
