42666666661636664266311251436412454114162131146415
FFLLLLLLLLLLLLLLFFFLLLFFFFFFFFFFFFFFFFFFFFFFFFFFFF
66666466666666616666143325512236566666666516666616
LLLLLLLLLLLLLLLLLLLFFFFFFFFFFFFFLLLLLLLLLLLLLLLLLL
41343645166221226144265225643535243645536166666615
FFFFFFFFFFFFFFFFFFFFFFFFFFFFFFFFFFFFFFFFLLLLLLLLFF
13563513116336231366435336665661662666661311421524
FFFFFFFFFFFFFFFFFFFFFFFLLLLLLLLLLLLLLLLLLFFFFFFFFF
56666666645114616434656142645564433236456653125422
FLLLLLLLFFFFFFFFFFFFFFFFFFFFFFFFFFFFFFFFFFFFFFFFFF
66642162413561666561532461123124633641255665663266
LLLFFFFFFFFFLLLLLFFFFFFFFFFFFFFFFFFFFFFFLLLLLLLLLL
66546115354163311146522331211156666145653423242324
LLLFFFFFFFFFFFFFFFFFFFFFFFFFFFFLLLLLLFFFFFFFFFFFFF
25266666626134254624452563666666646515134661123531
FFFLLLLLLFFFFFFFFFFFFFFFFFLLLLLLLLLFFFFFFFFFFFFFFF
26663666666566666666465535545131266455153354145511
LLLLLLLLLLLLLLLLLLLLLLFFFFFFFFFFFFFFFFFFFFFFFFFFFF
13342446251625552366461165665511465664666661466666
FFFFFFFFFFFFFFFFFFLLLLLLLFFFFFFLLLLLLLLLLLLLLLLLLL
33116466666666666666466666663213515142555421562656
FFFLLLLLLLLLLLLLLLLLLLLLLLLLFFFFFFFFFFFFFFFFFFFFFF
66655441636452216664652144211363311346526666666666
LLLFFFFFFFFFFFFFFLLFFFFFFFFFFFFFFFFFFFFFLLLLLLLLLL
23153256132621244154361152125266666666412314511311
FFFFFFFFFFFFFFFFFFFFFFFFFFFFFFLLLLLLLLLFFFFFFFFFFF
53265444525544622265432544225651361322221256533642
FFFFFFFFFFFFFFFFFFFFFFFFFFFFFFFFFFFFFFFFFFFFFFFFFF
25556666666656663662666664543266123366231342633456
FFFFLLLLLLLLLLLLLLLLLLLLLFFFFFFFFFFFFFFFFFFFFFFFFL
53546666166666616666633664626663664666663566636554
FFFLLLLLLLLLLLLLLLLLLLLLLLLLLLLLLLLLLLLLLLLLLLLLLL
55566566461352646666363455416645653446666666666664
FFFFFFFFFFFFFFLLLLLLLLLFFFFFFFFFFFFLLLLLLLLLLLLLLL
66116422543231331262565566621454222655116651631242
LFFFFFFFFFFFFFFFFFFFFFFLLLLFFFFFFFFFFFFFFFFFFFFFFF
63263365216666266616524646632146363651614141146636
FFFLFFFFFLLLLLLLLLLLLLLLLLFFFFFFFFFFFFFFFFFFFFFFFL
42243542566666666666666165312652226336356546341262
FFFFFFFFFLLLLLLLLLLLLLLLFFFFFFFFFFFFFFFFFFFFFFFFFF
41514266322464545235466566531663424126563416341136
FFFFFFFFFFFFFFFFFFFFFFLLLLFFFFFFFFFFFFFFFFFFFFFFFF
61666246666114636666666666224526333215512656662641
LLLLLLLLLLLFFFFFFFFLLLLLLLFFFFFLFFFFFFFFFFFFFFFFFF
44465362545665162562523641454555416314543646666661
FFFFFFFFFFFFFFFFFFFFFFFFFFFFFFFFFFFFFFFFFLLLLLLLLL
44146454136666666231221451565253266666325133341444
FFFFFFFFFFLLLLLLLFFFFFFFFFFFFFFFFFLLLLLFFFFFFFFFFF
46556126323551235645515634316664666663663616663655
FFFFFFFFFFFFFFFFFFFFFFFFFFFFLLLLLLLLLLLLLLLLLLLLLF
25556343212326321164546641666666666626661636464564
FFFFFFFFFFFFFFFFFFFFLLLLLLLLLLLLLLLLLLLLFFFFFFFFFF
63443624252424526666666666666666663666662534566565
FFFFFFFFFFFFFFFFLLLLLLLLLLLLLLLLLLLLLLLLFFFFFLFFFF
66336655666212612344431462642634366666311465633266
LLLLLLLLLLLFFFFFFFFFFFFFFFFFFFFFFLLLLLFFFFFFFFFFLL
34514626666664664221651244162124362666656646245626
FFFFFLLLLLLLLLLLFFFFFFFFFFFFFFFFFFFLLLLLLLFFFFFFFF
52664642564626365143145162243263212141513261666262
FFLLFFFFFFFFFFFFFFFFFFFFFFFFFFFFFFFFFFFFFFFFLLLLLL
66156666514621563665646666666656661555456446666611
LLLLLLLLFFFFFFFFFFLLLLLLLLLLLLLLLLFFFFFFFFFFLLLLFF
24524533321366626666666666666266666666366566161523
FFFFFFFFFFFFLLLLLLLLLLLLLLLLLLLLLLLLLLLLLLLLFFFFFF
66646666665124356315641341162253432364244665112332
LLLLLLLLLLFFFFFFFFFFFFFFFFFFFFFFFFFFFFFFFFLFFFFFFF
25132246111253316332416231342662115466562666432424
FFFFFFFFFFFFFFFFFFFFFFFFFFFFFFFFFFFFLLLLLLFFFFFFFF
66141124233361543325466665161666664666615666166645
FFFFFFFFFFFFFFFFFFFFLLLLLLLLLLLLLLLLLLLLLLLLLLLLLF
15455252661512235142526666434526224236666666666346
FFFFFFFFFFFFFFFFFFFFFFFFLFFFFFFFFFFLLLLLLLLLLLLFFL
66166666663626265666666666664666666661664145263235
LLLLLLLLLLLLLLLLLLLLLLLLLLLLLLLLLLLLLLLLFFFFFFFFFF
31666666662164466215141666666664221623316641231526
FFLLLLLLLLFFFFFFFFFFFFFLLLLLLLLFFFFLFFFFLLLFFFFFFF
33234123512461531566542513232426152526561111311124
FFFFFFFFFFFFFFFFFFLFFFFFFFFFFFFFFFFFFFFFFFFFFFFFFF
15646626661652531213251513666636515233636466142114
FFFFFLLLLLLLFFFFFFFFFFFFFFLLLFFFFFFFFFFLLLLFFFFFFF
66346634341513232666232335346346646566466366644666
LLLFFFFFFFFFFFFFFLLLLFFFFFFFFFFLLLLLLLLLLLLLLLLLLL
24546434165355415266666236666666643143546662145311
FFFFFFFFFFFFFFFFFLLLLLLLLLLLFLLLLFFFFFFFFFFFFFFFFF
15335566652332351423231455544434425523462164566645
FFFFFFLLLFFFFFFFFFFFFFFFFFFFFFFFFFFFFFFFFFFFFLLLFF
64666666616665156666456226666636666622665266614245
FFLLLLLLLLLLLFFFLLLLLLLLLLLLLLLLLLLLLLLLLLLLLFFFFF
63166666666616623626664666663666666634516661144361
FFLLLLLLLLLLLLLLLLLLLLLLLLLLLLLLLLLLFFFFFFFFFFFFFF
31563545446225625526151342265266664665666516261614
FFFFFFFFFLLLFFFFFFFFFFFFFFFFFFLLLLLLLFLLLLFFFFFFFF
25121235211446534555441611465631366225166666664661
FFFFFFFFFFFFFFFFFFFFFFFFFFFFFFFFFFFFFFFLLLLLLLFFFF
35165661134231655335313152526661212363324462262111
FFFFFFFFFFFFFFFFFFFFFFFFFFFFLLLFFFFFFFFFFFLLLLFFFF
54356321134246336133264322144661666666665344366666
FFFFFFFFFFFFFFFFFFFFFFFFFFFFFFLLLLLLLLLLLFFFFFLLLL
13342624626666666466656666666663366666661536652666
FFFFFFFFLLLLLLLLLLLLLLLLLLLLLLLLLLLLLLLLFFFFFFFLLL
66666666623636666656666164626165321662246421116346
LLLLLLLLFFLLLLLLLLLLLLLFFFFFFFFFFFFFFFFFFFFFFFFFFF
46664661623665126666662664164415162324526133325235
LLLFLLLFFFFFFFLLLLLLLLLLLLLLLFFFFFFFFFFFFFFFFFFFFF
53635512144344366165226455364566666266666666646452
FFFFFFFFFFFFFFFFFFFFFFFFFFFFFFLLLLLLLLLLLLLLLLLFFF
65335613252545251112414136662365252552361256666656
LLFFFFFFFFFFFFFFFFFFFFFFFLLLFFFFFFFFFFFFFFFFLLLLLL
66165616666666132264312315516665252145455556666416
LLLLLLLLLLLLLLFFFFFFFFFFFFFFLLLFFFFFFFFFFFFLLLLFFF
21561141516666666663366666653261111621525621466161
FFFFFFFFFFLLLLLLLLLLLLLLLLFFFFFFFFFFFFFFFLFFFLLLLL
62344311554421165636666432144516224151153466662335
LFFFFFFFFFFFFFFFLLLLLLLFFFFFFFFFFFFFFFFFFFLLLLFFFF
66666345151461336122253244531666156651131451331364
FLLLFFFFFFFFFFFFLFFFFFFFFFFFFLLLLLLLFFFFFFFFFFFFFF
23366645666643251444611515246526231115534551461524
FFFFLLLLLLLLFFFFFFFFFFFFFFFFFFFFFFFFFFFFFFFFFFFFFF
13654633124624323214356326666666466566663536636626
FFFFFFFFFFFFFFFFFFFFFFLLLLLLLLLLLLLLLLLLLLLLLLLLLL
32314126552354335624344646553222635225353465331463
FFFFFFFFFFFFFFFFFFFFFFFFFFFFFFFFFFFFFFFFFFFFFFFFFF
26436666166466666626666212331524416416645165666616
LLLLLLLLLLLLLLLLLLLLLLLFFFLFFFFFFFFFFFFFFFLLLLLLLL
41443332433655442134551326252526613261166656116666
FFFFFFFFFFFFFFFFFFFFFFFFFFFFFFFFFFLLLLLLLLLLLLLLLL
55621661126612666665666666666654444562443615223332
FFFFFFFFFFFFFFLLLLLLLLLLLLLLLLFFFFFFFFFFFFFFFFFFFF
33224224646631316666666614543212264331316345541314
FFFFFFFFFFFFFFFFLLLLLLLFFFFFFFFFFFFFFFFFFFFFFFFFFF
64655362124514125423526356666666664263526222425566
FFFFFFFFFFFFFFFFFFFFFFFFFFLLLLLLLLLLLFFFFFFFFFFFLL
52166656163666626266664521354534354134225512564146
FFFLLLLLLLLLLLLLLLLLLLFFFFFFFFFFFFFFFFFFFFFFFFFFFF
65666553415626334342224216433323652625646666666666
LLLLLLFFFFFFFFFFFFFFFFFFFFFFFFFLLLFFFFFFLLLLLLLLLL
51644151552336515324146663624215533665626256456632
FLFFFFFFFFFFFFFFFFFFFFFFFFFFFFFFFFFLFFFFFFFFFFFFFF
56665242162313545454422641443266661323655264435234
LLLLFFFFFFFFFFFFFFFFFFFFFFFFFFLLLLFFFFFFFFFFFFFFFF
55236311524433121634212313555411241455166666666646
FFFFFFFFFFFFFFFFFFFFFFFFFFFFFFFFFFFFFFFLLLLLLLLLLL
35431211463666156515265536666644624661552532666511
FFFFFFFFFFFFFFFFFFFFFFFFFFFLLLFFFFFLLFFFFFFFFFFFFF
36663651244543465221113111146242122635366616232315
LLFFFFFFFFFFFFFFFFFFFFFFFFFFFFFFFFFFFFFFFFFFFFFFFF
13423216544425654146436126645456436565246663666662
FFFFFFFFFFFFFFFFFFFFFFFFFLLFFFFFFFFFFFFFLLLLLLLLLL
12466666666366666666666666366666666426432646626666
FFFLLLLLLLLLLLLLLLLLLLLLLLLLLLLLLLLFFFFFFFFFLLLLLL
11612142124262536641511253233162445666663265666662
FFFFFFFFFLLLFFFFFFFFFFFFFFFFFFFFFFFLLLLLLLLLLLLLLF
23122111544442546435446356516665666266666646665656
FFFFFFFFFFFFFFFFFFFFFFFFFLLLLLLLLLFFLLLLLLLLLLLLFL
52166166626654441523544346161466256662646135226221
FFFLLLLLLLLLFFFFFFFFFFFFFFFFFFFFLLLLLLLLLFFFFFFFFF
66366666661666623255422146622335663332613442326166
LLLLLLLLLLLLLLLFFFFFFFFFFFFFFFFFFFFFFFFFFFFFFFFFFF
52336324212153544142546665455563263551432666263141
FFFFFFFFFFFFFFFFFFFFFFLLFFFFFFFFFLFFFFFFFFFFFFFFFF
66666231466566646666666666566666161366643163636615
LLLLLFFLLLLLLLLLLLLLLLLLLLLLLLLLLLLLLLFFFFFFFFLFFF
36443631513142551433355424126661653412566621261611
FLFFFFFFFFFFFFFFFFFFFFFFFFFLLLLFFFFFFFLLLLLFFFFFFF
64232521463254666466145664553242521253255214511346
LFFFFFFFFFFFFFLLLLLLFFFFFFFFFFFFFFFFFFFFFFFFFFFFFF
34115613233424313662666666646252666331666666626664
FFFFFFFFFFFFFFFFFLLLLLLLLLLLLFFFLLLLLLLLLLLLLLLLLL
33615251142543551113152542332235666666665664461626
FFFFFFFFFFFFFFFFFFFFFFFFFFFFFFFFLLLLLLLLLLLLLLLLLL
56666366666626136164324251352433151326211525141241
LLLLLLLLLLLLLLFFFFFFFFFFFFFFFFFFFFFFFFFFFFFFFFFFFF
55122534142156266665462451566641322421546344221156
FFFFFFFFFFFFFFFLLLLLLLFFFFFLLLLFFFFFFFFFFFFFFFFFFF
62326635561541162443125664665464444466661663132666
FFFFFFFFFFFFFFFFFFFFFFLLLLLLLLLLLLLLLLLLLLLFFFFLLL
15432243612534661134141346664462232152554546666326
FFFFFFFFFFFFFFFFFFFFFFFFFLLLFFFFFFFFFFFFFFFFLLLFFF
66152252542326651463645666636166664466325524431232
FFFFFFFFFFFFFLFFFFFFFFFFLLLFFLLFFFFFFFFFFFFFFFFFFF
14616616666666663626664663261666666666652665665666
FFFFLLLLLLLLLLLLLLLLLLLLLLLLLLLLLLLLLLLLLLLLLLLLLL
32564666665666666666666666666661666163563413216625
FFFLLLLLLLLLLLLLLLLLLLLLLLLLLLLLLLLLFFFFFFFFFFFFFF
66661364563531646665633462553444345433625666123642
LLLLLLLFFFFFFFFFFLLLLLFLLFFFFFFFFFFFFFFFFFFFFFFFFF
44524251261354431211232422154461365656655646661666
FFFFFFFFFFFFFFFFFFFFFFFFFFFFFFFFFFFLLLLLLLLLLLLLLL
66636261325564551454164234566661656632521534353264
FFFFFFFFFFFLLFFFFFFFFFFFFFFLLLLLFFFFFFFFFFFFFFFFFF
43326366613643252413546666266342123645514434415311
FFFFFFFFFFFFFFFFFFFFFFLLLLFLLFFFFFFFFFFFFFFFFFFFFF
11246661166666266142554252211525636561322442426663
FFFFLLLLLLLLLLLLLFFFFFFFFFFFFFFFFFFFFFFFFFFFFFFFFF
66666666666543641662662666666656434621211325655564
LLLLLLLLLLLFFFFLLLLLLLLLLLLLLLLLLFFFFFFFFFFFFFFFLL
41264262256663334115114342153563234155345325622426
FFFFFFFFFFFFFFFFFFFFFFFFFFFFFFFFFFFFFFFFFFFFFFFFFL
55243213561123151114322263566664514436633554556356
FFFFFFFFFLFFFFFFFFFFFFFFFFFFFFFFFFFFFFFFFFFFFFFFFF
44666666666161666622662626664611614616353523136135
LLLLLLLLLLLLLLLLLLLLLLLLLLLLLLFFFFFFFFFFFFFFFFFFLL
66666152613113565251216666515216645451446424253166
LLLLLFFFFFFFFFFFFFFFFFFFFFFFFFFFFFFFFFFFFFFFFFFFFF
45666424223424216146124245331112541342142426312636
FFLLLFFFFFFFFFFFFFFFFFFFFFFFFFFFFFFFFFFFFFFFFFFFFF
35256332115466131356116651441434614532135662652336
FFFFFFFFFFFFFFFFFFFFFFFFFFFFFFFFFFFFFFFFFFLLFFFFLL
66366466366666665245661352564234415455464633264565
LLLLLLLLLLLLLLLFFFFFFFFFFFFFFFFFFFFFFFLLFFFFFFFFFF
66632656532666666466566661514233366266662666661242
LLLLLLFFFFFLLLLLLLLLLLLLLLFFFFFFFLLFLLLLLLLLLLFFFF
31254136436612441146142241512462123165424533214216
FFFFFFFFFFFFFFFFFFFFFFFFFFFFFFFFFFFFFFFFFFFFFFFFFF
62366662635162661656331422113126662541541626351266
FFFFFFFFFFFFLLLLFFFLFFFFFFFFFFFLLLFFFFFFFLLLFFFFFF
35453443443266111452311544555411433445463666666216
FFFFFFFFFFFFFFFFFFFFFFFFFFFFFFFFFFFFFFFFFLLLLLLLLL
36545556366435225122324125356554233354666566666662
FFFFFFFFFFFFFFFFFFFFFFFFFFFFFFFFFFFFFFLLLLLLLLLLLF
55621113554366645354654651656212664125165411446416
FFFFFFFFFFFFLLLLFFFFFFFFFFFFFFFFFFFFFFFFFFFFFFFFFF
66656266666361262345364424244445443113656141666636
LLLLLLLLLLLLLFFFFFFFFFFFFFFFFFFFFFFFFFFFFFFFLLLLLL
53553661553533626616466666666666364541566666654666
FFFFFFFFFFFFFFFFFFFFFLLLLLLLLLLLFFFFFFFLLLLLLLLLLL
66542425441442615256653555132161655416631352245534
LLFFFFFFFFFFFFFFFFFLLFFFFFFFFFFFFFFFFLLLFFFFFFFFFF
44342116314616315336666656662226223152163163626614
FFFFFFFFFFFFFFFFFFFLLLLLLLLLLFFFFFFFFFFFFFFFFFLLLL
66652634244434223663666666166626411441613436265143
LLLFFFFFFFFFFFFFFLLLLLLLLLLLLLLLFFFFFFFFFFFFFFFFFF
63566632445463613612165256432262233241536666336666
FFLLLLLLFFFFFFFFFFFFFFFFFFFFFFFFFFFFFFFFLLLLLLLLLL
66626152135525325522131352165126661666666661265353
LLLFLLFFFFFFFFFFFFFFFFFFFFFFFFLLLLLLLLLLLLLFFFFFFF
53616351245135655114113366646414431345513441122434
LLLFFFFFFFFFFFFFFFFFFFFFLLLLLLLFFFFFFFFFFFFFFFFFFF
52141616616666666626256664664446245333331613365562
FFFFFFFLLLLLLLLLLLLLLFFFFFFFFFFFFFFFFFFFFFFFFFFFFF
61652216214523342666666261136211533636323336566666
LFFFFFFFFFFFFFFFFLLLLLLLLLFFFFFFFFFFFFFFFFFFFLLLLL
65261252666666634154662461616363666665666666266654
FFFFFFFFFLLLLLLFFFFFFFFFFFFFFFLLLLLLLLLLLLLLLLLFFF
61264656144266666666663652151223654666566365526166
FFFFFLLLFFFFLLLLLLLLLLLLLFFFFFFFFFFFFFFLLLLFFFFFLL
24515664663153352466135645143314633636666666146412
FFFLLLLLLLFFFFFFFFFFFFFLFFFFFFFFFFFLLLLLLLLLFFFFFF
26455115233366666666336661246666665526636415313455
FFFFFFFFFFFFLLLLLLLLLFFFFFFFLLLLLLFFFFFFFFFFFFFFFF
66566663463665331432346246555251224636333513453666
FLLLLLLLLLFFFFFFFFFFFFFFFFFFFFFFFFFFFFFFFFFFFFFLLL
66663662666636646666466666466666626666663452456242
LLLLLLLLLLLLLLLLLLLLLLLLLLLLLLLLLLLLLFFFFFFFFFFFFF
35626136363136425141122511114143554666666666656314
FFFFFFFFFFFFFFFFFFFFFFFFFFFFFFFFFFLLLLLLLLLLLFLFFF
66665666643666666666656522112423223113524466554132
LLLLLLLLLLLLLLLLLLLLLFFFFFFFFFFFFFFFFFFFFFFFFFFFFF
32435312266666622326666666666666661222643646656635
FFFFFFFFFFLLLLLLFFFLLLLLLLLLLLLLLLFFFFFFFFFLLLLLFF
52365414254463634652523666644243266636622245613463
FFFFFFFFFFFFFFFFFFFFFFFLLLLLFFFFFFFFFFFFFFFFFFFFFF
16345613645221461545233456236666666266665661141214
FFFFFFFFLLLFFFFFFFFFFFFFFFFFFLLLLLLLLLLLFFFFFFFFFF
15666636225532524524633335645164142215556442651465
FFLLLLLLFFFFFFFFFFFFFFFFFFFFFFFFFFFFFFFFFFFFFFFFFF
42133546144112664421622166421366666366665666665616
FFFFFFFFFFFFFFFFFFFFFFFFFFFFFFLLLLLLLLLLLLLLLLLLLL
12514666166661666616332143552354155353331143631654
FFFFFLLLLLLLLLLLLLFFFFFFFFFFFFFFFFFFFFFFFFFFFFFFFF
35144441235666663666666466666665266626666666663666
FFFFFFFFFFFFLLLLLLLLLLLLLLLLLLLLLLLLLLLLLLLLLLLLLL
65166262463626624252344434455463556113143622366245
LLLLLFFFFFFFFFFFFFFFFFFFFFFFFFFFFFFFFFFFFFFFFFFFFF
66664254632364666646662663666666616661424221223366
LLLLFFFFFFFFFFLLLLLLLLLLLLLLLLLLLLLLLFFFFFFFFFFFLL
62451453453654312616566666551146526236213413154333
LFFFFFFFFFFFFFFFFFFFFLLLLLLLFFFFFFFFFFFFFFFFFFFFFF
66364666664534545366466665666622233135431216366345
LLFLLLLLFFFFFFFFFFLLLLLLLLLLLLFFFFFFFFFFFFFFFLLLLF
66666656666666441616266636134132623523413222634246
LLLLLLLLLLLLLLFFFFFFFLLLFFFFFFFFFFFFFFFFFFFFFFFFFL
14642562511612131425355123222266562466666356332523
FFFFFFFFFFFFFFFFFFFFFFFFFFFFFFFFFFFFLLLLLFFLFFFFFF
23664666666666266636666663522116666616166635624411
LLLLLLLLLLLLLLLLLLLLLLLLLFFFFFFFLLLLLLLLLLFFFFFFFF
66612666665666626666261661563636624126541144535116
LLLLLLLLLLLLLLLLLLLLLFFFFFFFFFFFFFFFFFFFFFFFFFFFFF
66666426666616666666665666646666656666333635325551
LLLLLLLLLLLLLLLLLLLLLLLLLLLLLLLLLLLLLLFFFFFFFFFFFF
66666366166666364156456546425213253651533513252535
LLLLLLLLLLLLLFFFFFFFFFFFFFFFFFFFFFFFFFFFFFFFFFFFFF
52255666666666422366665636666262664142134413344535
FFFFFLLLLLLLLLFFFFLLLLLLLLLLLLLFFFFFFFFFFFFFFFFFFF
24361414241616664666645216312156222213334526644166
FFFFFFFFFFFFLLLLLLLLLFFFFFFFFFFFFFFFFFFFFFFFFFFFFF
32144366231451462615621122554166614513345342555612
FFFFFFFFFFFFFFFFFFFFFFFFFFFFFFFFFFFFFFFFFFFFFFFFFF
63311466263414634652224233543536164546165446666432
FFFFFFFFFFFFFFFFFFFFFFFFFFFFFFFFFFFFFFFFFFFLLLLFFF
34244123223553251634155215622655166666636666666666
FFFFFFFFFFFFFFFFFFFFFFFFFFFFFFFFFLLLLLLLLLLLLLLLLL
63666535144243416622616663135245631652653452414366
LLLLLFFFFFFFFFFFLLLLLLLLLFFFFFFFLLLLFFFFFFFFFFFFLL
55424665223653661641345632245465662326215344141113
FFFFFFFFFFFFFFFFFFFFFFFFFFFFFFLLLLLFFFFFFFFFFFFFFF
52263122666661161361516666366646666665466666666434
FFFFFFFFLLLLLFFFFFLLLLLLLLLLLLLLLLLLLLLLLLLLLLFFFF
42461256613331312361351342426612225256423516153546
FFFFFFFFFFFFFFFFFLLFFFFFFFFFLLLFFFFFFFFFFFFFFFFFFF
66666654651625134351266615313624621262652263224663
LLLLLLFFFFFFFFFFFFFFFLLLLFFFFFFFFFFFFFFFFFFFFFFFLL
66666666666166666415154655346626665125646666466166
LLLLLLLLLLLLLLLLFFFFFFFFFFFFLLLLLLFFFFFFFLLLLLLLLF
46666366666362612666661663566636633266665664666666
FLLLLLLLLLLLLLLLLLLLLLLLLLLLLLLLLFFFLLLLLLLLLLLLLL
51666433161256665266113666342666651315331645643636
FFFFFFFFFFFFFFFFFFLFFFFFFFFFFLLLLLFFFFFFFFFFFFFLLL
31413642413633213114345213246666623154454433535214
FFFFFFFFFFFFFFFFFFFFFFFFFFFFFFFFFFFFFFFFFFFFFFFFFF
22216666334413456643311255434646312566115256656631
FFFFLLLLLFFFFFFFFFFFFFFFFFFFFFFFFFFFFFFFFFFLLFFFFF
34254153443661666564666363656346664666562644345666
FFFFFFFFFFFLLLLLLLLLLLLLLLLLLFFLLLLLLLLLFFFFFFFLLL
63252522155145666635455211213434226615362535442616
FFFFFFFFFFFFFFLLLLFFFFFFFFFFFFFFFLLFFFFFFFFFFFFFFF
51664666164611251512535235421155332634642111355263
FFLLLLLLLLFFFFFFFFFFFFFFFFFFFFFFFFFFFFFFFFFFFFFFFF
66663266666666666661166636323436261666666666666636
LLLLLLLLLLLLLLLLLLLFFLLLFFFFFFFLLLLLLLLLLLLLLLLLLL
51265452131666666663562333524556533512365211444424
FFFFFFFFFFFFLLLLLLLLLLLLFFFFFFFFFFFFFFFFFFFFFFFFFF
35145261145346533315564633266541246434151154666663
FFFFFFLFFFFFFFFFFFFFFFFFFFFFFFFFFFFFFFFFFFFFLLLLLF
15553545155553553521466666662255115363126666656666
FFFFFFFFFFFFFFFFFFFFFLLLLLLLLFFFFFFFFFFFLLLLLLLLLL
25541413351146666523661124331213234343431236645141
FFFFFFFFFFFFFLLLLFFFFFFFFFFFFFFFFFFFFFFFFFFFFFFFFF
15513164666664645351641131266263436164251532413533
FFFFFFLLLLLLLLLFFFFFFFFFFFFFLFFFFFFFFFFFFFFFFFFFFF
65441566415532532222124514613564666616316613121534
FFFFFFFFFFFFFFFFFFFFFFFFFFFFFFFFFLLLLLFFFFFFFFFFFF
65536141111214435422535115444354642642454516233512
FFFFFFFFFFFFFFFFFFFFFFFFFFFFFFFFFFFFFFFFFFFFFFFFFF
26415546325326221121245663666666366543562665352436
FFFFFFFFFFFFFFFFFFFFFFFFLLLLLLLLLLLLFFFFFFFFFFFFFF
32666666665625144321143254244266626366526665666666
FFFFFLLLLLLLFFFFFFFFFFFFFFFFLLLLLLLLLLFFLLLLLLLLLL
45245344166666663322353566616662135224523354411125
FFFFFFFFFLLLLLLFFFFFFFFFLLLLLLLLFFFFFFFFFFFFFFFFFF
31436421616536566666666366666666666666666224551244
FFFFFFFFFFFFFFFLLLLLLLLLFLLLLLLLLLLLLLLLLFFFFFFFFF
53366656666666661535354121646216656666666666622633
FFFLLLLLLLLLLLLLFFFFFFFFFFFFFFFLLLLLLLLLLLLLLFFFFF
26411663613623163666666665666626666623622325413215
FFFFFFFFFFFFFFFFFLLLLLLLLLLLLLLLLLLFFFFFFFFFFFFFFF
66663661656666146636666562525452316652216662125211
LLLLLLLLLLLLLLLLLLLLLLLLFFFFFFFFFFLFFFFFFFFFFFFFFF
42522521524654644613154512624135551343634123666662
FFFFFFFFFFFFFFFFFFFFFFFFFFFFFFFFFFFFFFFFFFFFFLLLLF
44664621116161446544622253566613334432265113356636
FFLLLLFFFFFFFFFFFFFFFFFFFFFFFFFFFFFFFFFFFFFFFLLLLL
11115222666666666366636665666166666666664631666662
FFFFFFFLLLLLLLLLLLLLLLLLLLLLLLLLLLLLLLLLLLLLLLLLLF
56346241424416466324436421611661133233236666666662
FFFFFFFFFFFFFFFLLFFFFFFFFFFFFFFFFFFFFFFFLLLLLLLLLL
34136334564135355311565335514251331463626466456666
FFFFFFFFFFFFFFFFFFFFFFFFFFFFFFFFFFFFLLLLLLLLLLLLLL
56663256343621131356454314234616322326255133331666
FFFFFFFFFFFFFFFFFFFFFFFFFFFFFFFFFFFFFFFFFFFFFFFFLL
52554643524424636666562622446666225363366641663666
FFFFFFFFFFFFFFLLLLLLLLLLFFFFFLLLLFFFLLLLLLLLLLLLLL
33131624355136221655222441154465141243111261261666
FFFFFFFFFFFFFFFFLLLLFFFFFFFFFFLFFFFFFFFFFFFFFFLLLL
11646662255664652211242654633355366114424116231252
FFFFFFFFFFFFFFFFFFFFFFFFFFFFFFFFFFFFFFFFFFFFFFFFFF
36666112242162335144241423124211443662426136416564
FLLLLFFFFFFFFFFFFFFFFFFFFFFFFFFFFFFFFFFFFFFFFFFFFF
66656632231556656123331324456266565144666551546232
LLFFFFFFFFFFFFLLLFFFFFFFFFFFFFFFFFFFFFLLLFFFFFFFFF
34362441631456323551365523542256633214244614562144
FFFFFFFFFFFFFLFFFFFFFFFFFFFFFFLLLFFFFFFFFFFFFFFFFF
46144336654411351442131411544324461641665313455211
FFFFFFFFFFFFFFFFFFFFFFFFFFFFFFFFFFFFFFFFFFFFFFFFFF
63231454223626666662626661641654534344346516221436
FFFFFFFFFFFFFLLLLLLLLLLLLFFFFFFFFFFFFFFFFFFFFFFFFF
64436313356636666662566264152255255623223355531336
LLFFFFFFFLLLLLLLLLLLLFFFFFFFFFFFFFFFFFFFFFFFFFFFFF
66663666666666665662666661325563626656663661456133
LLLLLLLLLLLLLLLLLLLLLLLLLFFFFFFFLLLLLLLLLLLFFFFFFF
61545431665525525326143246462565245544266666666666
FFFFFFFFLLFFFFFFFFFFFFFFFFFFFFFFFFFFFFFFLLLLLLLLLL
65541352155645243425562213446466266566154566362666
LFFFFFFFFFFFFFFFFFFFFFFFFFFFFFFFFFFFLLFFFFLLLLLLLL
46135464452645615553665652134165451234161666666521
FFFFFFFFFFFFFFFFFFFFFFFFFFFFFFFFFFFFFFFFFLLLLLFFFF
46214252666666566464666366666221462245662266642345
FFFFFFFFLLLLLLLLLLLLLLLLLLLFFFFFFFFFFFLLLLLLFFFFFF
32445366641541154436421416345616441422624111254651
FFFFFFFFFFFFFFFFFFFFFFFFFFFFFFFFFFFFFFFFFFFFFFFFFF
31663662351621111211256465666646135442163342236553
FFFFFFFFFFFFFFFFFFFFFFFFLLLLLLFFFFFFFFFFFFFFFFFFFF
61566666256353463645411141126252262353312346432151
FFFLLLLLLLLFFFFFFFFFFFFFFFFFFFFFFFFFFFFFFFFFFFFFFF
36316162415644636442366666651451546226655444626666
LFFFFFFFFFFFFFFFFFFFFLLLLLLFFFFFFFFFFFFFFFFFLLLLLL
51561621612646112642122225651433364423632356262666
FFFFFFFFFFFFFFFFFFFFFFFFFFFFFFFFFFFFFFFFFFLLLLLLLL
63256362445545162641332633255141211152135366664663
FFFFFFFFFFFFFFFFFFFFFFFFFFFFFFFFFFFFFFFFFFFLLLFFFF
36666666666464662262665666666426631414163212112142
FLLLLLLLLLLLLLLLLLLLLLLLLLLLLLFFFFFFFFFFFFFFFFFFFF
65532141142243315436641141346515546353555562563665
FFFFFFFFFFFFFFFFFFFLFFFFFFFFFFFFFFLFFFFFFFFFFFFLLL
45222166254342564124664132523256664666266242223624
FFFFFFFFFFFFFFFFFFFFFFFFFFFFFFFLLLLLLLLLLLLFFFFFFF
56126666646666526445564115236154416466315261465323
FFFFLLLLLLLLLFFFFFFFFFFFFFFFFFFFFFFFFFFFFFFFFLLFFF
65665664632566212333114636136335133333656513654222
FFFLLLLFFFFLLLFFFFFFFFFFFLFFFFFFFFFFFFFFFFFFFFFFFF
46161241454633134141561111446354424345666163534545
FFFFFFFFFFFFFFFFFFFFFFFFFFFFFFFFFFFFFFLLLLLFFFFFFF
13122551436564456662342251525463333656666666533666
FFFFFFFFFFFFFFFFFFFLFFFFFFFFFFFFFFFLLLLLLLLLLLLLLL
46646666656666666666661166366643661653626153623636
FFFFFLLLLLLLLLLLLLLLLLLLLLLLLLLLLLLLLLLFFFFFFFFLLL
36643625534532266666664661631166236666232453563526
FLFFFFFFFFFFFFFLLLLLLLLLLLLFFFLLLLLLLLLFFFFFFFFFFF
66646666366265621232155562221265663325352611345145
LLLLLLLLLLLLLLLLFFFFFFFFFFFFFLLLLLLFFFFFFFFFFFFFFF
66666634666666666666135211464265122666623313166634
LLLLLLFFLLLLLLLLLLLLFFFFFFFFFFFFFFFFFFFFFFFLLLLLLL
12326313563144333241431413125164343666164663666166
FFFFFFFFFFFFFFFFFFFFFFFFFFFFFFFFFFFLLLLLLLLLLLLLLL
64356163132326562666166662666464446361666666666356
FFFFFFFFFFFFLLLLLLLLLLLLLLLLLFFLLLLLLLLLLLLLLLLLLL
41113161553524345556166211651366313516662666665363
FFFFFFFFFFFFFFFFFFFFFLLFFFFFFFFFFFFLLLLLLLLLLLLLLF
53556663366513252145434161112664216635341322626666
FFFFLLLLFFFFFFFFFFFFFFFFFFFFFFFFFFFFFFFFFFFFLLLLLL
24623345646616224446662662213336622666666626166666
FFFFFFFFFFFFFFFFFFFLLFFFFFFFFFFFFFLLLLLLLLLLLLLLLL
31424511142213366666666666666134164354466664656221
FFFFFFFFFFFFFFFLLLLLLLLLLLLLFFFFFFFFFFLLLLLFFFFFFF
66615324366666652662665551114333242216154646164165
LLLFFFFFFLLLLLLLLLLLLLFFFFFFFFFFFFFFFFFFFFFFFFFFFF
66663664323356666313655136614545641225334646664164
LLLLLLLLFFFFFLLLLFFFFFFFFFFFFFFFFFFFFFFFFFFFFFFFFF
32326363424256666145565451256646121664615666132153
FFFFFFFFFFFFFLLLLFFFFFFFFFFFFFFFFFFLLLLLLLLFFFFFFF
46643331344144562653216366166662625636632446515442
LLLFFFFFFFFFFFFFFFFFFFFFLLLLLLLLLFFFFFFFFFFLLFFFFF
66665522565426133315631363223166323326446626334261
LLLLLFFFFFFFFFFFFFFFFFFFFFFFFFFFFFFFFFFFFFFFFFFFFF
61214132354433225241352163343366361332455111122611
FFFFFFFFFFFFFFFFFFFFFFFFFFFFFFLFFFFFFFFFFFFFFFFFFF
55666624662566666532542236661666666666366665666566
FFLLLLLLLLFFLLLLLFFFFFFFFLLLLLLLLLLLLLLLLLLLLLLLLL
64166666646666666666661321135412646336146464663254
FFFFLLLLLLLLLLLLLLLLLFFFFFFFFFFFFFFFFFFFFFFFFFFFFF
41512531554242664356634522554256124434243666666346
FFFFFFFFFFFFFFFFFFFFFFFFFFFFFFFFFFFFFFFFFLLLLLLLLL
64266666665616366661454666666466666216413121524312
LLLLLLLLLLLLLLLLLLLFFLLLLLLLLLLLLLLFFFFFFFFFFFFFFF
32565666661666262646116666166623134353535435556666
FFLLLLLLLLLLLLLLLLLLLLLLLLFLLLFFFFFFFFFFFFFFLLLLLL
66666666246363254654666666353515336663666666663316
LLLLLLLLFFFFFFFFFFFFLLLLLLFFFFFFFLLLLLLLLLLLLLFFFF
66666351651514444262115565426614124666364166666366
LLLLLFFFFFFFFFFFFFFFFFFFFFFFLLFFFFFLLLLLLLLLLLLLLL
65133662651666645616666542666266666665656644646366
FFFFFLLLLLLLLLLLFFFFFFFFFFLLLLLLLLLLLLLLLLLLLLLLLL
53343211635426432433666663264465165626666666623513
FFFFFFFFFFFFFFFFFFFFLLLFFFFFFFFFFFFFFLLLLLLLLFFFFF
66662661626441442543666666666651215222561624222136
LLLLLLLFFFFFFFFFFFFFFLLLFFFFFFFFFFFFFFFFFFFLFFFFFL
41465415641363352212636531444441332564425616645253
FFFFFFFFFFFFFFFFFFFFFFFFFFFFFFFFFFFFLLFFFFFFFFFFFF
16662552646545254513632334666535566616366663626636
FFFFFFFFFFFFFFFFFFFFFFFFFFLLLLLFFLLLLLLLLLLLLLLLLL
46663666115416434216264146243564264566622156444366
LLLLLLLFFFFFFFFFFFFFFFFFFFFFFFFFFLFFFFFFFFFFFFFLLL
61662355125666451146526332262666666666646666666616
FFFFFFFFFFFLLLFFFFFFFFFFFFLLLLLLLLLLLLLLLLLLLLLLLL
32513235152633554266636632145225365225621614153522
FFFFFFFFFFFFFFFLLLLLLLLLFFFFFFFFFFFFFFFFFFFFFFFFFF
64256333666615466666625641362653112365641645525664
LFFFFFFFLLLFFFFLLLLLLLLLFFFFFFFFFFFFFFFFFFFFFLLLLL
14361463522216113642566622652262266233125634123664
FFFFFFFFFFFFFFFFFFFFFFFFFFFFFFFFFFFFFFFFFFFFFFFFFF
66661663666642521346461661131112661661131322162123
LLLLLLLLLLLLLFFFFFFFLLLLLLFFFFFFFFFFLFFFFFFFLFFFFF
63645664246631665253143262436234635332614341642426
FFFFLLLFFFLLFFFFFFFFFFFFFFFFFFFFFFFFFFFFFFFFFFFFFL
66621532266163656666664355131562644546662662642235
LLLLLLFFFFFFLLLLLLLLLLFFFFFFFFFFFFFFFLLLLLLLFFFFFF
11222554413543563133321666615546631112661461256614
FFFFFFFFFFFFFFFFFFFFFFFLLLLFFFFLLFFFFFFFFFFFFFFFFF
46663664162146421232552514336432526615226463341563
FLLLLLLLLFFFFFFFFFFFFFFFFFFFFFFFFFFFFFFFFFFFFFFFFF
46666266666662666662566665664666666646666636456116
FLLLLLLLLLLLLLLLLLLLLLLLLLLLLLLLLLLLLLLLLLLLLLLFFF
64513626462624121344566661663666266532214545463546
LFFFFFFFFFFFFFFFFFFFFFLLLLLLLLLLFFFFFFFFFFFFFFFFFL
45256666664536666461616163566666616166666246116666
FFFFLLLLLLLLLLLLLLLLLFFFFFFLLLLLLLLLLLLLLLLLLLLLLL
46654231564534563551415436526364311646651666666366
FFFFFFFFFFFFFFFFFFFFFFFFFFFFLFFFFFFFFFFFLLLLLLLLLL
66666666236353613234264431652262342255366155316332
LLLLLLLLLLLFFFFFFFFFFFFFFFFFFFFFFFFFFFFFFFFFFFFFFF
46253124646666666664632235243412653151554323566554
FFFFFFFFFLLLLLLLLLLLLFFFFFFFFFFFFFFFFFFFFFFFFLLFFF
62666666261513236115121313525336666126664665666666
LLLLLLLLFFFFFFFFFFFFFFFFFFFFFFFLLLLFFLLLLLLLLLLLLL
62526143644662524665664262311466666566656566666662
FFFFFFFFFFFFFFFFFFFFFFFFFFFFFFLLLLLLLLLLLLLLLLLLLF
46666466661666664666666565666566666656666666646635
LLLLLLLLLLLLLLLLLLLLLLLLLLLLLLLLLLLLLLLLLLLLFFFFFF
66615546165353414661224531514224611231632222522666
LLLFFFFFFFFFFFFFFFFFFFFFFFFFFFFFFFFFFFFFFFFFFFLLLL
65343112245663614233566666321433461321244116433545
FFFFFFFFFFFLLFFFFFFFFFFLLLFFFFFFFFFFFFFFFFFFFFFFFF
42664434645156166434526666666664246664666666666266
FFFFFFFFFFFFFFFFFFFFFFFLLLLLLLLLLLLLLLLLLLLLLLLLLL
66326365654366666666116443146516166433215413353254
LLFFFFFFFFFFLLLLLLLLFFFFFFFFFFFLFFFFFFFFFFFFFFFFFF
66661616544666365656666166666636266666266615311166
LLLLLLLLLLLLLLLLLFFLLLLLLLLLLLLLLLLLLLLLFFFFFFFFLL
31453314334354666166343213513142542114235565124644
FFFFFFFFFFFFFFLLFFFFFFFFFFFFFFFFFFFFFFFFFFFFFFFFFF
66615222336335665666666643166266631624366521453424
LLLFFFFFFFFFFLLLLLLLLLLLLLLLLLLLLFFFFFFFFFFFFFFFFF
13112253461315216335666666666322136366266666632164
FFFFFFFFFFFFFFFFFFFFFLLLLLLLLFFFFFFFFFFFLLLLLLLFFF
56254266212312655425315422365145246616214666613151
FFFFFFLLFFFFFFFFFFFFFFFFFFFFFFFFFFFFFLFFLLLLLFFFFF
45663222121122111514236262564316566232635542333214
FFFFFFFFFFFFFFFFFFFFFFFFFFFFFFFFFFLLLLLFFFFFFFFFFF
66653616611666566646466666636664425242612412233626
LLLLLLLLLFFLLLLLLLLLLLLLLLLLLLLLFFFFFFFFFFFFFFFLLL
62524225424256153322563466666565153263352516313352
FFFFFFFFFFFFFFFFFFFFFFFFFLLLLLLFFFFFFFFFFFFFFFFFFF
66226333663666266666666666224442321563644441435522
LLLFFFFFLLLLLLLLLLLLLLLLLLLFFFFFFFFFLFFFFFFFFFFFFF
35314545115542564666666626623153321434326315115166
FFFFFFFFFFFFFFFFFLLLLLFFFFFFFFFFFFFFFFFFFFFFFFFFLL
62332113263166256445522413266666466665646164626666
FFFFFFFFFFFFFFFFFFFFFFFFFFLLLLLLLLLLLLLLLLLLLLLLLL
36663616661616664655662666666664666666656666666666
LLLLLLLLLLLLLLLLLLFFFFFLLLLLLLLLLLLLLLLLLLLLLLLLLL
66661466666661666465365466566633241456363463423443
LLLLLLLLLLLLLFFFFFLFFFFFLLLLLLFFFFFFFFFFFFFFFFFFFF
66161521634342333535566666223655441543421246666366
LLLLFFFFFFFFFFFFFFFFFFFFFFFFFFFFFFFFFFFFFFFLLLLLLL
66666656666466313161232131445531666426665663663465
LLLLLLLLLLLLLLFFFFFFFFFFFFFFFFFLLLLLLLLLLLLLLLLLLF
33443364665624666663422425341256436266666664446133
FFFFFFLLLLLLLLLLLLLFFFFFFFFFFFFFFFFFFLLLLLLFFFFFFF
66666666665664151245116663266643565414315411612644
LLLLLLLLLLLLLFFFFFFFFFFFFFLLLLLFFFFFFFFFFFFFFFFFFF
52636463622255456561636366135213512364113136141153
FFFFFFFFFFFFFFFFFFFFLLLLLLFFFFFFFFFFFFFFFFFFFFFFFF
66412112434666666666666566666666666266666666663661
LFFFFFFFFFFLLLLLLLLLLLLLLLLLLLLLLLLLLLLLLLLLLLLLLL
61616666616666561636666643666515342316665653565625
LLLLLLLLLLLLLLLLLLLLLLLLLLLLFFFFFFFFFLLLLLFFFFFFFF
56556434641115424333444446656666423535524446634466
FFFFFFFFFFFFFFFFFFFFFFFFFLLLLLLLFFFFFFFFFFFFFFFFLL
61666664422516661666666663666623126666646666666166
LLLLLLLFFFFFFLLLLLLLLLLLLLLLLLFFFFLLLLLLLLLLLLLLLL
14664534326243534116646116263166666166666116666666
FFFFFFFFFFFFFFFFFFFFFFFFFFFFFFLLLLLLLLLLLLLLLLLLLL
31222444361235562655123666664653651153422646664666
FFFFFFFFFFFFFFFFFFFFFFFLLLLLFFFFFFFFFFFFFFFLLLLLLL
62266666263266666666626466666666666623344561526613
LLLLLLLLLLLLLLLLLLLLLLLLLLLLLLLLLLLLFFFFFFFFFFFFFF
66666266422641641166466666666421314515466656455256
LLLLLLLLLFFFFFFFFFFLLLLLLLLLLFFFFFFFFFLLLFFFFFFFLL
36254466123541141233666666143163514551256231562513
FFFFFFFFFFFFFFFFFFFFFFFLLLFFFFFFFFFFFFFFFFFFFFFFFF
66663663266666666665626666656622245321343614145342
LLLLLLLLLLLLLLLLLLLLLLLLLLLLLLFFFFFFFFFFFFFFFFFFFF
15636266666356666665626666666366646546656666666666
FFLLLLLLLLLLLLLLLLLLLLLFFLLLLLLLLLFFFFLLLLLLLLLLLL
65666666666666654524323252666644422665656646566666
LLLLLLLLLLFLLLFFFFFFFFFFFFLLLLFFFFFLLLLLLLLLLLLLLL
16242123353551661123466666523142346665222312364143
FFFFFFFFFFFFFFFFFFFFFLLLLLFFFFFFFFFFFFFFFFFFFFFFFF
46466666661466212134463326532554624536626666661233
LLLLLLLLLLLLFFFFFFFFFFFFFFFFFFFFFFFFFLLLLLLLLLFFFL
66152135232352111522114666666244345321211243346566
FFFFFFFFFFFFFFFFFFFFFFFLLLLLLLFFFFFFFFFFFFFFFFFFLL
22514544221652622432153636331162666624665666221163
FFFFFFFFFFFFFFLFFFFFFFFFFFFFFFLLLLLLLLLLLLLFFFFFFF
64666664266562222263115114231115551661646662226531
LLLLLLLFFFFFFFFFFFFFFFFFFFFFFFFFFFFLLLLLLLLFFFFFFF
24311562666666666666666666661661626621163353261666
FFFFFFFFLLLLLLLLLLLLLLLLLLLLLLLLLLLLLFFFFFFFLLLLLL
65421354541455311646221614421421616141666616664664
FFFFFFFFFFFFFFFFFFFFFFFFFFFFFFFFFFFFFFLLLLLLLLLLLL
66162666262666565336635311452632361641315553416656
LLLLLLLLLLLLLLLLLLLLLLFFFFFFFFFFFFFFFFFFFFFFFFFFFF
53266666653342214566466566666662653366224356566543
FFFLLLLLLFFFFFFFFFFLLLLFLLLLLLLFLFFFFFFFFFFFFLLLLL
63612225234312346331444554426656223355466433515252
LFFFFFFFFFFFFFFFFFFFFFFFFFFFLLLLFFFFFFFFFFFFFFFFFF
66666666661524522363515156266663455232435666661636
LLLLLLLLLLFFFFFFFFFFFFFFFFFLLLLLFFFFFFFFFLLLLLLLLL
66162525532666662416534311231525366666666324355654
LLFFFFFFFFFLLLLLFFFFFFFFFFFFFFFFFFLLLLLLLLFFFFFFFF
65335431555413232345111313162551562662552365112315
FFFFFFFFFFFFFFFFFFFFFFFFFFFFFFFFFFLLLFFFFFFFFFFFFF
13624623333242443425666466663616665515324346166663
FFLFFFFFFFFFFFFFFFFLLLLLLLLLFFFFFFFFFFFFFFFFFFFFFF
26664464254556222132524364664453463446323654244636
FFFFFFFFFFFFFFFFFFFFFFFFFFFFFFFFFFFFFFFFFFFFFFFLFF
15512321665624641216622466666136645635255311424524
FFFFFFFFFFFFFFFFFFFFFFFFLLLLLFFFFFFFFFFFFFFFFFFFFF
24111532246653236656663666616666646216662446231111
FFFFFFFFFFFFFFFFLLLLLLLLLLLLLLLLLLLLLLLLFFFFFFFFFF
45543654426556415443343646532146521553134422366666
FFFFFFFFFFFFFFFFFFFFFFFFFFFFFFFFFFFFFFFFFFFFFLLLLL
66656655566165222511252263124325612466666236646664
LLFFFFFFFFFFFFFFFFFFFFFFFFFFFFFFFFFFLLLLLLLLLLLLLL
61636666344425244543312644165343355636366666636411
LLLLLLLLFFFFFFFFFFFFFFFFFFFFFFFFFFFFFFFLLLLLLLLFFF
63514126415425321336545232162166264365435114162243
FFFFFFFFFFFFFFFFFFFFFFFFFFFLFFFFFFFFFFFFFFFFFFFFFF
21541541545453664413452466323666661316646266666663
FFFFFFFFFFFFFFLLFFFFFFFLLFFFFLLLLLLFLLLFLLLLLLLLFF
63666661666434432356341326233414562634266656656662
LLLLLLLLLLFFFFFFFFFFFFFFFFFFFFFFFLFFFFFLLLLLLLLLLF
44444124434433452235255536356365316663266222245256
FFFFFFFFFFFFFFFFFFFFFFFFFFFFFFFFFFLLLLLLLFFFFFFFFF
21535124446521542263316324633261161666552366666666
FFFFFFFFFFFFFFFFFFFFFFFFFFFFFFFFFFLLLLFFFFLLLLLLLF
66666666664666666666641152453126513251265266666666
LLLLLLLLLLLLLLLLLLLLLLLFFFFFFFFFFFFFFFFFFFLLLLLLLL
66666666666626661646565246314323554153112424436464
LLLLLLLLLLLLLLLLLLLLLFFFFFFFFFFFFFFFFFFFFFFFFFFFFF
11125264665666132661626166541426666666414621111131
FFFFFFFFFFFFFFFFFFFFFFFFFFFFFFFFFLLLLLFFFFFFFFFFFF
66666666666466262111366661456621332436531253213223
LLLLLLLLLLLLLFFFFFFFFFFFFFFFFFFFFFFFFFFFFFFFFFFFFL
51662166666661663362625555153212554233121152636623
FFLLLLLLLLLLLLLFFFFFLFFFFFFFFFFFFFFFFFFFFFFFFFLLFF
61612365551331541233456222552346124352365464544262
FFFFFFFFFFFFFFFFFFFFFFFFFFFFFFFFFFFFFFFFFFFFFFFFFF
14362666634466666661156331666123521463146632326334
FFFLLLLLLLLLLLLLLLLFFFFFFFFFFFFFFFFFFFFFFFFFFFFFFF
66662166566666626666616653542543632423136666636626
LLLLLLLLLLLLLLLLLLLLLFFFFFFFFFFFFFFFFFFFLLLLLLLLLL
13253566665666436666662213456115245556466455161311
FFFFFFLLLLLLLLLLLLLLLLFFFFFFFFFFFFFFFFFFFFFFFFFFFF
61253524451666656664635166666636666614162644213164
FFFFFFFFFFFLLLLLLLLFFFFLLLLLLLLLLLLLFFFFFFFFFFFFFF
14666656666666666662616266666365341536521661451424
LLLLLLLLLLLLLLLLLLLLLLLLLLLFFFFFFFFFFFFFFFFLFFFFFF
45362133436664336135662345262425524433666125446235
FFFFFFFFFFFFFLFFFFFFLLFFFFFFFFFFFFFFFFFFFFFFFFFFFF
53655666266611412133236521223361544645362614622252
LLLLLLLLLLLLLFFFFFFFFFFFFFFFFFFFFFFFFFFLLLLFFFFFFF
34216623532244451114156235441555156362346666126666
FFFFLLFFFFFFFFFFFFFFFFLLLLFFFFFFFFFFFFFFLLLLLLLLLL
66212544366266652666636661342463134313135146613356
FFFFFFFFFLLLLLLLLLLLLLLLFFFFFFFFFFFFFFFFFFFLLFFFFF
63652314252466316454612636666666665666623263216351
LLLFFFFFFFFFFFFFFFFLFFFFFLLLLLLLLLLLLLLFFFFFFFFFFF
22352435556126666446661543151313256215142344632652
FFFFFFFFFFFFFLLLLLLLLLFFFFLFFFFFFFLLFFFFFFFFFFFFFF
62646416412423243354663664335245442256523251423535
FFFFFFFFFFFFFFFFFFFFFFFLLFFFFFFFFFFFFFFFFFFFFFFFFF
62263453514155166226543463544322221566512535525262
FFFFFFFFFFFFFFFLLLLFFFFFFFFFFFFFFFFFFFFFFFFFFFFFFF
66666265425213421352136666664262622666641465312664
LLLLFFFFFFFFFFFFFFFFFLLLLLLLLLLFFFFLLLLLLFFFFFFLLL
32612636164151635614165123222655143625665231664612
FFLFFLLLFFFFFFFFFFFFFFFFFFFFFFFFFFFLFFFFFFFFFFFFFF
46664656163466661462113332221614654111413361551543
FLFFFFFFFFFLLLLLFFFFFFFFFFFFFFFFFFFFFFFFFFFFFFFFFF
12122136112336565154245251311624115264222635662244
FFFFFFFFFFFFFFFFFFFFFFFFFFFFFFFFFFFFFFFFFFFFFFFFFF
46126523551256656636522646663666346514254533536636
LLLLLFFFFFFFFFFFFFFFFFFFFLLLFFFLFFFFFFFFFFFFFFFLLL
66626365656664355254651636666662666663345556612562
LLLFLLLLLLLLLFFFFFFFFFFLLLLLLLLLLLLLLLFFFFFFLLLLLL
44416666456414345151655462646641621525341135566666
FFFLLLLLLFFFFFFFFFFFFFFFFFFFFFFFFFFFFFFFFFFFLLLLLL
61461651553552513316444666666664652225565412614633
FFFFFFFFFFFFFFFFFFFFFFFLLLLLLLLLLFFFFFFFFFFFFFFFFF
65636666166666666656311266344125322556666614532555
LLLLLLLLFLLLLLLLLLLLFFFFFFFFFFFFFFFFFLLLLLFFFFFFFF
65254241514212456433316113264261321462656662115645
FFFFFFFFFFFFFFFFFFFFFFFFFFFFFFFFFFFFFFFFFFFFFFFFFF
36122155235516663422164421123225661241126221222563
FFFFFFFFFFFFFLLLLFFFFFFFFFFFFFFFFFFFFFFFFFFFFFFFFL
62666666424162422562161253243463235515526223612643
FFLLLLLLFFFFFFFFFFFFFFFFFFFFFFFFFFFFFFFFFFFFFFFFFF
66636662446421316663234543466332516666266166566653
LLLLLLLFFFFFFFFFLLFFFFFFFFFFFFFFFFLLLLLLLLLLLLLFFF
34432111546266536666615566462132566346666666664646
FFFFFFFFFLLLLLLLLLLLLFFFFFFFFFFFFFFFFFLLLLLLLLLLLL
22116625654641433456231423533552654153113613164644
FFFFFFFFLLLLFFFFFFFLFFFFFFFFFFFFFFFFFFFFFFFFFFFFFF
35563566214445126516442226311262455144544614152655
FFFFFFFFFFFFFFFFFFFFFFFFFFFFFFFFFFFFFFFFFFFFFFFFFF
66661122221414636165455521115211446333662613425134
LLLFFFFFFFFFFFFFFFFFFFFFFFFFFFFFFFFFFFFFFFFFFFFFFF
55564562422146162656663666552314556161664626666666
FFFFFFFFFFFFFFFFFFFFFLLLLLFFFFFFFFFFLLLLLLLLLLLLLL
26242422426666566636656555124652555266236515566652
FFFFFFFFFFFLLLLLLLLLFFFFFFFFFFFFFFFFFFFFFFFFFFLLFF
21534515116666666166565143636512436332352241516461
FFFFFFFFFFLLLLLLLLLLLLFFFFFFFFFFFFFFFFFFFFFFFFFFFF
24424123665624435363262132462622656666666614421226
FFFFFFFFFFFFFFFFFFFFFFFFFFFFFLFFLLLLLLLLLLLFFFFFFF
46666411355165126232632216521135453222633515566661
LLLLLFFFFFFFFFFFFFFFFFFFFFFFFFFFFFFFFFFFFFFFFFLLLL
23611611615126411313353426265146666626666666356663
FFFFFFFFFFFFFFFFFFFFFFFFFFFFFFFLLLLLLLLLLLLLLLLLLF
61633444211221316511632541166466666646666666616612
FFFFFFFFFFFFFFFFFFFFFFFFLLLLLLLLLLLLFLLLLLLLLLLLFF
33661262662536154316512525666664525211333153564165
FFFFFFFFLFFFFFFFFFFFFFFFFFFFLLLFFFFFFFFFFFFFFFFFFF
41326666623225234566225663561666666162666646636623
FFFFFLLLLLFFFFFFFLLLFFFLLFFFFLLLLLLLLLLLLLLLLLLLLL
66211111651626566656662661633436166452331353643252
LFFFFFFFFFFFFFFFLLLLLLLLLLLLLFFFFFLLLFFFFFFFFFFFFF
66666665645636366632666636666666462444343352352163
LLLLLLLLLLLLLLLLLLLLLLLLLLLLLLLLLLLFFFFFFFFFFFFFFF
25231463636645436361466224626665261423526666266626
FFFFFFFFFFFFFFFFFFFFFFFFFFFFFFFFFFFFFFFFLLLLLLLLLL
21546666633316666666656666662626443312315313142642
FFFFFLLLFFFFFFFLLLLLLLLLLLLLFFFFFFFFFFFFFFFFFFFFFF
63666666664666665634666616316461353454425311514346
LLLLLLLLLLLLLLLLLLLLLLFFFFFFFFFFFFFFFFFFFFFFFFFFFF
34245364113614224346663514222561666635225321512362
FFFFFFFFFFFFFFFFFFFLLLFFFFFFFLLLLLLFFFFFFFFFFFFFFF
44336551546345666366664646521416665663436566662451
FFFFFFFFFFFFFFLLLLLLLLLLLLLFFFFLLLLLLLLLLLLLLLLLLL
42256666666653666666566616661555232216524533211353
FFFFFLLLLLLLLLLLLLLLLLLLLLLLFFFFFFFFFFFFFFFFFFFFFF
43616212453365246511423666665516566666646664342465
FFFFFFFFFFFFFFFFFFFFFFFLLLLLLLLLLLLLLLLLLLLFFFFFFF
34625226552242222143336216456425152631162125455224
FFFFFFFFFFFFFFFFFFFFFFFFFFFFLFFFFFFFFFFFFFFFFFFFFF
12316662666566414666666664666266656665535536151231
FFLLLLLLLLLLFFFFFFFLLLLLLLLLLLLLLFLLFFFFFFFFFFFFFF
66666666666666654661656626662633562166114514621324
LLLLLLLLLLLLLLLLLLLLLLLLLLLLFFFFFFFFFFFFFFFFFFFFFF
16644641543523146254232333166156631166663666666632
FFFFFFFFFFFFFFFFFFFFFFFFFFFFFFFFFFFFLLLLLLLLLLLLLF
66643544241413646414423464254141515436515125512416
LLLLFFFFFFFFFFFFFFFFFFFFFFFFFFFFFFFFFLFFFFFFFFFFFL
33353613653436136663616661666666666361562266663164
FFFFFFFFFFFFFFFFLLLLLLLLLLLLLLLLLLLFFFFFFFLLLLFFFF
43565611165224234553456256315526635363614122146531
FFFFFFFFFLFFFFFFFFFFFFFFFFFFFFFFFFFFLLFFFFFFFFFFFF
65462662464666456331245226666666612525265344631641
LLLLLLLLLLLLLLFFFFFFFFFFFLLLLLLLLFFFFFFFFFFFFFFFFF
33134431336323562261616666365666666621266555521525
FFFFFFFFFFFFFFFFFFFFLLLLLLLLLLLLLLLLFFFLLFFFFFFFFF
43111121246641315352241343322346232434636623525333
FFFFFFFFFFFFFFFFFFFFFFFFFFFFFFFFFFFFFFFFFFFFFFFFFF
34323666233652666231412613625151655256235611611555
FFFFFFLLLLFFFFFFFFFFFFFFFFFFFFFFFFFFFFFFFFFFFFFFFF
44653455642136666636466666666661565666536451341544
FFFFFFFFFFFFFFLLLLLLLLLLLLLLLFLLLLLLLLFFFFFFFFFFFF
51526224346645462424335244241165542252642514156664
FFFFFFFFFFFFFFFFFFFFFFFFFFFFFFFFFFFFFFFFFFFFFFLLLL
56361616666662636335622362161543261162212124666645
LLLLLLLLLLLLLLLLLFFFFFFFFFFFFFFFFFLLLLLFFFFFLLLLFF
32233526554456665323644166622545224154254443332624
FFFFFFFFFFFFFFFFFFFFFFFFFFFFFFFFFFFFFFFFFFFFFFFFFF
65152315444245216265346664542126251515645525432415
FFFFFFFFFFFFFFFFLLLFFLFFFFFFFFFFFFFFFFLFFFFFFFFFFF
66666664562662463456441461226664425633223265663256
LLLLLLLFFFFFFFFFFFFFFFFFLLLLLFFFFFFFFFFFFFFFFFFFFF
26666166666642536536645536146663666666666666366663
FLLLLLLLLLLLFFFFFFFFFFFFFFFFLLLLLLLLLLLLLLLLLLLLLL
61513546653316566661231554146563621266526363636666
FFFFFFFFFFFFFFFFLLLFFFFFFFFFFFFFFFFFLLFFFFFFLLLLLL
65615166612454462553666646322646556166666666644665
LLLLFFLLLFFFFFFFFFFFLLLLLLLLLLFFLLLLLLLLLLLLLLLLFF
61344553251666636226666666666662666666266666524123
FFFFFFFFFFFFLLLFFFFLLLLLLLLLLLLLLLLLLLLLLLLFFFFFFF
46125535511135231436566666466666116523546336443666
FFFFFFFFFFFFFFFFFFFFFLLLLLLLLLLLFFFFFFFFFFFFFFFFLL
21336231131666466636626216146345161315546666616251
FFFFFFFFFFFLLLLLLLLLFFFFFFFFFFFFFFFFFFFFLLLLLLLFFF
16366666661432324246646631344352265336564623626421
LLLLLLLLLLFFFFFFFFFFFFFFFFFFFFFFFFFFFFFFFFFFFFFFFF
22163634236166226643661461336544256451153124466155
FFFFFFFFFFFFFFFFLFFFFFFFFFFFFFFFFFFFFFFFFFFFFFFFFF
62213664215465533626625536115112662613166664666666
LFFFFFLLFFFFFFFFFFFFFFFFFFFFFFFFFFFFFFFFLLLLLLLLLL
46233522644242165551652634566646666613656662336666
FFFFFFFFFFFFFFFFFFFFFFFFFFFLLLLLLLLLLLLLLLLLLLLLLL
36223116643115341354656153614315621655163426536364
LLFFFFFFFFFFFFFFFFFFFFFFFFFFFFFFFFFFFFFLFFFFFFFFFF
24353213664434143516164646631523564661331441131355
FFFFFFFFFLFFFFFFFFFFFFFFFLLFFFFFFFFFFFFFFFFFFFFFFF
66314441156565144351536345566552345161564666266666
LLFFFFFFFFFFFFFFFFFFFFFFFFFFFFFFFFFFFFFFFLLLLLLLLL
66533436666343251242155533236623366635266656666666
LFFFFFFFLLLFFFFFFFFFFFFFFFFFLLFFFFFFFFFLLLLLLLLLLL
61364143126264565164162125565215235126666666666666
LLLLFFFFFFFFFFFFFFFFFFFFFFFFFFFFFFFFFLLLLLLLLLLLLL
12632326431153551422662361335666615636341666534613
FFFFFFFFFFFFFFFFFFFFFFFFFFFFFFLLLFFFFFFFLLLLFFLLLL
22366356634326133443234566656666666146413621112646
FFLLLLLLLFFFFFFFFFFFFFFFLLLLLLLLLLLLLLLLLLLLFFFLLL
51132266666626666665266664666542666616562631411114
FFFFFFLLLLLLFLLLLLLLLLLLLLLLLLFFLLLLLLLFFFFFFFFFFF
51322553122146614261221155245612144132345564456151
FFFFFFFFFFFFFFFFFFFFFFFFFFFFFFFFFFFFFFFFFFFFFFFFFF
46122253454422625346162216633344522162143626534643
FFFFFFFFFFFFFFFFFFFFFFFFFFFFFFFFFFFFFFFFFFFFFFFFFF
11543633543626466332466536613133663366162632552421
FFFFFFFFFFFFFFFFFFFFFFFFFLFFFFFFFFFFFFFFFFFFFFFFFF
26522251654234521655641125114154631114353153414136
FFFFFFFFFFFFFFFFFFFFFFFFFFFFFFFFFFFFFFFFFFFFFFFFFF
54621623566666466666366666666226666463512666665466
FFFFFFFFFLLLLLLLLLLLLLLLLLLLLLLLLLLLLFFFFFLLLLFFLL
53264651525521612554154633646365551455163336536354
FFFFFFFFFFFFFFFFFFFFFFFFFFFFFFFFFFFFFFFFFFFFFFFFFF
32453245642132145423315623666641425531453661524366
FFFFFFFFFFFFFFFFFFFFFFFFFFLLLLLFFFFFFFFFFFFFFFFFFF
51456322365164666661544316141532624334253555445646
FFFFFFFFFLFFLLLLLLLFFFFFFFFFFFFFFFFFFFFFFFFFFFFFFF
24535366166255436563636662666663666666632656216541
FFFFFFLLLLLFFFFFLLLLLLLLLLLLLLLLLLLLLLLLLLLLFFFFFF
56152634613116262143646546546515112342423336213234
FFFFFFFFFFFFFFFFFFFFFFFFFFFFFFFFFFFFFFFFFFFFFFFFFF
51666366622566363666666231563536541226456141465256
FFLLLLLLLFFFFLLLLLLLLLLFFFFFFFFFFFFFFFFFFFFFFFFFFF
14416212554542215512114346661524154144444241666226
FFFFFFFFFFFFFFFFFFFFFFFFFLLLLFFFFFFFFFFFFFFFFFFFFF
14436416155652146436612666313611326641134624656644
FFFFFFLLFFFFFFFFFFFLLLLLLFFFFFFFFFFFFFFFFFFFFFFFFF
66223646266666662666355263463546162425643634533624
LLFFFLLLLLLLLLLLLLLLFFFFFFFFFFFFFFFFFFFFFLFFFFFFFF
35243346222155315435655466665666666666666616366665
FFFFFFFFFFFFFFFFFFFFFFFFFLLLLLLLLLLLLLLLLFFFFFFLLL
66666666616466166636326665435265135152451412344652
LLLLLLLLLLLLLLLLLLLLFFLLLFFFFFFFFFFFFFFFFFFFFFFFFF
31143325662123661343636366431316211255533663545231
FFFFFFFFFFFFFFFFFFFFFFFFFFFFFFFFFFFFFFFFFFFFFFFFFF
54461651515332456561222355565263426266646666452425
FFFFFFFFFFFFFFFFFFFFFFFFFFFFFFFFFFLFFFFFLLLFFFFFFF
15513532363511433162643241243436454313651436316223
FFFFFFFFFFFFFFFFFFFFLLLFFFFFFFFLFFFFFFFFFFFFFFFFFF
65666626666266666232422111536666666666255516123651
FFFLLLLLLLLLLLLLLFFFFFFFFFFFLLLLLLLLLLFFFFLLFFFFFF
15422512514412121231354656655514435622454163665544
FFFFFFFFFFFFFFFFFFFFFFFFFFFFFFFFFFFFFFFFFFFFFFFFFF
54541114666666666561636666644356316351364423265126
FFFFFFFFLLLLLLLLLLLLLLLLLLLFFFFFFFFFFFFFFFFFFFFFFL
66116222163646666216145653546625662666266636616663
LLFFFFFFLLLLLLLLLLLLFFFFFFFFFFFFLLLLLLLLLLLLLLLLFF
16116143163511222516354563161136263446266666663442
FFFFFFFFFFFFFFFFFFFFFFFFFFFFFFFFFLFFFLLLLLLLFFFFFF
36664233346133522645333666666661266656662141322635
LLFFFFFFFFFFFFFFFFFFFFFLLLLLLLLLLLLLLLLLFFFFFFFFFF
64662622536242233261345525662336666666666215462155
LLLFFFFFFFFFFFFFFFFFFFFFFFLLLLLLLLLLLLLLLLFFFFFFFF
22666422621415464316451653362612431311114112451445
FLLLLFFFFFFFFFFFFFFFFFFFFFFFFFFFFFFFFFFFFFFFFFFFFF
56541522345666354665656413666666666163636366166646
LLLLLFFFFFFLLLLLLLLLLLLLLLLLLLLLLLLLLLLLLLLLFFLLLL
36661434545636561464353326534663666666666466666654
FLLLFFFFFFFFFFFFFFFFFFFFFFFFFFLLLLLLLLLLLLLLLLLLFF
66662566666666466666666252631111452264611346141534
LLLLLLLLLLLLLLLLLLLLLLLFFFFFFFFFFFFFFFFFFFFFFFFFFF
34451163666662431134666563336643634636666666666366
FFFFFFLLLLLLLFFFFFFLLLLLLFFFLLLLLLLLLLLLLLLLLLLLLL
14555334123625215123615234566665666112663665663261
FFFFFFFFFFFFFFFFFFFFFFFFFFLLLLLLLLLLLLLLLLFFFFFFFF
36266666666663666666666661456146166341656411455453
LLLLLLLLLLLLLLLLLLLLLLLLLLLLLLLLLLLFFFFFFFFFFFFFFF
66254323512243566666643666666666666666663666666666
LLFFFFFFFFFFFFFLLLLLLFFLLLLLLLLLLLLLLLLLLLLLLLLLLL
41451245625566666666666642433626666166661235366566
FFFFFFFFFFFFLLLLLLLLLLLLFFFFFFFLLLLLLLLFFFFFFFLLLL
41264366632561662635366566524566666666664666616555
FFFFFFLLLFFFFFFFFFFFFLLLLLFFFFFFFLLLLLLLLLLLLFFFFF
62314634666415244154656456666666666666311553443543
FFFFFFFLLLLFFFFFFFFFFFFFFFLLLLLLLLLLLLFFFFFFFFFFFF
26436151634461666666266666466616662321412351156363
FFFFFFFFLLLLLLLLLLLLLLLLLLLLLLLLLLLLLLLLFFFFFFFFFF
44124654653156124455564456354261565321115654541633
FFFFFFFFFFFFFFFFFFFFFFFFFLFFFFFFFFFFFFFFFFFFFFFFFF
41224314453451156414624351342455624222416226134666
FFFFFFFFFFFFFFFFFFFFFFFFFFFFFFFFFFFFFFFFFFFFFFFLLL
66662666626116466666666466666626314241131324144135
LLLLLLLLLLLLLFFLLLLLLLLLLLLLLFFFFFFFFFFFFFFFFFFFFF
11314666661666622213236135411325521631352521334352
FFFFLLLLLLLLLLLFFFFFFFFFFFFFFFLFFFFFFFFFFFFFFFFFFF
66666466661451216666356461522664236643116666666666
LLLLLLLLFFFFFFFLLLLLLLLFFFFFFFFFFFFFFFFFLLLLLLLLLL
54321222661425256515415453634113425665666361666656
FFFFFFFFFFFFFFFFFFFFFFFFFFFFFFFFFFFLLLLLLLLLLLLLLL
66633611446536661546133316266235152666616664643221
LLLLLFFFFFFFFLLFFFFFFFFFFFFFFFFFFFFLLLLLLLLLLFFFFF
13314126652424345224145516666666666666662166666166
FFFFFFFFFFFFFFFFFFFFFFFFFLLLLLLLLLLLLLLLLLLLLLLLLL
15414234633446235514246346334231313635266514346666
FFFFFFFFFFFFFFFFFFFFFFFFFFFFFFFFFFFFFFFFFFFFFFLLLL
66666663666665353424653661661666666666114155541645
FLLLLLLLLLLLFFFFFFFFFFLLLLLLLLLLLLLLLFFFFFFFFFFFFF
22426616212216126261243514336314562145136644611141
FFFFFFFFFFFFFFFFFFLFFFFFFFFFFFFFFFFFFFFFFFFFFFFFFF
24556266666216444556222133616666664665265231126546
FFFFLLLLLLLLLFFFFFFFFFFFFFFFLLLLLLLLLLLLFFFFFFFFFF
35163216666566666166562436626666664666666666666666
FFFFFFFFLLLLLLLLLLLLLLFFFLLLLLLLLLLLLLLLLLLLLLLLLL
66611664666662636545246256151411315255566226666623
LLLLLLLLLLLLLLLFFFFFFFFFFFFFFFFFFFFFFFFFFFFLLLLLLF
66466665662432352426134431666666623263153144666666
LLLLLLLLLLFFFFFFFFFFFFFFFFFLLLLLLFFFFFFFFFFFLLLLLL
33112255246434446536444265655463415616655366316432
FFFFFFFFFFFFFFFFLFFFFFFFFFFFFFFFFFFFFFFFFFFFFFFFFF
66664431515156332435454241354243666666666641666666
LLLLFFFFFFFFFFFFFFFFFFFFFFFFFFFFFFLLLLLLLLLLLLLLLL
22224432222666666666616445666631613262534666165144
FFFFFFFFFFFFLLLLLLLLLLLLLLLLLLFFFFFFFFFFFLLLLLFFFF
23146515212256141623426223666631122344336513514126
FFFFFFFFFFFFFFFFFFFFFFFFFFFFFFFFFFFFFFFFFFFFFFFFFF
66615666666666661666366646316642564246353116666666
LLLLLLLLLLLLLLLLLLLLLLLLLLFFLLFFFFFFFFFFFFFFLLLLLL
66636655451641221444151556644235164431465644465635
LLLFFFFFFFFLLFFFFFFFFFFFFFFFFFFFFFFFFFFFFFFFFFFFFF
54516165466512666113666466666635626636566616166666
FFFFFFFFFFFFFFLLLLFFLLLLLLLLLLFFFFLLLLLLLLLLLLLLFF
65652145122262642444113653422266561412622154666666
FFFFFFFFFFFFFFFFFFFFFFFFFFFFFFFFFFFFFFFFFFFFLLLLLL
66366364661524525112256466666636666666424126213614
LLLLLLLLLLFFFFFFFFFFFFLLLLLLLLLLLLLLLLFFFFFFFFFFFF
26536466542334256366615554153353612666662265621622
FFFFFFLLFFFFFFFFFFLLLFFFFFFFFFFFFFFLLLLLLLLLLFFFFF
66666666661434564624353126312365554226113553354256
LLLLLLLLLLFFFFFFFFFFFFFFFFFFFFFFFFFFFFFFFFFFFFFFFF
46666666366161254512422665116122253246434311364125
FLLLLLLLFFFFFFFFFFFFFFFFLFFFFFFFFFFFFFFFFFFFFFFFFF
13126452666666666111653256166666126524642241552356
FFFFFFFFLLLLLLLLLLLLLFFFFLLLLLLFFFFFFFFFFFFFFFFFFL
66664666666666461435132663666262462262123511466666
LLLLLLLLLLLLLLLLFFFFFFFLFFLLLFFFFFFFFFFFFFFFFLLLLL
66116554324616346664613546143536555315145334626454
FFFFFFFFFFFLLLFFFFFFFFFFFFFFFFFLFFFFFFFFFFFFFFFFFF
64211113525413561143624553516461511545663166666666
LFFFFFFFFFFFFFFFFFFFFFFFFFFFFLFFFFFFFFLLFFLLLLLLLL
63266546161366663362415315266662666146463543265445
FFFFFFFFFFFFFLLLFFFFFFFFFFFFFLLLLFFFFFFFFFFFFFFFFF
66665166441642162136454126466162626666666613243632
FFLLLLLLFFFFFFFFFFFFFFFFFLLLLLLLLLLLLLLLLFFFFFFFFF
66351332613321412636662666666662442266643666264154
LLFFFFFFFFFFFFFFFFLLLLLLLLLLLLLFFFFFLLLLLLLLFFFFFF
42666666636666666666666566433151416644244645133666
FFFFLLLLLLLLLLLLLLLLLLLLLLFFFFFFFFFFFFFFFFFFFFFFLL
56565666666433666652364226464663645511462433146366
FLLLLLLLLLLLLLLLLLFFFFFFFFFFFLLFFFFFFFFFFFFFFFFLLL
66666222413362135562651134531114123613526465132553
LLLLLFFFFFFFFFFFFFFFFFFFFFFFFFFFFFFFFFFFFFFFFFFFFF
22561441334632324351261566666642222155544412332212
FFFFFFFFFFFLFFFFFFFFFFFFFFFLLLFFFFFFFFFFFFFFFFFFFF
63666346646261561233541332654146621442633414256522
LLLLLFFLLFFFFFFFFFFFFFFFFFFFFFFFFFFFFFFFFFFFFFFFFF
24441631666166366646322612345634316632134355545425
FFFFLLLLLLLLLLLLLLFFFFFLFFFFFFFFFFFFFFFFFFFFFFFFFF
53111634656466666665666666666643415564156366513353
FFFFFFFFLLLLLLLLLLLLLLLLLLLLLLFFFFFLLFFFFFFFFFFFFF
41366666666666615134531256561153566652226466616666
LLLLLLLLLLLLLLFFFFFFFFFFFFFFFFFFLLLLFFFFLLLLLLLLLL
23216342255353433545343325665436334526412612362623
FFFFFFFFFFFFFFFFFFFFFFFFFFFFFFFFFFFFFFFFFFFFFFFFFF
66433562422441513624534446562233315225244466662666
FFFFFFFFFFFFFFFFFFFFFFFFFFFFFFFFFFFFFFFFLLLLLLLLLL
26135436145211656446615265666665666623633263134222
LLFFFFFFFFFFFFFFFFFFFFFFFFLLLLLLLLLLLLLLLLLLLFFFFF
36365256265232666666226216335366665626616346566666
LLFFFFFFFFFFFFLLLLLLFFFFFFFFFFLLLLLLLLLLLLLLLLLLLL
21345222626666446646363663616632655146664666325566
FFFFFFFFFFLLLLLLLLLLFFFFFFFFFFFFFFFFFLLLLLLLLFFLLL
62423335336631144536625366541314222465165125626614
FFFFFFFFFFFFFFFFFFFLLLFFFFFFFFFFFFFFFFFFFFFFLLLLFF
13452112654451112121666666666666663231662626666466
FFFFFFLLFFFFFFFFFFFFLLLLLLLLLLLLLFFFFFLLLLLLLLLLLL
63324455252566666666613422133456543566661666664336
FFFFFFFFFFFFLLLLLLLLLFFFFFFFFFFFFFFLLLLLLLLLLLFFFF
31636666662656661666661665664266616463126264613656
FFLLLLLLLLLLLLLLLLLLLLLLLLLLFFLLLLLFFFFFFFFFFFFFFL
55162136362665145135411461242662462653566643311135
FFFFFFFFFFFFFFFFFFFFFFFFFFFFFLLFFFFFFFFFFFFFFFFFFF
26212213543551354312646434356133433332666666666456
FFFFFFFFFFFFFFFFFFFFFFFFFFFFFFFFFFFFFFLLLLLLLLLFFL
66166666666666311666616663666166616624655666661625
LLLLLLLLLLLLLLLLLLLLLLLLLLLLFFLLLLLLLLLLLLLLLLLLLL
34315536451416252545111163435634342314444632541311
FFFFFFFFFFFFFFFFFFFFFFFFFFFFFFFFFFFFFFFFFFFFFFFFFF
24161431211643255555256134163636666666654166553666
FFFFFFFFFFFLLLLFFFFFFFFFFFFFFLLLLLLLLLLFFFFFFFFLLL
65651652425124155651152264163666666666566143226666
FFLFFFFFFFFFFFFFFFFFFFFFFFFFFFLLLLLLLLLLLFFFFFLLLL
66466611633524114513334566666665535641646632115243
LLLLLLFFFFFFFFFFFFFFFFFFLLLLLLLFFFFFFFFFFFFFFFFFFF
63425551336515362326636666666662666666366166666541
LFFFFFFFFFFFFFFFFFFLLLLLLLLLLLLFLLLLLLFLLLLLLLLLLL
56314436564666645515212233322154464232666566656664
FFFFFFFLLLLLLLFFFFFFFFFFFFFFFFFFFFFFFFFLLLLLLFLLLF
63335446463141332642624352236623455313362666666653
FFFFFFFFFFFFFFFFFFFFFFFFFFFFFFFFFFFFFFFFFLLLLLLLLL
66666666665664666656666666666631611416621316215124
FLLLLLLLLLLLLFLLLLLLLLLLLLLLLFFFFFFFFFFFFFFLFFFFFF
15566666362244343365466666666666166654543314136346
FFFLLLLLLLLFFFFFFFFFFLLLLLLLLLLLLLLLFFFFFFFFFFFFFF
36526125231641155534514552661266555526642615432254
FFFFFFFFFFFFFFFFFFFFFFFFFFFFFFFFFFFFFFFFFFFFFFFFLL
56124633252465622632165555621665616666652311524451
FFFFFFFFFFFFFFFFFFFFFFFFFFFFFLLLLLLLLLLFFFFFFFFFFF
46663165543421631341443646666666661656666366644256
FLLLFFFFFFFFFFFFFFFFFFFFFFFLLLLLLLLLLLLLLLLFFFFFFL
64156456565446666666145464452135214125366466634666
FFFFFFFFFFFFFLLLLLLLFFFFFFFFFFFFFFFFFFLLLLLLLLLLLL
55316663366445566665151622146666666666266666366666
FFFFLLLLLFFFFFFLLLLLFFFFFFFFFLLLLLLLLLLLLLLLLLLLLL
23642626666666663666566666613432542435416426656266
FFFFFLLLLLLLLLLLLLLLLLLLLLLLFFFFFFFFFFFFFFFFFFFFFL
45446536633646561112151112656666666666666666666241
FFFFLLLLLFFFFLLLFFFFFFFFFFFFLLLLLLLLLLLLLLLLLLLFFF
66666665415354326666661343355243644626252431636111
LLLLLLLFFFFFFFFFLLLLLLFFFFFFFFFFFFFFFFFFFFFFFFFFFF
21626342232664166665626364123454423124526626666666
FFFFFFFFFFFFFFFLLLLLLFLFFFFFFFFFFFFFFFFFLLLLLLLLLL
66556645451264251563332554512435116666661561521645
LLLLLLFFFFFFFFFFFFFFFFFFFFFFFFFFFFLLLLLFFFFFFFFFFF
22134415122423424552615664335112666425531226264365
FFFFFFFFFFFFFFFFFFFFFFFFFFFFFFFFLLFFFFFFFFFFFFFFFF
63421453162346631555452115666656625243443546436535
FFFFFFFFFFFFFFFFFFFFFFFFFFLLLLLLLFFLFFFFFFFFFFFFFF
66645242525224355354555163224522222654643411351114
LLLFFFFFFFFFFFFFFFFFFFFFFFFFFFFFFFFFFFFFFFFFFFFFFF
66656466631252112366663663666554166555163542243566
LLLLLLLLFFFFFFFFFFLLLLLLLLLLFFFFFFFFFFFFFFFFFFFFFF
24551162161641425314431334515654566166666662333435
FFFFFFFFFFFFFFFFFFFFFFFFFFFFFFFFLLLLLLLLLLLFFFFFFF
42134566662636622634266343452164236263163533312615
FFFFFFLLLLLLLLLLFFFFFFFFFFFFFFFFFFFFFFFFFFFFFFFFFF
62116256312666666636666666664366666666524162235351
LLFFFFFFFFFLLLLLLLFLLLLLLLLLLLLLLLLLLLFFFFFFFFFFFF
24364651324332441616465242432444334153355446121633
FFFFFFFFFFFFFFFFFFFFFFFFFFFFFFFFFFFFFFFFFFFFFFFFFF
62366466666466166666666664666266426166666616666662
FFFLLLLLLLLLLLLLLLLLLLLLLLLLLLFFFFFLLLLLLLLLLLLLLL
61664666666666656666466666266666664466665261666666
FFFFFFLLLLLLLLLLLLLLLLLLLLLLLLLLLLFFLLLLLLLLLLLLLL
41644242646166616666366651255245364324566664662262
FFFFFFFFFFLLLLLLLLLLLLLLFFFFFFFFFFFFFFLLLLLLLLLLLF
61666655666411411525566616633141361233241365666256
LLLLLLLLLLLFFFFFFFFFFLLLFFFFFFFFFFFFFFFFFFLLLLLFFF
51224433242542661265263666566366133211666521614655
FFFFFFFFFFFFFFFFFFFFFLLLLLLLLLLLLFFFFFLLLLFFFFFFFF
66262633435322616222543356135564155463661666152161
LLLLLFFFFFFFFFFFFFFFFFFFFFFFFFFFFFFFLLLLFFFLLFFLLL
56663564551455251536463646454431163622236124266666
LLLLLLFFFFFFFFFFFFFLLLLLFFFFFFFFFFFFFFFFFFFFFLLLLL
42344342623215655323126366666666616245446565166461
FFFFFFFFFFFFFFFFFFFFFFFLLLLLLLLLLLLFFFFFFFFFLLLFFF
11253525626631165144665666326443665555662431113656
FFFFFFFFFFFFFFFFFFFLLLLLLLLLLLFFLLFFFFFFFFFFFFFFFF
66666662416456124515246655321354564133112365111114
LLLLLLLFFFFFFFFFFFFFFFFFFFFFFFFFFFFFFFFFFFFFFFFFFF
14222226363215556656636266666633644666645413661666
FFFFFFFFFLFFFFFFLLLLLFLLLLLLLLFFFFFFFFFFFFFFLLLLLL
65322525141121561313632664666666616566626443326652
FFFFFFFFFFFFFFFLFFFFFFFFFFLLLLLLLLLLLLLFFFFFFFFFFF
26666666166266666646666156666666546626314431324445
LLLLLLLLLLLLLLLLLLLLLLLLLLLLLLLLFFLLLLFFFFFFFFFFFF
43565623312464332212123331265523165333541641432435
FFFFFLFFFFFFFFFFFFFFFFFFFFFFFFFFFFFFFFFFFFFFFFFFFF
11454266662216466466666266664125341512216541631324
FFFFFFLLLLLFFLLLLLLLLLLLLLLLFFFFFFFFFFFFFFFFFFFFFF
36666432242646516562462636452366666664134133524132
LLLLFFFFFFFFFFFFFFFFFFFFFFFFFFLLLLLLFFFFFFFFFFFFFF
34313461532231524623612543151646245626636466636666
FFFFFFFFFFFFFFFFFFFFLLLFFFFFFFFFFFFFFLLLLLLLLLLLLL
61666666663652666666666652321566166162666363111642
LLLLLLLLLLFFFFLLLLLLLLLLLFFFFFLLLLLLLLLLLLLFFFFFFF
66666666662666666111436666615233313666666664664621
LLLLLLLLLLLLLLLLLLFFFFLLLLLLFFFFFFFFFLLLLLLLLLLLLF
36561155265666362656612534313354353112255336212626
FFFFFFFFFFLLLLLLLLLLLFFFFFFFFFFFFFFFFFFFFFFFFFFFFF
66666666666255314533164316641112143255245361266361
LLLLLLLLLLLFFFFFFFFFFFFFFFFFFFFFFFFFFFFFFFFFFFFFFF
34536132313121621246165355341223311143322215424124
FFFFFFFFFFFFFFFFFFFFFFFFFFFFFFFFFFFFFFFFFFFFFFFFFF
11662624546641545351424244466614532436666666661666
FFLLFFFFFFLLLFFFFFFFFFFFFFFLLLFFFFFFFLLLLLLLLLLLLL
66556133664666666666626255465666326662666666666265
LLFFFFFFFLFLLLLLLLLLLFFFFFLLLLLLLLLLLLLLLLLLLLLLLF
36116666665366666666462566164643151246666616616666
FFFFLLLLLLLLLLLLLLLLLLLLLLLLLLFFFFFFFLLLLLLLLLLLLL
56144166626666163666666235541353256153353361321323
FFFFFLLLLLLLLLLLLLLLLFFFFFFFFFFFFFFFFFFFFFFFFFFFFF
44221353641533565214121624152455253153565532443131
FFFFFFFFFFFFFFFFFFFFFFFFFFFFFFFFFFFFFFFFFFFFFFFFFF
55433411455566336265165431223263155666543343215266
FFFFFFFFFFFFLLLLLFFFFFFFFFFFFFFFFFFLLLFFFFFFFFFFLF
22366666166632666612245135265415366242516213164425
FFFFFLLLLLLLLLLLLLFFFFFFFFFFFFFFFLLLFFFFFFFFFFFFFF
66663221546526645415621542266566431342364413325413
FLLLFFFFFFFFFFFFFFFFFFFFFFFFFFFFFFFFFFFFFFFFFFFFFF
24616666663613341666116526125441662651656222352256
LLLLLLLLLLFFFFFFFLLLLLLFFFFFFFFFFFFLFFFFFFFFFFFFFF
66666665666666622143132154666666661656666666466566
LLLLLLLLLLLLLLLFFFFFFFFFFFFLLLLLLLFFFLLLLLLLLLLLLL
23153343365663232164435552655633542353566631444212
FFFFFFFFFFFFFFFFFFFLLFFFFFFFFFFFFFFFFFFLLLFFFFFFFF
66666666654634562133246266666666666466666666666665
LLLLLLLLLFFFFFFFFFFFFFLLLLLLLLLLLLLLLLLLLLLLLLLLLF
21356666656663646366646213312425124326661613652432
FFFLLLLLLLLLLLLLLLLFFFFFFFFFFFFFFFFFLLLLFFFFFFFFFF
15552626662665644323453623456326344545434412265666
LFFFFFFLLLFFFFFFFFFFFFFFFFFFFFFFFFFFFFFFFFFFFFFFFF
35612444326465236612523232134255546346666641443364
FFFFFFFFFFFFFFFFFFFFFFFFFFFFFFFFFFFFFLLLLFFFFFFFFF
46532261351213564652634666666666666666666666663466
FFFFFFFFFFFFFFFFFFFFFFFLLLLLLLLLLLLLLLLLLLLLLLFFFF
66666566566631651424315135364563566526666666656666
LLLLLLLLLLLLLLLLFFFFFFFFFFFFFFFFLLLLLLLLLLLLLLLLLL
34214353422135231632434666466636466554465351644666
FFFFFFFFFFFFFFFFFFFFFFFLLLLLLLLLLLLFFFFFFFFFFFFLLL
66321513143422653456233456665666661565636564166466
FFFFFFFFFFFFFFFFFFFFFFFLLLLLLLLFLLLLLLLLLLLLLFLLLL
55652461656365424641253264144666643665666463664636
FFFFFFFFFFLFFFFFFFFFFFFFFFFFFLLLLLLLLLLLLLLLFFFFFL
34166666253322211622411152443514661446665463456666
FFLLLLLLFFFFFFFFFLFFFFFFFFFFFFFFFFFFFFFFFFFFFLLLLL
52644455354433643631315665134121455563166546612613
FFFFFFFFFFFFFFFFFFFFFFFLLLFFFFFFFFFFFFFFFFFFFFFFFF
51153642454413215565234334556666615254164364263122
FFFFFFFFFFFFFFFFFFFFFFFFFFFFFFLLLFFFFFFLFFFFFFFFFF
21414225366365666656666666461666665566666656666666
FFFFFFFFFLLLLLLLLLLLLLLLLLLLLLLLLLLLLLLLLLLLLLLLLL
43366366452326365123241424632161346145563116165244
FFFLLFFFFFFFFFFFFFFFFFFFFFFFFFFFFFFFFFFFFFFFFFFFFF
46552446661364266663666625666655615435246266642511
FFFFFFFFFFFFFFFLLLLLLLLLLLLLLLFFFFFFFFFFLLLLLFFFFF
36421633464564432254455231523565632254255431444554
LLFFFFFFFFFFFFFFFFFFFFFFFFFFFFFFFFFFFFFFFFFFFFFFFF
66636345554646532551431322141251625611463621235514
LLLFFFFFFFLLLLLFFFFFFFFFFFFFFFFFFFFFFFFFFFFFFFFFFF
66112632163635146563343336261422562252422561645131
LLFFFFFFFLFFFFFFFFFFFFFFFFFFFFFFFFFFFFFFFFFFFFFFFF
41324655666613114553655336266665666662666656621335
FFFFFLLLLLLFFFFFFFFFFFFFFFFFLLLLLLLLLLLLLLLLLFFFFF
66664661666666664666513564623235464456666666221351
LLLLLLLLLLLLLLLLLLLLFFFFFFFFFFFFFFFFFLLLLLLLLFFFFF
66666666666466666266625266666656432465322144544536
LLLLLLLLLLLLLLLLLLLLLLFFLLLLLLFFFFFFFFFFFFFFFFFFFF
65622312565335146643223662156634435112666266666666
FFFFFFFFFFFFFFFFFFFFFFFFFFFFFFFFFFFFFFLLLLLLLLLLLL
66236246463246262542511312341266266151666666666646
FFFFFFFFFFFFFFFFFFFFFFFFFFFFFFLLLLLLLLLLLLLLLLLLFL
66666136253532552223642654651154246662364565353411
LLLLLLFFFFFFFFFFFFFFFFFFFFFFFFFFFFFFFFFFFFFFFFFFFF
34262524455212453526131324131521111514232554113341
FFFFFFFFFFFFFFFFFFFFFFFFFFFFFFFFFFFFFFFFFFFFFFFFFF
51342611143165665366661666666666666666666666366666
FFFFFFFFFFFFLLLLLLLLLLFFLLLLLLLLLLLLLLLLLLLLLLLLLL
41423224633666666666636566566662666266666554655412
FFFFFFFFFFLLLLLLLLLLLLLFFFFLLLLLLLLLLLLLLFFFFFFFFF
46166653244613131452541511546666113535523364165243
FFFFFFFFFFFFFFFFFFFFFFFFFFFFLLLLLLFFFFFFFFFFFFFFFF
13416266666664441664345454411636364563213441425462
FFFFFFFLLLLLLFFFFFFFFFFFFFFFFFFFFFFFFFFFFFFFFFFFFF
34622431244114246231624424641241522462636661623164
FFFFFFFFFFFFFFFFFFFFFFFFFFFFFFFFFFFFFFLLLLLFFFFFFF
16665124416361166663343431116662664666466566366661
LLLFLLFFFFLLLLLLLLLFFFFFFFFFFLLLLLLLLLLLLLLLLLLLLL
14126345553332226666666564466132236332261446232316
FFFFFFFFFFFFFFFFFFLLLLLFFFFLLLFFFLLFFFFLFFFFFFFFFL
56346434214125356466626646666362626666366162155365
FFFFFFFFFFFFFFFFFFLLLLLLLLLLLLLLLLLLLLLLLFFFFFFFFF
36111252261512133115631336646665611533531325666661
FFFFFFFFFFFFFFFFFFFFFFFFFLFFFLLLLFFFFFFFFFFFLLLLLF
32356646465542535541344625321114625213452644153314
FFFFFFFFFFFFFFFFFFFFFFFFFFFFFFFFFFFFFFFFFFFFFFFFFF
11341245463666663541511112664254156323661666666666
FFFFFFFFFLLLLLLLFFFFFFFFFFFFFFFFFFFFFFLLLLLLLLLLLL
61523433416331355232244561513666366666342342564213
FFFFFFFFFFFFFFFFFFFFFFFFFFFFFLLLLLLLLLFFFFFFFFFFFF
23242566666363261246316466666652566666645364656315
FFFFFFLLLLFFFFFFFFFFLLLLLLLLFFFFFLLLLLLFFFFFFFFFFF
32655412132344331655443624532412113524333335224353
FFFFFFFFFFFFFFFFFFFFFFFFFFFFFFFFFFFFFFFFFFFFFFFFFF
24656666664633432224666425261333542146666666666666
LLLLLLLLLLFFFFFFFFFFFFFFFFFLLFFFFFFFFLLLLLLLLLLLLL
33666165524441113362552315362426554136141334113365
FFFFFFFFFFFFFFFFFFFFFFFFFFFFFFFFFFFFFFFFFFFFFFFFFF
51344531542444543461312436434162564256655366321552
FFFFFFFFFFFFFFFFFFFFFFFFFFFFFFFFFFFFFFFFFLLLFFFFFF
66666636255414453546162536614455364613616566434223
LLLLLLFFFFFFFFFFFFFFFFFFFFFFFFFFFFFFFFFFFFLLLFFFFF
36666666626646316435542233454131566115153456435211
FLLLLLLLLLLLLFFFFFFFFFFFFFFFFFFFFFFFFFFFFFFFFFFFFF
23455612155162532535644111665666636666166662616615
FFFFFFFFFFFFFFFFFFFFFFFFFFFFFLLLLLLLLLLLLLLLLLLLFF
23416456166616363154122662562115566126353363243154
FFFFLLLLLLLLLLLLFFFFFFFFFFFFFFFFFFFFFFFFFFFFFFFFFF
64415326131266222255121564554666626646646232546342
LFFFFFFFFFFFLLFFFFFFFFFFFFFFFLLLLLLLLLLLLLFFFFFFFF
54361624536434356515313424461666664666661666665665
FFFFFFFFFFFFFFFFFFFFFFFFFFFFFLLLLLLLLLLLLLLLLLLLLL
35466245133666366616365145251422514666662615622235
FFFLLFFFFFFFFFLLFLLFFFFFFFFFFFFFFFFFFLLLLLFFFFFFFF
61121223324642316626516325525233566566436644666666
FFFFFFFFFFFFFFFFFFFFFFFFFFFFFFFFFLLLLLFFLLFFLLLLLL
12122613563661522456263241115663534144146466652326
FFFFFFFFFLLLLFFFFFFFLLFFFFFFFLLFFFFFFFFFFFFLLFFFFF
42515331356466666666566626632126366666664664663443
FFFFFFFFFFLLLLLLLLLLLLLLLLLFFFFFFFFLLLLLLLLLLLFFFF
66466666666266416666666415142442622112522612641664
LLLLLLLLLLLLLLLLLLLLLLLLFFFFFFFFFFFFFFFFFFFFFFFFLL
51662334113126235342115263665112131631566145413465
LLLLFFFFFFFFFFFFFFFFFFFFFFFFFFFFFFFFFFFLLLFFFFFFFF
46666665666616661431616231142264223666666256666615
LLLLLLLLLLLLLLLLFFFFFFFFFFFFFFFFFFFLLLLLLLLLLLLLFF
65622362666666366165444552262164315236232312454352
FFFFFFLLLLLLLLLLLLLFFFFFFFFFFFFFFFFFFFFFFFFFFFFFFF
24354211151446663666663636636666666661666226641661
FFFFFFFFFFFFFLLLFLLLLFFFFFFFLLLLLLLLLLLLLLLLLLLLLL
53666161112532453532366245616621462443241412236364
FFLLLFFFFFFFFFFFFFFFFFFFFFFFFFFFFFFFFFFFFFFFFFFFFF
16334241651221166665666666656666666565665616561324
FFFFFFFFFFFFFFFLLLLLLLLLLLLLLLLLLLLLLLLLFFFFFFFFFF
62566666666661451336432121156241551366664636666141
FFFFLLLLLLLLLFFFFFFFFFFFFFFFFFFFFFFLLLLLLLLLLLLFFF
55363344266566215635436262441114435432416661366161
FFFFFFFFFLLLLLFFFLFFFFFFFFFFFFFFFFFFFFFFLLLLLLLLLF
66663431461121364113566666566662136666226216336341
LLLLFFFFFFFFFFFFFFFFLLLLLLLLLLLLFFFFFFFFFFFFFFFFFF
46566432545666612515264465664353623514366663451641
FFFFFFFFFFFLLLLLLFFFFFFLLLLLFFFFFFFFFFLLLLLLLLLLFF
46116413512352425666666666656664266662246525155162
FFFFFFFFFFFFFFFFFFLLLLLLLLLLLLLLLLLLFFFFFFFFFFFFFF
26612451651325223141411651634242443541333333234115
FLFFFFFFFFFFFFFFFFFFFFFFFFFFFFFLLFFFFFFFFFFFFFFFFF
14166666426666666616266663641626122325646665423232
FFFFLLLLFFFLLLLLLLLLLLLLLLLLLLLFFFFFFFFFLLFFFFFFFF
41145463421532545233426631632315446365464343562521
FFFFFFFFFFFFFFFFFFFFFFFFFFFFFFFFFFFFFFFFFFFFFFFFFF
61646153421633423252562652541336532546611532312453
LFFFFFFFFFFFFFFFFFFFFFFFFFFFFFFFFFFFFFFFFFFFFFFFFF
66666665665341635666666116616416646666616666623356
LLLLLLLFFFFFFFFFFFLLLLLLLLLLLLLLLFLLLLLLLLLLLFFFFF
32352356666662566666266163221125651463262266666432
FFFFFFFLLLLLLLLLLLLLLLLLLFFFFFFFFFFFFFFFFLLLLLLFFF
66156661661666666666666641224125613341416322452132
LLLLLLLLLLLLLLLLLLLLLLLLFFFFFFFFFFFFFFFFFFFFFFFFFF
66666666663621136356321253242313632211233662622525
LLLLLLLLLLLLFFFFFFFFFFFFFFFFFFFFFFFFFFFFFFFFFFFFFF
31326336666461136535561614566566666666666456636126
FFFFFFFFFLLFFFFFFFFFFFFFFFLLLLLLLLLLLLLLLLLLLLLLLL
43241564552515656413411533222534253214523336466531
FFFFFFFFFFFFFFFFFFFFFFFFFFFFFFFFFFFFFFFFFFFFFLLFFF
54363512121614352463312466325144411136544645414642
FFFFFFFFFFFFFFFFFFFFFFFFFFFFFFFFFFFFFFFFFFFFFFFFFF
35651634442666636353122166665154465652251266311636
FFFFFFFFFFFFFFFFFFFFFFFFFFFLFFFFFFFLLLLLLLLLFFFFFF
66625363662666564646314651642363525613626515256231
LLLFFFFFLLLLLLFFFFFFFFFFFFFFFFFFFFFFFFFFFFFFFFFFFF
66666666266512666411551666516565241236665466343565
LLLLLLLLLLLFFFLLLFFFFFFFFFFFFFFFFFFFFLLLFFFFFFFFFF
66516666666311144211114266663554555353232355213563
LLLLLLLLLLFFFFFFFFFFFFFFLLLLFFFFFFFFFFFFFFFFFFFLLF
66666666626616135666266626554515322366132222315413
LLLLLLLLLLLLLLFFFLLLLLLLLLFFFFFFFFFLLLFFFFFFFFFFFF
61226446542636616512545236666664346114262121136666
FFFFFFFFFFFLFFFFFFFFFFFFFLLLLLLFFFFFFFFFFFFFFFLLLL
41665636356615665666424253132353116663442141623114
FFFFFFFFFFLLLLLLLLLLFFFFFFFFFFFFFFFFLFFFFFFFFFFFFF
11233133314425465623255445533666616632463364666666
LFFFFFFFFFFFFFFFFFFFFFFFFFFFFFFFFFFFFFFFFFFFLLLLLL
44356145451664641421463651161263156512512662153653
FFFFFFFFFFFFFFFFFFFFFFFFFFFFFFFFFFFFFFFFFLLFFFFFFF
63624124646155555636246145411163416234563314444666
FFFFFFFFFFFFFFFFFLLLFFFFFFFFFFLFFFFFFFFFFFFFFFFLLL
53661156666661626454245252413335246355423261531361
LLLLLFFLLLLLFFFFFFFFFFFFFFFFFFFFFFFFFFFFFFFFFFFFFF
35264232142531562466666666666666666664615555365666
FFFFFFFFFFFFFFFFFFLLLLLLLLLLLLLLLLLLLLLFFFFFFFFFFF
36454456361411456624413166616666666626652115456616
FLLLLLLLLFFFFFFLLLFFFFFFLFLLLLLLLLLLLLLLFFFFFFLLLL
34564552666666664622666313163525322145666666534461
FFFFFFLLLLLLLLLLLLLLLLLLLFFFFFFFFFFFFFLLLLLLFFFFFF
26461116666612266663253166354135556454135222411412
FFFFFFFLLLLLFFFLLLLLFFFFFFFFFFFFFFFFFFFFFFFFFFFFFF
26666666363242463124514311442654615115621666666616
LLLLLLLFFFFFFFFFFFFFFFFFFFFFFFFLLFFFFFFFLLLLLLLLLL
22156652521145236442124156352466624462643142631352
FFFFFFFFFFFFFFFFFFFFFFFFFLFFFFLLLLFFFFFFFFFFFFFFFF
66661666653314145561362111553461166155633521412354
LLLLFLLLFFFFFFFFFFFFFFFFFFFFFFFFFFFFFFFFFFFFFFFFFF
66616626631666666633315515543345365532311342131444
LLLLLLLLLLLLLLLLLLLFFFFFFFFFFFFFFFFFFFFFFFFFFFFFFF
53611135365515522416646231466233563164465664265163
LLFFFFFFFFFFFFFFFFFLLFFFFFFFFFFFFFFFFFFFFFFFFFFFLL
66666666661366636462625333316514644531662662666566
LLLLLLLLLLLLLLLLLLLLLFFFFFFFFFFFFFFFFFLLLLLLLLLLLL
66145565345665356245666666666666666566366663666561
FFFFFFFFFFFFFFFFFFFLLLLLLLLLLLLLLLLLLLLLLLLLLLLLLF
45253455645365125635236111441551431424246425531266
FFFFFFFFFFFFLFFFFFFFFFFFFFFFFFFFFFFFFFFFFFFFFFFFFF
13664563351262625644551266231566224353255514122266
FFFFFFFFFFFFLFFFFFFFFFFFFFFFFLLFFFFFFFFFFFFFFFFLLL
12262443366665361564541654166361533135616243442323
FFFFFFFLLLLLLFFFFFFFFFFFFFFLLLLFFFFFFFFFFFFFFFFFFF
64465466661666666632311545626666361626555654121626
FFFFFFFLLLFLLLLLLLFFFFFFFFFFLLLLLLLLLLFFFFFFFFFLFF
31112624162624115634663666266266665666352311625622
FFFFFFFFFLLFFFFFFFFLLLLLLLLLLLLLLLFLLLLFFFFFFFFFFF
25136665335546342163466666626636666666666366661656
FFFLLLLLFFFFFFFFFFLFFFLLLLLLLLLLLLLLLLLLLLLLLLLFFF
36656366666666661166636666664656466666616664666334
LLLLLLLLLLLLLLLLLLLLLLLLLLLLLLLLLLLLLLLLLLLLLLLLLF
62456466631564166563523532555513523134522465616666
FFFFFFLLFFFFFFFLLFFFFFFFFFFFFFFFFFFFFFFFFFFFLLLLLL
51512521544343513354333241513666665666666666666666
FFFFFFFFFFFFFFFFFFFFFFFFFFFFFLLLLLLLLLLLLLLLLLLLLL
66621566144265462514556166326466666666666666666646
LLLFFFFFFFFFFFFFFFFFFFFLLFFFLLLLLLLLLLFLLLLLLLLLLL
43633651323351352515262666666343266562461352424545
FFFFFFFFFFFFFFFFFFFFFLLLLLLLLFFFFFFFFFFFFFFFFFFFFF
12631224656266366664666666666656666665666666132665
FFFFFFFFFFLLLLLLLLLLLLLLLLLLLLFLLLLLLLLLLLLLFFFFFF
23431563514434641521645254564341616646516556443654
FFFFFFFFFFFFFFFFFFFFFFFFFFFFFFFLLLLLFFFFFFFFFFFFFF
16666416266643432322533254361111561345532366666516
FLLLLLLLLLLLLFFFFFFFFFFFFFFFFFFFFFFFFFFFFLLLLLLLLL
32542532331121622555646333216661666666666666231356
FFFFFFFFFFFFFFFFFFFFFFFFFFFFLLLLLLLLLLLLLLLLFFFFFF
21566626664566365521162651444644531563166111266666
FLLLLLLLLLLLLLLLLLFFFFFFFFFFFFFFFFFFLFFLLFFFFLLLLL
61564214623222666362664566666666666666666666666666
FFFFFFFFFFFFFFFFFFFLLLLLLLLLLLLLLLLLLLLLLLLLLLLLLL
62124642612444222633614661666666666125562436212521
LFFFFFFFFFFFFFFFFFFFFFFLLLLLLLLLLLLFFFFFFFFFFFFFFF
34154666666636616222642456246466666526661243422223
FFFFFLLLLLLLFFFFFFFFFFFFFFFFLLLLLLLLLLLLLFFFFFFFFF
15421323231311511555565212622663263523526246334552
FFFFFFFFFFFFFFFFFFFFFFFFFFFFFFFFFFFFFFFFFFFFFFFFFL
62626662621466565142344662362666663663666666626666
LLLLLLLFFFFFLFFFFFFFFFFFFFFFFLLLLLLLLLLLLLLLLLLLLL
62666165456666666665666666143141444663366366236322
LLLLLFFFFFFLLLLLLLLLLLLLLLFFFFFFFFFFFFFLLLLLFFFFFF
25225231465125613631262666661666666666666365626652
FFFFFFFFFFFFFFFFLLLLLLLLLLLLLLLLLLLLLLLLLFFFFFLLLL
64146611513444461236635232612364456662516664446661
FFFFFFFFFFFFFFFFFFFFFFFFFFFFFFFFFFLLLLLLLLLFFFLLLL
65531464566666166666666611333346563525246266333435
FFFFFLLLLLLLLLLLLLLLLLLLFFFFFFFFFFFFFFFFFFFFFFFFFF
66421231513154424511616666665626366361152632465316
LLFFFFFFFFFFFFFFFFFFFFLLLLLLLLLLLLLLLFFFFFFFFFFFFL
66666661661521466632355266655351213655216254444353
LLLLLLLLLLLFFFFFFFFFFFFFFFFFFFFFFFFFFFFLLFFFFFLLFF
45311616666636666616666662451116662613641244322444
FFFFFFFLLLLLLLLLLLLLLLLLLFFFFFFLLLFFFFFFFFFFFFFFFF
21652634125311664466666666636666664666514162216326
FFFFFFFFFFFFFFLLFFLLLLLLLLLLLLLLLLLLLLFFFFFFFFFFFF
62366466616231235653321244613655666663161666366656
FFFLLLLLLLLFFFFFFFFFFFFFFFFFFFFFLLLLLLLLLLLLFLLLFF
22421661231213143322223153312314143331265355236241
FFFFFLLFFFFFFFFFFFFFFFFFFFFFFFFFFFFFFFFFFFFFFFFFFF
45345666324661613145612151564551234455233616144652
FFFFLLLLFFFFFFFFFFFFFFFFFFFFFFFFFFFFFFFFFFFLFFFFFF
24653666666666666166164666646666666666565131462624
FFFFFLLLLLLLLLLLLLLLLLLLLLLLLLLLLLLLLLLLLFFFFFFLLL
43646625134511463315116461615232644661616135156656
FFFFFFFFFFFFFFFFFFFFFFFFFFFFFFFFFFFFFFFFFFFFFFFFFF
44314321424656616143361154561666666551446533413456
FFFFFFFFFFFFFFFFFFFFFFFFFFFFFFLLLLLFFFFFFFFFFFFFFL
24666662125135443622236516213262663245411261432462
FFLLLLLFFFFFFFFFFFFFFFFFFFFFFFFFFFFFFFFFFFFFFFFFFF
56642261341543446254253346125631114464146521466422
FFFFFFFFFFFFFFFFFFFFFFFFFFFFFFFFFFFFFFFFFFFFFFFFFF
65541464525366613453414151531361432544464263254264
FFFFFFFFFFFFFFFFFFFFFFFFFFFFFFFFFFFFFFFFFFFFFFFFFF
62433255265656443322235124525155235531233451541162
FFFFFFFFFFFFFFFFFFFFFFFFFFFFFFFFFFFFFFFFFFFFFFLLLF
64666466665432456162442443136641553421646636666666
LLLLLLLLLLFFFFFFFFFFFFFFFFFFLLLFFFFFFFLLLLLLLLLLLL
66666423324631346324545242663551144251412512523262
LLLLLFFFFFFFFFFFFFFFFFFFFFFFFFFFFFFFFFFFFFFFFFFFFF
34432115351621626166366363236223666666666666464554
FFFFFFFFFFFFFFFFFFLLLLLLLFFFFFFLLLLLLLLLLLLLLLFFFF
66646666614614466644321666466666654323216666616636
LLLLLLLLLFFFFFFLLLFFFFFFFLFLLLLLLFFFFFFLLLLLLLLLLL
24666662662656633256466244563663363464353552551644
FFLLLLLLLLLLLLLFFFFFFFFFFFFFFFFFFFFFFFFFFFFFFFFFFF
53332653214564164565142526311442224566112656545663
FFFFFFFFFFFFFFFFFFFFFFFFFFFFFFFFFFFFFFFFFFFFFFFFFF
45523462523223156566646252665655156165534514133614
FFFFFFLFFFFFFFFLLLLLLLLFFFFFFFFFFFFFFFFFFFFFFFFFFF
62454341363621343215211556526224153625413232336461
FFFFFFFFFFFFFFFFFFFFFFFFFFFFLFFFFFFFFFFFFFFFFFFFFF
62334436665421231161511116555645656466513524361331
FFFFFFFFFFFFFFFFFFLFFFFFFFFFFLLLLLLLLLFFFFFFFFFFFF
62252131324342642666626366661366665613244245422346
FFFFFFFFFFFFFLLFFFLLLLLLLLLLLLLLLLLLFFFFFFFFFFFFFF
66663624544543113664266466266656666632666653666656
LLLFLLFFFFFFFFFFFFFFFLLLLLLLLLLLLLLLLLLLLLLLLLLLLL
31223566624616553511356666666466536663255363546325
FFFFFFFFFFFFFFFFFFFFLLLLLLLLLLLLLLLLLFFFFFFFFFFFFF
61466666566554214653116333412633553614116131314666
FFFFLLLLLLFFFFFFFFFFFFFFFFFFFFFFFFFFFFFFFFFFFLLLLL
46323446235463315631215132352663131422236442325355
FFFFFFFLFFFFFFFFFFFFFFFFFFFFFFFFFFFFFFFFFFFFFFFFFF
45414416514212145465661126263526512652621656333164
FFFFFFFFFFFFFFFFFFFFFFFFFFFFFFFFFFFFFFFFFFFFFFFFFF
35323265655616612232515453625512634162424665261633
FFFFFFFFFFFFFFFFFFFFFFFFFFFFFFFFFFFFFFFFFFFFFFFFFF
12534146666663643666664666665666666666662662656556
FFFFFFFFLLLLLLLLLLLLLLLLLLLLLLLLLLLLLLLLLLLLLFFFFF
65562223666236263634221153315655262226256666636266
FFFFFFFFLLLFFFFFFFFFFFFFFFFFFFFFFFFFFFFFFLLLLLLLLL
66621344436334122152521551342546666666666616666666
LLLFFFFFFFFFFFFFFFFFFFFFFFFFFFFLLLLLLLLLLLFLLLLLLL
24126531626666666654421522442324444221625216666351
FFFFFFLLLLLLLLLLLLFFFFFFFFFFFFFFFFFFFFFFFFFLLLFFFF
66666626536166651526556626666661666666666665334422
LLLLLLLLLLLLLFFFFFFFFFFLLLLLLLLLLLLLLLLLLLLLFFFFFF
43415364663232533156616666411142641413265344214213
FFFFFFFFFFFFFFFFFFFLLLLLLLFFFFFFFFFFFFFFFFFFFFFFFF
22236613534311644411441443654411511122214266656643
FFFFFLFFFFFFFFFFFFFFFFFFFFFFFFFFFFFFFFFFFFFLLLLFFF
63366662666666666266366633366666361666655245211666
FFLLLLLLLLLLLLLLLLLLLLLFFFFLLLLLLLLLLLFFFFFFFFFLLL
66666364162415326663165624524515231462543453352146
FLLLLLLFFFFFFFFFLLLLFFFFFFFFFFFFFFFFFFFFFFFFFFFFFF
33432164644644162664323532162121144262661442321666
FFFFFFFFFFFFFFFLLLLFFFFFFFFFFFFFFFFFFFFFFFFFFFFLLL
56245164123641342236225232454662511463333626266664
FFFFFFFFFFFFFFFFFFFFFFFFFFFFFFFFFFFFFFFFFFLLLLLLLL
66466666666566666666664666446666666611146366566544
LLLLLLLLLLLLLLLLLLLLLLLLLLLLLLLLLLLLFFFLLLLLLLLFFF
66666261541366516656666166666666666615352563552264
LLLLLLLFFFFFLLLLLLLLLFFFFLLLLLLLLLLLFFFFFFFFFFFFFF
63666666666166146416241351436662346264351352531254
LLLLLLLLLLLLLLFFFFFFFFFFFFFFFFFFFFFFFFFFFFFFFFFFFF
14454233416414162422342113254364536345135124614542
FFFFFFFFFFFFFFFFFFFFFFFFFFFFLFFFFFFFFFFFFFFFFFFFFF
34323453424221232363235453155536651142544646311361
FFFFFFFFFFFFFFFFFFFFFFFFFFFFFFFLLFFFFFFFFFFFFFFFFF
24625354556462236363334661336664224356141533166612
FFFFFFFFFFFFLFFFFFFFFFFFFFFFLLLFFFFFFFFFFFFFFFFFFF
24666665644162666662666636666616166666343421243456
FFFFLLLLFFFFFFFLLLLLLLLLLLLLLLLLLLLLLFFFFFFFFFFFFF
14354256663636656666662666655343264156666666622663
FFFFFFFLLLLLLLLLLLLLLLLLLLLFFFFFFFFFFLLLLLLLLLLLLF
11134466246624121642643363536554121432114564566152
FFFFFFFFFFFFFFFFFFFFFFFFFFFFFFFFFFFFFFFFFFFFFFFFFF
26523542616531356254316652226421326663331416414215
FFFFFLFFFFFFFFFFFFFFFFFFFFFFFFFFFFFFFFFFFFFFFFFFFF
36536666661666635622142352436152633414552512135221
FFFFLLLLLLLLLLFFFFFFFFFFFFFFFFFFFFFFFFFFFFFFFFFFFF
63561336664361454434444626666666666612666266663322
FFFFFFFFFFFFFFFFFFFFFFFLLLLLLLLLLLLLLLLLLLLLLFFFFF
31231565345245146354215164423126612624152443461166
FFFFFFFFFFFFFFFFFFFFFFFFFFFFFFFFFFFFFFFFFFFFFLLLLL
56646666166626666666646656466546666141666166166466
LLLLLLLLLLLLLLLLLLLLLLLLLFFLLLLLLLLLLLLLLLLLFFLLLL
66666462343612566421435665524162415142565666621131
LLLLFFFFFFFFFFFLLFFFFFFFFFFFFFFFFFFFFFFFFFFLLFFFFF
66666656663313463223545611613331134666666666636266
LLLLLLLLLLLFFFFFFFFFFFFFFFFFFFFFFFFLLLLLLLLLLLLLLL
42514166656426663666662365251554316636243325131266
FFFFFFFFFFFLLLLLLLLLLLFFFFFFFFFFFFLLLLFFFFFFFFFFFF
11564145146243254463554344455566663143315262424522
FFFFFFFFFFFFFFFFFFFFFFFFFFFFFFFLLLLFFFFFFFFFFFFFFF
32151543616416666666646626546666666661665153644113
FFFFFFFFFFFFFLLLLLLLLLLLLLLLLLLLLLLLLLLFFFFFLLFFFF
61563562465611536634353413662516161366155542556166
LFFFFFFFFFFFFFFFFFFFFFFFFFFFFFFFFFFFFFFFFFFFFFFFFF
25532244314656366362435215641666663332115321622266
FFFFFFFFFFFFFFFFFFFFFFFFFFFFFLLLLLFFFFFFFFFFLLLLLL
54342342462511554665115123166625233335366664426466
FFFFFFFFFLFFFFFFFLFFFFFFFFFLLLLFFFFFFFFLLLLFFFFFFL
12153261134651546615453163146323663651416111232515
FFFFFFFFFFFFFFFFFFFFFFFFFFFFFFFFFFFFFFFFFFFFFFFFFF
51523411133643363424332234215342624251336266616166
FFFFFFFFFFFFFFFFFFFFFFFFFFFFFFFFFFFFFFFFLLLLLLLLLL
26666626216644432632343244346232466666664563325666
LLLLLLLLLLLLFFFFFFFFFFFFLLFFFFFFFLLLLLLLFFFFFFFLLL
66666553451452346425153642166121162412516354213445
LLLLLLLLLLFFFFFFFFFFFFFFFFFLFFFFFFFFFFFFFFFFFFFFFF
32511352156656665165436252261666666666666346661465
FFFFFFFFFFFFFLLLFFFFFFFFFFFFFLLLLLLLLLLLFFFFFFFFFF
11563523131514316666163666626613445511665656646666
FFFFFFFFFFFFFFFFLLLLLLLLLLLLLLFFFFLLFFLLLLLLLLLLLL
15125335626133216211556221642122342112164653445425
FFFFFFFFFFFFFFFFFFFFFFFFFFFFFFFFFFFFFFFFFFFFFFFFFL
24366662366323353613666661411633235611454516634321
FFFLLLLLLLLFFFFFFFFLLLLLLLFFFFFFFFFFFFFFFFFFFFFFFF
24236135652222454412646621522231561426113541153131
FFFFFFFFFFFFFFFFFFFFFFFFFFFFFFFFFFFFFFFFFFFFFFFFFF
51124661556431253664666216364664532364666636212432
FFFFFFLLFFFFFFFFFFFFFFFFFFFFFFFFFFFFFFFLLLFFFFFFFF
54215456666666615114462666666666666664351542354664
FFFFFFFFLLLLLLLFFFFFFLLLLLLLLLLLLLLLLFFFFFFFFFFFFF
13456261314113225361142265133221266354232313214464
FFFFFFFFFFFFFFFFFFFFFFFFFFFFFFFFFFFFFFFFFFFFFFFFFF
41411345131224551312552311235422342666666666261616
FFFFFFFFFFFFFFFFFFFFFLFFFFFFFFFFFFFLLLLLLLLLFFFFFF
56124514425112246243226326464666666666666116646662
FFFFFFFFFFFFFFFFFFFFFFFFFFFFFLLLLLLLLLLLLLLLLLLLLF
56666366666666446624152355446666666366666466666661
LLLLLLLLLLLLLLLFFFFFFFFFFFFFLLLLLLLLLLLLLLLLLLLLLL
46333154145121111616446421414166666266666663613314
FFFFFFFFFFFFFFFFFFFFFFFFFFFFFFLLLLLLLLLLLLLLLLFFFF
44352315156426564233361235363612623552666566666646
FFFFFFFFFFFFFFFFFFFFFFFFFFFLLLLLLLFFFLLFLLLLLLLLLL
66614636666543243535113135216126346616321651513466
LLLFFFFLLFFFFFFFFFFFFFFFFFFFFFFFFFLLFFFFFLFFFFFFFF
16636616666666462113326334413421366341543336125631
LLLLLLLLLLLLLLFFFFFFFFFFFFFFFFFFFLLFFFFFFFFFFFFFFF
64142612253352414535633443412122414436125623353166
FFFFFFFFFFFFFFFFFFFFFFFFFFFFFFFFFFFFFFFFFFFFFFFFFF
35536413613613134313416666631336625311311323226314
FFFFFFFFFFFFFFFFFFFFFLLLLLLFFFFFFFFFFFFFFFFFFFFFFF
22666466663666364536266366664666566665665656632144
LLLLLLLLLLLLLLFFFFLLLLLLLLLLLLLLLLLLLLLLLLLLLFFFFF
12641634666246526634436616515614416356353216443445
FFFFLLLLLLLLLLLLLLFFFFLLFFFFFFFFFFFFFFFFFFFFFFFFFF
26646641611625266665234314225362113611335156531256
FLLLLLFFFFFFFFFLLLLFFFFFFFFFFFFFFFFFFFFFFFFFFFFFLL
53622623331661311546662446615653351214565562563131
FFFFFFFFFFFFFFFFFFFLLLLLLLLFFFFFFFFFFFFFFFFFFFFFFF
15131525166131635566221536656124661552262661215316
FFFFFFFFLLLFFFFFFFFFFFFFFFFFFFFFFFFFFFFLFFFFFFFFFF
41251452343342332661612643426524633342612545451364
FFFFFFFFFFFFFFFFFFFFFFFFFFFFFFFFFFFFFFFFFFFFFFFFFF
21565421511451421424426163334215133356215216166344
FFFFFFFFFFFFFFFFFFFFFFFFFFFFFFFFFFFFFFFFFFFFFFLFFF
42153463226631666261421364642336466461342666366666
FFFFFFFFFFFFFFFFFFFFFFFFFFFFFFLLLLLLLLLFFLLLLLLLLF
23146651565553236533146635264336214666142365366354
FFFFFFFFFFFFFFFFFFFFFFFFFFFFFFFFFFFLLLFFFFFFFLLFFF
66616445322444122635626564446646461563666614666415
LLLFFFFFFFFFFFFFFFFFFFFFFFFFFFFFFFFFLLLLLLLLLLLFFF
62313425451333366664666666663665316616656666162261
FFFFFFFFFFFFFFFFLLLLLLLLLLLLLLLFFFLLLLLLLLLLLLLLLL
51465656143555453161156216666364264466666166666666
FFFFFFFFFFFFFFFFFFFFFFFFLLLLLLLLLLLLLLLLLLLLLLLLLL
66666542564221614664114636631516521443444156126433
LLLLFFFFFFFFFFFFFFFFFFFFFFFFFFFFFFFFFFFFFFFFFFLFFF
53644115233166652343113166664166666366646622666463
FFFFFFFFFFFFFFFFFFFFFFFFLLLLLLLLLLLLLLLLLLFFFFFFFF
44533121266635413361465562141626666666622166626626
FFFFFFFFFFFFFFFFFFFFFFFFFFFFFLLLLLLLLLLFFFFFFLLFFL
66632334343334542662666123516562314566662313455364
LLLFFFFFFFFFFFFLLLLLLLFFFFFFFFFFFFFFLLLLFFFFFFFFFF
62666666324666565244353331363566666623516621622351
LLLLLLLLLFFLLLFFFFFFFFFFFFFFFLLLLLLLFFFFFFFLLLFFFF
42563453554424312411525242661661236461225311134366
FFFFFFFFFFFFFFFFFFFFFFFFFFFFFLLFFFFFFFFFFFFFFFFFFF
46141341124643253623114626626115663314433611165131
FFFFFFFFFFFFFFFFFFFFFFFFFLLLLFFFFFFFFFFFFFFFFFFFFF
65264346346621336455445563413333225126266666346641
FFFFFFFFFFFFFFFFFFFFFFFFFFFFFFFFFFFFFLLLLLFFFFFFFF
66266663666666661666666666656666666656666462656166
LLLLLLLLLLLLLLLLLLLLLLLLLLLLLLLLLLLLLLLLLLLLLLLLLL
36664364636666616234142145555453251263511552666146
LLLLFLFFLLLLLLLLLFFFFFFFFFFFFFFFFFFFFFFFFFFFFLLLLL
66666366626665614452653166656666621332144421636226
LLLLLLLLLFLFFFFFFFFFFFFFLLLLLLLLLLFFFFFFFFFLLLLLLL
52231466554565246516651232561661626646266626651465
FFFFFFFFFFFFFFFFLFFLLFFFFFFFFFLLLLLLLFFLLLLLLFFFFF
14545462532336122154136613461151416464651652151541
FFFFFFFFFFFFFFFFFFFFFFFFFFFFFFFFFFFFFFFFFFFFFFFFFF
56666666166616661534422166141116666636613236336152
LLLLLLLLLLLLLLLLFFFFFFFFFFFFFFFLLLLLFLLFFFFFFFFFFF
66641211666636666166666611564261366666166315625622
LLLFFFFLLLLLLLLLLLLLLLLLFFFFFFFFFLLLLLLLLFFFFFFFFF
31543414346666562136416532532521136655332513513425
FFFFFFFFFFLLLLLFFFFFFFFFFFFFFFFFFFFFFFFFFFFFFFFFFF
42665453446666663666664656636136213561545443226344
LLFFFFFFFFLLLLLLLLLLLLLFFLLFFFFFFFFFFFFFFFFFFFFFFF
66643514236665664656624346214112254522656145132413
LLLFFFFFFFLLLLLLLLLLLFFFFFFFFFFFFFFFFFFFFFFFFFFFFF
63652636224513434654165266666635365531453326646663
FFFFFFFFFFFFFFFFFFFFFFFFLLLLLLLFFFFFFFFFFFFFFFLLLL
56162163513561661166666126425564365515561246512541
FFFFFFFFFFFFFFLLLLLLLLLLLLFFFFFFFFFFFFFFFFFFFFFFFF
22435663323154353626666636222116316633524426556642
FFFFFFFFFFFFFFFFFLLLLLLLLLLFFFFFFFFFFFFFFFFFFFFFFF
36666666265656666666666466614131116243366224244134
LLLLLLLLLLLLLLLLLLLLLLLLLLLFFFFFFFFFFFFLLFFFFFFFFF
52121311233211362623235556666162222465366316165352
FFFFFFFFFFFFFFFFFFFFFFFFFLLLLFFFFFFFFFFFFFFFFFFFFF
