,Correctness:,0.8700,0.8700,0,, ,Correctness:,0.1000,0.9000,0,, ,Correctness:,0.3700,0.6300,1,, ,Correctness:,0.1000,0.9000,0,, ,Correctness:,0.8700,0.8700,0,, 
,Correctness:,0.8800,0.8800,0,, ,Correctness:,0.1100,0.8900,0,, ,Correctness:,0.5400,0.5400,1,, ,Correctness:,0.1100,0.8900,0,, ,Correctness:,0.8800,0.8800,0,, 
,Correctness:,0.9300,0.9300,0,, ,Correctness:,0.0600,0.9400,0,, ,Correctness:,0.4500,0.5500,1,, ,Correctness:,0.0600,0.9400,0,, ,Correctness:,0.9400,0.9400,0,, 
,Correctness:,0.9200,0.9200,0,, ,Correctness:,0.0900,0.9100,0,, ,Correctness:,0.3500,0.6500,1,, ,Correctness:,0.0900,0.9100,0,, ,Correctness:,0.9200,0.9200,0,, 
,Correctness:,0.9000,0.9000,0,, ,Correctness:,0.0900,0.9100,0,, ,Correctness:,0.4100,0.5900,1,, ,Correctness:,0.0900,0.9100,0,, ,Correctness:,0.9100,0.9100,0,, 
,Correctness:,0.8500,0.8500,0,, ,Correctness:,0.1600,0.8400,0,, ,Correctness:,0.4000,0.6000,1,, ,Correctness:,0.1600,0.8400,0,, ,Correctness:,0.8500,0.8500,0,, 
,Correctness:,0.9400,0.9400,0,, ,Correctness:,0.0400,0.9600,0,, ,Correctness:,0.4900,0.5100,1,, ,Correctness:,0.0400,0.9600,0,, ,Correctness:,0.9300,0.9300,0,, 
,Correctness:,0.9700,0.9700,0,, ,Correctness:,0.0700,0.9300,0,, ,Correctness:,0.3100,0.6900,1,, ,Correctness:,0.0400,0.9600,0,, ,Correctness:,0.9400,0.9400,0,, 
,Correctness:,0.8900,0.8900,0,, ,Correctness:,0.1200,0.8800,0,, ,Correctness:,0.4200,0.5800,1,, ,Correctness:,0.1200,0.8800,0,, ,Correctness:,0.8900,0.8900,0,, 
,Correctness:,0.9400,0.9400,0,, ,Correctness:,0.0400,0.9600,0,, ,Correctness:,0.5900,0.5900,1,, ,Correctness:,0.0400,0.9600,0,, ,Correctness:,0.9400,0.9400,0,, 
,Correctness:,0.8600,0.8600,0,, ,Correctness:,0.1450,0.8550,0,, ,Correctness:,0.4800,0.5200,1,, ,Correctness:,0.1450,0.8550,0,, ,Correctness:,0.8600,0.8600,0,, 
,Correctness:,0.8800,0.8800,0,, ,Correctness:,0.1250,0.8750,0,, ,Correctness:,0.4150,0.5850,1,, ,Correctness:,0.1250,0.8750,0,, ,Correctness:,0.8800,0.8800,0,, 
,Correctness:,0.9050,0.9050,0,, ,Correctness:,0.0900,0.9100,0,, ,Correctness:,0.6000,0.6000,1,, ,Correctness:,0.0900,0.9100,0,, ,Correctness:,0.9050,0.9050,0,, 
,Correctness:,0.8450,0.8450,0,, ,Correctness:,0.1600,0.8400,0,, ,Correctness:,0.5300,0.5300,1,, ,Correctness:,0.1600,0.8400,0,, ,Correctness:,0.8450,0.8450,0,, 
,Correctness:,0.8400,0.8400,0,, ,Correctness:,0.1550,0.8450,0,, ,Correctness:,0.4800,0.5200,1,, ,Correctness:,0.1550,0.8450,0,, ,Correctness:,0.8400,0.8400,0,, 
,Correctness:,0.9450,0.9450,0,, ,Correctness:,0.0600,0.9400,0,, ,Correctness:,0.5000,0.5000,1,, ,Correctness:,0.0600,0.9400,0,, ,Correctness:,0.9450,0.9450,0,, 
,Correctness:,0.9150,0.9150,0,, ,Correctness:,0.0900,0.9100,0,, ,Correctness:,0.4800,0.5200,1,, ,Correctness:,0.0900,0.9100,0,, ,Correctness:,0.9150,0.9150,0,, 
,Correctness:,0.9100,0.9100,0,, ,Correctness:,0.0950,0.9050,0,, ,Correctness:,0.5750,0.5750,1,, ,Correctness:,0.0950,0.9050,0,, ,Correctness:,0.9100,0.9100,0,, 
,Correctness:,0.9050,0.9050,0,, ,Correctness:,0.1000,0.9000,0,, ,Correctness:,0.5550,0.5550,1,, ,Correctness:,0.1000,0.9000,0,, ,Correctness:,0.9050,0.9050,0,, 
,Correctness:,0.8450,0.8450,0,, ,Correctness:,0.1400,0.8600,0,, ,Correctness:,0.4350,0.5650,1,, ,Correctness:,0.1400,0.8600,0,, ,Correctness:,0.8450,0.8450,0,, 
,Correctness:,0.9050,0.9050,0,, ,Correctness:,0.0975,0.9025,0,, ,Correctness:,0.4425,0.5575,1,, ,Correctness:,0.0975,0.9025,0,, ,Correctness:,0.9050,0.9050,0,, 
,Correctness:,0.8950,0.8950,0,, ,Correctness:,0.1000,0.9000,0,, ,Correctness:,0.4650,0.5350,1,, ,Correctness:,0.1000,0.9000,0,, ,Correctness:,0.8950,0.8950,0,, 
,Correctness:,0.9275,0.9275,0,, ,Correctness:,0.0750,0.9250,0,, ,Correctness:,0.5375,0.5375,1,, ,Correctness:,0.0750,0.9250,0,, ,Correctness:,0.9275,0.9275,0,, 
,Correctness:,0.8975,0.8975,0,, ,Correctness:,0.1050,0.8950,0,, ,Correctness:,0.4350,0.5650,1,, ,Correctness:,0.1050,0.8950,0,, ,Correctness:,0.8975,0.8975,0,, 
,Correctness:,0.9250,0.9250,0,, ,Correctness:,0.0725,0.9275,0,, ,Correctness:,0.4600,0.5400,1,, ,Correctness:,0.0725,0.9275,0,, ,Correctness:,0.9250,0.9250,0,, 
,Correctness:,0.8925,0.8925,0,, ,Correctness:,0.1000,0.9000,0,, ,Correctness:,0.4225,0.5775,1,, ,Correctness:,0.1000,0.9000,0,, ,Correctness:,0.8925,0.8925,0,, 
,Correctness:,0.8950,0.8950,0,, ,Correctness:,0.1025,0.8975,0,, ,Correctness:,0.4775,0.5225,1,, ,Correctness:,0.1025,0.8975,0,, ,Correctness:,0.8950,0.8950,0,, 
,Correctness:,0.9125,0.9125,0,, ,Correctness:,0.0850,0.9150,0,, ,Correctness:,0.4875,0.5125,1,, ,Correctness:,0.0850,0.9150,0,, ,Correctness:,0.9125,0.9125,0,, 
,Correctness:,0.9050,0.9050,0,, ,Correctness:,0.0975,0.9025,0,, ,Correctness:,0.4325,0.5675,1,, ,Correctness:,0.0975,0.9025,0,, ,Correctness:,0.9050,0.9050,0,, 
,Correctness:,0.9350,0.9350,0,, ,Correctness:,0.0675,0.9325,0,, ,Correctness:,0.5175,0.5175,1,, ,Correctness:,0.0675,0.9325,0,, ,Correctness:,0.9350,0.9350,0,, 
,Correctness:,0.8662,0.8662,0,, ,Correctness:,0.1350,0.8650,0,, ,Correctness:,0.4075,0.5925,1,, ,Correctness:,0.1350,0.8650,0,, ,Correctness:,0.8662,0.8662,0,, 
,Correctness:,0.8975,0.8975,0,, ,Correctness:,0.1037,0.8962,0,, ,Correctness:,0.4750,0.5250,1,, ,Correctness:,0.1037,0.8962,0,, ,Correctness:,0.8962,0.8962,0,, 
,Correctness:,0.9150,0.9150,0,, ,Correctness:,0.0862,0.9138,0,, ,Correctness:,0.5200,0.5200,1,, ,Correctness:,0.0862,0.9138,0,, ,Correctness:,0.9150,0.9150,0,, 
,Correctness:,0.9187,0.9187,0,, ,Correctness:,0.0825,0.9175,0,, ,Correctness:,0.4450,0.5550,1,, ,Correctness:,0.0825,0.9175,0,, ,Correctness:,0.9187,0.9187,0,, 
,Correctness:,0.8750,0.8750,0,, ,Correctness:,0.1187,0.8812,0,, ,Correctness:,0.5700,0.5700,1,, ,Correctness:,0.1187,0.8812,0,, ,Correctness:,0.8750,0.8750,0,, 
,Correctness:,0.9437,0.9437,0,, ,Correctness:,0.0575,0.9425,0,, ,Correctness:,0.4300,0.5700,1,, ,Correctness:,0.0575,0.9425,0,, ,Correctness:,0.9437,0.9437,0,, 
,Correctness:,0.9012,0.9012,0,, ,Correctness:,0.0975,0.9025,0,, ,Correctness:,0.4875,0.5125,1,, ,Correctness:,0.0975,0.9025,0,, ,Correctness:,0.9012,0.9012,0,, 
,Correctness:,0.9225,0.9225,0,, ,Correctness:,0.0762,0.9237,0,, ,Correctness:,0.4700,0.5300,1,, ,Correctness:,0.0762,0.9237,0,, ,Correctness:,0.9225,0.9225,0,, 
,Correctness:,0.9025,0.9025,0,, ,Correctness:,0.1000,0.9000,0,, ,Correctness:,0.4825,0.5175,1,, ,Correctness:,0.1000,0.9000,0,, ,Correctness:,0.9025,0.9025,0,, 
,Correctness:,0.9350,0.9350,0,, ,Correctness:,0.0663,0.9337,0,, ,Correctness:,0.4138,0.5862,1,, ,Correctness:,0.0663,0.9337,0,, ,Correctness:,0.9350,0.9350,0,, 
,Correctness:,0.8900,0.8900,0,, ,Correctness:,0.1081,0.8919,0,, ,Correctness:,0.5262,0.5262,1,, ,Correctness:,0.1081,0.8919,0,, ,Correctness:,0.8900,0.8900,0,, 
,Correctness:,0.9256,0.9256,0,, ,Correctness:,0.0750,0.9250,0,, ,Correctness:,0.4587,0.5413,1,, ,Correctness:,0.0750,0.9250,0,, ,Correctness:,0.9256,0.9256,0,, 
,Correctness:,0.8988,0.8988,0,, ,Correctness:,0.1031,0.8969,0,, ,Correctness:,0.4575,0.5425,1,, ,Correctness:,0.1031,0.8969,0,, ,Correctness:,0.8981,0.8981,0,, 
,Correctness:,0.9131,0.9131,0,, ,Correctness:,0.0850,0.9150,0,, ,Correctness:,0.4719,0.5281,1,, ,Correctness:,0.0850,0.9150,0,, ,Correctness:,0.9131,0.9131,0,, 
,Correctness:,0.9056,0.9056,0,, ,Correctness:,0.0950,0.9050,0,, ,Correctness:,0.4856,0.5144,1,, ,Correctness:,0.0950,0.9050,0,, ,Correctness:,0.9050,0.9050,0,, 
,Correctness:,0.9050,0.9050,0,, ,Correctness:,0.0944,0.9056,0,, ,Correctness:,0.4387,0.5613,1,, ,Correctness:,0.0944,0.9056,0,, ,Correctness:,0.9050,0.9050,0,, 
,Correctness:,0.9069,0.9069,0,, ,Correctness:,0.0925,0.9075,0,, ,Correctness:,0.5238,0.5238,1,, ,Correctness:,0.0925,0.9075,0,, ,Correctness:,0.9069,0.9069,0,, 
,Correctness:,0.8925,0.8925,0,, ,Correctness:,0.1081,0.8919,0,, ,Correctness:,0.4869,0.5131,1,, ,Correctness:,0.1081,0.8919,0,, ,Correctness:,0.8925,0.8925,0,, 
,Correctness:,0.9125,0.9125,0,, ,Correctness:,0.0838,0.9163,0,, ,Correctness:,0.4531,0.5469,1,, ,Correctness:,0.0838,0.9163,0,, ,Correctness:,0.9125,0.9125,0,, 
,Correctness:,0.8912,0.8912,0,, ,Correctness:,0.1056,0.8944,0,, ,Correctness:,0.5225,0.5225,1,, ,Correctness:,0.1056,0.8944,0,, ,Correctness:,0.8912,0.8912,0,, 
Average:,0.9030,,,,, Average:,0.9037,,,,, Average:,0.5526,,,,, Average:,0.9043,,,,, Average:,0.9025,,,,, 
,Correctness:,0.0600,0.9400,0,, ,Correctness:,0.9100,0.9100,0,, ,Correctness:,0.9100,0.9100,0,, ,Correctness:,0.9100,0.9100,0,, ,Correctness:,0.9100,0.9100,0,, 
,Correctness:,0.0900,0.9100,0,, ,Correctness:,0.9000,0.9000,0,, ,Correctness:,0.9000,0.9000,0,, ,Correctness:,0.9000,0.9000,0,, ,Correctness:,0.9000,0.9000,0,, 
,Correctness:,0.0500,0.9500,0,, ,Correctness:,0.9300,0.9300,0,, ,Correctness:,0.9300,0.9300,0,, ,Correctness:,0.9400,0.9400,0,, ,Correctness:,0.9300,0.9300,0,, 
,Correctness:,0.0700,0.9300,0,, ,Correctness:,0.9400,0.9400,0,, ,Correctness:,0.9400,0.9400,0,, ,Correctness:,0.9400,0.9400,0,, ,Correctness:,0.9400,0.9400,0,, 
,Correctness:,0.1000,0.9000,0,, ,Correctness:,0.8800,0.8800,0,, ,Correctness:,0.8800,0.8800,0,, ,Correctness:,0.8900,0.8900,0,, ,Correctness:,0.8800,0.8800,0,, 
,Correctness:,0.1200,0.8800,0,, ,Correctness:,0.8900,0.8900,0,, ,Correctness:,0.8900,0.8900,0,, ,Correctness:,0.8900,0.8900,0,, ,Correctness:,0.8900,0.8900,0,, 
,Correctness:,0.0300,0.9700,0,, ,Correctness:,0.9600,0.9600,0,, ,Correctness:,0.9600,0.9600,0,, ,Correctness:,0.9500,0.9500,0,, ,Correctness:,0.9600,0.9600,0,, 
,Correctness:,0.0400,0.9600,0,, ,Correctness:,0.9700,0.9700,0,, ,Correctness:,0.9700,0.9700,0,, ,Correctness:,0.9700,0.9700,0,, ,Correctness:,0.9700,0.9700,0,, 
,Correctness:,0.1000,0.9000,0,, ,Correctness:,0.9100,0.9100,0,, ,Correctness:,0.9100,0.9100,0,, ,Correctness:,0.9100,0.9100,0,, ,Correctness:,0.9100,0.9100,0,, 
,Correctness:,0.0400,0.9600,0,, ,Correctness:,0.9400,0.9400,0,, ,Correctness:,0.9400,0.9400,0,, ,Correctness:,0.9400,0.9400,0,, ,Correctness:,0.9400,0.9400,0,, 
,Correctness:,0.1150,0.8850,0,, ,Correctness:,0.8900,0.8900,0,, ,Correctness:,0.8900,0.8900,0,, ,Correctness:,0.8900,0.8900,0,, ,Correctness:,0.8900,0.8900,0,, 
,Correctness:,0.1050,0.8950,0,, ,Correctness:,0.9000,0.9000,0,, ,Correctness:,0.9000,0.9000,0,, ,Correctness:,0.9000,0.9000,0,, ,Correctness:,0.9000,0.9000,0,, 
,Correctness:,0.1000,0.9000,0,, ,Correctness:,0.8950,0.8950,0,, ,Correctness:,0.8950,0.8950,0,, ,Correctness:,0.8950,0.8950,0,, ,Correctness:,0.8950,0.8950,0,, 
,Correctness:,0.1400,0.8600,0,, ,Correctness:,0.8650,0.8650,0,, ,Correctness:,0.8650,0.8650,0,, ,Correctness:,0.8850,0.8850,0,, ,Correctness:,0.8650,0.8650,0,, 
,Correctness:,0.1650,0.8350,0,, ,Correctness:,0.8300,0.8300,0,, ,Correctness:,0.8300,0.8300,0,, ,Correctness:,0.8400,0.8400,0,, ,Correctness:,0.8300,0.8300,0,, 
,Correctness:,0.0400,0.9600,0,, ,Correctness:,0.9650,0.9650,0,, ,Correctness:,0.9650,0.9650,0,, ,Correctness:,0.9650,0.9650,0,, ,Correctness:,0.9650,0.9650,0,, 
,Correctness:,0.0700,0.9300,0,, ,Correctness:,0.9350,0.9350,0,, ,Correctness:,0.9350,0.9350,0,, ,Correctness:,0.9350,0.9350,0,, ,Correctness:,0.9350,0.9350,0,, 
,Correctness:,0.0950,0.9050,0,, ,Correctness:,0.9100,0.9100,0,, ,Correctness:,0.9100,0.9100,0,, ,Correctness:,0.9100,0.9100,0,, ,Correctness:,0.9100,0.9100,0,, 
,Correctness:,0.1000,0.9000,0,, ,Correctness:,0.9050,0.9050,0,, ,Correctness:,0.9050,0.9050,0,, ,Correctness:,0.9050,0.9050,0,, ,Correctness:,0.9050,0.9050,0,, 
,Correctness:,0.1400,0.8600,0,, ,Correctness:,0.8450,0.8450,0,, ,Correctness:,0.8450,0.8450,0,, ,Correctness:,0.8450,0.8450,0,, ,Correctness:,0.8450,0.8450,0,, 
,Correctness:,0.0875,0.9125,0,, ,Correctness:,0.9150,0.9150,0,, ,Correctness:,0.9150,0.9150,0,, ,Correctness:,0.9250,0.9250,0,, ,Correctness:,0.9150,0.9150,0,, 
,Correctness:,0.0850,0.9150,0,, ,Correctness:,0.9100,0.9100,0,, ,Correctness:,0.9100,0.9100,0,, ,Correctness:,0.9100,0.9100,0,, ,Correctness:,0.9100,0.9100,0,, 
,Correctness:,0.0650,0.9350,0,, ,Correctness:,0.9375,0.9375,0,, ,Correctness:,0.9375,0.9375,0,, ,Correctness:,0.9375,0.9375,0,, ,Correctness:,0.9375,0.9375,0,, 
,Correctness:,0.1000,0.9000,0,, ,Correctness:,0.9025,0.9025,0,, ,Correctness:,0.9025,0.9025,0,, ,Correctness:,0.9025,0.9025,0,, ,Correctness:,0.9025,0.9025,0,, 
,Correctness:,0.0625,0.9375,0,, ,Correctness:,0.9350,0.9350,0,, ,Correctness:,0.9350,0.9350,0,, ,Correctness:,0.9400,0.9400,0,, ,Correctness:,0.9350,0.9350,0,, 
,Correctness:,0.1000,0.9000,0,, ,Correctness:,0.8925,0.8925,0,, ,Correctness:,0.8925,0.8925,0,, ,Correctness:,0.9075,0.9075,0,, ,Correctness:,0.8925,0.8925,0,, 
,Correctness:,0.1025,0.8975,0,, ,Correctness:,0.8950,0.8950,0,, ,Correctness:,0.8950,0.8950,0,, ,Correctness:,0.8975,0.8975,0,, ,Correctness:,0.8950,0.8950,0,, 
,Correctness:,0.0750,0.9250,0,, ,Correctness:,0.9225,0.9225,0,, ,Correctness:,0.9225,0.9225,0,, ,Correctness:,0.9325,0.9325,0,, ,Correctness:,0.9225,0.9225,0,, 
,Correctness:,0.0875,0.9125,0,, ,Correctness:,0.9150,0.9150,0,, ,Correctness:,0.9150,0.9150,0,, ,Correctness:,0.9150,0.9150,0,, ,Correctness:,0.9150,0.9150,0,, 
,Correctness:,0.0675,0.9325,0,, ,Correctness:,0.9350,0.9350,0,, ,Correctness:,0.9350,0.9350,0,, ,Correctness:,0.9300,0.9300,0,, ,Correctness:,0.9350,0.9350,0,, 
,Correctness:,0.1225,0.8775,0,, ,Correctness:,0.8788,0.8788,0,, ,Correctness:,0.8788,0.8788,0,, ,Correctness:,0.8888,0.8888,0,, ,Correctness:,0.8788,0.8788,0,, 
,Correctness:,0.1050,0.8950,0,, ,Correctness:,0.8975,0.8975,0,, ,Correctness:,0.8975,0.8975,0,, ,Correctness:,0.9025,0.9025,0,, ,Correctness:,0.8975,0.8975,0,, 
,Correctness:,0.0838,0.9163,0,, ,Correctness:,0.9175,0.9175,0,, ,Correctness:,0.9175,0.9175,0,, ,Correctness:,0.9225,0.9225,0,, ,Correctness:,0.9175,0.9175,0,, 
,Correctness:,0.0775,0.9225,0,, ,Correctness:,0.9237,0.9237,0,, ,Correctness:,0.9237,0.9237,0,, ,Correctness:,0.9287,0.9287,0,, ,Correctness:,0.9237,0.9237,0,, 
,Correctness:,0.1037,0.8962,0,, ,Correctness:,0.8900,0.8900,0,, ,Correctness:,0.8900,0.8900,0,, ,Correctness:,0.8900,0.8900,0,, ,Correctness:,0.8900,0.8900,0,, 
,Correctness:,0.0475,0.9525,0,, ,Correctness:,0.9537,0.9537,0,, ,Correctness:,0.9537,0.9537,0,, ,Correctness:,0.9537,0.9537,0,, ,Correctness:,0.9537,0.9537,0,, 
,Correctness:,0.0925,0.9075,0,, ,Correctness:,0.9062,0.9062,0,, ,Correctness:,0.9062,0.9062,0,, ,Correctness:,0.9062,0.9062,0,, ,Correctness:,0.9062,0.9062,0,, 
,Correctness:,0.0612,0.9387,0,, ,Correctness:,0.9375,0.9375,0,, ,Correctness:,0.9375,0.9375,0,, ,Correctness:,0.9325,0.9325,0,, ,Correctness:,0.9375,0.9375,0,, 
,Correctness:,0.1037,0.8962,0,, ,Correctness:,0.9000,0.9000,0,, ,Correctness:,0.9000,0.9000,0,, ,Correctness:,0.8950,0.8950,0,, ,Correctness:,0.9000,0.9000,0,, 
,Correctness:,0.0587,0.9413,0,, ,Correctness:,0.9425,0.9425,0,, ,Correctness:,0.9425,0.9425,0,, ,Correctness:,0.9525,0.9525,0,, ,Correctness:,0.9425,0.9425,0,, 
,Correctness:,0.1087,0.8912,0,, ,Correctness:,0.8938,0.8938,0,, ,Correctness:,0.8938,0.8938,0,, ,Correctness:,0.9012,0.9012,0,, ,Correctness:,0.8938,0.8938,0,, 
,Correctness:,0.0663,0.9337,0,, ,Correctness:,0.9344,0.9344,0,, ,Correctness:,0.9344,0.9344,0,, ,Correctness:,0.9369,0.9369,0,, ,Correctness:,0.9344,0.9344,0,, 
,Correctness:,0.0813,0.9187,0,, ,Correctness:,0.9213,0.9213,0,, ,Correctness:,0.9213,0.9213,0,, ,Correctness:,0.9281,0.9281,0,, ,Correctness:,0.9213,0.9213,0,, 
,Correctness:,0.0737,0.9263,0,, ,Correctness:,0.9244,0.9244,0,, ,Correctness:,0.9244,0.9244,0,, ,Correctness:,0.9294,0.9294,0,, ,Correctness:,0.9244,0.9244,0,, 
,Correctness:,0.0869,0.9131,0,, ,Correctness:,0.9144,0.9144,0,, ,Correctness:,0.9144,0.9144,0,, ,Correctness:,0.9150,0.9150,0,, ,Correctness:,0.9144,0.9144,0,, 
,Correctness:,0.0844,0.9156,0,, ,Correctness:,0.9150,0.9150,0,, ,Correctness:,0.9150,0.9150,0,, ,Correctness:,0.9163,0.9163,0,, ,Correctness:,0.9150,0.9150,0,, 
,Correctness:,0.0875,0.9125,0,, ,Correctness:,0.9119,0.9119,0,, ,Correctness:,0.9119,0.9119,0,, ,Correctness:,0.9144,0.9144,0,, ,Correctness:,0.9119,0.9119,0,, 
,Correctness:,0.1081,0.8919,0,, ,Correctness:,0.8925,0.8925,0,, ,Correctness:,0.8925,0.8925,0,, ,Correctness:,0.8912,0.8912,0,, ,Correctness:,0.8925,0.8925,0,, 
,Correctness:,0.0719,0.9281,0,, ,Correctness:,0.9287,0.9287,0,, ,Correctness:,0.9287,0.9287,0,, ,Correctness:,0.9313,0.9313,0,, ,Correctness:,0.9287,0.9287,0,, 
,Correctness:,0.0956,0.9044,0,, ,Correctness:,0.9012,0.9012,0,, ,Correctness:,0.9012,0.9012,0,, ,Correctness:,0.9062,0.9062,0,, ,Correctness:,0.9012,0.9012,0,, 
Average:,0.9135,,,,, Average:,0.9123,,,,, Average:,0.9123,,,,, Average:,0.9150,,,,, Average:,0.9123,,,,, 
,Correctness:,0.8000,0.8000,1,, ,Correctness:,0.9100,0.9100,0,, ,Correctness:,0.9100,0.9100,0,, ,Correctness:,0.9100,0.9100,0,, ,Correctness:,0.5700,0.5700,1,, 
,Correctness:,0.6000,0.6000,1,, ,Correctness:,0.9000,0.9000,0,, ,Correctness:,0.9000,0.9000,0,, ,Correctness:,0.9000,0.9000,0,, ,Correctness:,0.5800,0.5800,1,, 
,Correctness:,0.6700,0.6700,1,, ,Correctness:,0.9400,0.9400,0,, ,Correctness:,0.9400,0.9400,0,, ,Correctness:,0.9300,0.9300,0,, ,Correctness:,0.5800,0.5800,1,, 
,Correctness:,0.8100,0.8100,1,, ,Correctness:,0.9400,0.9400,0,, ,Correctness:,0.9400,0.9400,0,, ,Correctness:,0.9400,0.9400,0,, ,Correctness:,0.5900,0.5900,1,, 
,Correctness:,0.8200,0.8200,1,, ,Correctness:,0.8800,0.8800,0,, ,Correctness:,0.8900,0.8900,0,, ,Correctness:,0.8800,0.8800,0,, ,Correctness:,0.6200,0.6200,1,, 
,Correctness:,0.7500,0.7500,1,, ,Correctness:,0.8900,0.8900,0,, ,Correctness:,0.8900,0.8900,0,, ,Correctness:,0.8900,0.8900,0,, ,Correctness:,0.6000,0.6000,1,, 
,Correctness:,0.6100,0.6100,1,, ,Correctness:,0.9600,0.9600,0,, ,Correctness:,0.9500,0.9500,0,, ,Correctness:,0.9600,0.9600,0,, ,Correctness:,0.5500,0.5500,1,, 
,Correctness:,0.8800,0.8800,1,, ,Correctness:,0.9700,0.9700,0,, ,Correctness:,0.9700,0.9700,0,, ,Correctness:,0.9700,0.9700,0,, ,Correctness:,0.5700,0.5700,1,, 
,Correctness:,0.7600,0.7600,1,, ,Correctness:,0.9100,0.9100,0,, ,Correctness:,0.9100,0.9100,0,, ,Correctness:,0.9100,0.9100,0,, ,Correctness:,0.6100,0.6100,1,, 
,Correctness:,0.5000,0.5000,1,, ,Correctness:,0.9400,0.9400,0,, ,Correctness:,0.9400,0.9400,0,, ,Correctness:,0.9400,0.9400,0,, ,Correctness:,0.5200,0.5200,1,, 
,Correctness:,0.6350,0.6350,1,, ,Correctness:,0.8900,0.8900,0,, ,Correctness:,0.8900,0.8900,0,, ,Correctness:,0.8900,0.8900,0,, ,Correctness:,0.5800,0.5800,1,, 
,Correctness:,0.7550,0.7550,1,, ,Correctness:,0.9000,0.9000,0,, ,Correctness:,0.9000,0.9000,0,, ,Correctness:,0.9000,0.9000,0,, ,Correctness:,0.5900,0.5900,1,, 
,Correctness:,0.5050,0.5050,1,, ,Correctness:,0.8950,0.8950,0,, ,Correctness:,0.8950,0.8950,0,, ,Correctness:,0.8950,0.8950,0,, ,Correctness:,0.5400,0.5400,1,, 
,Correctness:,0.5900,0.5900,1,, ,Correctness:,0.8650,0.8650,0,, ,Correctness:,0.8650,0.8650,0,, ,Correctness:,0.8850,0.8850,0,, ,Correctness:,0.5550,0.5550,1,, 
,Correctness:,0.7250,0.7250,1,, ,Correctness:,0.8300,0.8300,0,, ,Correctness:,0.8300,0.8300,0,, ,Correctness:,0.8600,0.8600,0,, ,Correctness:,0.6000,0.6000,1,, 
,Correctness:,0.6300,0.6300,1,, ,Correctness:,0.9650,0.9650,0,, ,Correctness:,0.9650,0.9650,0,, ,Correctness:,0.9650,0.9650,0,, ,Correctness:,0.5600,0.5600,1,, 
,Correctness:,0.6400,0.6400,1,, ,Correctness:,0.9550,0.9550,0,, ,Correctness:,0.9350,0.9350,0,, ,Correctness:,0.9550,0.9550,0,, ,Correctness:,0.5750,0.5750,1,, 
,Correctness:,0.5150,0.5150,1,, ,Correctness:,0.9100,0.9100,0,, ,Correctness:,0.9100,0.9100,0,, ,Correctness:,0.9100,0.9100,0,, ,Correctness:,0.5500,0.5500,1,, 
,Correctness:,0.5650,0.5650,1,, ,Correctness:,0.9050,0.9050,0,, ,Correctness:,0.9050,0.9050,0,, ,Correctness:,0.9050,0.9050,0,, ,Correctness:,0.5450,0.5450,1,, 
,Correctness:,0.6400,0.6400,1,, ,Correctness:,0.8450,0.8450,0,, ,Correctness:,0.8450,0.8450,0,, ,Correctness:,0.8450,0.8450,0,, ,Correctness:,0.5550,0.5550,1,, 
,Correctness:,0.7025,0.7025,1,, ,Correctness:,0.9150,0.9150,0,, ,Correctness:,0.9150,0.9150,0,, ,Correctness:,0.9250,0.9250,0,, ,Correctness:,0.5725,0.5725,1,, 
,Correctness:,0.6750,0.6750,1,, ,Correctness:,0.9000,0.9000,0,, ,Correctness:,0.9100,0.9100,0,, ,Correctness:,0.9000,0.9000,0,, ,Correctness:,0.5675,0.5675,1,, 
,Correctness:,0.5725,0.5725,1,, ,Correctness:,0.9375,0.9375,0,, ,Correctness:,0.9375,0.9375,0,, ,Correctness:,0.9275,0.9275,0,, ,Correctness:,0.5600,0.5600,1,, 
,Correctness:,0.7075,0.7075,1,, ,Correctness:,0.9025,0.9025,0,, ,Correctness:,0.9025,0.9025,0,, ,Correctness:,0.9025,0.9025,0,, ,Correctness:,0.5700,0.5700,1,, 
,Correctness:,0.6975,0.6975,1,, ,Correctness:,0.9350,0.9350,0,, ,Correctness:,0.9350,0.9350,0,, ,Correctness:,0.9400,0.9400,0,, ,Correctness:,0.5775,0.5775,1,, 
,Correctness:,0.7400,0.7400,1,, ,Correctness:,0.8925,0.8925,0,, ,Correctness:,0.8925,0.8925,0,, ,Correctness:,0.9175,0.9175,0,, ,Correctness:,0.5875,0.5875,1,, 
,Correctness:,0.6675,0.6675,1,, ,Correctness:,0.8950,0.8950,0,, ,Correctness:,0.8950,0.8950,0,, ,Correctness:,0.8975,0.8975,0,, ,Correctness:,0.5700,0.5700,1,, 
,Correctness:,0.6600,0.6600,1,, ,Correctness:,0.9225,0.9225,0,, ,Correctness:,0.9050,0.9050,0,, ,Correctness:,0.9250,0.9250,0,, ,Correctness:,0.5625,0.5625,1,, 
,Correctness:,0.7525,0.7525,1,, ,Correctness:,0.9150,0.9150,0,, ,Correctness:,0.9150,0.9150,0,, ,Correctness:,0.9150,0.9150,0,, ,Correctness:,0.5575,0.5575,1,, 
,Correctness:,0.6050,0.6050,1,, ,Correctness:,0.9350,0.9350,0,, ,Correctness:,0.9350,0.9350,0,, ,Correctness:,0.9300,0.9300,0,, ,Correctness:,0.5675,0.5675,1,, 
,Correctness:,0.7462,0.7462,1,, ,Correctness:,0.8838,0.8838,0,, ,Correctness:,0.8788,0.8788,0,, ,Correctness:,0.8938,0.8938,0,, ,Correctness:,0.5787,0.5787,1,, 
,Correctness:,0.6687,0.6687,1,, ,Correctness:,0.8962,0.8962,0,, ,Correctness:,0.8975,0.8975,0,, ,Correctness:,0.9075,0.9075,0,, ,Correctness:,0.5763,0.5763,1,, 
,Correctness:,0.5825,0.5825,1,, ,Correctness:,0.9175,0.9175,0,, ,Correctness:,0.9175,0.9175,0,, ,Correctness:,0.9225,0.9225,0,, ,Correctness:,0.5450,0.5450,1,, 
,Correctness:,0.7300,0.7300,1,, ,Correctness:,0.9237,0.9237,0,, ,Correctness:,0.9237,0.9237,0,, ,Correctness:,0.9287,0.9287,0,, ,Correctness:,0.5725,0.5725,1,, 
,Correctness:,0.5475,0.5475,1,, ,Correctness:,0.8900,0.8900,0,, ,Correctness:,0.8900,0.8900,0,, ,Correctness:,0.9025,0.9025,0,, ,Correctness:,0.5487,0.5487,1,, 
,Correctness:,0.7588,0.7588,1,, ,Correctness:,0.9587,0.9587,0,, ,Correctness:,0.9537,0.9537,0,, ,Correctness:,0.9587,0.9587,0,, ,Correctness:,0.6038,0.6038,1,, 
,Correctness:,0.6725,0.6725,1,, ,Correctness:,0.9062,0.9062,0,, ,Correctness:,0.9062,0.9062,0,, ,Correctness:,0.9012,0.9012,0,, ,Correctness:,0.5525,0.5525,1,, 
,Correctness:,0.6825,0.6825,1,, ,Correctness:,0.9375,0.9375,0,, ,Correctness:,0.9375,0.9375,0,, ,Correctness:,0.9325,0.9325,0,, ,Correctness:,0.5650,0.5650,1,, 
,Correctness:,0.6587,0.6587,1,, ,Correctness:,0.9000,0.9000,0,, ,Correctness:,0.9000,0.9000,0,, ,Correctness:,0.8925,0.8925,0,, ,Correctness:,0.5587,0.5587,1,, 
,Correctness:,0.7712,0.7712,1,, ,Correctness:,0.9425,0.9425,0,, ,Correctness:,0.9425,0.9425,0,, ,Correctness:,0.9525,0.9525,0,, ,Correctness:,0.5887,0.5887,1,, 
,Correctness:,0.5863,0.5863,1,, ,Correctness:,0.8938,0.8938,0,, ,Correctness:,0.8938,0.8938,0,, ,Correctness:,0.9012,0.9012,0,, ,Correctness:,0.5425,0.5425,1,, 
,Correctness:,0.7037,0.7037,1,, ,Correctness:,0.9344,0.9344,0,, ,Correctness:,0.9344,0.9344,0,, ,Correctness:,0.9369,0.9369,0,, ,Correctness:,0.5781,0.5781,1,, 
,Correctness:,0.6775,0.6775,1,, ,Correctness:,0.9231,0.9231,0,, ,Correctness:,0.9206,0.9206,0,, ,Correctness:,0.9337,0.9337,0,, ,Correctness:,0.5700,0.5700,1,, 
,Correctness:,0.6606,0.6606,1,, ,Correctness:,0.9219,0.9219,0,, ,Correctness:,0.9244,0.9244,0,, ,Correctness:,0.9294,0.9294,0,, ,Correctness:,0.5613,0.5613,1,, 
,Correctness:,0.6681,0.6681,1,, ,Correctness:,0.9137,0.9137,0,, ,Correctness:,0.9144,0.9144,0,, ,Correctness:,0.9156,0.9156,0,, ,Correctness:,0.5644,0.5644,1,, 
,Correctness:,0.7356,0.7356,1,, ,Correctness:,0.9150,0.9150,0,, ,Correctness:,0.9150,0.9150,0,, ,Correctness:,0.9187,0.9187,0,, ,Correctness:,0.5737,0.5737,1,, 
,Correctness:,0.6100,0.6100,1,, ,Correctness:,0.9131,0.9131,0,, ,Correctness:,0.9119,0.9119,0,, ,Correctness:,0.9156,0.9156,0,, ,Correctness:,0.5581,0.5581,1,, 
,Correctness:,0.6375,0.6375,1,, ,Correctness:,0.8938,0.8938,0,, ,Correctness:,0.8925,0.8925,0,, ,Correctness:,0.8925,0.8925,0,, ,Correctness:,0.5619,0.5619,1,, 
,Correctness:,0.6950,0.6950,1,, ,Correctness:,0.9300,0.9300,0,, ,Correctness:,0.9287,0.9287,0,, ,Correctness:,0.9325,0.9325,0,, ,Correctness:,0.5725,0.5725,1,, 
,Correctness:,0.6100,0.6100,1,, ,Correctness:,0.9025,0.9025,0,, ,Correctness:,0.9012,0.9012,0,, ,Correctness:,0.9100,0.9100,0,, ,Correctness:,0.5606,0.5606,1,, 
Average:,0.6717,,,,, Average:,0.9129,,,,, Average:,0.9121,,,,, Average:,0.9160,,,,, Average:,0.5693,,,,, 
,Correctness:,0.4900,0.5100,1,, ,Correctness:,0.0600,0.9400,0,, ,Correctness:,0.9100,0.9100,0,, ,Correctness:,0.1000,0.9000,0,, ,Correctness:,0.9100,0.9100,0,, 
,Correctness:,0.5000,0.5000,1,, ,Correctness:,0.0900,0.9100,0,, ,Correctness:,0.9000,0.9000,0,, ,Correctness:,0.1100,0.8900,0,, ,Correctness:,0.9000,0.9000,0,, 
,Correctness:,0.4900,0.5100,1,, ,Correctness:,0.0600,0.9400,0,, ,Correctness:,0.9300,0.9300,0,, ,Correctness:,0.0500,0.9500,0,, ,Correctness:,0.9100,0.9100,0,, 
,Correctness:,0.4800,0.5200,1,, ,Correctness:,0.0700,0.9300,0,, ,Correctness:,0.9400,0.9400,0,, ,Correctness:,0.0900,0.9100,0,, ,Correctness:,0.9400,0.9400,0,, 
,Correctness:,0.4900,0.5100,1,, ,Correctness:,0.1100,0.8900,0,, ,Correctness:,0.8800,0.8800,0,, ,Correctness:,0.0800,0.9200,0,, ,Correctness:,0.8900,0.8900,0,, 
,Correctness:,0.5200,0.5200,1,, ,Correctness:,0.1200,0.8800,0,, ,Correctness:,0.8900,0.8900,0,, ,Correctness:,0.1600,0.8400,0,, ,Correctness:,0.9300,0.9300,0,, 
,Correctness:,0.4800,0.5200,1,, ,Correctness:,0.0200,0.9800,0,, ,Correctness:,0.9600,0.9600,0,, ,Correctness:,0.0500,0.9500,0,, ,Correctness:,0.9500,0.9500,0,, 
,Correctness:,0.4900,0.5100,1,, ,Correctness:,0.0400,0.9600,0,, ,Correctness:,0.9700,0.9700,0,, ,Correctness:,0.0700,0.9300,0,, ,Correctness:,0.9700,0.9700,0,, 
,Correctness:,0.5200,0.5200,1,, ,Correctness:,0.1000,0.9000,0,, ,Correctness:,0.9100,0.9100,0,, ,Correctness:,0.1200,0.8800,0,, ,Correctness:,0.9100,0.9100,0,, 
,Correctness:,0.4800,0.5200,1,, ,Correctness:,0.0400,0.9600,0,, ,Correctness:,0.9400,0.9400,0,, ,Correctness:,0.0400,0.9600,0,, ,Correctness:,0.9400,0.9400,0,, 
,Correctness:,0.4950,0.5050,1,, ,Correctness:,0.1150,0.8850,0,, ,Correctness:,0.8900,0.8900,0,, ,Correctness:,0.1450,0.8550,0,, ,Correctness:,0.8900,0.8900,0,, 
,Correctness:,0.5050,0.5050,1,, ,Correctness:,0.1050,0.8950,0,, ,Correctness:,0.9000,0.9000,0,, ,Correctness:,0.1250,0.8750,0,, ,Correctness:,0.9150,0.9150,0,, 
,Correctness:,0.4950,0.5050,1,, ,Correctness:,0.1000,0.9000,0,, ,Correctness:,0.8950,0.8950,0,, ,Correctness:,0.0900,0.9100,0,, ,Correctness:,0.8800,0.8800,0,, 
,Correctness:,0.4900,0.5100,1,, ,Correctness:,0.1400,0.8600,0,, ,Correctness:,0.8850,0.8850,0,, ,Correctness:,0.1600,0.8400,0,, ,Correctness:,0.8850,0.8850,0,, 
,Correctness:,0.5050,0.5050,1,, ,Correctness:,0.1650,0.8350,0,, ,Correctness:,0.8600,0.8600,0,, ,Correctness:,0.1550,0.8450,0,, ,Correctness:,0.8600,0.8600,0,, 
,Correctness:,0.4900,0.5100,1,, ,Correctness:,0.0400,0.9600,0,, ,Correctness:,0.9650,0.9650,0,, ,Correctness:,0.0600,0.9400,0,, ,Correctness:,0.9650,0.9650,0,, 
,Correctness:,0.4850,0.5150,1,, ,Correctness:,0.0700,0.9300,0,, ,Correctness:,0.9550,0.9550,0,, ,Correctness:,0.0900,0.9100,0,, ,Correctness:,0.9450,0.9450,0,, 
,Correctness:,0.4950,0.5050,1,, ,Correctness:,0.0950,0.9050,0,, ,Correctness:,0.9100,0.9100,0,, ,Correctness:,0.0950,0.9050,0,, ,Correctness:,0.9100,0.9100,0,, 
,Correctness:,0.5050,0.5050,1,, ,Correctness:,0.1000,0.9000,0,, ,Correctness:,0.9050,0.9050,0,, ,Correctness:,0.1000,0.9000,0,, ,Correctness:,0.9050,0.9050,0,, 
,Correctness:,0.4800,0.5200,1,, ,Correctness:,0.1400,0.8600,0,, ,Correctness:,0.8450,0.8450,0,, ,Correctness:,0.1400,0.8600,0,, ,Correctness:,0.8100,0.8100,0,, 
,Correctness:,0.4825,0.5175,1,, ,Correctness:,0.0875,0.9125,0,, ,Correctness:,0.9250,0.9250,0,, ,Correctness:,0.0975,0.9025,0,, ,Correctness:,0.9250,0.9250,0,, 
,Correctness:,0.4850,0.5150,1,, ,Correctness:,0.0850,0.9150,0,, ,Correctness:,0.9000,0.9000,0,, ,Correctness:,0.1000,0.9000,0,, ,Correctness:,0.9000,0.9000,0,, 
,Correctness:,0.4950,0.5050,1,, ,Correctness:,0.0650,0.9350,0,, ,Correctness:,0.9275,0.9275,0,, ,Correctness:,0.0750,0.9250,0,, ,Correctness:,0.9375,0.9375,0,, 
,Correctness:,0.4825,0.5175,1,, ,Correctness:,0.1000,0.9000,0,, ,Correctness:,0.9025,0.9025,0,, ,Correctness:,0.1050,0.8950,0,, ,Correctness:,0.9025,0.9025,0,, 
,Correctness:,0.5025,0.5025,1,, ,Correctness:,0.0625,0.9375,0,, ,Correctness:,0.9350,0.9350,0,, ,Correctness:,0.0725,0.9275,0,, ,Correctness:,0.9500,0.9500,0,, 
,Correctness:,0.4850,0.5150,1,, ,Correctness:,0.1000,0.9000,0,, ,Correctness:,0.9175,0.9175,0,, ,Correctness:,0.1000,0.9000,0,, ,Correctness:,0.9175,0.9175,0,, 
,Correctness:,0.5100,0.5100,1,, ,Correctness:,0.1025,0.8975,0,, ,Correctness:,0.8975,0.8975,0,, ,Correctness:,0.1025,0.8975,0,, ,Correctness:,0.8875,0.8875,0,, 
,Correctness:,0.4825,0.5175,1,, ,Correctness:,0.0925,0.9075,0,, ,Correctness:,0.9250,0.9250,0,, ,Correctness:,0.0850,0.9150,0,, ,Correctness:,0.9175,0.9175,0,, 
,Correctness:,0.4875,0.5125,1,, ,Correctness:,0.0875,0.9125,0,, ,Correctness:,0.9150,0.9150,0,, ,Correctness:,0.0975,0.9025,0,, ,Correctness:,0.9150,0.9150,0,, 
,Correctness:,0.5000,0.5000,1,, ,Correctness:,0.0675,0.9325,0,, ,Correctness:,0.9300,0.9300,0,, ,Correctness:,0.0675,0.9325,0,, ,Correctness:,0.9300,0.9300,0,, 
,Correctness:,0.4988,0.5012,1,, ,Correctness:,0.1225,0.8775,0,, ,Correctness:,0.8888,0.8888,0,, ,Correctness:,0.1350,0.8650,0,, ,Correctness:,0.8900,0.8900,0,, 
,Correctness:,0.5050,0.5050,1,, ,Correctness:,0.1037,0.8962,0,, ,Correctness:,0.9025,0.9025,0,, ,Correctness:,0.1050,0.8950,0,, ,Correctness:,0.9062,0.9062,0,, 
,Correctness:,0.4938,0.5062,1,, ,Correctness:,0.0838,0.9163,0,, ,Correctness:,0.9175,0.9175,0,, ,Correctness:,0.0862,0.9138,0,, ,Correctness:,0.9175,0.9175,0,, 
,Correctness:,0.4963,0.5037,1,, ,Correctness:,0.0775,0.9225,0,, ,Correctness:,0.9287,0.9287,0,, ,Correctness:,0.0825,0.9175,0,, ,Correctness:,0.9337,0.9337,0,, 
,Correctness:,0.5125,0.5125,1,, ,Correctness:,0.1037,0.8962,0,, ,Correctness:,0.9025,0.9025,0,, ,Correctness:,0.1187,0.8812,0,, ,Correctness:,0.8912,0.8912,0,, 
,Correctness:,0.5012,0.5012,1,, ,Correctness:,0.0475,0.9525,0,, ,Correctness:,0.9587,0.9587,0,, ,Correctness:,0.0575,0.9425,0,, ,Correctness:,0.9587,0.9587,0,, 
,Correctness:,0.4863,0.5137,1,, ,Correctness:,0.0925,0.9075,0,, ,Correctness:,0.9012,0.9012,0,, ,Correctness:,0.0975,0.9025,0,, ,Correctness:,0.9050,0.9050,0,, 
,Correctness:,0.4975,0.5025,1,, ,Correctness:,0.0612,0.9387,0,, ,Correctness:,0.9325,0.9325,0,, ,Correctness:,0.0762,0.9237,0,, ,Correctness:,0.9387,0.9387,0,, 
,Correctness:,0.4913,0.5088,1,, ,Correctness:,0.1025,0.8975,0,, ,Correctness:,0.8962,0.8962,0,, ,Correctness:,0.1000,0.9000,0,, ,Correctness:,0.8912,0.8912,0,, 
,Correctness:,0.4863,0.5137,1,, ,Correctness:,0.0587,0.9413,0,, ,Correctness:,0.9525,0.9525,0,, ,Correctness:,0.0663,0.9337,0,, ,Correctness:,0.9525,0.9525,0,, 
,Correctness:,0.4894,0.5106,1,, ,Correctness:,0.1044,0.8956,0,, ,Correctness:,0.8919,0.8919,0,, ,Correctness:,0.1081,0.8919,0,, ,Correctness:,0.8988,0.8988,0,, 
,Correctness:,0.4950,0.5050,1,, ,Correctness:,0.0663,0.9337,0,, ,Correctness:,0.9344,0.9344,0,, ,Correctness:,0.0750,0.9250,0,, ,Correctness:,0.9369,0.9369,0,, 
,Correctness:,0.4931,0.5069,1,, ,Correctness:,0.0806,0.9194,0,, ,Correctness:,0.9287,0.9287,0,, ,Correctness:,0.1037,0.8962,0,, ,Correctness:,0.9356,0.9356,0,, 
,Correctness:,0.4944,0.5056,1,, ,Correctness:,0.0737,0.9263,0,, ,Correctness:,0.9244,0.9244,0,, ,Correctness:,0.0850,0.9150,0,, ,Correctness:,0.9294,0.9294,0,, 
,Correctness:,0.4925,0.5075,1,, ,Correctness:,0.0862,0.9138,0,, ,Correctness:,0.9156,0.9156,0,, ,Correctness:,0.0950,0.9050,0,, ,Correctness:,0.9150,0.9150,0,, 
,Correctness:,0.4913,0.5088,1,, ,Correctness:,0.0844,0.9156,0,, ,Correctness:,0.9187,0.9187,0,, ,Correctness:,0.0944,0.9056,0,, ,Correctness:,0.9250,0.9250,0,, 
,Correctness:,0.5025,0.5025,1,, ,Correctness:,0.0875,0.9125,0,, ,Correctness:,0.9131,0.9131,0,, ,Correctness:,0.0925,0.9075,0,, ,Correctness:,0.9150,0.9150,0,, 
,Correctness:,0.4950,0.5050,1,, ,Correctness:,0.1081,0.8919,0,, ,Correctness:,0.8950,0.8950,0,, ,Correctness:,0.1081,0.8919,0,, ,Correctness:,0.8919,0.8919,0,, 
,Correctness:,0.4981,0.5019,1,, ,Correctness:,0.0675,0.9325,0,, ,Correctness:,0.9325,0.9325,0,, ,Correctness:,0.0838,0.9163,0,, ,Correctness:,0.9225,0.9225,0,, 
,Correctness:,0.5000,0.5000,1,, ,Correctness:,0.0956,0.9044,0,, ,Correctness:,0.9075,0.9075,0,, ,Correctness:,0.1056,0.8944,0,, ,Correctness:,0.9106,0.9106,0,, 
Average:,0.5092,,,,, Average:,0.9132,,,,, Average:,0.9152,,,,, Average:,0.9038,,,,, Average:,0.9153,,,,, 
,Correctness:,0.0600,0.9400,0,, ,Correctness:,0.9100,0.9100,0,, ,Correctness:,0.5200,0.5200,1,, ,Correctness:,0.0600,0.9400,0,, ,Correctness:,0.1000,0.9000,0,, 
,Correctness:,0.0900,0.9100,0,, ,Correctness:,0.9000,0.9000,0,, ,Correctness:,0.5200,0.5200,1,, ,Correctness:,0.0900,0.9100,0,, ,Correctness:,0.1100,0.8900,0,, 
,Correctness:,0.0600,0.9400,0,, ,Correctness:,0.9300,0.9300,0,, ,Correctness:,0.5000,0.5000,1,, ,Correctness:,0.0500,0.9500,0,, ,Correctness:,0.0600,0.9400,0,, 
,Correctness:,0.0700,0.9300,0,, ,Correctness:,0.9400,0.9400,0,, ,Correctness:,0.5500,0.5500,1,, ,Correctness:,0.0700,0.9300,0,, ,Correctness:,0.0900,0.9100,0,, 
,Correctness:,0.1100,0.8900,0,, ,Correctness:,0.8800,0.8800,0,, ,Correctness:,0.5600,0.5600,1,, ,Correctness:,0.1000,0.9000,0,, ,Correctness:,0.0900,0.9100,0,, 
,Correctness:,0.1200,0.8800,0,, ,Correctness:,0.8900,0.8900,0,, ,Correctness:,0.5200,0.5200,1,, ,Correctness:,0.1200,0.8800,0,, ,Correctness:,0.1600,0.8400,0,, 
,Correctness:,0.0200,0.9800,0,, ,Correctness:,0.9600,0.9600,0,, ,Correctness:,0.5400,0.5400,1,, ,Correctness:,0.0300,0.9700,0,, ,Correctness:,0.0400,0.9600,0,, 
,Correctness:,0.0400,0.9600,0,, ,Correctness:,0.9700,0.9700,0,, ,Correctness:,0.5600,0.5600,1,, ,Correctness:,0.0400,0.9600,0,, ,Correctness:,0.0400,0.9600,0,, 
,Correctness:,0.1000,0.9000,0,, ,Correctness:,0.9100,0.9100,0,, ,Correctness:,0.5600,0.5600,1,, ,Correctness:,0.1000,0.9000,0,, ,Correctness:,0.1200,0.8800,0,, 
,Correctness:,0.0400,0.9600,0,, ,Correctness:,0.9400,0.9400,0,, ,Correctness:,0.4800,0.5200,1,, ,Correctness:,0.0400,0.9600,0,, ,Correctness:,0.0400,0.9600,0,, 
,Correctness:,0.1150,0.8850,0,, ,Correctness:,0.8900,0.8900,0,, ,Correctness:,0.4850,0.5150,1,, ,Correctness:,0.1150,0.8850,0,, ,Correctness:,0.1450,0.8550,0,, 
,Correctness:,0.1050,0.8950,0,, ,Correctness:,0.9000,0.9000,0,, ,Correctness:,0.5300,0.5300,1,, ,Correctness:,0.1050,0.8950,0,, ,Correctness:,0.1250,0.8750,0,, 
,Correctness:,0.1000,0.9000,0,, ,Correctness:,0.8950,0.8950,0,, ,Correctness:,0.4900,0.5100,1,, ,Correctness:,0.1000,0.9000,0,, ,Correctness:,0.0900,0.9100,0,, 
,Correctness:,0.1400,0.8600,0,, ,Correctness:,0.8650,0.8650,0,, ,Correctness:,0.5400,0.5400,1,, ,Correctness:,0.1400,0.8600,0,, ,Correctness:,0.1600,0.8400,0,, 
,Correctness:,0.1650,0.8350,0,, ,Correctness:,0.8300,0.8300,0,, ,Correctness:,0.5350,0.5350,1,, ,Correctness:,0.1650,0.8350,0,, ,Correctness:,0.1550,0.8450,0,, 
,Correctness:,0.0400,0.9600,0,, ,Correctness:,0.9650,0.9650,0,, ,Correctness:,0.5500,0.5500,1,, ,Correctness:,0.0400,0.9600,0,, ,Correctness:,0.0600,0.9400,0,, 
,Correctness:,0.0700,0.9300,0,, ,Correctness:,0.9350,0.9350,0,, ,Correctness:,0.5250,0.5250,1,, ,Correctness:,0.0700,0.9300,0,, ,Correctness:,0.0900,0.9100,0,, 
,Correctness:,0.0950,0.9050,0,, ,Correctness:,0.9100,0.9100,0,, ,Correctness:,0.5300,0.5300,1,, ,Correctness:,0.0950,0.9050,0,, ,Correctness:,0.0950,0.9050,0,, 
,Correctness:,0.1000,0.9000,0,, ,Correctness:,0.9050,0.9050,0,, ,Correctness:,0.5100,0.5100,1,, ,Correctness:,0.1000,0.9000,0,, ,Correctness:,0.1000,0.9000,0,, 
,Correctness:,0.1400,0.8600,0,, ,Correctness:,0.8450,0.8450,0,, ,Correctness:,0.5100,0.5100,1,, ,Correctness:,0.1400,0.8600,0,, ,Correctness:,0.1400,0.8600,0,, 
,Correctness:,0.0875,0.9125,0,, ,Correctness:,0.9150,0.9150,0,, ,Correctness:,0.5200,0.5200,1,, ,Correctness:,0.0875,0.9125,0,, ,Correctness:,0.0975,0.9025,0,, 
,Correctness:,0.0850,0.9150,0,, ,Correctness:,0.9100,0.9100,0,, ,Correctness:,0.5275,0.5275,1,, ,Correctness:,0.0850,0.9150,0,, ,Correctness:,0.1000,0.9000,0,, 
,Correctness:,0.0650,0.9350,0,, ,Correctness:,0.9375,0.9375,0,, ,Correctness:,0.5175,0.5175,1,, ,Correctness:,0.0650,0.9350,0,, ,Correctness:,0.0750,0.9250,0,, 
,Correctness:,0.1000,0.9000,0,, ,Correctness:,0.9025,0.9025,0,, ,Correctness:,0.5375,0.5375,1,, ,Correctness:,0.1000,0.9000,0,, ,Correctness:,0.1050,0.8950,0,, 
,Correctness:,0.0625,0.9375,0,, ,Correctness:,0.9350,0.9350,0,, ,Correctness:,0.5225,0.5225,1,, ,Correctness:,0.0625,0.9375,0,, ,Correctness:,0.0725,0.9275,0,, 
,Correctness:,0.1000,0.9000,0,, ,Correctness:,0.8925,0.8925,0,, ,Correctness:,0.5275,0.5275,1,, ,Correctness:,0.1000,0.9000,0,, ,Correctness:,0.1000,0.9000,0,, 
,Correctness:,0.1025,0.8975,0,, ,Correctness:,0.8950,0.8950,0,, ,Correctness:,0.5400,0.5400,1,, ,Correctness:,0.1025,0.8975,0,, ,Correctness:,0.1025,0.8975,0,, 
,Correctness:,0.0750,0.9250,0,, ,Correctness:,0.9225,0.9225,0,, ,Correctness:,0.5250,0.5250,1,, ,Correctness:,0.0925,0.9075,0,, ,Correctness:,0.0850,0.9150,0,, 
,Correctness:,0.0875,0.9125,0,, ,Correctness:,0.9150,0.9150,0,, ,Correctness:,0.5425,0.5425,1,, ,Correctness:,0.0875,0.9125,0,, ,Correctness:,0.0975,0.9025,0,, 
,Correctness:,0.0675,0.9325,0,, ,Correctness:,0.9350,0.9350,0,, ,Correctness:,0.5225,0.5225,1,, ,Correctness:,0.0675,0.9325,0,, ,Correctness:,0.0675,0.9325,0,, 
,Correctness:,0.1225,0.8775,0,, ,Correctness:,0.8788,0.8788,0,, ,Correctness:,0.5300,0.5300,1,, ,Correctness:,0.1225,0.8775,0,, ,Correctness:,0.1350,0.8650,0,, 
,Correctness:,0.1037,0.8962,0,, ,Correctness:,0.8975,0.8975,0,, ,Correctness:,0.5250,0.5250,1,, ,Correctness:,0.1050,0.8950,0,, ,Correctness:,0.1037,0.8962,0,, 
,Correctness:,0.0838,0.9163,0,, ,Correctness:,0.9175,0.9175,0,, ,Correctness:,0.5238,0.5238,1,, ,Correctness:,0.0838,0.9163,0,, ,Correctness:,0.0862,0.9138,0,, 
,Correctness:,0.0775,0.9225,0,, ,Correctness:,0.9237,0.9237,0,, ,Correctness:,0.5413,0.5413,1,, ,Correctness:,0.0775,0.9225,0,, ,Correctness:,0.0825,0.9175,0,, 
,Correctness:,0.1037,0.8962,0,, ,Correctness:,0.8900,0.8900,0,, ,Correctness:,0.5337,0.5337,1,, ,Correctness:,0.1037,0.8962,0,, ,Correctness:,0.1187,0.8812,0,, 
,Correctness:,0.0475,0.9525,0,, ,Correctness:,0.9537,0.9537,0,, ,Correctness:,0.5475,0.5475,1,, ,Correctness:,0.0475,0.9525,0,, ,Correctness:,0.0575,0.9425,0,, 
,Correctness:,0.0925,0.9075,0,, ,Correctness:,0.9062,0.9062,0,, ,Correctness:,0.5288,0.5288,1,, ,Correctness:,0.0925,0.9075,0,, ,Correctness:,0.0975,0.9025,0,, 
,Correctness:,0.0612,0.9387,0,, ,Correctness:,0.9375,0.9375,0,, ,Correctness:,0.5350,0.5350,1,, ,Correctness:,0.0612,0.9387,0,, ,Correctness:,0.0762,0.9237,0,, 
,Correctness:,0.1025,0.8975,0,, ,Correctness:,0.9000,0.9000,0,, ,Correctness:,0.5200,0.5200,1,, ,Correctness:,0.1025,0.8975,0,, ,Correctness:,0.1000,0.9000,0,, 
,Correctness:,0.0587,0.9413,0,, ,Correctness:,0.9425,0.9425,0,, ,Correctness:,0.5437,0.5437,1,, ,Correctness:,0.0587,0.9413,0,, ,Correctness:,0.0663,0.9337,0,, 
,Correctness:,0.1087,0.8912,0,, ,Correctness:,0.8894,0.8894,0,, ,Correctness:,0.5150,0.5150,1,, ,Correctness:,0.1044,0.8956,0,, ,Correctness:,0.1081,0.8919,0,, 
,Correctness:,0.0663,0.9337,0,, ,Correctness:,0.9344,0.9344,0,, ,Correctness:,0.5369,0.5369,1,, ,Correctness:,0.0663,0.9337,0,, ,Correctness:,0.0750,0.9250,0,, 
,Correctness:,0.0806,0.9194,0,, ,Correctness:,0.9213,0.9213,0,, ,Correctness:,0.5306,0.5306,1,, ,Correctness:,0.0813,0.9187,0,, ,Correctness:,0.1031,0.8969,0,, 
,Correctness:,0.0737,0.9263,0,, ,Correctness:,0.9244,0.9244,0,, ,Correctness:,0.5175,0.5175,1,, ,Correctness:,0.0737,0.9263,0,, ,Correctness:,0.0850,0.9150,0,, 
,Correctness:,0.0862,0.9138,0,, ,Correctness:,0.9137,0.9137,0,, ,Correctness:,0.5325,0.5325,1,, ,Correctness:,0.0862,0.9138,0,, ,Correctness:,0.0950,0.9050,0,, 
,Correctness:,0.0844,0.9156,0,, ,Correctness:,0.9150,0.9150,0,, ,Correctness:,0.5356,0.5356,1,, ,Correctness:,0.0844,0.9156,0,, ,Correctness:,0.0944,0.9056,0,, 
,Correctness:,0.0875,0.9125,0,, ,Correctness:,0.9119,0.9119,0,, ,Correctness:,0.5262,0.5262,1,, ,Correctness:,0.0875,0.9125,0,, ,Correctness:,0.0925,0.9075,0,, 
,Correctness:,0.1081,0.8919,0,, ,Correctness:,0.8925,0.8925,0,, ,Correctness:,0.5231,0.5231,1,, ,Correctness:,0.1081,0.8919,0,, ,Correctness:,0.1081,0.8919,0,, 
,Correctness:,0.0675,0.9325,0,, ,Correctness:,0.9287,0.9287,0,, ,Correctness:,0.5319,0.5319,1,, ,Correctness:,0.0675,0.9325,0,, ,Correctness:,0.0838,0.9163,0,, 
,Correctness:,0.0956,0.9044,0,, ,Correctness:,0.9012,0.9012,0,, ,Correctness:,0.5244,0.5244,1,, ,Correctness:,0.0956,0.9044,0,, ,Correctness:,0.1056,0.8944,0,, 
Average:,0.9135,,,,, Average:,0.9122,,,,, Average:,0.5298,,,,, Average:,0.9134,,,,, Average:,0.9043,,,,, 
,Correctness:,0.8000,0.8000,1,, ,Correctness:,0.9100,0.9100,0,, ,Correctness:,0.2700,0.7300,1,, ,Correctness:,0.0600,0.9400,0,, ,Correctness:,0.1900,0.8100,1,, 
,Correctness:,0.6000,0.6000,1,, ,Correctness:,0.9000,0.9000,0,, ,Correctness:,0.4800,0.5200,1,, ,Correctness:,0.0900,0.9100,0,, ,Correctness:,0.3900,0.6100,1,, 
,Correctness:,0.6700,0.6700,1,, ,Correctness:,0.9400,0.9400,0,, ,Correctness:,0.4400,0.5600,1,, ,Correctness:,0.0600,0.9400,0,, ,Correctness:,0.3200,0.6800,1,, 
,Correctness:,0.8100,0.8100,1,, ,Correctness:,0.9400,0.9400,0,, ,Correctness:,0.3000,0.7000,1,, ,Correctness:,0.0700,0.9300,0,, ,Correctness:,0.2000,0.8000,1,, 
,Correctness:,0.8200,0.8200,1,, ,Correctness:,0.8900,0.8900,0,, ,Correctness:,0.2700,0.7300,1,, ,Correctness:,0.1100,0.8900,0,, ,Correctness:,0.1700,0.8300,1,, 
,Correctness:,0.7500,0.7500,1,, ,Correctness:,0.9300,0.9300,0,, ,Correctness:,0.3300,0.6700,1,, ,Correctness:,0.1200,0.8800,0,, ,Correctness:,0.2600,0.7400,1,, 
,Correctness:,0.6100,0.6100,1,, ,Correctness:,0.9500,0.9500,0,, ,Correctness:,0.4600,0.5400,1,, ,Correctness:,0.0200,0.9800,0,, ,Correctness:,0.4000,0.6000,1,, 
,Correctness:,0.8800,0.8800,1,, ,Correctness:,0.9700,0.9700,0,, ,Correctness:,0.2800,0.7200,1,, ,Correctness:,0.0400,0.9600,0,, ,Correctness:,0.1300,0.8700,1,, 
,Correctness:,0.7600,0.7600,1,, ,Correctness:,0.9100,0.9100,0,, ,Correctness:,0.3400,0.6600,1,, ,Correctness:,0.1000,0.9000,0,, ,Correctness:,0.2500,0.7500,1,, 
,Correctness:,0.5000,0.5000,1,, ,Correctness:,0.9400,0.9400,0,, ,Correctness:,0.6200,0.6200,1,, ,Correctness:,0.0400,0.9600,0,, ,Correctness:,0.5100,0.5100,1,, 
,Correctness:,0.6350,0.6350,1,, ,Correctness:,0.8900,0.8900,0,, ,Correctness:,0.4550,0.5450,1,, ,Correctness:,0.1150,0.8850,0,, ,Correctness:,0.3700,0.6300,1,, 
,Correctness:,0.7550,0.7550,1,, ,Correctness:,0.9000,0.9000,0,, ,Correctness:,0.3300,0.6700,1,, ,Correctness:,0.1050,0.8950,0,, ,Correctness:,0.2500,0.7500,1,, 
,Correctness:,0.5050,0.5050,1,, ,Correctness:,0.8950,0.8950,0,, ,Correctness:,0.5450,0.5450,1,, ,Correctness:,0.1000,0.9000,0,, ,Correctness:,0.4900,0.5100,1,, 
,Correctness:,0.5900,0.5900,1,, ,Correctness:,0.8650,0.8650,0,, ,Correctness:,0.4650,0.5350,1,, ,Correctness:,0.1400,0.8600,0,, ,Correctness:,0.4150,0.5850,1,, 
,Correctness:,0.7250,0.7250,1,, ,Correctness:,0.8500,0.8500,0,, ,Correctness:,0.3550,0.6450,1,, ,Correctness:,0.1650,0.8350,0,, ,Correctness:,0.2700,0.7300,1,, 
,Correctness:,0.6300,0.6300,1,, ,Correctness:,0.9650,0.9650,0,, ,Correctness:,0.4400,0.5600,1,, ,Correctness:,0.0400,0.9600,0,, ,Correctness:,0.3750,0.6250,1,, 
,Correctness:,0.6400,0.6400,1,, ,Correctness:,0.9550,0.9550,0,, ,Correctness:,0.4450,0.5550,1,, ,Correctness:,0.0700,0.9300,0,, ,Correctness:,0.3650,0.6350,1,, 
,Correctness:,0.5150,0.5150,1,, ,Correctness:,0.9100,0.9100,0,, ,Correctness:,0.5350,0.5350,1,, ,Correctness:,0.0950,0.9050,0,, ,Correctness:,0.4900,0.5100,1,, 
,Correctness:,0.5650,0.5650,1,, ,Correctness:,0.9050,0.9050,0,, ,Correctness:,0.4850,0.5150,1,, ,Correctness:,0.1000,0.9000,0,, ,Correctness:,0.4400,0.5600,1,, 
,Correctness:,0.6400,0.6400,1,, ,Correctness:,0.8250,0.8250,0,, ,Correctness:,0.4600,0.5400,1,, ,Correctness:,0.1400,0.8600,0,, ,Correctness:,0.3650,0.6350,1,, 
,Correctness:,0.7025,0.7025,1,, ,Correctness:,0.9150,0.9150,0,, ,Correctness:,0.4025,0.5975,1,, ,Correctness:,0.0875,0.9125,0,, ,Correctness:,0.3000,0.7000,1,, 
,Correctness:,0.6750,0.6750,1,, ,Correctness:,0.9000,0.9000,0,, ,Correctness:,0.3950,0.6050,1,, ,Correctness:,0.0850,0.9150,0,, ,Correctness:,0.3275,0.6725,1,, 
,Correctness:,0.5725,0.5725,1,, ,Correctness:,0.9375,0.9375,0,, ,Correctness:,0.5025,0.5025,1,, ,Correctness:,0.0650,0.9350,0,, ,Correctness:,0.4300,0.5700,1,, 
,Correctness:,0.7075,0.7075,1,, ,Correctness:,0.9025,0.9025,0,, ,Correctness:,0.3875,0.6125,1,, ,Correctness:,0.1000,0.9000,0,, ,Correctness:,0.2950,0.7050,1,, 
,Correctness:,0.6975,0.6975,1,, ,Correctness:,0.9450,0.9450,0,, ,Correctness:,0.3850,0.6150,1,, ,Correctness:,0.0625,0.9375,0,, ,Correctness:,0.3000,0.7000,1,, 
,Correctness:,0.7400,0.7400,1,, ,Correctness:,0.9025,0.9025,0,, ,Correctness:,0.3725,0.6275,1,, ,Correctness:,0.1000,0.9000,0,, ,Correctness:,0.2625,0.7375,1,, 
,Correctness:,0.6675,0.6675,1,, ,Correctness:,0.8850,0.8850,0,, ,Correctness:,0.3750,0.6250,1,, ,Correctness:,0.1025,0.8975,0,, ,Correctness:,0.3300,0.6700,1,, 
,Correctness:,0.6600,0.6600,1,, ,Correctness:,0.9150,0.9150,0,, ,Correctness:,0.4075,0.5925,1,, ,Correctness:,0.0750,0.9250,0,, ,Correctness:,0.3375,0.6625,1,, 
,Correctness:,0.7525,0.7525,1,, ,Correctness:,0.9150,0.9150,0,, ,Correctness:,0.3475,0.6525,1,, ,Correctness:,0.0875,0.9125,0,, ,Correctness:,0.2500,0.7500,1,, 
,Correctness:,0.6050,0.6050,1,, ,Correctness:,0.9350,0.9350,0,, ,Correctness:,0.4900,0.5100,1,, ,Correctness:,0.0675,0.9325,0,, ,Correctness:,0.3975,0.6025,1,, 
,Correctness:,0.7462,0.7462,1,, ,Correctness:,0.8838,0.8838,0,, ,Correctness:,0.3563,0.6438,1,, ,Correctness:,0.1225,0.8775,0,, ,Correctness:,0.2550,0.7450,1,, 
,Correctness:,0.6687,0.6687,1,, ,Correctness:,0.9012,0.9012,0,, ,Correctness:,0.4175,0.5825,1,, ,Correctness:,0.1037,0.8962,0,, ,Correctness:,0.3325,0.6675,1,, 
,Correctness:,0.5825,0.5825,1,, ,Correctness:,0.9175,0.9175,0,, ,Correctness:,0.5050,0.5050,1,, ,Correctness:,0.0838,0.9163,0,, ,Correctness:,0.4188,0.5813,1,, 
,Correctness:,0.7300,0.7300,1,, ,Correctness:,0.9287,0.9287,0,, ,Correctness:,0.3563,0.6438,1,, ,Correctness:,0.0775,0.9225,0,, ,Correctness:,0.2712,0.7288,1,, 
,Correctness:,0.5475,0.5475,1,, ,Correctness:,0.9025,0.9025,0,, ,Correctness:,0.5050,0.5050,1,, ,Correctness:,0.1037,0.8962,0,, ,Correctness:,0.4537,0.5463,1,, 
,Correctness:,0.7588,0.7588,1,, ,Correctness:,0.9587,0.9587,0,, ,Correctness:,0.3375,0.6625,1,, ,Correctness:,0.0475,0.9525,0,, ,Correctness:,0.2425,0.7575,1,, 
,Correctness:,0.6725,0.6725,1,, ,Correctness:,0.9012,0.9012,0,, ,Correctness:,0.4200,0.5800,1,, ,Correctness:,0.0925,0.9075,0,, ,Correctness:,0.3262,0.6738,1,, 
,Correctness:,0.6825,0.6825,1,, ,Correctness:,0.9437,0.9437,0,, ,Correctness:,0.4012,0.5988,1,, ,Correctness:,0.0612,0.9387,0,, ,Correctness:,0.3162,0.6838,1,, 
,Correctness:,0.6587,0.6587,1,, ,Correctness:,0.8962,0.8962,0,, ,Correctness:,0.4175,0.5825,1,, ,Correctness:,0.1025,0.8975,0,, ,Correctness:,0.3400,0.6600,1,, 
,Correctness:,0.7712,0.7712,1,, ,Correctness:,0.9425,0.9425,0,, ,Correctness:,0.3325,0.6675,1,, ,Correctness:,0.0587,0.9413,0,, ,Correctness:,0.2300,0.7700,1,, 
,Correctness:,0.5863,0.5863,1,, ,Correctness:,0.8931,0.8931,0,, ,Correctness:,0.4900,0.5100,1,, ,Correctness:,0.1044,0.8956,0,, ,Correctness:,0.4144,0.5856,1,, 
,Correctness:,0.7037,0.7037,1,, ,Correctness:,0.9344,0.9344,0,, ,Correctness:,0.3787,0.6213,1,, ,Correctness:,0.0663,0.9337,0,, ,Correctness:,0.2969,0.7031,1,, 
,Correctness:,0.6775,0.6775,1,, ,Correctness:,0.9231,0.9231,0,, ,Correctness:,0.4113,0.5887,1,, ,Correctness:,0.0806,0.9194,0,, ,Correctness:,0.3219,0.6781,1,, 
,Correctness:,0.6606,0.6606,1,, ,Correctness:,0.9244,0.9244,0,, ,Correctness:,0.4269,0.5731,1,, ,Correctness:,0.0737,0.9263,0,, ,Correctness:,0.3400,0.6600,1,, 
,Correctness:,0.6681,0.6681,1,, ,Correctness:,0.9144,0.9144,0,, ,Correctness:,0.4231,0.5769,1,, ,Correctness:,0.0862,0.9138,0,, ,Correctness:,0.3325,0.6675,1,, 
,Correctness:,0.7356,0.7356,1,, ,Correctness:,0.9225,0.9225,0,, ,Correctness:,0.3594,0.6406,1,, ,Correctness:,0.0844,0.9156,0,, ,Correctness:,0.2637,0.7363,1,, 
,Correctness:,0.6100,0.6100,1,, ,Correctness:,0.9131,0.9131,0,, ,Correctness:,0.4612,0.5388,1,, ,Correctness:,0.0875,0.9125,0,, ,Correctness:,0.3894,0.6106,1,, 
,Correctness:,0.6375,0.6375,1,, ,Correctness:,0.8938,0.8938,0,, ,Correctness:,0.4387,0.5613,1,, ,Correctness:,0.1081,0.8919,0,, ,Correctness:,0.3631,0.6369,1,, 
,Correctness:,0.6950,0.6950,1,, ,Correctness:,0.9231,0.9231,0,, ,Correctness:,0.3975,0.6025,1,, ,Correctness:,0.0675,0.9325,0,, ,Correctness:,0.3056,0.6944,1,, 
,Correctness:,0.6100,0.6100,1,, ,Correctness:,0.9075,0.9075,0,, ,Correctness:,0.4506,0.5494,1,, ,Correctness:,0.0956,0.9044,0,, ,Correctness:,0.3906,0.6094,1,, 
Average:,0.6717,,,,, Average:,0.9144,,,,, Average:,0.5954,,,,, Average:,0.9136,,,,, Average:,0.6707,,,,, 
,Correctness:,0.8700,0.8700,0,, ,Correctness:,0.0600,0.9400,0,, ,Correctness:,0.1000,0.9000,0,, ,Correctness:,0.1900,0.8100,1,, ,Correctness:,0.9100,0.9100,0,, 
,Correctness:,0.8800,0.8800,0,, ,Correctness:,0.0900,0.9100,0,, ,Correctness:,0.1100,0.8900,0,, ,Correctness:,0.3900,0.6100,1,, ,Correctness:,0.9000,0.9000,0,, 
,Correctness:,0.9300,0.9300,0,, ,Correctness:,0.0500,0.9500,0,, ,Correctness:,0.0800,0.9200,0,, ,Correctness:,0.3200,0.6800,1,, ,Correctness:,0.9300,0.9300,0,, 
,Correctness:,0.9200,0.9200,0,, ,Correctness:,0.0700,0.9300,0,, ,Correctness:,0.0900,0.9100,0,, ,Correctness:,0.2000,0.8000,1,, ,Correctness:,0.9400,0.9400,0,, 
,Correctness:,0.9000,0.9000,0,, ,Correctness:,0.1000,0.9000,0,, ,Correctness:,0.0900,0.9100,0,, ,Correctness:,0.1700,0.8300,1,, ,Correctness:,0.8800,0.8800,0,, 
,Correctness:,0.8500,0.8500,0,, ,Correctness:,0.1200,0.8800,0,, ,Correctness:,0.1600,0.8400,0,, ,Correctness:,0.2600,0.7400,1,, ,Correctness:,0.8900,0.8900,0,, 
,Correctness:,0.9400,0.9400,0,, ,Correctness:,0.0300,0.9700,0,, ,Correctness:,0.0400,0.9600,0,, ,Correctness:,0.4000,0.6000,1,, ,Correctness:,0.9600,0.9600,0,, 
,Correctness:,0.9700,0.9700,0,, ,Correctness:,0.0700,0.9300,0,, ,Correctness:,0.0700,0.9300,0,, ,Correctness:,0.1300,0.8700,1,, ,Correctness:,0.9400,0.9400,0,, 
,Correctness:,0.8900,0.8900,0,, ,Correctness:,0.1000,0.9000,0,, ,Correctness:,0.1000,0.9000,0,, ,Correctness:,0.2500,0.7500,1,, ,Correctness:,0.9100,0.9100,0,, 
,Correctness:,0.9400,0.9400,0,, ,Correctness:,0.0400,0.9600,0,, ,Correctness:,0.0200,0.9800,0,, ,Correctness:,0.5100,0.5100,1,, ,Correctness:,0.9400,0.9400,0,, 
,Correctness:,0.8600,0.8600,0,, ,Correctness:,0.1150,0.8850,0,, ,Correctness:,0.1450,0.8550,0,, ,Correctness:,0.3700,0.6300,1,, ,Correctness:,0.8900,0.8900,0,, 
,Correctness:,0.8800,0.8800,0,, ,Correctness:,0.1050,0.8950,0,, ,Correctness:,0.1250,0.8750,0,, ,Correctness:,0.2500,0.7500,1,, ,Correctness:,0.9000,0.9000,0,, 
,Correctness:,0.9050,0.9050,0,, ,Correctness:,0.1000,0.9000,0,, ,Correctness:,0.1100,0.8900,0,, ,Correctness:,0.4900,0.5100,1,, ,Correctness:,0.8950,0.8950,0,, 
,Correctness:,0.8450,0.8450,0,, ,Correctness:,0.1400,0.8600,0,, ,Correctness:,0.1500,0.8500,0,, ,Correctness:,0.4150,0.5850,1,, ,Correctness:,0.8650,0.8650,0,, 
,Correctness:,0.8400,0.8400,0,, ,Correctness:,0.1650,0.8350,0,, ,Correctness:,0.1450,0.8550,0,, ,Correctness:,0.2700,0.7300,1,, ,Correctness:,0.8300,0.8300,0,, 
,Correctness:,0.9450,0.9450,0,, ,Correctness:,0.0400,0.9600,0,, ,Correctness:,0.1000,0.9000,0,, ,Correctness:,0.3750,0.6250,1,, ,Correctness:,0.9650,0.9650,0,, 
,Correctness:,0.9150,0.9150,0,, ,Correctness:,0.0700,0.9300,0,, ,Correctness:,0.1000,0.9000,0,, ,Correctness:,0.3650,0.6350,1,, ,Correctness:,0.9350,0.9350,0,, 
,Correctness:,0.9100,0.9100,0,, ,Correctness:,0.0950,0.9050,0,, ,Correctness:,0.0950,0.9050,0,, ,Correctness:,0.4900,0.5100,1,, ,Correctness:,0.9100,0.9100,0,, 
,Correctness:,0.9050,0.9050,0,, ,Correctness:,0.1000,0.9000,0,, ,Correctness:,0.1200,0.8800,0,, ,Correctness:,0.4400,0.5600,1,, ,Correctness:,0.9050,0.9050,0,, 
,Correctness:,0.8450,0.8450,0,, ,Correctness:,0.1400,0.8600,0,, ,Correctness:,0.1500,0.8500,0,, ,Correctness:,0.3650,0.6350,1,, ,Correctness:,0.8450,0.8450,0,, 
,Correctness:,0.9050,0.9050,0,, ,Correctness:,0.0875,0.9125,0,, ,Correctness:,0.1025,0.8975,0,, ,Correctness:,0.3000,0.7000,1,, ,Correctness:,0.9150,0.9150,0,, 
,Correctness:,0.8950,0.8950,0,, ,Correctness:,0.0850,0.9150,0,, ,Correctness:,0.0900,0.9100,0,, ,Correctness:,0.3275,0.6725,1,, ,Correctness:,0.9100,0.9100,0,, 
,Correctness:,0.9275,0.9275,0,, ,Correctness:,0.0650,0.9350,0,, ,Correctness:,0.0900,0.9100,0,, ,Correctness:,0.4300,0.5700,1,, ,Correctness:,0.9375,0.9375,0,, 
,Correctness:,0.8975,0.8975,0,, ,Correctness:,0.1000,0.9000,0,, ,Correctness:,0.1100,0.8900,0,, ,Correctness:,0.2950,0.7050,1,, ,Correctness:,0.9025,0.9025,0,, 
,Correctness:,0.9250,0.9250,0,, ,Correctness:,0.0625,0.9375,0,, ,Correctness:,0.0875,0.9125,0,, ,Correctness:,0.3000,0.7000,1,, ,Correctness:,0.9350,0.9350,0,, 
,Correctness:,0.8925,0.8925,0,, ,Correctness:,0.1000,0.9000,0,, ,Correctness:,0.1000,0.9000,0,, ,Correctness:,0.2625,0.7375,1,, ,Correctness:,0.8925,0.8925,0,, 
,Correctness:,0.8950,0.8950,0,, ,Correctness:,0.1025,0.8975,0,, ,Correctness:,0.1175,0.8825,0,, ,Correctness:,0.3300,0.6700,1,, ,Correctness:,0.8950,0.8950,0,, 
,Correctness:,0.9125,0.9125,0,, ,Correctness:,0.0750,0.9250,0,, ,Correctness:,0.1100,0.8900,0,, ,Correctness:,0.3375,0.6625,1,, ,Correctness:,0.9225,0.9225,0,, 
,Correctness:,0.9050,0.9050,0,, ,Correctness:,0.0875,0.9125,0,, ,Correctness:,0.0925,0.9075,0,, ,Correctness:,0.2500,0.7500,1,, ,Correctness:,0.9150,0.9150,0,, 
,Correctness:,0.9350,0.9350,0,, ,Correctness:,0.0675,0.9325,0,, ,Correctness:,0.0725,0.9275,0,, ,Correctness:,0.3975,0.6025,1,, ,Correctness:,0.9350,0.9350,0,, 
,Correctness:,0.8662,0.8662,0,, ,Correctness:,0.1225,0.8775,0,, ,Correctness:,0.1350,0.8650,0,, ,Correctness:,0.2550,0.7450,1,, ,Correctness:,0.8788,0.8788,0,, 
,Correctness:,0.8975,0.8975,0,, ,Correctness:,0.1050,0.8950,0,, ,Correctness:,0.1037,0.8962,0,, ,Correctness:,0.3325,0.6675,1,, ,Correctness:,0.8962,0.8962,0,, 
,Correctness:,0.9150,0.9150,0,, ,Correctness:,0.0838,0.9163,0,, ,Correctness:,0.0887,0.9113,0,, ,Correctness:,0.4188,0.5813,1,, ,Correctness:,0.9175,0.9175,0,, 
,Correctness:,0.9187,0.9187,0,, ,Correctness:,0.0775,0.9225,0,, ,Correctness:,0.0825,0.9175,0,, ,Correctness:,0.2712,0.7288,1,, ,Correctness:,0.9237,0.9237,0,, 
,Correctness:,0.8750,0.8750,0,, ,Correctness:,0.1037,0.8962,0,, ,Correctness:,0.1187,0.8812,0,, ,Correctness:,0.4537,0.5463,1,, ,Correctness:,0.8900,0.8900,0,, 
,Correctness:,0.9437,0.9437,0,, ,Correctness:,0.0475,0.9525,0,, ,Correctness:,0.0600,0.9400,0,, ,Correctness:,0.2425,0.7575,1,, ,Correctness:,0.9537,0.9537,0,, 
,Correctness:,0.9012,0.9012,0,, ,Correctness:,0.0925,0.9075,0,, ,Correctness:,0.0950,0.9050,0,, ,Correctness:,0.3262,0.6738,1,, ,Correctness:,0.9062,0.9062,0,, 
,Correctness:,0.9225,0.9225,0,, ,Correctness:,0.0612,0.9387,0,, ,Correctness:,0.0737,0.9263,0,, ,Correctness:,0.3162,0.6838,1,, ,Correctness:,0.9375,0.9375,0,, 
,Correctness:,0.9025,0.9025,0,, ,Correctness:,0.1025,0.8975,0,, ,Correctness:,0.1175,0.8825,0,, ,Correctness:,0.3400,0.6600,1,, ,Correctness:,0.9000,0.9000,0,, 
,Correctness:,0.9350,0.9350,0,, ,Correctness:,0.0587,0.9413,0,, ,Correctness:,0.0750,0.9250,0,, ,Correctness:,0.2300,0.7700,1,, ,Correctness:,0.9425,0.9425,0,, 
,Correctness:,0.8900,0.8900,0,, ,Correctness:,0.1044,0.8956,0,, ,Correctness:,0.1194,0.8806,0,, ,Correctness:,0.4144,0.5856,1,, ,Correctness:,0.8938,0.8938,0,, 
,Correctness:,0.9256,0.9256,0,, ,Correctness:,0.0663,0.9337,0,, ,Correctness:,0.0875,0.9125,0,, ,Correctness:,0.2969,0.7031,1,, ,Correctness:,0.9344,0.9344,0,, 
,Correctness:,0.8988,0.8988,0,, ,Correctness:,0.0813,0.9187,0,, ,Correctness:,0.1037,0.8962,0,, ,Correctness:,0.3219,0.6781,1,, ,Correctness:,0.9213,0.9213,0,, 
,Correctness:,0.9131,0.9131,0,, ,Correctness:,0.0737,0.9263,0,, ,Correctness:,0.0894,0.9106,0,, ,Correctness:,0.3400,0.6600,1,, ,Correctness:,0.9244,0.9244,0,, 
,Correctness:,0.9056,0.9056,0,, ,Correctness:,0.0869,0.9131,0,, ,Correctness:,0.0975,0.9025,0,, ,Correctness:,0.3325,0.6675,1,, ,Correctness:,0.9137,0.9137,0,, 
,Correctness:,0.9050,0.9050,0,, ,Correctness:,0.0844,0.9156,0,, ,Correctness:,0.0956,0.9044,0,, ,Correctness:,0.2637,0.7363,1,, ,Correctness:,0.9150,0.9150,0,, 
,Correctness:,0.9069,0.9069,0,, ,Correctness:,0.0875,0.9125,0,, ,Correctness:,0.0963,0.9038,0,, ,Correctness:,0.3894,0.6106,1,, ,Correctness:,0.9119,0.9119,0,, 
,Correctness:,0.8925,0.8925,0,, ,Correctness:,0.1081,0.8919,0,, ,Correctness:,0.1094,0.8906,0,, ,Correctness:,0.3631,0.6369,1,, ,Correctness:,0.8925,0.8925,0,, 
,Correctness:,0.9125,0.9125,0,, ,Correctness:,0.0675,0.9325,0,, ,Correctness:,0.0925,0.9075,0,, ,Correctness:,0.3056,0.6944,1,, ,Correctness:,0.9287,0.9287,0,, 
,Correctness:,0.8912,0.8912,0,, ,Correctness:,0.0956,0.9044,0,, ,Correctness:,0.1031,0.8969,0,, ,Correctness:,0.3906,0.6094,1,, ,Correctness:,0.9012,0.9012,0,, 
Average:,0.9030,,,,, Average:,0.9131,,,,, Average:,0.8997,,,,, Average:,0.6707,,,,, Average:,0.9117,,,,, 
,Correctness:,0.9100,0.9100,0,, ,Correctness:,0.0600,0.9400,0,, ,Correctness:,0.1000,0.9000,0,, ,Correctness:,0.0600,0.9400,0,, ,Correctness:,0.9100,0.9100,0,, 
,Correctness:,0.9000,0.9000,0,, ,Correctness:,0.0900,0.9100,0,, ,Correctness:,0.1100,0.8900,0,, ,Correctness:,0.0900,0.9100,0,, ,Correctness:,0.9000,0.9000,0,, 
,Correctness:,0.9400,0.9400,0,, ,Correctness:,0.0600,0.9400,0,, ,Correctness:,0.0600,0.9400,0,, ,Correctness:,0.0600,0.9400,0,, ,Correctness:,0.9300,0.9300,0,, 
,Correctness:,0.9400,0.9400,0,, ,Correctness:,0.0700,0.9300,0,, ,Correctness:,0.0900,0.9100,0,, ,Correctness:,0.0700,0.9300,0,, ,Correctness:,0.9400,0.9400,0,, 
,Correctness:,0.8800,0.8800,0,, ,Correctness:,0.1100,0.8900,0,, ,Correctness:,0.0900,0.9100,0,, ,Correctness:,0.1100,0.8900,0,, ,Correctness:,0.8800,0.8800,0,, 
,Correctness:,0.8900,0.8900,0,, ,Correctness:,0.1200,0.8800,0,, ,Correctness:,0.1600,0.8400,0,, ,Correctness:,0.1200,0.8800,0,, ,Correctness:,0.8900,0.8900,0,, 
,Correctness:,0.9600,0.9600,0,, ,Correctness:,0.0200,0.9800,0,, ,Correctness:,0.0400,0.9600,0,, ,Correctness:,0.0200,0.9800,0,, ,Correctness:,0.9600,0.9600,0,, 
,Correctness:,0.9700,0.9700,0,, ,Correctness:,0.0400,0.9600,0,, ,Correctness:,0.0400,0.9600,0,, ,Correctness:,0.0400,0.9600,0,, ,Correctness:,0.9700,0.9700,0,, 
,Correctness:,0.9100,0.9100,0,, ,Correctness:,0.1000,0.9000,0,, ,Correctness:,0.1200,0.8800,0,, ,Correctness:,0.1000,0.9000,0,, ,Correctness:,0.9100,0.9100,0,, 
,Correctness:,0.9400,0.9400,0,, ,Correctness:,0.0400,0.9600,0,, ,Correctness:,0.0400,0.9600,0,, ,Correctness:,0.0400,0.9600,0,, ,Correctness:,0.9400,0.9400,0,, 
,Correctness:,0.8900,0.8900,0,, ,Correctness:,0.1150,0.8850,0,, ,Correctness:,0.1450,0.8550,0,, ,Correctness:,0.1150,0.8850,0,, ,Correctness:,0.8900,0.8900,0,, 
,Correctness:,0.9000,0.9000,0,, ,Correctness:,0.1050,0.8950,0,, ,Correctness:,0.1250,0.8750,0,, ,Correctness:,0.1050,0.8950,0,, ,Correctness:,0.9000,0.9000,0,, 
,Correctness:,0.8950,0.8950,0,, ,Correctness:,0.1000,0.9000,0,, ,Correctness:,0.0900,0.9100,0,, ,Correctness:,0.1000,0.9000,0,, ,Correctness:,0.8950,0.8950,0,, 
,Correctness:,0.8650,0.8650,0,, ,Correctness:,0.1400,0.8600,0,, ,Correctness:,0.1600,0.8400,0,, ,Correctness:,0.1400,0.8600,0,, ,Correctness:,0.8650,0.8650,0,, 
,Correctness:,0.8300,0.8300,0,, ,Correctness:,0.1650,0.8350,0,, ,Correctness:,0.1550,0.8450,0,, ,Correctness:,0.1650,0.8350,0,, ,Correctness:,0.8300,0.8300,0,, 
,Correctness:,0.9650,0.9650,0,, ,Correctness:,0.0400,0.9600,0,, ,Correctness:,0.0600,0.9400,0,, ,Correctness:,0.0400,0.9600,0,, ,Correctness:,0.9650,0.9650,0,, 
,Correctness:,0.9350,0.9350,0,, ,Correctness:,0.0700,0.9300,0,, ,Correctness:,0.0900,0.9100,0,, ,Correctness:,0.0700,0.9300,0,, ,Correctness:,0.9350,0.9350,0,, 
,Correctness:,0.9100,0.9100,0,, ,Correctness:,0.0950,0.9050,0,, ,Correctness:,0.0950,0.9050,0,, ,Correctness:,0.0950,0.9050,0,, ,Correctness:,0.9100,0.9100,0,, 
,Correctness:,0.9050,0.9050,0,, ,Correctness:,0.1000,0.9000,0,, ,Correctness:,0.1000,0.9000,0,, ,Correctness:,0.1000,0.9000,0,, ,Correctness:,0.9050,0.9050,0,, 
,Correctness:,0.8450,0.8450,0,, ,Correctness:,0.1400,0.8600,0,, ,Correctness:,0.1400,0.8600,0,, ,Correctness:,0.1400,0.8600,0,, ,Correctness:,0.8450,0.8450,0,, 
,Correctness:,0.9150,0.9150,0,, ,Correctness:,0.0875,0.9125,0,, ,Correctness:,0.0975,0.9025,0,, ,Correctness:,0.0875,0.9125,0,, ,Correctness:,0.9150,0.9150,0,, 
,Correctness:,0.9100,0.9100,0,, ,Correctness:,0.0850,0.9150,0,, ,Correctness:,0.1000,0.9000,0,, ,Correctness:,0.0850,0.9150,0,, ,Correctness:,0.9100,0.9100,0,, 
,Correctness:,0.9375,0.9375,0,, ,Correctness:,0.0650,0.9350,0,, ,Correctness:,0.0750,0.9250,0,, ,Correctness:,0.0650,0.9350,0,, ,Correctness:,0.9375,0.9375,0,, 
,Correctness:,0.9025,0.9025,0,, ,Correctness:,0.1000,0.9000,0,, ,Correctness:,0.1050,0.8950,0,, ,Correctness:,0.1000,0.9000,0,, ,Correctness:,0.9025,0.9025,0,, 
,Correctness:,0.9350,0.9350,0,, ,Correctness:,0.0625,0.9375,0,, ,Correctness:,0.0725,0.9275,0,, ,Correctness:,0.0625,0.9375,0,, ,Correctness:,0.9350,0.9350,0,, 
,Correctness:,0.8925,0.8925,0,, ,Correctness:,0.1000,0.9000,0,, ,Correctness:,0.1000,0.9000,0,, ,Correctness:,0.1000,0.9000,0,, ,Correctness:,0.8925,0.8925,0,, 
,Correctness:,0.8950,0.8950,0,, ,Correctness:,0.1025,0.8975,0,, ,Correctness:,0.1025,0.8975,0,, ,Correctness:,0.1025,0.8975,0,, ,Correctness:,0.8950,0.8950,0,, 
,Correctness:,0.9050,0.9050,0,, ,Correctness:,0.0750,0.9250,0,, ,Correctness:,0.0850,0.9150,0,, ,Correctness:,0.0750,0.9250,0,, ,Correctness:,0.9225,0.9225,0,, 
,Correctness:,0.9150,0.9150,0,, ,Correctness:,0.0875,0.9125,0,, ,Correctness:,0.0975,0.9025,0,, ,Correctness:,0.0875,0.9125,0,, ,Correctness:,0.9150,0.9150,0,, 
,Correctness:,0.9350,0.9350,0,, ,Correctness:,0.0675,0.9325,0,, ,Correctness:,0.0675,0.9325,0,, ,Correctness:,0.0675,0.9325,0,, ,Correctness:,0.9350,0.9350,0,, 
,Correctness:,0.8788,0.8788,0,, ,Correctness:,0.1225,0.8775,0,, ,Correctness:,0.1350,0.8650,0,, ,Correctness:,0.1225,0.8775,0,, ,Correctness:,0.8788,0.8788,0,, 
,Correctness:,0.8975,0.8975,0,, ,Correctness:,0.1037,0.8962,0,, ,Correctness:,0.1037,0.8962,0,, ,Correctness:,0.1050,0.8950,0,, ,Correctness:,0.8975,0.8975,0,, 
,Correctness:,0.9175,0.9175,0,, ,Correctness:,0.0838,0.9163,0,, ,Correctness:,0.0862,0.9138,0,, ,Correctness:,0.0838,0.9163,0,, ,Correctness:,0.9175,0.9175,0,, 
,Correctness:,0.9237,0.9237,0,, ,Correctness:,0.0775,0.9225,0,, ,Correctness:,0.0825,0.9175,0,, ,Correctness:,0.0775,0.9225,0,, ,Correctness:,0.9237,0.9237,0,, 
,Correctness:,0.8900,0.8900,0,, ,Correctness:,0.1037,0.8962,0,, ,Correctness:,0.1187,0.8812,0,, ,Correctness:,0.1037,0.8962,0,, ,Correctness:,0.8900,0.8900,0,, 
,Correctness:,0.9537,0.9537,0,, ,Correctness:,0.0475,0.9525,0,, ,Correctness:,0.0575,0.9425,0,, ,Correctness:,0.0475,0.9525,0,, ,Correctness:,0.9537,0.9537,0,, 
,Correctness:,0.9062,0.9062,0,, ,Correctness:,0.0925,0.9075,0,, ,Correctness:,0.0975,0.9025,0,, ,Correctness:,0.0925,0.9075,0,, ,Correctness:,0.9062,0.9062,0,, 
,Correctness:,0.9375,0.9375,0,, ,Correctness:,0.0612,0.9387,0,, ,Correctness:,0.0762,0.9237,0,, ,Correctness:,0.0612,0.9387,0,, ,Correctness:,0.9375,0.9375,0,, 
,Correctness:,0.9000,0.9000,0,, ,Correctness:,0.1025,0.8975,0,, ,Correctness:,0.1000,0.9000,0,, ,Correctness:,0.1025,0.8975,0,, ,Correctness:,0.9000,0.9000,0,, 
,Correctness:,0.9425,0.9425,0,, ,Correctness:,0.0587,0.9413,0,, ,Correctness:,0.0663,0.9337,0,, ,Correctness:,0.0587,0.9413,0,, ,Correctness:,0.9425,0.9425,0,, 
,Correctness:,0.8938,0.8938,0,, ,Correctness:,0.1044,0.8956,0,, ,Correctness:,0.1081,0.8919,0,, ,Correctness:,0.1087,0.8912,0,, ,Correctness:,0.8894,0.8894,0,, 
,Correctness:,0.9344,0.9344,0,, ,Correctness:,0.0663,0.9337,0,, ,Correctness:,0.0750,0.9250,0,, ,Correctness:,0.0663,0.9337,0,, ,Correctness:,0.9344,0.9344,0,, 
,Correctness:,0.9206,0.9206,0,, ,Correctness:,0.0806,0.9194,0,, ,Correctness:,0.1031,0.8969,0,, ,Correctness:,0.0806,0.9194,0,, ,Correctness:,0.9213,0.9213,0,, 
,Correctness:,0.9244,0.9244,0,, ,Correctness:,0.0737,0.9263,0,, ,Correctness:,0.0850,0.9150,0,, ,Correctness:,0.0737,0.9263,0,, ,Correctness:,0.9244,0.9244,0,, 
,Correctness:,0.9144,0.9144,0,, ,Correctness:,0.0862,0.9138,0,, ,Correctness:,0.0950,0.9050,0,, ,Correctness:,0.0869,0.9131,0,, ,Correctness:,0.9144,0.9144,0,, 
,Correctness:,0.9150,0.9150,0,, ,Correctness:,0.0844,0.9156,0,, ,Correctness:,0.0944,0.9056,0,, ,Correctness:,0.0844,0.9156,0,, ,Correctness:,0.9150,0.9150,0,, 
,Correctness:,0.9119,0.9119,0,, ,Correctness:,0.0875,0.9125,0,, ,Correctness:,0.0925,0.9075,0,, ,Correctness:,0.0875,0.9125,0,, ,Correctness:,0.9119,0.9119,0,, 
,Correctness:,0.8925,0.8925,0,, ,Correctness:,0.1081,0.8919,0,, ,Correctness:,0.1081,0.8919,0,, ,Correctness:,0.1081,0.8919,0,, ,Correctness:,0.8925,0.8925,0,, 
,Correctness:,0.9287,0.9287,0,, ,Correctness:,0.0675,0.9325,0,, ,Correctness:,0.0838,0.9163,0,, ,Correctness:,0.0675,0.9325,0,, ,Correctness:,0.9244,0.9244,0,, 
,Correctness:,0.9012,0.9012,0,, ,Correctness:,0.0956,0.9044,0,, ,Correctness:,0.1056,0.8944,0,, ,Correctness:,0.0956,0.9044,0,, ,Correctness:,0.9012,0.9012,0,, 
Average:,0.9121,,,,, Average:,0.9136,,,,, Average:,0.9043,,,,, Average:,0.9135,,,,, Average:,0.9121,,,,, 
,Correctness:,0.9100,0.9100,0,, ,Correctness:,0.0600,0.9400,0,, ,Correctness:,0.0600,0.9400,0,, ,Correctness:,0.9100,0.9100,0,, ,Correctness:,0.1900,0.8100,1,, 
,Correctness:,0.9000,0.9000,0,, ,Correctness:,0.0900,0.9100,0,, ,Correctness:,0.0900,0.9100,0,, ,Correctness:,0.9000,0.9000,0,, ,Correctness:,0.3900,0.6100,1,, 
,Correctness:,0.9300,0.9300,0,, ,Correctness:,0.0600,0.9400,0,, ,Correctness:,0.0600,0.9400,0,, ,Correctness:,0.9400,0.9400,0,, ,Correctness:,0.3200,0.6800,1,, 
,Correctness:,0.9400,0.9400,0,, ,Correctness:,0.0700,0.9300,0,, ,Correctness:,0.0700,0.9300,0,, ,Correctness:,0.9400,0.9400,0,, ,Correctness:,0.2000,0.8000,1,, 
,Correctness:,0.8800,0.8800,0,, ,Correctness:,0.1100,0.8900,0,, ,Correctness:,0.1000,0.9000,0,, ,Correctness:,0.8900,0.8900,0,, ,Correctness:,0.1700,0.8300,1,, 
,Correctness:,0.8900,0.8900,0,, ,Correctness:,0.1200,0.8800,0,, ,Correctness:,0.0800,0.9200,0,, ,Correctness:,0.8900,0.8900,0,, ,Correctness:,0.2600,0.7400,1,, 
,Correctness:,0.9600,0.9600,0,, ,Correctness:,0.0200,0.9800,0,, ,Correctness:,0.0300,0.9700,0,, ,Correctness:,0.9500,0.9500,0,, ,Correctness:,0.4000,0.6000,1,, 
,Correctness:,0.9700,0.9700,0,, ,Correctness:,0.0400,0.9600,0,, ,Correctness:,0.0400,0.9600,0,, ,Correctness:,0.9700,0.9700,0,, ,Correctness:,0.1300,0.8700,1,, 
,Correctness:,0.9100,0.9100,0,, ,Correctness:,0.1000,0.9000,0,, ,Correctness:,0.1000,0.9000,0,, ,Correctness:,0.9100,0.9100,0,, ,Correctness:,0.2500,0.7500,1,, 
,Correctness:,0.9400,0.9400,0,, ,Correctness:,0.0400,0.9600,0,, ,Correctness:,0.0400,0.9600,0,, ,Correctness:,0.9400,0.9400,0,, ,Correctness:,0.5100,0.5100,1,, 
,Correctness:,0.8900,0.8900,0,, ,Correctness:,0.1150,0.8850,0,, ,Correctness:,0.1150,0.8850,0,, ,Correctness:,0.8900,0.8900,0,, ,Correctness:,0.3700,0.6300,1,, 
,Correctness:,0.9000,0.9000,0,, ,Correctness:,0.1050,0.8950,0,, ,Correctness:,0.1050,0.8950,0,, ,Correctness:,0.9000,0.9000,0,, ,Correctness:,0.2500,0.7500,1,, 
,Correctness:,0.8950,0.8950,0,, ,Correctness:,0.1000,0.9000,0,, ,Correctness:,0.1000,0.9000,0,, ,Correctness:,0.8950,0.8950,0,, ,Correctness:,0.4900,0.5100,1,, 
,Correctness:,0.8650,0.8650,0,, ,Correctness:,0.1400,0.8600,0,, ,Correctness:,0.1400,0.8600,0,, ,Correctness:,0.8650,0.8650,0,, ,Correctness:,0.4150,0.5850,1,, 
,Correctness:,0.8300,0.8300,0,, ,Correctness:,0.1650,0.8350,0,, ,Correctness:,0.1650,0.8350,0,, ,Correctness:,0.8300,0.8300,0,, ,Correctness:,0.2700,0.7300,1,, 
,Correctness:,0.9650,0.9650,0,, ,Correctness:,0.0400,0.9600,0,, ,Correctness:,0.0400,0.9600,0,, ,Correctness:,0.9650,0.9650,0,, ,Correctness:,0.3750,0.6250,1,, 
,Correctness:,0.9350,0.9350,0,, ,Correctness:,0.0700,0.9300,0,, ,Correctness:,0.0700,0.9300,0,, ,Correctness:,0.9350,0.9350,0,, ,Correctness:,0.3650,0.6350,1,, 
,Correctness:,0.9100,0.9100,0,, ,Correctness:,0.0950,0.9050,0,, ,Correctness:,0.0950,0.9050,0,, ,Correctness:,0.9100,0.9100,0,, ,Correctness:,0.4900,0.5100,1,, 
,Correctness:,0.9050,0.9050,0,, ,Correctness:,0.1000,0.9000,0,, ,Correctness:,0.1000,0.9000,0,, ,Correctness:,0.9050,0.9050,0,, ,Correctness:,0.4400,0.5600,1,, 
,Correctness:,0.8450,0.8450,0,, ,Correctness:,0.1400,0.8600,0,, ,Correctness:,0.1600,0.8400,0,, ,Correctness:,0.8450,0.8450,0,, ,Correctness:,0.3650,0.6350,1,, 
,Correctness:,0.9150,0.9150,0,, ,Correctness:,0.0875,0.9125,0,, ,Correctness:,0.0875,0.9125,0,, ,Correctness:,0.9150,0.9150,0,, ,Correctness:,0.3000,0.7000,1,, 
,Correctness:,0.9100,0.9100,0,, ,Correctness:,0.0850,0.9150,0,, ,Correctness:,0.0850,0.9150,0,, ,Correctness:,0.9100,0.9100,0,, ,Correctness:,0.3275,0.6725,1,, 
,Correctness:,0.9375,0.9375,0,, ,Correctness:,0.0650,0.9350,0,, ,Correctness:,0.0550,0.9450,0,, ,Correctness:,0.9375,0.9375,0,, ,Correctness:,0.4300,0.5700,1,, 
,Correctness:,0.9025,0.9025,0,, ,Correctness:,0.1000,0.9000,0,, ,Correctness:,0.1000,0.9000,0,, ,Correctness:,0.9025,0.9025,0,, ,Correctness:,0.2950,0.7050,1,, 
,Correctness:,0.9350,0.9350,0,, ,Correctness:,0.0625,0.9375,0,, ,Correctness:,0.0475,0.9525,0,, ,Correctness:,0.9350,0.9350,0,, ,Correctness:,0.3000,0.7000,1,, 
,Correctness:,0.8925,0.8925,0,, ,Correctness:,0.1000,0.9000,0,, ,Correctness:,0.1000,0.9000,0,, ,Correctness:,0.8925,0.8925,0,, ,Correctness:,0.2625,0.7375,1,, 
,Correctness:,0.8950,0.8950,0,, ,Correctness:,0.1025,0.8975,0,, ,Correctness:,0.1125,0.8875,0,, ,Correctness:,0.8950,0.8950,0,, ,Correctness:,0.3300,0.6700,1,, 
,Correctness:,0.9225,0.9225,0,, ,Correctness:,0.0750,0.9250,0,, ,Correctness:,0.0750,0.9250,0,, ,Correctness:,0.9050,0.9050,0,, ,Correctness:,0.3375,0.6625,1,, 
,Correctness:,0.9150,0.9150,0,, ,Correctness:,0.0875,0.9125,0,, ,Correctness:,0.0875,0.9125,0,, ,Correctness:,0.9150,0.9150,0,, ,Correctness:,0.2500,0.7500,1,, 
,Correctness:,0.9350,0.9350,0,, ,Correctness:,0.0675,0.9325,0,, ,Correctness:,0.0675,0.9325,0,, ,Correctness:,0.9350,0.9350,0,, ,Correctness:,0.3975,0.6025,1,, 
,Correctness:,0.8788,0.8788,0,, ,Correctness:,0.1225,0.8775,0,, ,Correctness:,0.1175,0.8825,0,, ,Correctness:,0.8788,0.8788,0,, ,Correctness:,0.2550,0.7450,1,, 
,Correctness:,0.8975,0.8975,0,, ,Correctness:,0.1037,0.8962,0,, ,Correctness:,0.1000,0.9000,0,, ,Correctness:,0.8975,0.8975,0,, ,Correctness:,0.3325,0.6675,1,, 
,Correctness:,0.9175,0.9175,0,, ,Correctness:,0.0838,0.9163,0,, ,Correctness:,0.0788,0.9213,0,, ,Correctness:,0.9175,0.9175,0,, ,Correctness:,0.4188,0.5813,1,, 
,Correctness:,0.9237,0.9237,0,, ,Correctness:,0.0775,0.9225,0,, ,Correctness:,0.0725,0.9275,0,, ,Correctness:,0.9237,0.9237,0,, ,Correctness:,0.2712,0.7288,1,, 
,Correctness:,0.8900,0.8900,0,, ,Correctness:,0.1037,0.8962,0,, ,Correctness:,0.1037,0.8962,0,, ,Correctness:,0.8900,0.8900,0,, ,Correctness:,0.4537,0.5463,1,, 
,Correctness:,0.9537,0.9537,0,, ,Correctness:,0.0475,0.9525,0,, ,Correctness:,0.0475,0.9525,0,, ,Correctness:,0.9537,0.9537,0,, ,Correctness:,0.2425,0.7575,1,, 
,Correctness:,0.9062,0.9062,0,, ,Correctness:,0.0925,0.9075,0,, ,Correctness:,0.0925,0.9075,0,, ,Correctness:,0.9062,0.9062,0,, ,Correctness:,0.3262,0.6738,1,, 
,Correctness:,0.9375,0.9375,0,, ,Correctness:,0.0612,0.9387,0,, ,Correctness:,0.0625,0.9375,0,, ,Correctness:,0.9375,0.9375,0,, ,Correctness:,0.3162,0.6838,1,, 
,Correctness:,0.9000,0.9000,0,, ,Correctness:,0.1025,0.8975,0,, ,Correctness:,0.1075,0.8925,0,, ,Correctness:,0.9000,0.9000,0,, ,Correctness:,0.3400,0.6600,1,, 
,Correctness:,0.9425,0.9425,0,, ,Correctness:,0.0587,0.9413,0,, ,Correctness:,0.0587,0.9413,0,, ,Correctness:,0.9425,0.9425,0,, ,Correctness:,0.2300,0.7700,1,, 
,Correctness:,0.8938,0.8938,0,, ,Correctness:,0.1044,0.8956,0,, ,Correctness:,0.1000,0.9000,0,, ,Correctness:,0.8938,0.8938,0,, ,Correctness:,0.4144,0.5856,1,, 
,Correctness:,0.9344,0.9344,0,, ,Correctness:,0.0663,0.9337,0,, ,Correctness:,0.0638,0.9363,0,, ,Correctness:,0.9344,0.9344,0,, ,Correctness:,0.2969,0.7031,1,, 
,Correctness:,0.9213,0.9213,0,, ,Correctness:,0.0806,0.9194,0,, ,Correctness:,0.0756,0.9244,0,, ,Correctness:,0.9206,0.9206,0,, ,Correctness:,0.3219,0.6781,1,, 
,Correctness:,0.9244,0.9244,0,, ,Correctness:,0.0737,0.9263,0,, ,Correctness:,0.0688,0.9313,0,, ,Correctness:,0.9244,0.9244,0,, ,Correctness:,0.3400,0.6600,1,, 
,Correctness:,0.9144,0.9144,0,, ,Correctness:,0.0869,0.9131,0,, ,Correctness:,0.0869,0.9131,0,, ,Correctness:,0.9144,0.9144,0,, ,Correctness:,0.3325,0.6675,1,, 
,Correctness:,0.9150,0.9150,0,, ,Correctness:,0.0844,0.9156,0,, ,Correctness:,0.0794,0.9206,0,, ,Correctness:,0.9150,0.9150,0,, ,Correctness:,0.2637,0.7363,1,, 
,Correctness:,0.9119,0.9119,0,, ,Correctness:,0.0875,0.9125,0,, ,Correctness:,0.0850,0.9150,0,, ,Correctness:,0.9119,0.9119,0,, ,Correctness:,0.3894,0.6106,1,, 
,Correctness:,0.8925,0.8925,0,, ,Correctness:,0.1081,0.8919,0,, ,Correctness:,0.1106,0.8894,0,, ,Correctness:,0.8925,0.8925,0,, ,Correctness:,0.3631,0.6369,1,, 
,Correctness:,0.9287,0.9287,0,, ,Correctness:,0.0675,0.9325,0,, ,Correctness:,0.0700,0.9300,0,, ,Correctness:,0.9287,0.9287,0,, ,Correctness:,0.3056,0.6944,1,, 
,Correctness:,0.9012,0.9012,0,, ,Correctness:,0.0956,0.9044,0,, ,Correctness:,0.0906,0.9094,0,, ,Correctness:,0.9012,0.9012,0,, ,Correctness:,0.3906,0.6094,1,, 
Average:,0.9123,,,,, Average:,0.9136,,,,, Average:,0.9150,,,,, Average:,0.9121,,,,, Average:,0.6707,,,,, 
,Correctness:,0.9100,0.9100,0,, ,Correctness:,0.8700,0.8700,0,, ,Correctness:,0.8700,0.8700,0,, ,Correctness:,0.1900,0.8100,1,, ,Correctness:,0.1900,0.8100,1,, 
,Correctness:,0.9000,0.9000,0,, ,Correctness:,0.8800,0.8800,0,, ,Correctness:,0.8800,0.8800,0,, ,Correctness:,0.3900,0.6100,1,, ,Correctness:,0.3900,0.6100,1,, 
,Correctness:,0.9300,0.9300,0,, ,Correctness:,0.9300,0.9300,0,, ,Correctness:,0.9300,0.9300,0,, ,Correctness:,0.3200,0.6800,1,, ,Correctness:,0.3200,0.6800,1,, 
,Correctness:,0.9400,0.9400,0,, ,Correctness:,0.9200,0.9200,0,, ,Correctness:,0.9200,0.9200,0,, ,Correctness:,0.2000,0.8000,1,, ,Correctness:,0.2000,0.8000,1,, 
,Correctness:,0.8800,0.8800,0,, ,Correctness:,0.9000,0.9000,0,, ,Correctness:,0.9000,0.9000,0,, ,Correctness:,0.1700,0.8300,1,, ,Correctness:,0.1700,0.8300,1,, 
,Correctness:,0.8900,0.8900,0,, ,Correctness:,0.8500,0.8500,0,, ,Correctness:,0.8500,0.8500,0,, ,Correctness:,0.2600,0.7400,1,, ,Correctness:,0.2600,0.7400,1,, 
,Correctness:,0.9600,0.9600,0,, ,Correctness:,0.9400,0.9400,0,, ,Correctness:,0.9400,0.9400,0,, ,Correctness:,0.4000,0.6000,1,, ,Correctness:,0.4000,0.6000,1,, 
,Correctness:,0.9700,0.9700,0,, ,Correctness:,0.9700,0.9700,0,, ,Correctness:,0.9700,0.9700,0,, ,Correctness:,0.1300,0.8700,1,, ,Correctness:,0.1300,0.8700,1,, 
,Correctness:,0.9100,0.9100,0,, ,Correctness:,0.8900,0.8900,0,, ,Correctness:,0.8900,0.8900,0,, ,Correctness:,0.2500,0.7500,1,, ,Correctness:,0.2500,0.7500,1,, 
,Correctness:,0.9400,0.9400,0,, ,Correctness:,0.9400,0.9400,0,, ,Correctness:,0.9400,0.9400,0,, ,Correctness:,0.5100,0.5100,1,, ,Correctness:,0.5100,0.5100,1,, 
,Correctness:,0.8900,0.8900,0,, ,Correctness:,0.8600,0.8600,0,, ,Correctness:,0.8600,0.8600,0,, ,Correctness:,0.3700,0.6300,1,, ,Correctness:,0.3700,0.6300,1,, 
,Correctness:,0.9000,0.9000,0,, ,Correctness:,0.8800,0.8800,0,, ,Correctness:,0.8800,0.8800,0,, ,Correctness:,0.2500,0.7500,1,, ,Correctness:,0.2500,0.7500,1,, 
,Correctness:,0.8950,0.8950,0,, ,Correctness:,0.9050,0.9050,0,, ,Correctness:,0.9050,0.9050,0,, ,Correctness:,0.4900,0.5100,1,, ,Correctness:,0.4900,0.5100,1,, 
,Correctness:,0.8650,0.8650,0,, ,Correctness:,0.8450,0.8450,0,, ,Correctness:,0.8450,0.8450,0,, ,Correctness:,0.4150,0.5850,1,, ,Correctness:,0.4150,0.5850,1,, 
,Correctness:,0.8300,0.8300,0,, ,Correctness:,0.8400,0.8400,0,, ,Correctness:,0.8400,0.8400,0,, ,Correctness:,0.2700,0.7300,1,, ,Correctness:,0.2700,0.7300,1,, 
,Correctness:,0.9650,0.9650,0,, ,Correctness:,0.9450,0.9450,0,, ,Correctness:,0.9450,0.9450,0,, ,Correctness:,0.3750,0.6250,1,, ,Correctness:,0.3750,0.6250,1,, 
,Correctness:,0.9350,0.9350,0,, ,Correctness:,0.9150,0.9150,0,, ,Correctness:,0.9150,0.9150,0,, ,Correctness:,0.3650,0.6350,1,, ,Correctness:,0.3650,0.6350,1,, 
,Correctness:,0.9100,0.9100,0,, ,Correctness:,0.9100,0.9100,0,, ,Correctness:,0.9100,0.9100,0,, ,Correctness:,0.4900,0.5100,1,, ,Correctness:,0.4900,0.5100,1,, 
,Correctness:,0.9050,0.9050,0,, ,Correctness:,0.9050,0.9050,0,, ,Correctness:,0.9050,0.9050,0,, ,Correctness:,0.4400,0.5600,1,, ,Correctness:,0.4400,0.5600,1,, 
,Correctness:,0.8450,0.8450,0,, ,Correctness:,0.8450,0.8450,0,, ,Correctness:,0.8450,0.8450,0,, ,Correctness:,0.3650,0.6350,1,, ,Correctness:,0.3650,0.6350,1,, 
,Correctness:,0.9150,0.9150,0,, ,Correctness:,0.9050,0.9050,0,, ,Correctness:,0.9050,0.9050,0,, ,Correctness:,0.3000,0.7000,1,, ,Correctness:,0.3000,0.7000,1,, 
,Correctness:,0.9100,0.9100,0,, ,Correctness:,0.8950,0.8950,0,, ,Correctness:,0.8950,0.8950,0,, ,Correctness:,0.3275,0.6725,1,, ,Correctness:,0.3275,0.6725,1,, 
,Correctness:,0.9375,0.9375,0,, ,Correctness:,0.9275,0.9275,0,, ,Correctness:,0.9275,0.9275,0,, ,Correctness:,0.4300,0.5700,1,, ,Correctness:,0.4300,0.5700,1,, 
,Correctness:,0.9025,0.9025,0,, ,Correctness:,0.8975,0.8975,0,, ,Correctness:,0.8975,0.8975,0,, ,Correctness:,0.2950,0.7050,1,, ,Correctness:,0.2950,0.7050,1,, 
,Correctness:,0.9350,0.9350,0,, ,Correctness:,0.9250,0.9250,0,, ,Correctness:,0.9250,0.9250,0,, ,Correctness:,0.3000,0.7000,1,, ,Correctness:,0.3000,0.7000,1,, 
,Correctness:,0.8925,0.8925,0,, ,Correctness:,0.8925,0.8925,0,, ,Correctness:,0.8925,0.8925,0,, ,Correctness:,0.2625,0.7375,1,, ,Correctness:,0.2625,0.7375,1,, 
,Correctness:,0.8950,0.8950,0,, ,Correctness:,0.8950,0.8950,0,, ,Correctness:,0.8950,0.8950,0,, ,Correctness:,0.3300,0.6700,1,, ,Correctness:,0.3300,0.6700,1,, 
,Correctness:,0.9225,0.9225,0,, ,Correctness:,0.9125,0.9125,0,, ,Correctness:,0.9125,0.9125,0,, ,Correctness:,0.3375,0.6625,1,, ,Correctness:,0.3375,0.6625,1,, 
,Correctness:,0.9150,0.9150,0,, ,Correctness:,0.9050,0.9050,0,, ,Correctness:,0.9050,0.9050,0,, ,Correctness:,0.2500,0.7500,1,, ,Correctness:,0.2500,0.7500,1,, 
,Correctness:,0.9350,0.9350,0,, ,Correctness:,0.9350,0.9350,0,, ,Correctness:,0.9350,0.9350,0,, ,Correctness:,0.3975,0.6025,1,, ,Correctness:,0.3975,0.6025,1,, 
,Correctness:,0.8788,0.8788,0,, ,Correctness:,0.8662,0.8662,0,, ,Correctness:,0.8662,0.8662,0,, ,Correctness:,0.2550,0.7450,1,, ,Correctness:,0.2550,0.7450,1,, 
,Correctness:,0.8975,0.8975,0,, ,Correctness:,0.8975,0.8975,0,, ,Correctness:,0.8975,0.8975,0,, ,Correctness:,0.3325,0.6675,1,, ,Correctness:,0.3325,0.6675,1,, 
,Correctness:,0.9175,0.9175,0,, ,Correctness:,0.9150,0.9150,0,, ,Correctness:,0.9150,0.9150,0,, ,Correctness:,0.4188,0.5813,1,, ,Correctness:,0.4188,0.5813,1,, 
,Correctness:,0.9237,0.9237,0,, ,Correctness:,0.9187,0.9187,0,, ,Correctness:,0.9187,0.9187,0,, ,Correctness:,0.2712,0.7288,1,, ,Correctness:,0.2712,0.7288,1,, 
,Correctness:,0.8900,0.8900,0,, ,Correctness:,0.8750,0.8750,0,, ,Correctness:,0.8750,0.8750,0,, ,Correctness:,0.4537,0.5463,1,, ,Correctness:,0.4537,0.5463,1,, 
,Correctness:,0.9537,0.9537,0,, ,Correctness:,0.9437,0.9437,0,, ,Correctness:,0.9437,0.9437,0,, ,Correctness:,0.2425,0.7575,1,, ,Correctness:,0.2425,0.7575,1,, 
,Correctness:,0.9062,0.9062,0,, ,Correctness:,0.9012,0.9012,0,, ,Correctness:,0.9012,0.9012,0,, ,Correctness:,0.3262,0.6738,1,, ,Correctness:,0.3262,0.6738,1,, 
,Correctness:,0.9375,0.9375,0,, ,Correctness:,0.9225,0.9225,0,, ,Correctness:,0.9225,0.9225,0,, ,Correctness:,0.3162,0.6838,1,, ,Correctness:,0.3162,0.6838,1,, 
,Correctness:,0.9000,0.9000,0,, ,Correctness:,0.9025,0.9025,0,, ,Correctness:,0.9025,0.9025,0,, ,Correctness:,0.3400,0.6600,1,, ,Correctness:,0.3400,0.6600,1,, 
,Correctness:,0.9425,0.9425,0,, ,Correctness:,0.9350,0.9350,0,, ,Correctness:,0.9350,0.9350,0,, ,Correctness:,0.2300,0.7700,1,, ,Correctness:,0.2300,0.7700,1,, 
,Correctness:,0.8938,0.8938,0,, ,Correctness:,0.8900,0.8900,0,, ,Correctness:,0.8900,0.8900,0,, ,Correctness:,0.4144,0.5856,1,, ,Correctness:,0.4144,0.5856,1,, 
,Correctness:,0.9344,0.9344,0,, ,Correctness:,0.9256,0.9256,0,, ,Correctness:,0.9256,0.9256,0,, ,Correctness:,0.2969,0.7031,1,, ,Correctness:,0.2969,0.7031,1,, 
,Correctness:,0.9213,0.9213,0,, ,Correctness:,0.8988,0.8988,0,, ,Correctness:,0.8988,0.8988,0,, ,Correctness:,0.3219,0.6781,1,, ,Correctness:,0.3219,0.6781,1,, 
,Correctness:,0.9244,0.9244,0,, ,Correctness:,0.9131,0.9131,0,, ,Correctness:,0.9131,0.9131,0,, ,Correctness:,0.3400,0.6600,1,, ,Correctness:,0.3400,0.6600,1,, 
,Correctness:,0.9144,0.9144,0,, ,Correctness:,0.9056,0.9056,0,, ,Correctness:,0.9056,0.9056,0,, ,Correctness:,0.3325,0.6675,1,, ,Correctness:,0.3325,0.6675,1,, 
,Correctness:,0.9150,0.9150,0,, ,Correctness:,0.9050,0.9050,0,, ,Correctness:,0.9050,0.9050,0,, ,Correctness:,0.2637,0.7363,1,, ,Correctness:,0.2637,0.7363,1,, 
,Correctness:,0.9119,0.9119,0,, ,Correctness:,0.9069,0.9069,0,, ,Correctness:,0.9069,0.9069,0,, ,Correctness:,0.3894,0.6106,1,, ,Correctness:,0.3894,0.6106,1,, 
,Correctness:,0.8925,0.8925,0,, ,Correctness:,0.8925,0.8925,0,, ,Correctness:,0.8925,0.8925,0,, ,Correctness:,0.3631,0.6369,1,, ,Correctness:,0.3631,0.6369,1,, 
,Correctness:,0.9244,0.9244,0,, ,Correctness:,0.9125,0.9125,0,, ,Correctness:,0.9125,0.9125,0,, ,Correctness:,0.3056,0.6944,1,, ,Correctness:,0.3056,0.6944,1,, 
,Correctness:,0.9012,0.9012,0,, ,Correctness:,0.8912,0.8912,0,, ,Correctness:,0.8912,0.8912,0,, ,Correctness:,0.3906,0.6094,1,, ,Correctness:,0.3906,0.6094,1,, 
Average:,0.9122,,,,, Average:,0.9030,,,,, Average:,0.9030,,,,, Average:,0.6707,,,,, Average:,0.6707,,,,, 
