,Correctness:,0.0500,0.9500,0,, ,Correctness:,0.5600,0.5600,1,, ,Correctness:,0.5400,0.5400,1,, ,Correctness:,0.0500,0.9500,0,, 
,Correctness:,0.1600,0.8400,0,, ,Correctness:,0.4300,0.5700,1,, ,Correctness:,0.6100,0.6100,1,, ,Correctness:,0.1600,0.8400,0,, 
,Correctness:,0.2800,0.7200,0,, ,Correctness:,0.6300,0.6300,1,, ,Correctness:,0.4200,0.5800,1,, ,Correctness:,0.2800,0.7200,0,, 
,Correctness:,0.0800,0.9200,0,, ,Correctness:,0.4900,0.5100,1,, ,Correctness:,0.5600,0.5600,1,, ,Correctness:,0.0800,0.9200,0,, 
,Correctness:,0.2000,0.8000,0,, ,Correctness:,0.4200,0.5800,1,, ,Correctness:,0.6000,0.6000,1,, ,Correctness:,0.2000,0.8000,0,, 
,Correctness:,0.0300,0.9700,0,, ,Correctness:,0.7600,0.7600,1,, ,Correctness:,0.3200,0.6800,1,, ,Correctness:,0.0300,0.9700,0,, 
,Correctness:,0.0500,0.9500,0,, ,Correctness:,0.6100,0.6100,1,, ,Correctness:,0.5000,0.5000,1,, ,Correctness:,0.0500,0.9500,0,, 
,Correctness:,0.0700,0.9300,0,, ,Correctness:,0.6000,0.6000,1,, ,Correctness:,0.4400,0.5600,1,, ,Correctness:,0.0700,0.9300,0,, 
,Correctness:,0.2200,0.7800,0,, ,Correctness:,0.5700,0.5700,1,, ,Correctness:,0.4600,0.5400,1,, ,Correctness:,0.1900,0.8100,0,, 
,Correctness:,0.1200,0.8800,0,, ,Correctness:,0.6300,0.6300,1,, ,Correctness:,0.4200,0.5800,1,, ,Correctness:,0.1200,0.8800,0,, 
,Correctness:,0.0650,0.9350,0,, ,Correctness:,0.8300,0.8300,1,, ,Correctness:,0.2950,0.7050,1,, ,Correctness:,0.0650,0.9350,0,, 
,Correctness:,0.1050,0.8950,0,, ,Correctness:,0.6900,0.6900,1,, ,Correctness:,0.3950,0.6050,1,, ,Correctness:,0.1050,0.8950,0,, 
,Correctness:,0.0450,0.9550,0,, ,Correctness:,0.3650,0.6350,1,, ,Correctness:,0.6600,0.6600,1,, ,Correctness:,0.0450,0.9550,0,, 
,Correctness:,0.1200,0.8800,0,, ,Correctness:,0.7050,0.7050,1,, ,Correctness:,0.3600,0.6400,1,, ,Correctness:,0.1200,0.8800,0,, 
,Correctness:,0.1200,0.8800,0,, ,Correctness:,0.5550,0.5550,1,, ,Correctness:,0.5050,0.5050,1,, ,Correctness:,0.1200,0.8800,0,, 
,Correctness:,0.0750,0.9250,0,, ,Correctness:,0.5600,0.5600,1,, ,Correctness:,0.5100,0.5100,1,, ,Correctness:,0.0750,0.9250,0,, 
,Correctness:,0.1350,0.8650,0,, ,Correctness:,0.6600,0.6600,1,, ,Correctness:,0.4050,0.5950,1,, ,Correctness:,0.1350,0.8650,0,, 
,Correctness:,0.0800,0.9200,0,, ,Correctness:,0.5300,0.5300,1,, ,Correctness:,0.5250,0.5250,1,, ,Correctness:,0.0800,0.9200,0,, 
,Correctness:,0.1000,0.9000,0,, ,Correctness:,0.5650,0.5650,1,, ,Correctness:,0.5150,0.5150,1,, ,Correctness:,0.1000,0.9000,0,, 
,Correctness:,0.1350,0.8650,0,, ,Correctness:,0.7050,0.7050,1,, ,Correctness:,0.3700,0.6300,1,, ,Correctness:,0.1350,0.8650,0,, 
,Correctness:,0.0500,0.9500,0,, ,Correctness:,0.4675,0.5325,1,, ,Correctness:,0.5800,0.5800,1,, ,Correctness:,0.0500,0.9500,0,, 
,Correctness:,0.1325,0.8675,0,, ,Correctness:,0.5925,0.5925,1,, ,Correctness:,0.4725,0.5275,1,, ,Correctness:,0.1325,0.8675,0,, 
,Correctness:,0.1050,0.8950,0,, ,Correctness:,0.5500,0.5500,1,, ,Correctness:,0.4850,0.5150,1,, ,Correctness:,0.1050,0.8950,0,, 
,Correctness:,0.1250,0.8750,0,, ,Correctness:,0.6000,0.6000,1,, ,Correctness:,0.4550,0.5450,1,, ,Correctness:,0.1250,0.8750,0,, 
,Correctness:,0.0950,0.9050,0,, ,Correctness:,0.5400,0.5400,1,, ,Correctness:,0.5275,0.5275,1,, ,Correctness:,0.0950,0.9050,0,, 
,Correctness:,0.0975,0.9025,0,, ,Correctness:,0.6675,0.6675,1,, ,Correctness:,0.3900,0.6100,1,, ,Correctness:,0.0975,0.9025,0,, 
,Correctness:,0.0700,0.9300,0,, ,Correctness:,0.5825,0.5825,1,, ,Correctness:,0.4775,0.5225,1,, ,Correctness:,0.0700,0.9300,0,, 
,Correctness:,0.1075,0.8925,0,, ,Correctness:,0.4875,0.5125,1,, ,Correctness:,0.5575,0.5575,1,, ,Correctness:,0.1075,0.8925,0,, 
,Correctness:,0.1325,0.8675,0,, ,Correctness:,0.5500,0.5500,1,, ,Correctness:,0.5000,0.5000,1,, ,Correctness:,0.1325,0.8675,0,, 
,Correctness:,0.0725,0.9275,0,, ,Correctness:,0.6225,0.6225,1,, ,Correctness:,0.4500,0.5500,1,, ,Correctness:,0.0725,0.9275,0,, 
,Correctness:,0.0988,0.9012,0,, ,Correctness:,0.5625,0.5625,1,, ,Correctness:,0.4913,0.5088,1,, ,Correctness:,0.0988,0.9012,0,, 
,Correctness:,0.0887,0.9113,0,, ,Correctness:,0.5750,0.5750,1,, ,Correctness:,0.4813,0.5188,1,, ,Correctness:,0.0887,0.9113,0,, 
,Correctness:,0.1187,0.8812,0,, ,Correctness:,0.5787,0.5787,1,, ,Correctness:,0.4875,0.5125,1,, ,Correctness:,0.1225,0.8775,0,, 
,Correctness:,0.0762,0.9237,0,, ,Correctness:,0.7075,0.7075,1,, ,Correctness:,0.3850,0.6150,1,, ,Correctness:,0.0762,0.9237,0,, 
,Correctness:,0.1013,0.8987,0,, ,Correctness:,0.6925,0.6925,1,, ,Correctness:,0.3875,0.6125,1,, ,Correctness:,0.1013,0.8987,0,, 
,Correctness:,0.0938,0.9062,0,, ,Correctness:,0.6225,0.6225,1,, ,Correctness:,0.4437,0.5563,1,, ,Correctness:,0.0938,0.9062,0,, 
,Correctness:,0.0675,0.9325,0,, ,Correctness:,0.5950,0.5950,1,, ,Correctness:,0.4662,0.5337,1,, ,Correctness:,0.0675,0.9325,0,, 
,Correctness:,0.1175,0.8825,0,, ,Correctness:,0.6238,0.6238,1,, ,Correctness:,0.4325,0.5675,1,, ,Correctness:,0.1175,0.8825,0,, 
,Correctness:,0.1163,0.8838,0,, ,Correctness:,0.4587,0.5413,1,, ,Correctness:,0.5900,0.5900,1,, ,Correctness:,0.1163,0.8838,0,, 
,Correctness:,0.0963,0.9038,0,, ,Correctness:,0.5875,0.5875,1,, ,Correctness:,0.4738,0.5262,1,, ,Correctness:,0.0963,0.9038,0,, 
,Correctness:,0.0875,0.9125,0,, ,Correctness:,0.5325,0.5325,1,, ,Correctness:,0.5262,0.5262,1,, ,Correctness:,0.0875,0.9125,0,, 
,Correctness:,0.0931,0.9069,0,, ,Correctness:,0.5925,0.5925,1,, ,Correctness:,0.4725,0.5275,1,, ,Correctness:,0.0931,0.9069,0,, 
,Correctness:,0.1106,0.8894,0,, ,Correctness:,0.5637,0.5637,1,, ,Correctness:,0.4869,0.5131,1,, ,Correctness:,0.1106,0.8894,0,, 
,Correctness:,0.1200,0.8800,0,, ,Correctness:,0.6425,0.6425,1,, ,Correctness:,0.4369,0.5631,1,, ,Correctness:,0.1200,0.8800,0,, 
,Correctness:,0.0875,0.9125,0,, ,Correctness:,0.5794,0.5794,1,, ,Correctness:,0.4838,0.5162,1,, ,Correctness:,0.0875,0.9125,0,, 
,Correctness:,0.0838,0.9163,0,, ,Correctness:,0.5463,0.5463,1,, ,Correctness:,0.5131,0.5131,1,, ,Correctness:,0.0838,0.9163,0,, 
,Correctness:,0.0919,0.9081,0,, ,Correctness:,0.5875,0.5875,1,, ,Correctness:,0.4738,0.5262,1,, ,Correctness:,0.0919,0.9081,0,, 
,Correctness:,0.1069,0.8931,0,, ,Correctness:,0.5950,0.5950,1,, ,Correctness:,0.4625,0.5375,1,, ,Correctness:,0.1069,0.8931,0,, 
,Correctness:,0.0950,0.9050,0,, ,Correctness:,0.5325,0.5325,1,, ,Correctness:,0.5200,0.5200,1,, ,Correctness:,0.0950,0.9050,0,, 
,Correctness:,0.1138,0.8862,0,, ,Correctness:,0.6325,0.6325,1,, ,Correctness:,0.4331,0.5669,1,, ,Correctness:,0.1138,0.8862,0,, 
Average:,0.8961,,,,, Average:,0.6019,,,,, Average:,0.5585,,,,, Average:,0.8967,,,,, 
,Correctness:,0.5000,0.5000,1,, ,Correctness:,0.0500,0.9500,0,, ,Correctness:,0.6100,0.6100,1,, ,Correctness:,0.0500,0.9500,0,, 
,Correctness:,0.5000,0.5000,1,, ,Correctness:,0.1600,0.8400,0,, ,Correctness:,0.5400,0.5400,1,, ,Correctness:,0.1600,0.8400,0,, 
,Correctness:,0.5000,0.5000,1,, ,Correctness:,0.2800,0.7200,0,, ,Correctness:,0.7400,0.7400,1,, ,Correctness:,0.2800,0.7200,0,, 
,Correctness:,0.5000,0.5000,1,, ,Correctness:,0.0800,0.9200,0,, ,Correctness:,0.5800,0.5800,1,, ,Correctness:,0.0800,0.9200,0,, 
,Correctness:,0.5100,0.5100,1,, ,Correctness:,0.2000,0.8000,0,, ,Correctness:,0.4500,0.5500,1,, ,Correctness:,0.1800,0.8200,0,, 
,Correctness:,0.5500,0.5500,1,, ,Correctness:,0.0300,0.9700,0,, ,Correctness:,0.9300,0.9300,1,, ,Correctness:,0.0100,0.9900,0,, 
,Correctness:,0.5200,0.5200,1,, ,Correctness:,0.0500,0.9500,0,, ,Correctness:,0.6800,0.6800,1,, ,Correctness:,0.0100,0.9900,0,, 
,Correctness:,0.5200,0.5200,1,, ,Correctness:,0.0700,0.9300,0,, ,Correctness:,0.6000,0.6000,1,, ,Correctness:,0.0300,0.9700,0,, 
,Correctness:,0.5000,0.5000,1,, ,Correctness:,0.2200,0.7800,0,, ,Correctness:,0.5800,0.5800,1,, ,Correctness:,0.2200,0.7800,0,, 
,Correctness:,0.5300,0.5300,1,, ,Correctness:,0.1200,0.8800,0,, ,Correctness:,0.7300,0.7300,1,, ,Correctness:,0.1000,0.9000,0,, 
,Correctness:,0.5150,0.5150,1,, ,Correctness:,0.0650,0.9350,0,, ,Correctness:,0.9750,0.9750,1,, ,Correctness:,0.0350,0.9650,0,, 
,Correctness:,0.4950,0.5050,1,, ,Correctness:,0.1050,0.8950,0,, ,Correctness:,0.8450,0.8450,1,, ,Correctness:,0.1050,0.8950,0,, 
,Correctness:,0.5150,0.5150,1,, ,Correctness:,0.0450,0.9550,0,, ,Correctness:,0.4300,0.5700,1,, ,Correctness:,0.0450,0.9550,0,, 
,Correctness:,0.5200,0.5200,1,, ,Correctness:,0.1200,0.8800,0,, ,Correctness:,0.7900,0.7900,1,, ,Correctness:,0.1100,0.8900,0,, 
,Correctness:,0.5150,0.5150,1,, ,Correctness:,0.1200,0.8800,0,, ,Correctness:,0.5850,0.5850,1,, ,Correctness:,0.1200,0.8800,0,, 
,Correctness:,0.5100,0.5100,1,, ,Correctness:,0.0750,0.9250,0,, ,Correctness:,0.6300,0.6300,1,, ,Correctness:,0.0650,0.9350,0,, 
,Correctness:,0.5300,0.5300,1,, ,Correctness:,0.1350,0.8650,0,, ,Correctness:,0.7350,0.7350,1,, ,Correctness:,0.1050,0.8950,0,, 
,Correctness:,0.5150,0.5150,1,, ,Correctness:,0.0800,0.9200,0,, ,Correctness:,0.6300,0.6300,1,, ,Correctness:,0.0900,0.9100,0,, 
,Correctness:,0.5150,0.5150,1,, ,Correctness:,0.1000,0.9000,0,, ,Correctness:,0.6250,0.6250,1,, ,Correctness:,0.1000,0.9000,0,, 
,Correctness:,0.5250,0.5250,1,, ,Correctness:,0.1350,0.8650,0,, ,Correctness:,0.7500,0.7500,1,, ,Correctness:,0.1150,0.8850,0,, 
,Correctness:,0.5125,0.5125,1,, ,Correctness:,0.0500,0.9500,0,, ,Correctness:,0.5200,0.5200,1,, ,Correctness:,0.0550,0.9450,0,, 
,Correctness:,0.5000,0.5000,1,, ,Correctness:,0.1325,0.8675,0,, ,Correctness:,0.6525,0.6525,1,, ,Correctness:,0.1200,0.8800,0,, 
,Correctness:,0.5050,0.5050,1,, ,Correctness:,0.1050,0.8950,0,, ,Correctness:,0.6425,0.6425,1,, ,Correctness:,0.1100,0.8900,0,, 
,Correctness:,0.5150,0.5150,1,, ,Correctness:,0.1250,0.8750,0,, ,Correctness:,0.7075,0.7075,1,, ,Correctness:,0.1200,0.8800,0,, 
,Correctness:,0.5175,0.5175,1,, ,Correctness:,0.0950,0.9050,0,, ,Correctness:,0.6150,0.6150,1,, ,Correctness:,0.0900,0.9100,0,, 
,Correctness:,0.5225,0.5225,1,, ,Correctness:,0.0975,0.9025,0,, ,Correctness:,0.7825,0.7825,1,, ,Correctness:,0.0825,0.9175,0,, 
,Correctness:,0.5175,0.5175,1,, ,Correctness:,0.0700,0.9300,0,, ,Correctness:,0.6775,0.6775,1,, ,Correctness:,0.0600,0.9400,0,, 
,Correctness:,0.5150,0.5150,1,, ,Correctness:,0.1075,0.8925,0,, ,Correctness:,0.5425,0.5425,1,, ,Correctness:,0.0875,0.9125,0,, 
,Correctness:,0.5100,0.5100,1,, ,Correctness:,0.1325,0.8675,0,, ,Correctness:,0.6200,0.6200,1,, ,Correctness:,0.1025,0.8975,0,, 
,Correctness:,0.5075,0.5075,1,, ,Correctness:,0.0725,0.9275,0,, ,Correctness:,0.7125,0.7125,1,, ,Correctness:,0.0475,0.9525,0,, 
,Correctness:,0.5100,0.5100,1,, ,Correctness:,0.0988,0.9012,0,, ,Correctness:,0.6538,0.6538,1,, ,Correctness:,0.0912,0.9087,0,, 
,Correctness:,0.5125,0.5125,1,, ,Correctness:,0.0887,0.9113,0,, ,Correctness:,0.6775,0.6775,1,, ,Correctness:,0.0737,0.9263,0,, 
,Correctness:,0.5100,0.5100,1,, ,Correctness:,0.1187,0.8812,0,, ,Correctness:,0.6613,0.6613,1,, ,Correctness:,0.1062,0.8938,0,, 
,Correctness:,0.5162,0.5162,1,, ,Correctness:,0.0762,0.9237,0,, ,Correctness:,0.8087,0.8087,1,, ,Correctness:,0.0663,0.9337,0,, 
,Correctness:,0.5025,0.5025,1,, ,Correctness:,0.1013,0.8987,0,, ,Correctness:,0.7850,0.7850,1,, ,Correctness:,0.0963,0.9038,0,, 
,Correctness:,0.5188,0.5188,1,, ,Correctness:,0.0938,0.9062,0,, ,Correctness:,0.7175,0.7175,1,, ,Correctness:,0.0875,0.9125,0,, 
,Correctness:,0.5050,0.5050,1,, ,Correctness:,0.0675,0.9325,0,, ,Correctness:,0.6825,0.6825,1,, ,Correctness:,0.0675,0.9325,0,, 
,Correctness:,0.5000,0.5000,1,, ,Correctness:,0.1175,0.8825,0,, ,Correctness:,0.7250,0.7250,1,, ,Correctness:,0.1100,0.8900,0,, 
,Correctness:,0.5050,0.5050,1,, ,Correctness:,0.1163,0.8838,0,, ,Correctness:,0.5188,0.5188,1,, ,Correctness:,0.1163,0.8838,0,, 
,Correctness:,0.5162,0.5162,1,, ,Correctness:,0.0963,0.9038,0,, ,Correctness:,0.6813,0.6813,1,, ,Correctness:,0.0912,0.9087,0,, 
,Correctness:,0.5069,0.5069,1,, ,Correctness:,0.0875,0.9125,0,, ,Correctness:,0.6075,0.6075,1,, ,Correctness:,0.0850,0.9150,0,, 
,Correctness:,0.5156,0.5156,1,, ,Correctness:,0.0931,0.9069,0,, ,Correctness:,0.6681,0.6681,1,, ,Correctness:,0.0831,0.9169,0,, 
,Correctness:,0.5038,0.5038,1,, ,Correctness:,0.1106,0.8894,0,, ,Correctness:,0.6400,0.6400,1,, ,Correctness:,0.1056,0.8944,0,, 
,Correctness:,0.5050,0.5050,1,, ,Correctness:,0.1200,0.8800,0,, ,Correctness:,0.7325,0.7325,1,, ,Correctness:,0.1113,0.8888,0,, 
,Correctness:,0.5088,0.5088,1,, ,Correctness:,0.0875,0.9125,0,, ,Correctness:,0.6694,0.6694,1,, ,Correctness:,0.0800,0.9200,0,, 
,Correctness:,0.5062,0.5062,1,, ,Correctness:,0.0838,0.9163,0,, ,Correctness:,0.6225,0.6225,1,, ,Correctness:,0.0775,0.9225,0,, 
,Correctness:,0.5031,0.5031,1,, ,Correctness:,0.0919,0.9081,0,, ,Correctness:,0.6656,0.6656,1,, ,Correctness:,0.0862,0.9138,0,, 
,Correctness:,0.5112,0.5112,1,, ,Correctness:,0.1069,0.8931,0,, ,Correctness:,0.6869,0.6869,1,, ,Correctness:,0.0944,0.9056,0,, 
,Correctness:,0.5088,0.5088,1,, ,Correctness:,0.0950,0.9050,0,, ,Correctness:,0.6194,0.6194,1,, ,Correctness:,0.0900,0.9100,0,, 
,Correctness:,0.5200,0.5200,1,, ,Correctness:,0.1138,0.8862,0,, ,Correctness:,0.7275,0.7275,1,, ,Correctness:,0.1087,0.8912,0,, 
Average:,0.5121,,,,, Average:,0.8961,,,,, Average:,0.6740,,,,, Average:,0.9057,,,,, 
,Correctness:,0.9000,0.9000,0,, ,Correctness:,0.9000,0.9000,0,, ,Correctness:,0.5100,0.5100,1,, ,Correctness:,0.4000,0.6000,1,, 
,Correctness:,0.8500,0.8500,0,, ,Correctness:,0.8500,0.8500,0,, ,Correctness:,0.4600,0.5400,1,, ,Correctness:,0.4700,0.5300,1,, 
,Correctness:,0.7300,0.7300,0,, ,Correctness:,0.7300,0.7300,0,, ,Correctness:,0.6500,0.6500,1,, ,Correctness:,0.2700,0.7300,1,, 
,Correctness:,0.9300,0.9300,0,, ,Correctness:,0.9300,0.9300,0,, ,Correctness:,0.5500,0.5500,1,, ,Correctness:,0.4300,0.5700,1,, 
,Correctness:,0.7900,0.7900,0,, ,Correctness:,0.7700,0.7700,0,, ,Correctness:,0.3700,0.6300,1,, ,Correctness:,0.5600,0.5600,1,, 
,Correctness:,0.9700,0.9700,0,, ,Correctness:,0.9500,0.9500,0,, ,Correctness:,0.7900,0.7900,1,, ,Correctness:,0.0800,0.9200,1,, 
,Correctness:,0.9800,0.9800,0,, ,Correctness:,0.9400,0.9400,0,, ,Correctness:,0.5800,0.5800,1,, ,Correctness:,0.3100,0.6900,1,, 
,Correctness:,0.9600,0.9600,0,, ,Correctness:,0.9200,0.9200,0,, ,Correctness:,0.5000,0.5000,1,, ,Correctness:,0.3900,0.6100,1,, 
,Correctness:,0.7900,0.7900,0,, ,Correctness:,0.7900,0.7900,0,, ,Correctness:,0.4800,0.5200,1,, ,Correctness:,0.4300,0.5700,1,, 
,Correctness:,0.9100,0.9100,0,, ,Correctness:,0.8900,0.8900,0,, ,Correctness:,0.5800,0.5800,1,, ,Correctness:,0.2800,0.7200,1,, 
,Correctness:,0.9400,0.9400,0,, ,Correctness:,0.9200,0.9200,0,, ,Correctness:,0.8300,0.8300,1,, ,Correctness:,0.0300,0.9700,1,, 
,Correctness:,0.8850,0.8850,0,, ,Correctness:,0.8850,0.8850,0,, ,Correctness:,0.7550,0.7550,1,, ,Correctness:,0.1600,0.8400,1,, 
,Correctness:,0.9650,0.9650,0,, ,Correctness:,0.9650,0.9650,0,, ,Correctness:,0.4000,0.6000,1,, ,Correctness:,0.5650,0.5650,1,, 
,Correctness:,0.9000,0.9000,0,, ,Correctness:,0.8900,0.8900,0,, ,Correctness:,0.6700,0.6700,1,, ,Correctness:,0.2050,0.7950,1,, 
,Correctness:,0.8850,0.8850,0,, ,Correctness:,0.8850,0.8850,0,, ,Correctness:,0.4950,0.5050,1,, ,Correctness:,0.4200,0.5800,1,, 
,Correctness:,0.9450,0.9450,0,, ,Correctness:,0.9350,0.9350,0,, ,Correctness:,0.5000,0.5000,1,, ,Correctness:,0.3650,0.6350,1,, 
,Correctness:,0.8850,0.8850,0,, ,Correctness:,0.8550,0.8550,0,, ,Correctness:,0.6100,0.6100,1,, ,Correctness:,0.2700,0.7300,1,, 
,Correctness:,0.9000,0.9000,0,, ,Correctness:,0.9100,0.9100,0,, ,Correctness:,0.5450,0.5450,1,, ,Correctness:,0.3750,0.6250,1,, 
,Correctness:,0.8950,0.8950,0,, ,Correctness:,0.8950,0.8950,0,, ,Correctness:,0.5350,0.5350,1,, ,Correctness:,0.3700,0.6300,1,, 
,Correctness:,0.8600,0.8600,0,, ,Correctness:,0.8500,0.8500,0,, ,Correctness:,0.6850,0.6850,1,, ,Correctness:,0.2550,0.7450,1,, 
,Correctness:,0.9475,0.9475,0,, ,Correctness:,0.9525,0.9525,0,, ,Correctness:,0.4325,0.5675,1,, ,Correctness:,0.4825,0.5175,1,, 
,Correctness:,0.8725,0.8725,0,, ,Correctness:,0.8700,0.8700,0,, ,Correctness:,0.5675,0.5675,1,, ,Correctness:,0.3500,0.6500,1,, 
,Correctness:,0.8925,0.8925,0,, ,Correctness:,0.8975,0.8975,0,, ,Correctness:,0.5550,0.5550,1,, ,Correctness:,0.3600,0.6400,1,, 
,Correctness:,0.8700,0.8700,0,, ,Correctness:,0.8700,0.8700,0,, ,Correctness:,0.6225,0.6225,1,, ,Correctness:,0.2950,0.7050,1,, 
,Correctness:,0.9125,0.9125,0,, ,Correctness:,0.9075,0.9075,0,, ,Correctness:,0.5350,0.5350,1,, ,Correctness:,0.3875,0.6125,1,, 
,Correctness:,0.9075,0.9075,0,, ,Correctness:,0.8975,0.8975,0,, ,Correctness:,0.6375,0.6375,1,, ,Correctness:,0.2200,0.7800,1,, 
,Correctness:,0.9450,0.9450,0,, ,Correctness:,0.9350,0.9350,0,, ,Correctness:,0.5900,0.5900,1,, ,Correctness:,0.3200,0.6800,1,, 
,Correctness:,0.9150,0.9150,0,, ,Correctness:,0.8950,0.8950,0,, ,Correctness:,0.4650,0.5350,1,, ,Correctness:,0.4600,0.5400,1,, 
,Correctness:,0.8950,0.8950,0,, ,Correctness:,0.8650,0.8650,0,, ,Correctness:,0.5300,0.5300,1,, ,Correctness:,0.3775,0.6225,1,, 
,Correctness:,0.9525,0.9525,0,, ,Correctness:,0.9275,0.9275,0,, ,Correctness:,0.6100,0.6100,1,, ,Correctness:,0.2900,0.7100,1,, 
,Correctness:,0.9050,0.9050,0,, ,Correctness:,0.8975,0.8975,0,, ,Correctness:,0.5613,0.5613,1,, ,Correctness:,0.3475,0.6525,1,, 
,Correctness:,0.9237,0.9237,0,, ,Correctness:,0.9087,0.9087,0,, ,Correctness:,0.5962,0.5962,1,, ,Correctness:,0.3237,0.6763,1,, 
,Correctness:,0.8950,0.8950,0,, ,Correctness:,0.8825,0.8825,0,, ,Correctness:,0.5650,0.5650,1,, ,Correctness:,0.3400,0.6600,1,, 
,Correctness:,0.9387,0.9387,0,, ,Correctness:,0.9287,0.9287,0,, ,Correctness:,0.6750,0.6750,1,, ,Correctness:,0.1900,0.8100,1,, 
,Correctness:,0.9050,0.9050,0,, ,Correctness:,0.9000,0.9000,0,, ,Correctness:,0.6375,0.6375,1,, ,Correctness:,0.2162,0.7837,1,, 
,Correctness:,0.9163,0.9163,0,, ,Correctness:,0.9050,0.9050,0,, ,Correctness:,0.6075,0.6075,1,, ,Correctness:,0.2812,0.7188,1,, 
,Correctness:,0.9337,0.9337,0,, ,Correctness:,0.9337,0.9337,0,, ,Correctness:,0.5637,0.5637,1,, ,Correctness:,0.3187,0.6813,1,, 
,Correctness:,0.8900,0.8900,0,, ,Correctness:,0.8825,0.8825,0,, ,Correctness:,0.6112,0.6112,1,, ,Correctness:,0.2762,0.7238,1,, 
,Correctness:,0.8850,0.8850,0,, ,Correctness:,0.8850,0.8850,0,, ,Correctness:,0.4350,0.5650,1,, ,Correctness:,0.4825,0.5175,1,, 
,Correctness:,0.9100,0.9100,0,, ,Correctness:,0.9050,0.9050,0,, ,Correctness:,0.5713,0.5713,1,, ,Correctness:,0.3200,0.6800,1,, 
,Correctness:,0.9125,0.9125,0,, ,Correctness:,0.9100,0.9100,0,, ,Correctness:,0.5319,0.5319,1,, ,Correctness:,0.3931,0.6069,1,, 
,Correctness:,0.9194,0.9194,0,, ,Correctness:,0.9094,0.9094,0,, ,Correctness:,0.5550,0.5550,1,, ,Correctness:,0.3312,0.6687,1,, 
,Correctness:,0.8938,0.8938,0,, ,Correctness:,0.8888,0.8888,0,, ,Correctness:,0.5581,0.5581,1,, ,Correctness:,0.3594,0.6406,1,, 
,Correctness:,0.8894,0.8894,0,, ,Correctness:,0.8806,0.8806,0,, ,Correctness:,0.6319,0.6319,1,, ,Correctness:,0.2681,0.7319,1,, 
,Correctness:,0.9194,0.9194,0,, ,Correctness:,0.9119,0.9119,0,, ,Correctness:,0.5787,0.5787,1,, ,Correctness:,0.3300,0.6700,1,, 
,Correctness:,0.9231,0.9231,0,, ,Correctness:,0.9169,0.9169,0,, ,Correctness:,0.5344,0.5344,1,, ,Correctness:,0.3781,0.6219,1,, 
,Correctness:,0.9125,0.9125,0,, ,Correctness:,0.9069,0.9069,0,, ,Correctness:,0.5787,0.5787,1,, ,Correctness:,0.3350,0.6650,1,, 
,Correctness:,0.9038,0.9038,0,, ,Correctness:,0.8912,0.8912,0,, ,Correctness:,0.5806,0.5806,1,, ,Correctness:,0.3137,0.6863,1,, 
,Correctness:,0.9087,0.9087,0,, ,Correctness:,0.9038,0.9038,0,, ,Correctness:,0.5269,0.5269,1,, ,Correctness:,0.3812,0.6188,1,, 
,Correctness:,0.8919,0.8919,0,, ,Correctness:,0.8869,0.8869,0,, ,Correctness:,0.6150,0.6150,1,, ,Correctness:,0.2731,0.7269,1,, 
Average:,0.9031,,,,, Average:,0.8943,,,,, Average:,0.5896,,,,, Average:,0.6723,,,,, 
,Correctness:,0.6100,0.6100,1,, ,Correctness:,0.9000,0.9000,0,, ,Correctness:,0.0500,0.9500,0,, ,Correctness:,0.9000,0.9000,0,, 
,Correctness:,0.5400,0.5400,1,, ,Correctness:,0.8500,0.8500,0,, ,Correctness:,0.1600,0.8400,0,, ,Correctness:,0.8500,0.8500,0,, 
,Correctness:,0.7400,0.7400,1,, ,Correctness:,0.7300,0.7300,0,, ,Correctness:,0.2800,0.7200,0,, ,Correctness:,0.7300,0.7300,0,, 
,Correctness:,0.5800,0.5800,1,, ,Correctness:,0.9300,0.9300,0,, ,Correctness:,0.0800,0.9200,0,, ,Correctness:,0.9300,0.9300,0,, 
,Correctness:,0.4500,0.5500,1,, ,Correctness:,0.7700,0.7700,0,, ,Correctness:,0.1800,0.8200,0,, ,Correctness:,0.7900,0.7900,0,, 
,Correctness:,0.9300,0.9300,1,, ,Correctness:,0.9500,0.9500,0,, ,Correctness:,0.0100,0.9900,0,, ,Correctness:,0.9700,0.9700,0,, 
,Correctness:,0.6800,0.6800,1,, ,Correctness:,0.9400,0.9400,0,, ,Correctness:,0.0100,0.9900,0,, ,Correctness:,0.9800,0.9800,0,, 
,Correctness:,0.6000,0.6000,1,, ,Correctness:,0.9200,0.9200,0,, ,Correctness:,0.0300,0.9700,0,, ,Correctness:,0.9600,0.9600,0,, 
,Correctness:,0.5800,0.5800,1,, ,Correctness:,0.7900,0.7900,0,, ,Correctness:,0.2200,0.7800,0,, ,Correctness:,0.7900,0.7900,0,, 
,Correctness:,0.7300,0.7300,1,, ,Correctness:,0.8900,0.8900,0,, ,Correctness:,0.1000,0.9000,0,, ,Correctness:,0.9100,0.9100,0,, 
,Correctness:,0.9750,0.9750,1,, ,Correctness:,0.9200,0.9200,0,, ,Correctness:,0.0350,0.9650,0,, ,Correctness:,0.9400,0.9400,0,, 
,Correctness:,0.8450,0.8450,1,, ,Correctness:,0.8850,0.8850,0,, ,Correctness:,0.1050,0.8950,0,, ,Correctness:,0.8850,0.8850,0,, 
,Correctness:,0.4300,0.5700,1,, ,Correctness:,0.9650,0.9650,0,, ,Correctness:,0.0450,0.9550,0,, ,Correctness:,0.9650,0.9650,0,, 
,Correctness:,0.7900,0.7900,1,, ,Correctness:,0.8900,0.8900,0,, ,Correctness:,0.1100,0.8900,0,, ,Correctness:,0.9000,0.9000,0,, 
,Correctness:,0.5850,0.5850,1,, ,Correctness:,0.8850,0.8850,0,, ,Correctness:,0.1200,0.8800,0,, ,Correctness:,0.8850,0.8850,0,, 
,Correctness:,0.6300,0.6300,1,, ,Correctness:,0.9350,0.9350,0,, ,Correctness:,0.0650,0.9350,0,, ,Correctness:,0.9450,0.9450,0,, 
,Correctness:,0.7350,0.7350,1,, ,Correctness:,0.8550,0.8550,0,, ,Correctness:,0.1050,0.8950,0,, ,Correctness:,0.8850,0.8850,0,, 
,Correctness:,0.6300,0.6300,1,, ,Correctness:,0.9100,0.9100,0,, ,Correctness:,0.0900,0.9100,0,, ,Correctness:,0.9000,0.9000,0,, 
,Correctness:,0.6250,0.6250,1,, ,Correctness:,0.8950,0.8950,0,, ,Correctness:,0.1000,0.9000,0,, ,Correctness:,0.8950,0.8950,0,, 
,Correctness:,0.7500,0.7500,1,, ,Correctness:,0.8500,0.8500,0,, ,Correctness:,0.1150,0.8850,0,, ,Correctness:,0.8600,0.8600,0,, 
,Correctness:,0.5200,0.5200,1,, ,Correctness:,0.9525,0.9525,0,, ,Correctness:,0.0550,0.9450,0,, ,Correctness:,0.9475,0.9475,0,, 
,Correctness:,0.6525,0.6525,1,, ,Correctness:,0.8700,0.8700,0,, ,Correctness:,0.1200,0.8800,0,, ,Correctness:,0.8725,0.8725,0,, 
,Correctness:,0.6425,0.6425,1,, ,Correctness:,0.8975,0.8975,0,, ,Correctness:,0.1100,0.8900,0,, ,Correctness:,0.8925,0.8925,0,, 
,Correctness:,0.7075,0.7075,1,, ,Correctness:,0.8700,0.8700,0,, ,Correctness:,0.1200,0.8800,0,, ,Correctness:,0.8700,0.8700,0,, 
,Correctness:,0.6150,0.6150,1,, ,Correctness:,0.9075,0.9075,0,, ,Correctness:,0.0900,0.9100,0,, ,Correctness:,0.9125,0.9125,0,, 
,Correctness:,0.7825,0.7825,1,, ,Correctness:,0.8975,0.8975,0,, ,Correctness:,0.0825,0.9175,0,, ,Correctness:,0.9075,0.9075,0,, 
,Correctness:,0.6775,0.6775,1,, ,Correctness:,0.9350,0.9350,0,, ,Correctness:,0.0600,0.9400,0,, ,Correctness:,0.9450,0.9450,0,, 
,Correctness:,0.5425,0.5425,1,, ,Correctness:,0.8950,0.8950,0,, ,Correctness:,0.0875,0.9125,0,, ,Correctness:,0.9150,0.9150,0,, 
,Correctness:,0.6200,0.6200,1,, ,Correctness:,0.8650,0.8650,0,, ,Correctness:,0.1025,0.8975,0,, ,Correctness:,0.8950,0.8950,0,, 
,Correctness:,0.7125,0.7125,1,, ,Correctness:,0.9275,0.9275,0,, ,Correctness:,0.0475,0.9525,0,, ,Correctness:,0.9525,0.9525,0,, 
,Correctness:,0.6538,0.6538,1,, ,Correctness:,0.8975,0.8975,0,, ,Correctness:,0.0912,0.9087,0,, ,Correctness:,0.9050,0.9050,0,, 
,Correctness:,0.6775,0.6775,1,, ,Correctness:,0.9087,0.9087,0,, ,Correctness:,0.0737,0.9263,0,, ,Correctness:,0.9237,0.9237,0,, 
,Correctness:,0.6613,0.6613,1,, ,Correctness:,0.8825,0.8825,0,, ,Correctness:,0.1062,0.8938,0,, ,Correctness:,0.8950,0.8950,0,, 
,Correctness:,0.8087,0.8087,1,, ,Correctness:,0.9287,0.9287,0,, ,Correctness:,0.0663,0.9337,0,, ,Correctness:,0.9387,0.9387,0,, 
,Correctness:,0.7850,0.7850,1,, ,Correctness:,0.9000,0.9000,0,, ,Correctness:,0.0963,0.9038,0,, ,Correctness:,0.9050,0.9050,0,, 
,Correctness:,0.7175,0.7175,1,, ,Correctness:,0.9050,0.9050,0,, ,Correctness:,0.0875,0.9125,0,, ,Correctness:,0.9163,0.9163,0,, 
,Correctness:,0.6825,0.6825,1,, ,Correctness:,0.9337,0.9337,0,, ,Correctness:,0.0675,0.9325,0,, ,Correctness:,0.9337,0.9337,0,, 
,Correctness:,0.7250,0.7250,1,, ,Correctness:,0.8825,0.8825,0,, ,Correctness:,0.1100,0.8900,0,, ,Correctness:,0.8900,0.8900,0,, 
,Correctness:,0.5188,0.5188,1,, ,Correctness:,0.8850,0.8850,0,, ,Correctness:,0.1163,0.8838,0,, ,Correctness:,0.8850,0.8850,0,, 
,Correctness:,0.6813,0.6813,1,, ,Correctness:,0.9050,0.9050,0,, ,Correctness:,0.0912,0.9087,0,, ,Correctness:,0.9100,0.9100,0,, 
,Correctness:,0.6075,0.6075,1,, ,Correctness:,0.9100,0.9100,0,, ,Correctness:,0.0850,0.9150,0,, ,Correctness:,0.9125,0.9125,0,, 
,Correctness:,0.6681,0.6681,1,, ,Correctness:,0.9094,0.9094,0,, ,Correctness:,0.0831,0.9169,0,, ,Correctness:,0.9194,0.9194,0,, 
,Correctness:,0.6400,0.6400,1,, ,Correctness:,0.8888,0.8888,0,, ,Correctness:,0.1056,0.8944,0,, ,Correctness:,0.8938,0.8938,0,, 
,Correctness:,0.7325,0.7325,1,, ,Correctness:,0.8806,0.8806,0,, ,Correctness:,0.1113,0.8888,0,, ,Correctness:,0.8894,0.8894,0,, 
,Correctness:,0.6694,0.6694,1,, ,Correctness:,0.9119,0.9119,0,, ,Correctness:,0.0800,0.9200,0,, ,Correctness:,0.9194,0.9194,0,, 
,Correctness:,0.6225,0.6225,1,, ,Correctness:,0.9169,0.9169,0,, ,Correctness:,0.0775,0.9225,0,, ,Correctness:,0.9231,0.9231,0,, 
,Correctness:,0.6656,0.6656,1,, ,Correctness:,0.9069,0.9069,0,, ,Correctness:,0.0862,0.9138,0,, ,Correctness:,0.9181,0.9181,0,, 
,Correctness:,0.6869,0.6869,1,, ,Correctness:,0.8912,0.8912,0,, ,Correctness:,0.0944,0.9056,0,, ,Correctness:,0.9038,0.9038,0,, 
,Correctness:,0.6194,0.6194,1,, ,Correctness:,0.9038,0.9038,0,, ,Correctness:,0.0900,0.9100,0,, ,Correctness:,0.9087,0.9087,0,, 
,Correctness:,0.7275,0.7275,1,, ,Correctness:,0.8869,0.8869,0,, ,Correctness:,0.1087,0.8912,0,, ,Correctness:,0.8919,0.8919,0,, 
Average:,0.6740,,,,, Average:,0.8943,,,,, Average:,0.9057,,,,, Average:,0.9032,,,,, 
,Correctness:,0.4700,0.5300,1,, ,Correctness:,0.0500,0.9500,0,, ,Correctness:,0.9000,0.9000,0,, ,Correctness:,0.5100,0.5100,1,, 
,Correctness:,0.5300,0.5300,1,, ,Correctness:,0.1600,0.8400,0,, ,Correctness:,0.8500,0.8500,0,, ,Correctness:,0.5000,0.5000,1,, 
,Correctness:,0.4800,0.5200,1,, ,Correctness:,0.2800,0.7200,0,, ,Correctness:,0.7300,0.7300,0,, ,Correctness:,0.6800,0.6800,1,, 
,Correctness:,0.4900,0.5100,1,, ,Correctness:,0.0800,0.9200,0,, ,Correctness:,0.9300,0.9300,0,, ,Correctness:,0.5300,0.5300,1,, 
,Correctness:,0.4900,0.5100,1,, ,Correctness:,0.2000,0.8000,0,, ,Correctness:,0.7900,0.7900,0,, ,Correctness:,0.4200,0.5800,1,, 
,Correctness:,0.4900,0.5100,1,, ,Correctness:,0.0300,0.9700,0,, ,Correctness:,0.9700,0.9700,0,, ,Correctness:,0.8100,0.8100,1,, 
,Correctness:,0.4800,0.5200,1,, ,Correctness:,0.0500,0.9500,0,, ,Correctness:,0.9800,0.9800,0,, ,Correctness:,0.5400,0.5400,1,, 
,Correctness:,0.4700,0.5300,1,, ,Correctness:,0.0700,0.9300,0,, ,Correctness:,0.9600,0.9600,0,, ,Correctness:,0.5500,0.5500,1,, 
,Correctness:,0.4900,0.5100,1,, ,Correctness:,0.1900,0.8100,0,, ,Correctness:,0.7900,0.7900,0,, ,Correctness:,0.5400,0.5400,1,, 
,Correctness:,0.4700,0.5300,1,, ,Correctness:,0.1200,0.8800,0,, ,Correctness:,0.9100,0.9100,0,, ,Correctness:,0.6500,0.6500,1,, 
,Correctness:,0.4700,0.5300,1,, ,Correctness:,0.0650,0.9350,0,, ,Correctness:,0.9400,0.9400,0,, ,Correctness:,0.8100,0.8100,1,, 
,Correctness:,0.5000,0.5000,1,, ,Correctness:,0.1050,0.8950,0,, ,Correctness:,0.8850,0.8850,0,, ,Correctness:,0.7200,0.7200,1,, 
,Correctness:,0.5150,0.5150,1,, ,Correctness:,0.0450,0.9550,0,, ,Correctness:,0.9650,0.9650,0,, ,Correctness:,0.3900,0.6100,1,, 
,Correctness:,0.4800,0.5200,1,, ,Correctness:,0.1200,0.8800,0,, ,Correctness:,0.9000,0.9000,0,, ,Correctness:,0.7200,0.7200,1,, 
,Correctness:,0.4900,0.5100,1,, ,Correctness:,0.1200,0.8800,0,, ,Correctness:,0.8850,0.8850,0,, ,Correctness:,0.5250,0.5250,1,, 
,Correctness:,0.4750,0.5250,1,, ,Correctness:,0.0750,0.9250,0,, ,Correctness:,0.9450,0.9450,0,, ,Correctness:,0.5200,0.5200,1,, 
,Correctness:,0.5000,0.5000,1,, ,Correctness:,0.1350,0.8650,0,, ,Correctness:,0.8850,0.8850,0,, ,Correctness:,0.6450,0.6450,1,, 
,Correctness:,0.4950,0.5050,1,, ,Correctness:,0.0800,0.9200,0,, ,Correctness:,0.9000,0.9000,0,, ,Correctness:,0.5550,0.5550,1,, 
,Correctness:,0.5000,0.5000,1,, ,Correctness:,0.1000,0.9000,0,, ,Correctness:,0.8950,0.8950,0,, ,Correctness:,0.5150,0.5150,1,, 
,Correctness:,0.4850,0.5150,1,, ,Correctness:,0.1350,0.8650,0,, ,Correctness:,0.8600,0.8600,0,, ,Correctness:,0.6450,0.6450,1,, 
,Correctness:,0.4725,0.5275,1,, ,Correctness:,0.0500,0.9500,0,, ,Correctness:,0.9475,0.9475,0,, ,Correctness:,0.4600,0.5400,1,, 
,Correctness:,0.4825,0.5175,1,, ,Correctness:,0.1325,0.8675,0,, ,Correctness:,0.8725,0.8725,0,, ,Correctness:,0.5675,0.5675,1,, 
,Correctness:,0.4800,0.5200,1,, ,Correctness:,0.1050,0.8950,0,, ,Correctness:,0.8925,0.8925,0,, ,Correctness:,0.5700,0.5700,1,, 
,Correctness:,0.4900,0.5100,1,, ,Correctness:,0.1250,0.8750,0,, ,Correctness:,0.8700,0.8700,0,, ,Correctness:,0.6125,0.6125,1,, 
,Correctness:,0.4800,0.5200,1,, ,Correctness:,0.0950,0.9050,0,, ,Correctness:,0.9125,0.9125,0,, ,Correctness:,0.5225,0.5225,1,, 
,Correctness:,0.4875,0.5125,1,, ,Correctness:,0.0975,0.9025,0,, ,Correctness:,0.9075,0.9075,0,, ,Correctness:,0.6975,0.6975,1,, 
,Correctness:,0.4850,0.5150,1,, ,Correctness:,0.0700,0.9300,0,, ,Correctness:,0.9450,0.9450,0,, ,Correctness:,0.5975,0.5975,1,, 
,Correctness:,0.4900,0.5100,1,, ,Correctness:,0.1075,0.8925,0,, ,Correctness:,0.9150,0.9150,0,, ,Correctness:,0.4800,0.5200,1,, 
,Correctness:,0.4900,0.5100,1,, ,Correctness:,0.1325,0.8675,0,, ,Correctness:,0.8950,0.8950,0,, ,Correctness:,0.5550,0.5550,1,, 
,Correctness:,0.4850,0.5150,1,, ,Correctness:,0.0725,0.9275,0,, ,Correctness:,0.9525,0.9525,0,, ,Correctness:,0.6125,0.6125,1,, 
,Correctness:,0.4850,0.5150,1,, ,Correctness:,0.0988,0.9012,0,, ,Correctness:,0.9050,0.9050,0,, ,Correctness:,0.5750,0.5750,1,, 
,Correctness:,0.4800,0.5200,1,, ,Correctness:,0.0887,0.9113,0,, ,Correctness:,0.9237,0.9237,0,, ,Correctness:,0.5887,0.5887,1,, 
,Correctness:,0.4850,0.5150,1,, ,Correctness:,0.1187,0.8812,0,, ,Correctness:,0.8950,0.8950,0,, ,Correctness:,0.5787,0.5787,1,, 
,Correctness:,0.4788,0.5212,1,, ,Correctness:,0.0762,0.9237,0,, ,Correctness:,0.9387,0.9387,0,, ,Correctness:,0.6937,0.6937,1,, 
,Correctness:,0.4775,0.5225,1,, ,Correctness:,0.1013,0.8987,0,, ,Correctness:,0.9050,0.9050,0,, ,Correctness:,0.6787,0.6787,1,, 
,Correctness:,0.4875,0.5125,1,, ,Correctness:,0.0938,0.9062,0,, ,Correctness:,0.9163,0.9163,0,, ,Correctness:,0.6262,0.6262,1,, 
,Correctness:,0.4825,0.5175,1,, ,Correctness:,0.0675,0.9325,0,, ,Correctness:,0.9337,0.9337,0,, ,Correctness:,0.6025,0.6025,1,, 
,Correctness:,0.4775,0.5225,1,, ,Correctness:,0.1175,0.8825,0,, ,Correctness:,0.8900,0.8900,0,, ,Correctness:,0.6312,0.6312,1,, 
,Correctness:,0.4875,0.5125,1,, ,Correctness:,0.1163,0.8838,0,, ,Correctness:,0.8850,0.8850,0,, ,Correctness:,0.4500,0.5500,1,, 
,Correctness:,0.4963,0.5037,1,, ,Correctness:,0.0963,0.9038,0,, ,Correctness:,0.9100,0.9100,0,, ,Correctness:,0.6012,0.6012,1,, 
,Correctness:,0.4906,0.5094,1,, ,Correctness:,0.0875,0.9125,0,, ,Correctness:,0.9125,0.9125,0,, ,Correctness:,0.5250,0.5250,1,, 
,Correctness:,0.4850,0.5150,1,, ,Correctness:,0.0931,0.9069,0,, ,Correctness:,0.9194,0.9194,0,, ,Correctness:,0.5794,0.5794,1,, 
,Correctness:,0.4913,0.5088,1,, ,Correctness:,0.1106,0.8894,0,, ,Correctness:,0.8938,0.8938,0,, ,Correctness:,0.5587,0.5587,1,, 
,Correctness:,0.4875,0.5125,1,, ,Correctness:,0.1200,0.8800,0,, ,Correctness:,0.8894,0.8894,0,, ,Correctness:,0.6281,0.6281,1,, 
,Correctness:,0.4800,0.5200,1,, ,Correctness:,0.0875,0.9125,0,, ,Correctness:,0.9194,0.9194,0,, ,Correctness:,0.5769,0.5769,1,, 
,Correctness:,0.4900,0.5100,1,, ,Correctness:,0.0838,0.9163,0,, ,Correctness:,0.9231,0.9231,0,, ,Correctness:,0.5413,0.5413,1,, 
,Correctness:,0.4838,0.5162,1,, ,Correctness:,0.0919,0.9081,0,, ,Correctness:,0.9125,0.9125,0,, ,Correctness:,0.5881,0.5881,1,, 
,Correctness:,0.4869,0.5131,1,, ,Correctness:,0.1069,0.8931,0,, ,Correctness:,0.9038,0.9038,0,, ,Correctness:,0.6094,0.6094,1,, 
,Correctness:,0.4844,0.5156,1,, ,Correctness:,0.0950,0.9050,0,, ,Correctness:,0.9087,0.9087,0,, ,Correctness:,0.5506,0.5506,1,, 
,Correctness:,0.4794,0.5206,1,, ,Correctness:,0.1138,0.8862,0,, ,Correctness:,0.8900,0.8900,0,, ,Correctness:,0.6450,0.6450,1,, 
Average:,0.5156,,,,, Average:,0.8967,,,,, Average:,0.9031,,,,, Average:,0.5976,,,,, 
,Correctness:,0.0500,0.9500,0,, ,Correctness:,0.9000,0.9000,0,, ,Correctness:,0.9000,0.9000,0,, ,Correctness:,0.5300,0.5300,1,, 
,Correctness:,0.1600,0.8400,0,, ,Correctness:,0.8500,0.8500,0,, ,Correctness:,0.8500,0.8500,0,, ,Correctness:,0.4700,0.5300,1,, 
,Correctness:,0.2800,0.7200,0,, ,Correctness:,0.7300,0.7300,0,, ,Correctness:,0.7300,0.7300,0,, ,Correctness:,0.5000,0.5000,1,, 
,Correctness:,0.0800,0.9200,0,, ,Correctness:,0.9300,0.9300,0,, ,Correctness:,0.9300,0.9300,0,, ,Correctness:,0.5500,0.5500,1,, 
,Correctness:,0.2000,0.8000,0,, ,Correctness:,0.7900,0.7900,0,, ,Correctness:,0.7900,0.7900,0,, ,Correctness:,0.5300,0.5300,1,, 
,Correctness:,0.0300,0.9700,0,, ,Correctness:,0.9700,0.9700,0,, ,Correctness:,0.9700,0.9700,0,, ,Correctness:,0.5700,0.5700,1,, 
,Correctness:,0.0500,0.9500,0,, ,Correctness:,0.9800,0.9800,0,, ,Correctness:,0.9800,0.9800,0,, ,Correctness:,0.5600,0.5600,1,, 
,Correctness:,0.0700,0.9300,0,, ,Correctness:,0.9600,0.9600,0,, ,Correctness:,0.9600,0.9600,0,, ,Correctness:,0.5700,0.5700,1,, 
,Correctness:,0.2200,0.7800,0,, ,Correctness:,0.7900,0.7900,0,, ,Correctness:,0.7900,0.7900,0,, ,Correctness:,0.5100,0.5100,1,, 
,Correctness:,0.1200,0.8800,0,, ,Correctness:,0.9100,0.9100,0,, ,Correctness:,0.9100,0.9100,0,, ,Correctness:,0.5200,0.5200,1,, 
,Correctness:,0.0650,0.9350,0,, ,Correctness:,0.9400,0.9400,0,, ,Correctness:,0.9400,0.9400,0,, ,Correctness:,0.5850,0.5850,1,, 
,Correctness:,0.1050,0.8950,0,, ,Correctness:,0.8850,0.8850,0,, ,Correctness:,0.8850,0.8850,0,, ,Correctness:,0.5350,0.5350,1,, 
,Correctness:,0.0450,0.9550,0,, ,Correctness:,0.9650,0.9650,0,, ,Correctness:,0.9650,0.9650,0,, ,Correctness:,0.5200,0.5200,1,, 
,Correctness:,0.1200,0.8800,0,, ,Correctness:,0.9000,0.9000,0,, ,Correctness:,0.9000,0.9000,0,, ,Correctness:,0.5650,0.5650,1,, 
,Correctness:,0.1200,0.8800,0,, ,Correctness:,0.8850,0.8850,0,, ,Correctness:,0.8850,0.8850,0,, ,Correctness:,0.5450,0.5450,1,, 
,Correctness:,0.0750,0.9250,0,, ,Correctness:,0.9450,0.9450,0,, ,Correctness:,0.9450,0.9450,0,, ,Correctness:,0.4800,0.5200,1,, 
,Correctness:,0.1350,0.8650,0,, ,Correctness:,0.8850,0.8850,0,, ,Correctness:,0.8850,0.8850,0,, ,Correctness:,0.5400,0.5400,1,, 
,Correctness:,0.0800,0.9200,0,, ,Correctness:,0.9000,0.9000,0,, ,Correctness:,0.9000,0.9000,0,, ,Correctness:,0.5050,0.5050,1,, 
,Correctness:,0.1000,0.9000,0,, ,Correctness:,0.8950,0.8950,0,, ,Correctness:,0.8950,0.8950,0,, ,Correctness:,0.5500,0.5500,1,, 
,Correctness:,0.1350,0.8650,0,, ,Correctness:,0.8600,0.8600,0,, ,Correctness:,0.8600,0.8600,0,, ,Correctness:,0.5850,0.5850,1,, 
,Correctness:,0.0500,0.9500,0,, ,Correctness:,0.9475,0.9475,0,, ,Correctness:,0.9475,0.9475,0,, ,Correctness:,0.5175,0.5175,1,, 
,Correctness:,0.1325,0.8675,0,, ,Correctness:,0.8725,0.8725,0,, ,Correctness:,0.8725,0.8725,0,, ,Correctness:,0.5450,0.5450,1,, 
,Correctness:,0.1050,0.8950,0,, ,Correctness:,0.8925,0.8925,0,, ,Correctness:,0.8925,0.8925,0,, ,Correctness:,0.5150,0.5150,1,, 
,Correctness:,0.1250,0.8750,0,, ,Correctness:,0.8700,0.8700,0,, ,Correctness:,0.8700,0.8700,0,, ,Correctness:,0.5300,0.5300,1,, 
,Correctness:,0.0950,0.9050,0,, ,Correctness:,0.9125,0.9125,0,, ,Correctness:,0.9125,0.9125,0,, ,Correctness:,0.5100,0.5100,1,, 
,Correctness:,0.0975,0.9025,0,, ,Correctness:,0.9075,0.9075,0,, ,Correctness:,0.9075,0.9075,0,, ,Correctness:,0.5400,0.5400,1,, 
,Correctness:,0.0700,0.9300,0,, ,Correctness:,0.9450,0.9450,0,, ,Correctness:,0.9450,0.9450,0,, ,Correctness:,0.5400,0.5400,1,, 
,Correctness:,0.1075,0.8925,0,, ,Correctness:,0.9150,0.9150,0,, ,Correctness:,0.9150,0.9150,0,, ,Correctness:,0.4950,0.5050,1,, 
,Correctness:,0.1325,0.8675,0,, ,Correctness:,0.8950,0.8950,0,, ,Correctness:,0.8950,0.8950,0,, ,Correctness:,0.5400,0.5400,1,, 
,Correctness:,0.0725,0.9275,0,, ,Correctness:,0.9525,0.9525,0,, ,Correctness:,0.9525,0.9525,0,, ,Correctness:,0.5350,0.5350,1,, 
,Correctness:,0.0988,0.9012,0,, ,Correctness:,0.9050,0.9050,0,, ,Correctness:,0.9050,0.9050,0,, ,Correctness:,0.5550,0.5550,1,, 
,Correctness:,0.0887,0.9113,0,, ,Correctness:,0.9237,0.9237,0,, ,Correctness:,0.9237,0.9237,0,, ,Correctness:,0.5288,0.5288,1,, 
,Correctness:,0.1187,0.8812,0,, ,Correctness:,0.8950,0.8950,0,, ,Correctness:,0.8950,0.8950,0,, ,Correctness:,0.5275,0.5275,1,, 
,Correctness:,0.0762,0.9237,0,, ,Correctness:,0.9387,0.9387,0,, ,Correctness:,0.9387,0.9387,0,, ,Correctness:,0.5563,0.5563,1,, 
,Correctness:,0.1013,0.8987,0,, ,Correctness:,0.9050,0.9050,0,, ,Correctness:,0.9050,0.9050,0,, ,Correctness:,0.5450,0.5450,1,, 
,Correctness:,0.0938,0.9062,0,, ,Correctness:,0.9163,0.9163,0,, ,Correctness:,0.9163,0.9163,0,, ,Correctness:,0.5262,0.5262,1,, 
,Correctness:,0.0675,0.9325,0,, ,Correctness:,0.9337,0.9337,0,, ,Correctness:,0.9337,0.9337,0,, ,Correctness:,0.5200,0.5200,1,, 
,Correctness:,0.1175,0.8825,0,, ,Correctness:,0.8900,0.8900,0,, ,Correctness:,0.8900,0.8900,0,, ,Correctness:,0.5325,0.5325,1,, 
,Correctness:,0.1163,0.8838,0,, ,Correctness:,0.8850,0.8850,0,, ,Correctness:,0.8850,0.8850,0,, ,Correctness:,0.5075,0.5075,1,, 
,Correctness:,0.0963,0.9038,0,, ,Correctness:,0.9100,0.9100,0,, ,Correctness:,0.9100,0.9100,0,, ,Correctness:,0.5463,0.5463,1,, 
,Correctness:,0.0875,0.9125,0,, ,Correctness:,0.9125,0.9125,0,, ,Correctness:,0.9125,0.9125,0,, ,Correctness:,0.5375,0.5375,1,, 
,Correctness:,0.0931,0.9069,0,, ,Correctness:,0.9194,0.9194,0,, ,Correctness:,0.9194,0.9194,0,, ,Correctness:,0.5288,0.5288,1,, 
,Correctness:,0.1106,0.8894,0,, ,Correctness:,0.8938,0.8938,0,, ,Correctness:,0.8938,0.8938,0,, ,Correctness:,0.5331,0.5331,1,, 
,Correctness:,0.1200,0.8800,0,, ,Correctness:,0.8894,0.8894,0,, ,Correctness:,0.8894,0.8894,0,, ,Correctness:,0.5450,0.5450,1,, 
,Correctness:,0.0875,0.9125,0,, ,Correctness:,0.9194,0.9194,0,, ,Correctness:,0.9194,0.9194,0,, ,Correctness:,0.5363,0.5363,1,, 
,Correctness:,0.0838,0.9163,0,, ,Correctness:,0.9231,0.9231,0,, ,Correctness:,0.9231,0.9231,0,, ,Correctness:,0.5331,0.5331,1,, 
,Correctness:,0.0919,0.9081,0,, ,Correctness:,0.9125,0.9125,0,, ,Correctness:,0.9181,0.9181,0,, ,Correctness:,0.5356,0.5356,1,, 
,Correctness:,0.1069,0.8931,0,, ,Correctness:,0.9038,0.9038,0,, ,Correctness:,0.9038,0.9038,0,, ,Correctness:,0.5275,0.5275,1,, 
,Correctness:,0.0950,0.9050,0,, ,Correctness:,0.9087,0.9087,0,, ,Correctness:,0.9087,0.9087,0,, ,Correctness:,0.5306,0.5306,1,, 
,Correctness:,0.1138,0.8862,0,, ,Correctness:,0.8919,0.8919,0,, ,Correctness:,0.8919,0.8919,0,, ,Correctness:,0.5450,0.5450,1,, 
Average:,0.8961,,,,, Average:,0.9031,,,,, Average:,0.9032,,,,, Average:,0.5359,,,,, 
,Correctness:,0.9000,0.9000,0,, ,Correctness:,0.0500,0.9500,0,, ,Correctness:,0.9000,0.9000,0,, ,Correctness:,0.0500,0.9500,0,, 
,Correctness:,0.8500,0.8500,0,, ,Correctness:,0.1600,0.8400,0,, ,Correctness:,0.8500,0.8500,0,, ,Correctness:,0.1600,0.8400,0,, 
,Correctness:,0.7300,0.7300,0,, ,Correctness:,0.2800,0.7200,0,, ,Correctness:,0.7200,0.7200,0,, ,Correctness:,0.2900,0.7100,0,, 
,Correctness:,0.9300,0.9300,0,, ,Correctness:,0.0800,0.9200,0,, ,Correctness:,0.9300,0.9300,0,, ,Correctness:,0.0800,0.9200,0,, 
,Correctness:,0.7900,0.7900,0,, ,Correctness:,0.1800,0.8200,0,, ,Correctness:,0.7700,0.7700,0,, ,Correctness:,0.2000,0.8000,0,, 
,Correctness:,0.9700,0.9700,0,, ,Correctness:,0.0100,0.9900,0,, ,Correctness:,0.9500,0.9500,0,, ,Correctness:,0.0300,0.9700,0,, 
,Correctness:,0.9800,0.9800,0,, ,Correctness:,0.0100,0.9900,0,, ,Correctness:,0.9400,0.9400,0,, ,Correctness:,0.0500,0.9500,0,, 
,Correctness:,0.9600,0.9600,0,, ,Correctness:,0.0300,0.9700,0,, ,Correctness:,0.9200,0.9200,0,, ,Correctness:,0.0700,0.9300,0,, 
,Correctness:,0.7900,0.7900,0,, ,Correctness:,0.2200,0.7800,0,, ,Correctness:,0.8200,0.8200,0,, ,Correctness:,0.1900,0.8100,0,, 
,Correctness:,0.9100,0.9100,0,, ,Correctness:,0.1000,0.9000,0,, ,Correctness:,0.8900,0.8900,0,, ,Correctness:,0.1200,0.8800,0,, 
,Correctness:,0.9400,0.9400,0,, ,Correctness:,0.0350,0.9650,0,, ,Correctness:,0.9200,0.9200,0,, ,Correctness:,0.0650,0.9350,0,, 
,Correctness:,0.8850,0.8850,0,, ,Correctness:,0.1050,0.8950,0,, ,Correctness:,0.8850,0.8850,0,, ,Correctness:,0.1050,0.8950,0,, 
,Correctness:,0.9650,0.9650,0,, ,Correctness:,0.0450,0.9550,0,, ,Correctness:,0.9650,0.9650,0,, ,Correctness:,0.0450,0.9550,0,, 
,Correctness:,0.9000,0.9000,0,, ,Correctness:,0.1100,0.8900,0,, ,Correctness:,0.8900,0.8900,0,, ,Correctness:,0.1200,0.8800,0,, 
,Correctness:,0.8850,0.8850,0,, ,Correctness:,0.1200,0.8800,0,, ,Correctness:,0.8850,0.8850,0,, ,Correctness:,0.1200,0.8800,0,, 
,Correctness:,0.9450,0.9450,0,, ,Correctness:,0.0650,0.9350,0,, ,Correctness:,0.9350,0.9350,0,, ,Correctness:,0.0750,0.9250,0,, 
,Correctness:,0.8850,0.8850,0,, ,Correctness:,0.1050,0.8950,0,, ,Correctness:,0.8550,0.8550,0,, ,Correctness:,0.1350,0.8650,0,, 
,Correctness:,0.9000,0.9000,0,, ,Correctness:,0.0900,0.9100,0,, ,Correctness:,0.9050,0.9050,0,, ,Correctness:,0.0800,0.9200,0,, 
,Correctness:,0.8950,0.8950,0,, ,Correctness:,0.1000,0.9000,0,, ,Correctness:,0.8950,0.8950,0,, ,Correctness:,0.1000,0.9000,0,, 
,Correctness:,0.8600,0.8600,0,, ,Correctness:,0.1150,0.8850,0,, ,Correctness:,0.8500,0.8500,0,, ,Correctness:,0.1350,0.8650,0,, 
,Correctness:,0.9475,0.9475,0,, ,Correctness:,0.0550,0.9450,0,, ,Correctness:,0.9525,0.9525,0,, ,Correctness:,0.0500,0.9500,0,, 
,Correctness:,0.8725,0.8725,0,, ,Correctness:,0.1200,0.8800,0,, ,Correctness:,0.8700,0.8700,0,, ,Correctness:,0.1325,0.8675,0,, 
,Correctness:,0.8925,0.8925,0,, ,Correctness:,0.1100,0.8900,0,, ,Correctness:,0.8975,0.8975,0,, ,Correctness:,0.1050,0.8950,0,, 
,Correctness:,0.8700,0.8700,0,, ,Correctness:,0.1200,0.8800,0,, ,Correctness:,0.8700,0.8700,0,, ,Correctness:,0.1250,0.8750,0,, 
,Correctness:,0.9125,0.9125,0,, ,Correctness:,0.0900,0.9100,0,, ,Correctness:,0.9075,0.9075,0,, ,Correctness:,0.0950,0.9050,0,, 
,Correctness:,0.9075,0.9075,0,, ,Correctness:,0.0825,0.9175,0,, ,Correctness:,0.8975,0.8975,0,, ,Correctness:,0.0975,0.9025,0,, 
,Correctness:,0.9450,0.9450,0,, ,Correctness:,0.0600,0.9400,0,, ,Correctness:,0.9350,0.9350,0,, ,Correctness:,0.0700,0.9300,0,, 
,Correctness:,0.9150,0.9150,0,, ,Correctness:,0.0875,0.9125,0,, ,Correctness:,0.8925,0.8925,0,, ,Correctness:,0.1100,0.8900,0,, 
,Correctness:,0.8950,0.8950,0,, ,Correctness:,0.1025,0.8975,0,, ,Correctness:,0.8650,0.8650,0,, ,Correctness:,0.1325,0.8675,0,, 
,Correctness:,0.9525,0.9525,0,, ,Correctness:,0.0475,0.9525,0,, ,Correctness:,0.9275,0.9275,0,, ,Correctness:,0.0725,0.9275,0,, 
,Correctness:,0.9050,0.9050,0,, ,Correctness:,0.0912,0.9087,0,, ,Correctness:,0.8975,0.8975,0,, ,Correctness:,0.0988,0.9012,0,, 
,Correctness:,0.9237,0.9237,0,, ,Correctness:,0.0737,0.9263,0,, ,Correctness:,0.9087,0.9087,0,, ,Correctness:,0.0887,0.9113,0,, 
,Correctness:,0.8950,0.8950,0,, ,Correctness:,0.1062,0.8938,0,, ,Correctness:,0.8788,0.8788,0,, ,Correctness:,0.1225,0.8775,0,, 
,Correctness:,0.9387,0.9387,0,, ,Correctness:,0.0663,0.9337,0,, ,Correctness:,0.9287,0.9287,0,, ,Correctness:,0.0762,0.9237,0,, 
,Correctness:,0.9050,0.9050,0,, ,Correctness:,0.0963,0.9038,0,, ,Correctness:,0.9000,0.9000,0,, ,Correctness:,0.1013,0.8987,0,, 
,Correctness:,0.9163,0.9163,0,, ,Correctness:,0.0875,0.9125,0,, ,Correctness:,0.9050,0.9050,0,, ,Correctness:,0.0938,0.9062,0,, 
,Correctness:,0.9337,0.9337,0,, ,Correctness:,0.0675,0.9325,0,, ,Correctness:,0.9337,0.9337,0,, ,Correctness:,0.0675,0.9325,0,, 
,Correctness:,0.8900,0.8900,0,, ,Correctness:,0.1100,0.8900,0,, ,Correctness:,0.8825,0.8825,0,, ,Correctness:,0.1175,0.8825,0,, 
,Correctness:,0.8850,0.8850,0,, ,Correctness:,0.1163,0.8838,0,, ,Correctness:,0.8850,0.8850,0,, ,Correctness:,0.1163,0.8838,0,, 
,Correctness:,0.9100,0.9100,0,, ,Correctness:,0.0912,0.9087,0,, ,Correctness:,0.9050,0.9050,0,, ,Correctness:,0.0963,0.9038,0,, 
,Correctness:,0.9125,0.9125,0,, ,Correctness:,0.0850,0.9150,0,, ,Correctness:,0.9100,0.9100,0,, ,Correctness:,0.0875,0.9125,0,, 
,Correctness:,0.9194,0.9194,0,, ,Correctness:,0.0831,0.9169,0,, ,Correctness:,0.9094,0.9094,0,, ,Correctness:,0.0931,0.9069,0,, 
,Correctness:,0.8938,0.8938,0,, ,Correctness:,0.1056,0.8944,0,, ,Correctness:,0.8888,0.8888,0,, ,Correctness:,0.1106,0.8894,0,, 
,Correctness:,0.8894,0.8894,0,, ,Correctness:,0.1113,0.8888,0,, ,Correctness:,0.8806,0.8806,0,, ,Correctness:,0.1200,0.8800,0,, 
,Correctness:,0.9194,0.9194,0,, ,Correctness:,0.0800,0.9200,0,, ,Correctness:,0.9119,0.9119,0,, ,Correctness:,0.0875,0.9125,0,, 
,Correctness:,0.9231,0.9231,0,, ,Correctness:,0.0775,0.9225,0,, ,Correctness:,0.9169,0.9169,0,, ,Correctness:,0.0838,0.9163,0,, 
,Correctness:,0.9181,0.9181,0,, ,Correctness:,0.0806,0.9194,0,, ,Correctness:,0.9069,0.9069,0,, ,Correctness:,0.0919,0.9081,0,, 
,Correctness:,0.9038,0.9038,0,, ,Correctness:,0.0944,0.9056,0,, ,Correctness:,0.8912,0.8912,0,, ,Correctness:,0.1069,0.8931,0,, 
,Correctness:,0.9087,0.9087,0,, ,Correctness:,0.0900,0.9100,0,, ,Correctness:,0.9038,0.9038,0,, ,Correctness:,0.0950,0.9050,0,, 
,Correctness:,0.8919,0.8919,0,, ,Correctness:,0.1087,0.8912,0,, ,Correctness:,0.8862,0.8862,0,, ,Correctness:,0.1138,0.8862,0,, 
Average:,0.9032,,,,, Average:,0.9058,,,,, Average:,0.8944,,,,, Average:,0.8964,,,,, 
,Correctness:,0.0500,0.9500,0,, ,Correctness:,0.9000,0.9000,0,, ,Correctness:,0.0500,0.9500,0,, ,Correctness:,0.4900,0.5100,1,, 
,Correctness:,0.1600,0.8400,0,, ,Correctness:,0.8500,0.8500,0,, ,Correctness:,0.1600,0.8400,0,, ,Correctness:,0.5400,0.5400,1,, 
,Correctness:,0.2800,0.7200,0,, ,Correctness:,0.7300,0.7300,0,, ,Correctness:,0.2800,0.7200,0,, ,Correctness:,0.5000,0.5000,1,, 
,Correctness:,0.0800,0.9200,0,, ,Correctness:,0.9300,0.9300,0,, ,Correctness:,0.0800,0.9200,0,, ,Correctness:,0.5100,0.5100,1,, 
,Correctness:,0.1800,0.8200,0,, ,Correctness:,0.7900,0.7900,0,, ,Correctness:,0.1800,0.8200,0,, ,Correctness:,0.4900,0.5100,1,, 
,Correctness:,0.0100,0.9900,0,, ,Correctness:,0.9700,0.9700,0,, ,Correctness:,0.0100,0.9900,0,, ,Correctness:,0.4900,0.5100,1,, 
,Correctness:,0.0100,0.9900,0,, ,Correctness:,0.9800,0.9800,0,, ,Correctness:,0.0100,0.9900,0,, ,Correctness:,0.5000,0.5000,1,, 
,Correctness:,0.0300,0.9700,0,, ,Correctness:,0.9600,0.9600,0,, ,Correctness:,0.0300,0.9700,0,, ,Correctness:,0.5000,0.5000,1,, 
,Correctness:,0.2200,0.7800,0,, ,Correctness:,0.7900,0.7900,0,, ,Correctness:,0.2200,0.7800,0,, ,Correctness:,0.5000,0.5000,1,, 
,Correctness:,0.1000,0.9000,0,, ,Correctness:,0.9100,0.9100,0,, ,Correctness:,0.1000,0.9000,0,, ,Correctness:,0.4900,0.5100,1,, 
,Correctness:,0.0350,0.9650,0,, ,Correctness:,0.9400,0.9400,0,, ,Correctness:,0.0350,0.9650,0,, ,Correctness:,0.5100,0.5100,1,, 
,Correctness:,0.1050,0.8950,0,, ,Correctness:,0.8850,0.8850,0,, ,Correctness:,0.1050,0.8950,0,, ,Correctness:,0.5050,0.5050,1,, 
,Correctness:,0.0450,0.9550,0,, ,Correctness:,0.9650,0.9650,0,, ,Correctness:,0.0450,0.9550,0,, ,Correctness:,0.5050,0.5050,1,, 
,Correctness:,0.1100,0.8900,0,, ,Correctness:,0.9000,0.9000,0,, ,Correctness:,0.1100,0.8900,0,, ,Correctness:,0.4750,0.5250,1,, 
,Correctness:,0.1200,0.8800,0,, ,Correctness:,0.8850,0.8850,0,, ,Correctness:,0.1200,0.8800,0,, ,Correctness:,0.5000,0.5000,1,, 
,Correctness:,0.0650,0.9350,0,, ,Correctness:,0.9450,0.9450,0,, ,Correctness:,0.0650,0.9350,0,, ,Correctness:,0.4950,0.5050,1,, 
,Correctness:,0.1050,0.8950,0,, ,Correctness:,0.8850,0.8850,0,, ,Correctness:,0.1050,0.8950,0,, ,Correctness:,0.4950,0.5050,1,, 
,Correctness:,0.0900,0.9100,0,, ,Correctness:,0.9000,0.9000,0,, ,Correctness:,0.0900,0.9100,0,, ,Correctness:,0.5000,0.5000,1,, 
,Correctness:,0.1000,0.9000,0,, ,Correctness:,0.8950,0.8950,0,, ,Correctness:,0.1000,0.9000,0,, ,Correctness:,0.5050,0.5050,1,, 
,Correctness:,0.1150,0.8850,0,, ,Correctness:,0.8600,0.8600,0,, ,Correctness:,0.1150,0.8850,0,, ,Correctness:,0.4900,0.5100,1,, 
,Correctness:,0.0550,0.9450,0,, ,Correctness:,0.9475,0.9475,0,, ,Correctness:,0.0550,0.9450,0,, ,Correctness:,0.5025,0.5025,1,, 
,Correctness:,0.1200,0.8800,0,, ,Correctness:,0.8725,0.8725,0,, ,Correctness:,0.1200,0.8800,0,, ,Correctness:,0.4975,0.5025,1,, 
,Correctness:,0.1100,0.8900,0,, ,Correctness:,0.8925,0.8925,0,, ,Correctness:,0.1100,0.8900,0,, ,Correctness:,0.4875,0.5125,1,, 
,Correctness:,0.1200,0.8800,0,, ,Correctness:,0.8700,0.8700,0,, ,Correctness:,0.1200,0.8800,0,, ,Correctness:,0.5000,0.5000,1,, 
,Correctness:,0.0900,0.9100,0,, ,Correctness:,0.9125,0.9125,0,, ,Correctness:,0.0900,0.9100,0,, ,Correctness:,0.5100,0.5100,1,, 
,Correctness:,0.0825,0.9175,0,, ,Correctness:,0.9075,0.9075,0,, ,Correctness:,0.0825,0.9175,0,, ,Correctness:,0.5100,0.5100,1,, 
,Correctness:,0.0600,0.9400,0,, ,Correctness:,0.9450,0.9450,0,, ,Correctness:,0.0600,0.9400,0,, ,Correctness:,0.4950,0.5050,1,, 
,Correctness:,0.0875,0.9125,0,, ,Correctness:,0.9150,0.9150,0,, ,Correctness:,0.0875,0.9125,0,, ,Correctness:,0.5000,0.5000,1,, 
,Correctness:,0.1025,0.8975,0,, ,Correctness:,0.8950,0.8950,0,, ,Correctness:,0.1025,0.8975,0,, ,Correctness:,0.4950,0.5050,1,, 
,Correctness:,0.0475,0.9525,0,, ,Correctness:,0.9525,0.9525,0,, ,Correctness:,0.0475,0.9525,0,, ,Correctness:,0.4975,0.5025,1,, 
,Correctness:,0.0912,0.9087,0,, ,Correctness:,0.9050,0.9050,0,, ,Correctness:,0.0912,0.9087,0,, ,Correctness:,0.5038,0.5038,1,, 
,Correctness:,0.0737,0.9263,0,, ,Correctness:,0.9237,0.9237,0,, ,Correctness:,0.0737,0.9263,0,, ,Correctness:,0.5062,0.5062,1,, 
,Correctness:,0.1062,0.8938,0,, ,Correctness:,0.8950,0.8950,0,, ,Correctness:,0.1062,0.8938,0,, ,Correctness:,0.4963,0.5037,1,, 
,Correctness:,0.0663,0.9337,0,, ,Correctness:,0.9387,0.9387,0,, ,Correctness:,0.0663,0.9337,0,, ,Correctness:,0.4988,0.5012,1,, 
,Correctness:,0.0963,0.9038,0,, ,Correctness:,0.9050,0.9050,0,, ,Correctness:,0.0963,0.9038,0,, ,Correctness:,0.5025,0.5025,1,, 
,Correctness:,0.0875,0.9125,0,, ,Correctness:,0.9163,0.9163,0,, ,Correctness:,0.0875,0.9125,0,, ,Correctness:,0.5025,0.5025,1,, 
,Correctness:,0.0675,0.9325,0,, ,Correctness:,0.9337,0.9337,0,, ,Correctness:,0.0675,0.9325,0,, ,Correctness:,0.4950,0.5050,1,, 
,Correctness:,0.1100,0.8900,0,, ,Correctness:,0.8900,0.8900,0,, ,Correctness:,0.1100,0.8900,0,, ,Correctness:,0.5112,0.5112,1,, 
,Correctness:,0.1163,0.8838,0,, ,Correctness:,0.8850,0.8850,0,, ,Correctness:,0.1163,0.8838,0,, ,Correctness:,0.5050,0.5050,1,, 
,Correctness:,0.0912,0.9087,0,, ,Correctness:,0.9100,0.9100,0,, ,Correctness:,0.0912,0.9087,0,, ,Correctness:,0.4988,0.5012,1,, 
,Correctness:,0.0850,0.9150,0,, ,Correctness:,0.9125,0.9125,0,, ,Correctness:,0.0850,0.9150,0,, ,Correctness:,0.5000,0.5000,1,, 
,Correctness:,0.0831,0.9169,0,, ,Correctness:,0.9194,0.9194,0,, ,Correctness:,0.0831,0.9169,0,, ,Correctness:,0.4988,0.5012,1,, 
,Correctness:,0.1056,0.8944,0,, ,Correctness:,0.8938,0.8938,0,, ,Correctness:,0.1056,0.8944,0,, ,Correctness:,0.4975,0.5025,1,, 
,Correctness:,0.1113,0.8888,0,, ,Correctness:,0.8894,0.8894,0,, ,Correctness:,0.1113,0.8888,0,, ,Correctness:,0.5025,0.5025,1,, 
,Correctness:,0.0800,0.9200,0,, ,Correctness:,0.9194,0.9194,0,, ,Correctness:,0.0800,0.9200,0,, ,Correctness:,0.4969,0.5031,1,, 
,Correctness:,0.0775,0.9225,0,, ,Correctness:,0.9231,0.9231,0,, ,Correctness:,0.0775,0.9225,0,, ,Correctness:,0.5075,0.5075,1,, 
,Correctness:,0.0806,0.9194,0,, ,Correctness:,0.9181,0.9181,0,, ,Correctness:,0.0806,0.9194,0,, ,Correctness:,0.5050,0.5050,1,, 
,Correctness:,0.0944,0.9056,0,, ,Correctness:,0.9038,0.9038,0,, ,Correctness:,0.0944,0.9056,0,, ,Correctness:,0.5019,0.5019,1,, 
,Correctness:,0.0900,0.9100,0,, ,Correctness:,0.9087,0.9087,0,, ,Correctness:,0.0900,0.9100,0,, ,Correctness:,0.5019,0.5019,1,, 
,Correctness:,0.1087,0.8912,0,, ,Correctness:,0.8919,0.8919,0,, ,Correctness:,0.1087,0.8912,0,, ,Correctness:,0.5006,0.5006,1,, 
Average:,0.9058,,,,, Average:,0.9032,,,,, Average:,0.9058,,,,, Average:,0.5056,,,,, 
,Correctness:,0.4000,0.6000,1,, ,Correctness:,0.9000,0.9000,0,, ,Correctness:,0.4400,0.5600,1,, ,Correctness:,0.5300,0.5300,1,, 
,Correctness:,0.4700,0.5300,1,, ,Correctness:,0.8500,0.8500,0,, ,Correctness:,0.3300,0.6700,1,, ,Correctness:,0.4900,0.5100,1,, 
,Correctness:,0.2700,0.7300,1,, ,Correctness:,0.7300,0.7300,0,, ,Correctness:,0.5300,0.5300,1,, ,Correctness:,0.5000,0.5000,1,, 
,Correctness:,0.4300,0.5700,1,, ,Correctness:,0.9300,0.9300,0,, ,Correctness:,0.4500,0.5500,1,, ,Correctness:,0.5700,0.5700,1,, 
,Correctness:,0.5600,0.5600,1,, ,Correctness:,0.7700,0.7700,0,, ,Correctness:,0.3400,0.6600,1,, ,Correctness:,0.5100,0.5100,1,, 
,Correctness:,0.0800,0.9200,1,, ,Correctness:,0.9500,0.9500,0,, ,Correctness:,0.5900,0.5900,1,, ,Correctness:,0.5000,0.5000,1,, 
,Correctness:,0.3100,0.6900,1,, ,Correctness:,0.9400,0.9400,0,, ,Correctness:,0.5000,0.5000,1,, ,Correctness:,0.5400,0.5400,1,, 
,Correctness:,0.3900,0.6100,1,, ,Correctness:,0.9200,0.9200,0,, ,Correctness:,0.5000,0.5000,1,, ,Correctness:,0.5800,0.5800,1,, 
,Correctness:,0.4300,0.5700,1,, ,Correctness:,0.7900,0.7900,0,, ,Correctness:,0.4500,0.5500,1,, ,Correctness:,0.5100,0.5100,1,, 
,Correctness:,0.2800,0.7200,1,, ,Correctness:,0.8900,0.8900,0,, ,Correctness:,0.4600,0.5400,1,, ,Correctness:,0.4500,0.5500,1,, 
,Correctness:,0.0300,0.9700,1,, ,Correctness:,0.9200,0.9200,0,, ,Correctness:,0.6700,0.6700,1,, ,Correctness:,0.5050,0.5050,1,, 
,Correctness:,0.1600,0.8400,1,, ,Correctness:,0.8850,0.8850,0,, ,Correctness:,0.5900,0.5900,1,, ,Correctness:,0.5300,0.5300,1,, 
,Correctness:,0.5650,0.5650,1,, ,Correctness:,0.9650,0.9650,0,, ,Correctness:,0.3200,0.6800,1,, ,Correctness:,0.5200,0.5200,1,, 
,Correctness:,0.2050,0.7950,1,, ,Correctness:,0.8900,0.8900,0,, ,Correctness:,0.5800,0.5800,1,, ,Correctness:,0.5300,0.5300,1,, 
,Correctness:,0.4200,0.5800,1,, ,Correctness:,0.8850,0.8850,0,, ,Correctness:,0.4600,0.5400,1,, ,Correctness:,0.5450,0.5450,1,, 
,Correctness:,0.3650,0.6350,1,, ,Correctness:,0.9350,0.9350,0,, ,Correctness:,0.4150,0.5850,1,, ,Correctness:,0.5250,0.5250,1,, 
,Correctness:,0.2700,0.7300,1,, ,Correctness:,0.8550,0.8550,0,, ,Correctness:,0.5250,0.5250,1,, ,Correctness:,0.5200,0.5200,1,, 
,Correctness:,0.3750,0.6250,1,, ,Correctness:,0.9100,0.9100,0,, ,Correctness:,0.4400,0.5600,1,, ,Correctness:,0.5250,0.5250,1,, 
,Correctness:,0.3700,0.6300,1,, ,Correctness:,0.8950,0.8950,0,, ,Correctness:,0.4750,0.5250,1,, ,Correctness:,0.5450,0.5450,1,, 
,Correctness:,0.2550,0.7450,1,, ,Correctness:,0.8500,0.8500,0,, ,Correctness:,0.6250,0.6250,1,, ,Correctness:,0.5550,0.5550,1,, 
,Correctness:,0.4825,0.5175,1,, ,Correctness:,0.9525,0.9525,0,, ,Correctness:,0.3775,0.6225,1,, ,Correctness:,0.5275,0.5275,1,, 
,Correctness:,0.3500,0.6500,1,, ,Correctness:,0.8700,0.8700,0,, ,Correctness:,0.5050,0.5050,1,, ,Correctness:,0.5325,0.5325,1,, 
,Correctness:,0.3600,0.6400,1,, ,Correctness:,0.8975,0.8975,0,, ,Correctness:,0.4500,0.5500,1,, ,Correctness:,0.5275,0.5275,1,, 
,Correctness:,0.2950,0.7050,1,, ,Correctness:,0.8700,0.8700,0,, ,Correctness:,0.4775,0.5225,1,, ,Correctness:,0.5000,0.5000,1,, 
,Correctness:,0.3875,0.6125,1,, ,Correctness:,0.9075,0.9075,0,, ,Correctness:,0.4450,0.5550,1,, ,Correctness:,0.5225,0.5225,1,, 
,Correctness:,0.2200,0.7800,1,, ,Correctness:,0.8975,0.8975,0,, ,Correctness:,0.5025,0.5025,1,, ,Correctness:,0.5025,0.5025,1,, 
,Correctness:,0.3200,0.6800,1,, ,Correctness:,0.9350,0.9350,0,, ,Correctness:,0.4750,0.5250,1,, ,Correctness:,0.5350,0.5350,1,, 
,Correctness:,0.4600,0.5400,1,, ,Correctness:,0.8950,0.8950,0,, ,Correctness:,0.3950,0.6050,1,, ,Correctness:,0.5200,0.5200,1,, 
,Correctness:,0.3775,0.6225,1,, ,Correctness:,0.8650,0.8650,0,, ,Correctness:,0.4450,0.5550,1,, ,Correctness:,0.5325,0.5325,1,, 
,Correctness:,0.2900,0.7100,1,, ,Correctness:,0.9275,0.9275,0,, ,Correctness:,0.5125,0.5125,1,, ,Correctness:,0.5300,0.5300,1,, 
,Correctness:,0.3475,0.6525,1,, ,Correctness:,0.8975,0.8975,0,, ,Correctness:,0.4662,0.5337,1,, ,Correctness:,0.5162,0.5162,1,, 
,Correctness:,0.3237,0.6763,1,, ,Correctness:,0.9087,0.9087,0,, ,Correctness:,0.4788,0.5212,1,, ,Correctness:,0.5162,0.5162,1,, 
,Correctness:,0.3400,0.6600,1,, ,Correctness:,0.8825,0.8825,0,, ,Correctness:,0.4625,0.5375,1,, ,Correctness:,0.5175,0.5175,1,, 
,Correctness:,0.1900,0.8100,1,, ,Correctness:,0.9287,0.9287,0,, ,Correctness:,0.5463,0.5463,1,, ,Correctness:,0.5150,0.5150,1,, 
,Correctness:,0.2162,0.7837,1,, ,Correctness:,0.9000,0.9000,0,, ,Correctness:,0.5337,0.5337,1,, ,Correctness:,0.4950,0.5050,1,, 
,Correctness:,0.2812,0.7188,1,, ,Correctness:,0.9050,0.9050,0,, ,Correctness:,0.4950,0.5050,1,, ,Correctness:,0.5112,0.5112,1,, 
,Correctness:,0.3187,0.6813,1,, ,Correctness:,0.9337,0.9337,0,, ,Correctness:,0.4625,0.5375,1,, ,Correctness:,0.5025,0.5025,1,, 
,Correctness:,0.2762,0.7238,1,, ,Correctness:,0.8825,0.8825,0,, ,Correctness:,0.5000,0.5000,1,, ,Correctness:,0.5088,0.5088,1,, 
,Correctness:,0.4825,0.5175,1,, ,Correctness:,0.8850,0.8850,0,, ,Correctness:,0.3638,0.6362,1,, ,Correctness:,0.5125,0.5125,1,, 
,Correctness:,0.3200,0.6800,1,, ,Correctness:,0.9050,0.9050,0,, ,Correctness:,0.4575,0.5425,1,, ,Correctness:,0.5112,0.5112,1,, 
,Correctness:,0.3931,0.6069,1,, ,Correctness:,0.9100,0.9100,0,, ,Correctness:,0.4475,0.5525,1,, ,Correctness:,0.5294,0.5294,1,, 
,Correctness:,0.3312,0.6687,1,, ,Correctness:,0.9094,0.9094,0,, ,Correctness:,0.4644,0.5356,1,, ,Correctness:,0.5250,0.5250,1,, 
,Correctness:,0.3594,0.6406,1,, ,Correctness:,0.8888,0.8888,0,, ,Correctness:,0.4713,0.5288,1,, ,Correctness:,0.5325,0.5325,1,, 
,Correctness:,0.2681,0.7319,1,, ,Correctness:,0.8806,0.8806,0,, ,Correctness:,0.5238,0.5238,1,, ,Correctness:,0.5269,0.5269,1,, 
,Correctness:,0.3300,0.6700,1,, ,Correctness:,0.9119,0.9119,0,, ,Correctness:,0.4744,0.5256,1,, ,Correctness:,0.5269,0.5269,1,, 
,Correctness:,0.3781,0.6219,1,, ,Correctness:,0.9169,0.9169,0,, ,Correctness:,0.4431,0.5569,1,, ,Correctness:,0.5150,0.5150,1,, 
,Correctness:,0.3350,0.6650,1,, ,Correctness:,0.9069,0.9069,0,, ,Correctness:,0.4856,0.5144,1,, ,Correctness:,0.5244,0.5244,1,, 
,Correctness:,0.3137,0.6863,1,, ,Correctness:,0.8912,0.8912,0,, ,Correctness:,0.4713,0.5288,1,, ,Correctness:,0.5144,0.5144,1,, 
,Correctness:,0.3812,0.6188,1,, ,Correctness:,0.9038,0.9038,0,, ,Correctness:,0.4313,0.5687,1,, ,Correctness:,0.5231,0.5231,1,, 
,Correctness:,0.2731,0.7269,1,, ,Correctness:,0.8869,0.8869,0,, ,Correctness:,0.5012,0.5012,1,, ,Correctness:,0.5106,0.5106,1,, 
Average:,0.6723,,,,, Average:,0.8943,,,,, Average:,0.5543,,,,, Average:,0.5235,,,,, 
,Correctness:,0.9000,0.9000,0,, ,Correctness:,0.6100,0.6100,1,, ,Correctness:,0.9000,0.9000,0,, ,Correctness:,0.0500,0.9500,0,, 
,Correctness:,0.8500,0.8500,0,, ,Correctness:,0.5400,0.5400,1,, ,Correctness:,0.8500,0.8500,0,, ,Correctness:,0.1600,0.8400,0,, 
,Correctness:,0.7300,0.7300,0,, ,Correctness:,0.7400,0.7400,1,, ,Correctness:,0.7200,0.7200,0,, ,Correctness:,0.2800,0.7200,0,, 
,Correctness:,0.9300,0.9300,0,, ,Correctness:,0.5800,0.5800,1,, ,Correctness:,0.9300,0.9300,0,, ,Correctness:,0.0800,0.9200,0,, 
,Correctness:,0.7900,0.7900,0,, ,Correctness:,0.4500,0.5500,1,, ,Correctness:,0.7900,0.7900,0,, ,Correctness:,0.1800,0.8200,0,, 
,Correctness:,0.9700,0.9700,0,, ,Correctness:,0.9300,0.9300,1,, ,Correctness:,0.9700,0.9700,0,, ,Correctness:,0.0100,0.9900,0,, 
,Correctness:,0.9800,0.9800,0,, ,Correctness:,0.6800,0.6800,1,, ,Correctness:,0.9800,0.9800,0,, ,Correctness:,0.0100,0.9900,0,, 
,Correctness:,0.9600,0.9600,0,, ,Correctness:,0.6000,0.6000,1,, ,Correctness:,0.9600,0.9600,0,, ,Correctness:,0.0300,0.9700,0,, 
,Correctness:,0.7900,0.7900,0,, ,Correctness:,0.5800,0.5800,1,, ,Correctness:,0.7900,0.7900,0,, ,Correctness:,0.2200,0.7800,0,, 
,Correctness:,0.9100,0.9100,0,, ,Correctness:,0.7300,0.7300,1,, ,Correctness:,0.9100,0.9100,0,, ,Correctness:,0.1000,0.9000,0,, 
,Correctness:,0.9400,0.9400,0,, ,Correctness:,0.9750,0.9750,1,, ,Correctness:,0.9400,0.9400,0,, ,Correctness:,0.0350,0.9650,0,, 
,Correctness:,0.9050,0.9050,0,, ,Correctness:,0.8450,0.8450,1,, ,Correctness:,0.8850,0.8850,0,, ,Correctness:,0.1050,0.8950,0,, 
,Correctness:,0.9650,0.9650,0,, ,Correctness:,0.4300,0.5700,1,, ,Correctness:,0.9650,0.9650,0,, ,Correctness:,0.0450,0.9550,0,, 
,Correctness:,0.9000,0.9000,0,, ,Correctness:,0.7900,0.7900,1,, ,Correctness:,0.9000,0.9000,0,, ,Correctness:,0.1100,0.8900,0,, 
,Correctness:,0.8850,0.8850,0,, ,Correctness:,0.5850,0.5850,1,, ,Correctness:,0.8850,0.8850,0,, ,Correctness:,0.1200,0.8800,0,, 
,Correctness:,0.9450,0.9450,0,, ,Correctness:,0.6300,0.6300,1,, ,Correctness:,0.9450,0.9450,0,, ,Correctness:,0.0650,0.9350,0,, 
,Correctness:,0.8850,0.8850,0,, ,Correctness:,0.7350,0.7350,1,, ,Correctness:,0.8850,0.8850,0,, ,Correctness:,0.1050,0.8950,0,, 
,Correctness:,0.9000,0.9000,0,, ,Correctness:,0.6300,0.6300,1,, ,Correctness:,0.9000,0.9000,0,, ,Correctness:,0.0900,0.9100,0,, 
,Correctness:,0.8950,0.8950,0,, ,Correctness:,0.6250,0.6250,1,, ,Correctness:,0.8950,0.8950,0,, ,Correctness:,0.1000,0.9000,0,, 
,Correctness:,0.8600,0.8600,0,, ,Correctness:,0.7500,0.7500,1,, ,Correctness:,0.8600,0.8600,0,, ,Correctness:,0.1150,0.8850,0,, 
,Correctness:,0.9475,0.9475,0,, ,Correctness:,0.5200,0.5200,1,, ,Correctness:,0.9475,0.9475,0,, ,Correctness:,0.0550,0.9450,0,, 
,Correctness:,0.8725,0.8725,0,, ,Correctness:,0.6525,0.6525,1,, ,Correctness:,0.8725,0.8725,0,, ,Correctness:,0.1200,0.8800,0,, 
,Correctness:,0.8925,0.8925,0,, ,Correctness:,0.6425,0.6425,1,, ,Correctness:,0.8925,0.8925,0,, ,Correctness:,0.1100,0.8900,0,, 
,Correctness:,0.8700,0.8700,0,, ,Correctness:,0.7075,0.7075,1,, ,Correctness:,0.8700,0.8700,0,, ,Correctness:,0.1200,0.8800,0,, 
,Correctness:,0.9125,0.9125,0,, ,Correctness:,0.6150,0.6150,1,, ,Correctness:,0.9125,0.9125,0,, ,Correctness:,0.0900,0.9100,0,, 
,Correctness:,0.9075,0.9075,0,, ,Correctness:,0.7825,0.7825,1,, ,Correctness:,0.9075,0.9075,0,, ,Correctness:,0.0825,0.9175,0,, 
,Correctness:,0.9450,0.9450,0,, ,Correctness:,0.6775,0.6775,1,, ,Correctness:,0.9450,0.9450,0,, ,Correctness:,0.0600,0.9400,0,, 
,Correctness:,0.9150,0.9150,0,, ,Correctness:,0.5425,0.5425,1,, ,Correctness:,0.9125,0.9125,0,, ,Correctness:,0.0875,0.9125,0,, 
,Correctness:,0.8950,0.8950,0,, ,Correctness:,0.6200,0.6200,1,, ,Correctness:,0.8950,0.8950,0,, ,Correctness:,0.1025,0.8975,0,, 
,Correctness:,0.9525,0.9525,0,, ,Correctness:,0.7125,0.7125,1,, ,Correctness:,0.9525,0.9525,0,, ,Correctness:,0.0475,0.9525,0,, 
,Correctness:,0.9050,0.9050,0,, ,Correctness:,0.6538,0.6538,1,, ,Correctness:,0.9050,0.9050,0,, ,Correctness:,0.0912,0.9087,0,, 
,Correctness:,0.9237,0.9237,0,, ,Correctness:,0.6775,0.6775,1,, ,Correctness:,0.9237,0.9237,0,, ,Correctness:,0.0737,0.9263,0,, 
,Correctness:,0.8950,0.8950,0,, ,Correctness:,0.6613,0.6613,1,, ,Correctness:,0.8950,0.8950,0,, ,Correctness:,0.1062,0.8938,0,, 
,Correctness:,0.9387,0.9387,0,, ,Correctness:,0.8087,0.8087,1,, ,Correctness:,0.9387,0.9387,0,, ,Correctness:,0.0663,0.9337,0,, 
,Correctness:,0.9050,0.9050,0,, ,Correctness:,0.7850,0.7850,1,, ,Correctness:,0.9050,0.9050,0,, ,Correctness:,0.0963,0.9038,0,, 
,Correctness:,0.9163,0.9163,0,, ,Correctness:,0.7175,0.7175,1,, ,Correctness:,0.9163,0.9163,0,, ,Correctness:,0.0875,0.9125,0,, 
,Correctness:,0.9337,0.9337,0,, ,Correctness:,0.6825,0.6825,1,, ,Correctness:,0.9337,0.9337,0,, ,Correctness:,0.0675,0.9325,0,, 
,Correctness:,0.8900,0.8900,0,, ,Correctness:,0.7250,0.7250,1,, ,Correctness:,0.8900,0.8900,0,, ,Correctness:,0.1100,0.8900,0,, 
,Correctness:,0.8850,0.8850,0,, ,Correctness:,0.5188,0.5188,1,, ,Correctness:,0.8850,0.8850,0,, ,Correctness:,0.1163,0.8838,0,, 
,Correctness:,0.9100,0.9100,0,, ,Correctness:,0.6813,0.6813,1,, ,Correctness:,0.9100,0.9100,0,, ,Correctness:,0.0912,0.9087,0,, 
,Correctness:,0.9100,0.9100,0,, ,Correctness:,0.6075,0.6075,1,, ,Correctness:,0.9125,0.9125,0,, ,Correctness:,0.0850,0.9150,0,, 
,Correctness:,0.9206,0.9206,0,, ,Correctness:,0.6681,0.6681,1,, ,Correctness:,0.9194,0.9194,0,, ,Correctness:,0.0831,0.9169,0,, 
,Correctness:,0.8962,0.8962,0,, ,Correctness:,0.6400,0.6400,1,, ,Correctness:,0.8938,0.8938,0,, ,Correctness:,0.1056,0.8944,0,, 
,Correctness:,0.8894,0.8894,0,, ,Correctness:,0.7325,0.7325,1,, ,Correctness:,0.8894,0.8894,0,, ,Correctness:,0.1113,0.8888,0,, 
,Correctness:,0.9219,0.9219,0,, ,Correctness:,0.6694,0.6694,1,, ,Correctness:,0.9194,0.9194,0,, ,Correctness:,0.0800,0.9200,0,, 
,Correctness:,0.9231,0.9231,0,, ,Correctness:,0.6225,0.6225,1,, ,Correctness:,0.9231,0.9231,0,, ,Correctness:,0.0775,0.9225,0,, 
,Correctness:,0.9181,0.9181,0,, ,Correctness:,0.6656,0.6656,1,, ,Correctness:,0.9125,0.9125,0,, ,Correctness:,0.0862,0.9138,0,, 
,Correctness:,0.9025,0.9025,0,, ,Correctness:,0.6869,0.6869,1,, ,Correctness:,0.9038,0.9038,0,, ,Correctness:,0.0944,0.9056,0,, 
,Correctness:,0.9113,0.9113,0,, ,Correctness:,0.6194,0.6194,1,, ,Correctness:,0.9087,0.9087,0,, ,Correctness:,0.0900,0.9100,0,, 
,Correctness:,0.8919,0.8919,0,, ,Correctness:,0.7275,0.7275,1,, ,Correctness:,0.8919,0.8919,0,, ,Correctness:,0.1087,0.8912,0,, 
Average:,0.9038,,,,, Average:,0.6740,,,,, Average:,0.9029,,,,, Average:,0.9057,,,,, 
