4431443421
BBBBBBBBBB
1212221121
AAAAAAAAAA
2341232242
BBBBBBBBBB
1111222221
AAAAAAAAAA
1114114344
BBBBBBBCCC
2413323112
BBBBBBBBBB
1132212144
AAAAAAAABB
1212314313
AABBBBBBBB
1211224141
AAAAAAAAAA
4414413314
CCCCCBBBBB
1224124214
AAABBBBBBB
2211121221
AAAAAAAAAA
2131422221
ABBAAAAAAA
1233314141
BBBBBBCCCA
4322123313
AAAAAABBBB
1122222112
AAAAAAAAAA
1314241434
BBBBBBBBBB
3422112221
CCCAAAAAAA
2221222121
AAAAAAAAAA
3424211232
BBBBBBBBBA
2144423433
BCCCCCCCCA
2142444444
AACCCCCCCC
2222111122
AAAAAAAAAA
1414442444
BBBBCCCCCC
2122112113
AAAAABAAAA
3424244344
CCCCCCCCCC
2111343121
AAAABBAAAA
2241311424
AAAAAAAABB
2211221113
AAAAAAAAAC
1123342144
BBBBBBABBB
1244441324
CCCCCCCCCC
2221444441
AAAACCCBBB
1424414344
ACCCCCCCCC
3144321442
BBBCCCCCCC
1421421241
AAAABBBBBB
1142212444
AAAAAAACCC
3314431444
BBBCCCCCCC
2221123423
AAAAAABBBB
2112222211
AAAAAAAAAA
2221222222
AAAAAAAAAA
1211214142
BBBBBBBBBB
1224123122
AAAAAAAAAA
1243314134
AABBBBBBBB
2244444434
AABBBCCCCC
2332413341
BBBBBBBBBB
4134133344
CCCCCCCCCC
4333144441
BBBBBCCCCC
2311122114
AAAAAABBBB
2144444441
AACCCCCCCB
1311123444
AAAAAAACCC
2341121241
BBBAAAACCC
3313421142
BBBCCAAAAA
1244342314
ABCCCCAAAA
1131311311
AAAAAAAAAA
1444412324
ACCCCACCCC
3323143312
BBBBBBBBBB
3122224331
BBBBBBBBBB
2142241313
ABBBBBBBBB
2111342123
AABBBBBBBB
2221242412
AAAAAAAAAA
1124444434
AAACCCCCCB
4122223443
CAAAABBBBB
4441424442
CCCCCBBBBB
4221433443
AAAABBBBBB
1123113242
ABBBBBBBBB
1121224131
AABBBBBBBB
2132112244
AAAAAAAABB
2121212112
AAAAAAAAAA
1413412243
BBBBBBBBCC
1212121222
AAAAAAAAAA
4443113442
CCCCCCCCCA
2122412142
AAABBBBBBC
1444444424
BCCCCCCCCC
4444321211
BBBBBAAAAA
1311223121
AAAAAAAAAA
1321432331
BBBBBBBBBB
3212121111
AAAAAAAAAA
2122224444
AAAAAACCCC
1122121111
AAAAAAAAAA
1224444431
AAACCCCCCC
2211314424
AAAAAACCCC
2224443442
AABACCCCCA
4244324444
AABBBBCCCC
4413211212
BBBBBBBAAA
3221433244
BBBBBBBBCC
2242121314
AAAAAAAAAA
1212144134
AAAACCCCCC
2311422242
BBBBBBBBBB
1112222244
BBBAAACCCC
1143413311
BBBBBBBBBB
4414422143
CCCCCCCCCC
2443121442
BBCCCCCCCA
1241112221
BBBAAAAAAA
3434413111
BBBBBBBBBB
1312131224
AAAAAAAAAA
1112332322
AABBBBBBBB
2212122122
AAAAAAAAAA
2221144444
AAAAACCCCC
4444434144
CCCCCCCCCC
1444442442
ACCCCCCCCC
