11431241111221211133412112121121334112141422132111
AAAAAAAAAAAAAAAAAABBBBBAAAAAAAAAAAAAAAAAAAAAAAAABB
44122114431442244442444444211232212223142141211121
BBAAAACCCCCCCBBCCCCCCCCCCCAAAAAAAAABBBBAAAAAAAAAAA
34311132142432311322334412212314411123112312322222
BBBBBAABBBBBBBBBBBBBBBBBBBBBBBBCCCCCBBBBAAAAAAAAAA
32123344444444444344411422314142124314234414124132
BBBBBBCCCCCCCCCCCCCCCCCCABBBBAAAAABBBBBBBBBBBBBBBB
22142444221121221121212242212212231141433143424444
AAACCCCCAAAAAAAAAAAAAAAAAAAAAAAAAAAAACCCBBBBBBBCCC
12211234234222144311112411322123222121444432141322
AAAAAABBBBBBBBBBBBBAAAAAAAAAAAAAAAAAAACCBBBBBBBBBB
44243441432213131223421433222222233142433113231114
CCCCCCCCCBBAAAABAAABBBBBBBAAAAAABBBBBBBBBBBBAAAAAA
22114222211222112124114444411424443444344414433244
AAAAAAAAAAAAAAAAAAACCCCCCBBBBBBBBCCCCCCCCCCCCABBBB
11413424432434423331233323143131121211212244441344
AAABBCCCBBBBBBBBBBBBBBBBBBBCCCCAAAAAAAAAAACCCCCBBB
12222214412242334314441221121412241221222444241122
AAAAAAACCCCBBBBBBBBBBBBBBBBAACAAAAAAAABBBBCCCAAAAA
12221221444424434424341242344411222444443441114244
AAAAAAAACCCCCCCCCCCCCCCCCCCCCBBBBBBCCCCCCCCAAACCCC
42243214343124233132324443123313412412222341322244
BBBBBBBBBBBBBBBBBBBBBBBBBBBBBBBBBBBBBBBBBBBBBBBBCC
43222233342244434123211144443423411213212112221123
BBBBBBBBBBBBCCCCCAAAAAAACCCCCCCCCAAAAAAAAAAAAAAAAA
21223122313323412142122211242234123214224412241424
AAAAAAAABBBBAAAAAAAAAAAAAAAAAACCBBBBBBBBBBBBBBBBBB
23212412121122242121122222214414144244431212134314
AAAABBBBBBBBBBBBAAAAAAAAAAACCCCCCCCCCCCBBBBBBBBBBB
12233444444412211312313324411312224443444414434444
AAAACCCCCCCCAAAAAAAAACCCCCCBBAAAAACCCCCCCCCCCCCCCC
11241141314433444422122121323234121242312432114342
AAABBBBBBBBBBBCCCCCAAAAAAAAABBBBBBBBBBBBBBBBBBBBBB
22222142312311143211121121121121214231221134444443
BBBBBBBBBBBAAAACCAAAAAAAAAAAAAAAAAAAAAACCCCCCCCCCC
22122232122133423412333431241212121112114424441111
AAAAAAAAAAABBBBBBBBBBBBBBBBBAAAAAAAAAAAACCCCBBBBBA
24133333143324444444433444422211224344124444223124
BBBBBBBBBBCCCCCCCCCCCCCCCCCAAAAAAACCCCCCCCCCCCCCCC
