4422112221
BBAAAAAAAA
2211121122
AAAAAAAAAA
1234442411
BBCCCCCCCC
3124413123
BBBBBBBBBC
1324244444
AABCCCCCCC
4131222133
CCABBBBBBB
4314234121
BBBBBBBAAA
2311222212
ABCAAAAAAA
4441443322
CCCCCCCBBB
4423132421
BBBBBBBBBB
1424121121
AAAAAAAAAA
3444424411
CCCCCCCCBB
2111121112
AAAAAAAAAA
2122321241
AAAAAAAAAA
4231324311
AAABBBBBBB
4212333422
BBBBBBBBBA
2212122441
AAAAAAACCC
2443444244
AACCCCCCCC
1111222122
AAAAAAAAAA
2211133444
AAAABBBCCC
1112431224
AAABBBBBBC
4444441212
CCCCCCAAAA
1121121331
AAAAAAABBB
2221142113
AAAAAAAAAA
1124141432
BBABBBBBBB
1222214221
AAAAAACAAC
2124434424
AACCCCCCCC
1444444233
ACCCCCCCCC
1242232412
AAAAAABBBB
2332143414
AAAAAAAAAC
1444444222
BCCCCCCBBB
1144242214
AACCCCCCCC
2221313133
AAAABABBBB
2122212411
AAAAABBBBC
4123122221
BBBBBBAAAA
3422313331
BBBBBBBBBB
2242132113
BBBBBBBBBB
4441313413
CCCCCCCCCA
2441443444
ACCCCCCCCC
1122211423
AAAAAAABBB
2322342443
BBBBBBBBBB
1413124312
BBBBBBBBBB
1112112211
AAAAAAAAAA
2124111222
AAAAAAAAAA
4424444444
CCCCCCCCCC
1222111211
AAAAAAAAAA
1144123211
AACCAAAAAA
1221112122
AAAAAAAAAA
1422213322
ABBBBBBBBB
2112212222
AAAAAAAAAA
2111322112
AAAAAAAAAA
1311222441
ABBBBBBBBA
1112222212
AAAAAAAAAB
3113344341
BBBBBBBBBB
1122412122
AAAAAAAAAA
2221311121
AAAAAAAAAA
1111212212
AAAAAAAAAA
1212221311
AAAAAAAAAA
1434444344
ACCCCCCCCC
2332224244
BBBBBBBBBB
1222132244
AAAAAAAACC
1111223131
AAABBBAAAA
1122212341
AAAAABBBCC
1111142134
AAAAAAAAAA
2232231412
CCBBBBBBBB
3323143422
BBBBBBBBAA
1124444144
AAACCCCCCC
1222131323
BBBBBBBBBB
2444111222
ABBBAAAAAA
4343242422
BBBBBBBBAA
4134131112
CCCCCAAAAA
4142322333
BBBBBBBBBB
1212232231
AAAAAAAAAA
2112212212
AAAAAAAAAA
4441222221
CCCCCBBAAA
2122442224
AAAAAAAAAC
4212241441
BBAABBBBBB
2234444441
BBCCCCCCCC
4444241421
CCCCCCBBBB
1144441134
AACCBBBBCC
4244424343
BBCCCCCCCC
2442214311
ACCCCCCCAA
2144443431
AACCCCBBCC
1213411122
AAAAAAABBB
3424341133
BBBCCCAABB
2121211312
AAAAAAAAAA
1213224121
AAAAAAAAAA
2433224433
CCCCCCCCBB
2143441244
BBBBBBBCCC
2121144444
AAAAACCCCC
2224413442
AAACCCCCCC
1344414413
AACCCCCCCC
2211222233
AAAAAAAAAA
2111112221
AAAAAAAAAA
2322141221
AAAAAAAAAA
3422443324
BBBBBBBBBB
2242442211
AACBBBBBBB
2222224114
BABBBBBAAC
4444321112
BBBBBAAAAA
2121132222
AAAAAAAAAA
