2231322441
AAAAAAACCA
1321221432
AAAAABBBBB
1224241344
BBBBBBBCCC
2144441424
AACCCCCCCC
2222112121
AAAAAAAAAA
1122112212
AAAAAAAAAA
2113313441
AAABBBBBBA
4332221222
BBBBBBAAAA
1113122111
AAAAAAAAAA
4342244444
BBBBBCCCCC
2211323212
AAAAAAAAAA
2223211132
AAAAAAAAAA
4412411112
CBBBBBBBBB
1323214233
BBBBAAAAAB
1223214144
AAAAAACCCC
1111322124
AAAAAAABBB
1114212312
AAAAACCCCC
2111121211
AAAAAAAAAA
1223332112
CAAAAAABBB
3412221241
BBBAAABBBB
2221232121
AAAAAAAAAA
2322111221
AAAAAAAAAA
2122241444
AAAABBBCCC
1124223333
ABBBBBBBBB
1111211332
AAAAAAAACC
2211132212
AAAAABBBBB
3123221111
BAABBBBBBB
1441332412
AAAABBBAAA
2221122221
AAAAAAAAAA
1114131241
AAABBBBBBB
1223112441
AAAAAAACCC
1241324344
AAABBBBBCC
1111111122
AAAAAAAAAA
2144443441
AAACCCCCCC
1421324222
BBBBBBBAAA
1121421122
AAAAAAAAAA
1412312341
AAABBBBBBB
1333144332
BBBBBBBBBB
1112242144
AAAAAAACCC
1114122221
AAAAABBAAA
4434422122
CCCCCAAAAA
4142312332
BBBBBBBBBB
3443234223
BBBBBBBBBB
3414443244
BBCCCBBBBC
1221133422
BBBBBBBBBB
4313244121
BBBBBBBBBB
1344434434
CCCCCCCCBB
2212433314
AAABBBBBBB
2411222124
AAAAAAAAAA
4112221122
AAAAAAAAAA
1322121221
BBAAAAAAAA
1122133111
AAAAAAAAAA
4442444441
CCCCCCCCCC
1322142421
BBBBCCCCAA
2441441444
BCCCCCCCCC
2431231424
AAAAABBBBC
4122444314
AAAACCCCCC
4414414412
CCCCCCCCCC
1112212234
AAAAAAACCC
1343344144
BBBBBBBBCC
4341123224
BBBCAAACCC
2111222122
AAAAAAAAAA
1241244214
AACAACCCCC
1444424441
ACCCCCCCCC
2211411432
AAAABBBBBB
2223231113
AAAAAAAAAA
4444412233
CCCCCBBBBB
1212212223
AAAAAAAAAA
1213114412
AAAAAAAAAA
3112123114
BBBBBAAAAA
1111212222
AAAAAAAAAA
2112314122
AAAAAAAAAA
1212323244
AAAAABBBCC
3421313242
BBBBBBBBBB
2113434444
AAAACCCCCC
2222441411
AAACCCCCAA
3224423113
BBBAAAAAAA
2242212122
AACBBAAAAA
1212221112
AAAAAAAAAA
4444344434
CCCCCCCCCC
1442124133
BBBBBBBBBB
2122311444
AAAAAAACCC
4434233313
BBBBBBBBBC
3121224112
CCBBCACAAA
1323424414
BBBBBBBBBB
2142222232
AAAAAAAABB
1224444244
AACCCCCCCC
1141441442
AACCCCCCCC
3111221212
AAAAAAAAAA
2111241241
BAAAAAAAAA
1434222443
ABBBBBBBBB
1213123214
BBBBBBBBBB
2422411422
BBBBBBBBBB
3213211244
BBBBAAAACC
4131334231
BBBBBBBBBB
1411322221
AAAAAAAAAA
1222112213
AAAAAAAAAA
4414444444
CCCCCCCCCB
4343422241
CBBBBBBBBB
4223241434
BBBBCCCCCC
