11221212211222211111221222222214221112122411224143
AAAAAAAAAAAAAAAAAAAAAAAAAAAAAAAAAAAAAAAAAAAAABBBBB
24311122111242144121331111411321213234243231442444
AAAAAAAAAAAAAABBBBBBBBBBBBBBBBBAABBBBBBBBBBACCACCC
21123344144142331221223312212224442133234112444144
BBBBBBCCCCCCCBBBABBBBBBBBBBBBBBBBBBBBBBBBBBBBCCCCC
42421122342311443313434424221211222212212121213144
CCCAAAAACBBBBBBBBBBBCCCCBCAAAAAAAAAAAAAAAAAAAACCCC
24222121244412122111213414143234243314431242434412
AAAAAAAAACCCAAAAAAAAAABBBBBBBBBBBBBBBBBBBBBBBBBBBB
11222221231142222441122121242121212212312431321322
AAAAAAABBBAACCAAABBBBBAAAAAAAAAAAAAAAABBBBBBBBBBBB
11213122222111121133223414214421244344424412434432
AAAAAAAAAAAABBBBBBBBBBBBBBBBCCAAABBBCCCCCCCCCCCCCC
32311444243214334341423144223233412244412212112111
AAAAACCCBBBBBBBBBBBBBBBBBBBBBBBBCCCCCCCAAAAAAAAAAA
13112313412232142414221322221221212221132144144442
BBBBBBBBBBBBBBBBBBBBBBBBBBAAAAAAAAAAAAAAAACCCCCCCB
21112134444442444443342241221122112214442431221144
AAAAAAACCCCCCCCCCCCCCCAAAAAAAAAAAAAAACCCCCCAAAAACC
21231414444441444222212431212232344321424231444343
AAABBCCCCCCCCCCCCBAAAAAAAAAAAAAABBBBBBBBBBCCCCCCCC
21114113312412232221114444444421121242134122122222
AAABBBBBBBBBBBBBBBAAAACCCCCCCCAAAAAAAAAAAAAAAAAAAA
41131111324132314241122111111122211232331233212323
AAAAAAAAAAAAAABBBBAAAAAAAAAAAAAAAAAABBBBBBBBBBBBBB
41421211122222212311443441211121213342133131114322
CCCAAAAAAAAAAABBABCCCCCCCCAAAAAAAAABBBBBBBBBBBBBBB
24432214444144434444411322131231143223324443342214
AAAAAAACCCCBCCCCCCCCBBBBBBBBBBBBBBBBBBBBCCCCCCCCBB
42414413211322221112221222234444422212223244211111
CCCCCCCCCAAAAAAAAAAAAAAAAAABBCCCCCBAAAAAAAAAAAAAAA
22244434421122344424113221131434421111321213244424
AACCCCCCCAAAACCCCCCCBAAAAAACCCCCCAAAAAAAAAAAACCCCC
31221133111121133212432143124334212133444444141244
AAAAAABBBBBBBBBBBBBBBBBBBBBBBBBBBBBBBBBBCCCCCCCCCC
34441134444444144442444441244331442444444424423444
BBBBBBBCCCCCCCCCCCCCCCCCCCCCCCCCCCCCCCCCCCCCCCCCCC
12423121322221111341214132221434211133342423234434
AAAAAAAAAAAAAAAAAABAABBBBBBAACCCAAAABBBCBBBBBBBBBB
44134232323414233224334443341421124421212212222214
BBBACBBBBBBBBBBCCCCCCCCCCCBBBBBBBBBBAAAAAAAAAAAAAA
31222311142443232323132324144342444424444443441321
AAAAAAAAABBBBBBBBBBBBBBBBBCCCCCCCCCCCCCCCCCCCBBBBB
44442444441112113121144441141432123442144444421233
CCCCCCCCCCAAAAAAAAAAACCBBBBBBBBBBBBCCCCCCCCCCBBBBB
11222311121122222211443444434442224341412111221111
AAAAAAAAAAAAAAAAAAAACCCCCCCCCCCBBBBBBBBBBBAAAAAAAA
12211114134124444144424442442111133312221313314444
AAAABBBBBBBBCCCCCCCCCCCCCCCCAAAAABBBBBBBBBBBBBCCCC
22113411112224444444214441241222121412441312134112
AAAAAAAAAAAAACCCCCCCCCCBBBBBBBAAAAAAACCCCCAAAAAAAA
11442132143424244444444423444244244314342242341424
AAAAAAAAAACCCCCCCCCCBCCCCCCCCCCCCCBBBBBBBBBBBBBBBB
11122114123314122433232321212344441442444344444342
AAAAABBBBBBBBBBBBBBBBBBBAAAAABCCCCCCCCCCCCCCCCCCCC
11212211321133212244444444441433443211324221332241
AAAAAAAAAAAABBBBBBCCCCCCCCCCBBBBBBBBBBBBBBBBBBBBBB
43441224444411144444414444444444442333424243221111
CCCCCCCCCCCCCCCCCCCCCCCCCCCCCCCCCCBBBBBBCCCBAAAAAA
22342432121121424412211121311112221412121121112112
BBBBBBBBBBBBBCCCCCAAAAAAAAAAAAAAAAAAAAAAAAAAAAAAAA
24444444144214444244443414444444424444432312313324
CCCCCCCCCCCAACCCCCCCCCCCCCCCCCCCCCCCCCCBBBBBBBBBBB
12211121224444432443414443414444224434442444314442
AAAAAAAAAACCCCCCCCCCCCCCCCCCCCCBBBBBBCCCCCCCCCCCCC
44444221211222211141122214444423414434434134444133
CCCCCAAAAAAAAAAAAAAAAAAAACCCCCCCCCCCCCCCCCCCCCCCCC
22224123142231422243114344443431242421211122111212
BBBBBBBBBBBBBBBBBBBBBBBBCCCCCCCBBCCCCAAAAAAAAAAAAB
21121213124322121111344341344342444424141422444424
AAAAAAABBBBBAAAAAAACBBBBBBCCCCCCCCCCCCCCCCCCCCCCCC
44441232442112111243334233212442332144313131444414
CCCCCCCBBBBAAAAAAABBBBBBBBBBBBBBBBBBBBBBBBBBBBBBBC
21141241324223414112244434434442441441442442441323
AAABBBBBBBBBBBBBCCCCCCCCCCCCCCCCCCCCCCCCCCCCCCBBBB
13232324242321441211114111112142222121221221221111
ABBBBBBBBBBBBBBBBAAAAAAAAAABAAAAAAAAAAAAAAAAAAAAAA
44144414424444442313244443422111222122122124414411
CCCCCCCCCCCCCCCCCBBBBBCCCCCAAAAAAAAAAAAAAAACCAAAAA
21211212232421122114444414441313112431241333433334
AAAAAAAAAAAAAAAAAAACCCCCBBBBBBBBBBBBBBBBBBBBBBBBBB
31314223122112112142324222224414414444444342132112
BBBBBBAAAAAAAAAAAACBBBBBBBCCCCCCCCCCCCCCCCCAAAAAAA
21211124122421123322112213111212211234414444244221
AAAAAABBBBBBBBBBBBAAAAAAAAAAAAAAAAAACCCCCCCCCBBBBB
31141232342432121112121122211323313331212122244434
BBBBBBBBBBBBBAAAAAAAAAAAAAAABBBBBBBBBBBAAAAAACCCCC
24344441221241334443341222442212421444124414443414
ABBCCCCAAAABBBBBBBBBBBBAAAAAAAAACCCCCCCCCCCCCCCCCC
22111211442212313421423133322121211212223443143323
AAAAABBBBBBBBBBBBBBBBBBBBBBBAAAAAAAAAAAAAACBBBBBBB
22114212222144411444434444424442423344221142414414
AAAAAAAAAAAACCCBBCCCCCCCCCCCCCBBBBBBBBBBBBBBBBBCCC
12344223343443331213444442121413312212112112111212
ABBBBBBBBBCCCBBBBBCCCCCCCCBBBBBBBAAAAAAAAAAAAAAAAA
12121442221441444224323132233134441444124444211111
AAAAAAAAAAACCCCCCCBBBBBBBBBBBBBCCCCCCCCCCCCCCCCCCB
44434443142312421143424432231224321113334234434111
CCCCCCCCBBBBBBBABBBBBBBBBBBBBBBBBBBBBBBBBCBBBBBBBB
23414232221122131413341443433122312444444224242444
AAAAAAAAAAAAAAABBBBBBBBBBBBBBBBBBBBCCCCCCCAAACCCCC
44444424123244444442344443341311412433413111441333
CCCCCCCCCCCCCCCCCCCCCCCCCCCCBBBBBBBBBBBBBBBBBBBBBB
42311122211112111142122222444424143122121224211122
BBBBBAAAAAAAAAABBAAAAAAAACCCCCCCCCCBAAAAAAAAAAAABA
24444334412423113342334412132412224211242414434443
CCCCCCBBBAAABBBBBBBBBBBBBBBBCCAAAAAABBBBBBCCCCCCCC
21333342221312224144443444141431133444444133313442
BBBBBBBAAAAAAAAACCCCCCCCCCCCCCBBBBBCCCCCCAABBBBCCB
11122122411444444214222321111122341243444114444443
AAAAABBAAAACCCCCCAAAAAAAAAAAAAAAACBBBBBBBCCCCCCCCB
21232223132222222421313144244414321441431344422232
AAAAAAAAAAAAABAACCCCBBBBBBCCCCBBBBCCCABBBBBBBBBBAA
21231242331432123112221111112134422112222341321122
AABBBBBBBBBBBBAAAAAAAAAAAAAACCCBBBBAAAAAABBBBAAAAA
21311214434443144444224243214424312433113143214441
AAAAAAACCCCCCCCCCCCCAACCBBBBBBBBBBBBBBBBBBCCCCCCCB
12444434422444444344344441143121212212211112221111
AACCCCCCCCCCCCCCCCCCCCCCCCCCBAAAAAAAAAAAAAAAAAAAAA
12241211231421222222222121131114232244122211221423
AAAAAAAAAAAAAAAAAAAAAAAAAAABAAAAAAAAAAAAAAAAAAABBB
11222422124211223432341141211342231232222121212124
AAAAAAAAAAAAAAABBBBBBBBBBBBBBBBBBBBBBBAAAAAAAAAAAA
43211121211121114112141122334422121321422211133122
CAABBAAAAAAAAAAAAAAAAAAAABBBBBAAAAAAAAAAAAAAAAAAAA
23112132124433111112112231122212213221121444124213
BBBBBBBBBCCCBBBBBBAAAAAAAAAAAAAAAAAAAAAACCBBBBBBBB
22111234424121113431142221412122223211341112122123
ABBBBBBBBBBBBBBBBBBBBBBBBAAAAAAAAAAAAAAAAAAAAAAAAB
43143441241112124442123111221122321411322224241132
CBBBBBAAAAAAAAAACCCCAAAAAAAAAAAAAAAAAAAAAAAAAAAAAA
23212112211114224444434143144424424444331222242212
AAAAAAAAAAAAACCCCCCCCCCCCCCCCCCCCCCCCCCCAAAAACAAAA
42223421244144311433411444141414441444424411132332
AAAAABCCCCCCCCCBBBBBCCCCCCCCCCCCCCCCCCCABBBBBBBBBB
22214211221412441244144412221221424424133143223221
AAAAAAAAAAAAABCCCCCCCCCCCCCAAAACCCCCBBBBBBBBBBBBAA
13412112211432442214212121222313142113412123411122
ABAAAABBBBBBBBCCAAAAAAAAAAAAABBBBBBBBBBBAAABBAAAAB
32324334333144241114112221112422212142223113343414
BBBBBBBBBBBBBBBBBBBBAAAAAAAAAAAAAAAAAAAAAACCCCCCCC
12212212213134431444114434214141313111211213321242
AAAAAAAAAABBBBBBBCCCCCCCCBBBBBBBBBBBAAAAAAAAAAAAAA
44444444434214343444444241312443344344444343141241
BCCCCCCCCCBBCCCCCCCCCCCCCCCCCCCCCCCCCCCCCCCCCCCCCC
44344232212344432441414444241444424234334442243332
CCCCCCCAACCCCCCCCCCCCCCCCCCCCCCCCCCCCCBBBBBBBBBBBB
31434412342124211141113122111221111223121434444444
BBBBBBBBBBBBBAAAAAAAAAAAAAAAAAAAAAAAAAAACCCCCCCCCC
21242313112314224444112212141132131141111214221111
AAAABBBBBBBBBBBCCCCCAAAAAAABBBBBBBBBBBAAAAAAAAAAAA
41222212113444442112243133414331423121434443332424
BAAAAAAAAACCCCCCCAAACCBBBBBBBBBBBBBBBBBBCCCCBBBBBB
11144213444421222211111111124234421232321244134331
AAACCAACCCCCCAAAAAAAAAAAAAAACCCCCAAABBBBBBBBBBBBBB
23221214111122422414221424213234342214411424443444
AAAAAACCCCAAABBBBBBBBBBCCCBBBBBBBBBABBBBBCCCCCCCCC
33434134121311322313434434444444444244442344424444
BBBBBBBBBBBBBBBBBBBBBBBBBBCCCCCCCCCCCCCCCCCCCCCCCC
14221112322111113212141121221444242111122422123443
AAAAAAAAAAAABAAAAAAAAAAAAAAAACCCCCAAAAAAAAAABBBBBB
11144444144412244344144444311111121121342211112212
AAACCCCCCCCCCACCCCCCCCCCCCAAAAAAAAAAAAAAAAAAAAAAAA
34414122234143421133111244144241444444444421444344
BCBBBBBBBBBBCCCCBBBBBBBBBBBCCCCCCCCCCCCCCCCCCCCCCC
12214424444443414444144444441422444443443241221414
AAAACCCCCCCCCCCCCCCCCCCCCCCCCCCCCCCCCCCCCCCBBBBBCC
12411421233221412114214233444442224421131322442131
AAAAACAABBBBBCCCAAAAABBBBBBBBBBBBBBBBBBBBBBBBBBBBB
43444433341144244143444224233221421114412221221211
CCCBBBBBBBCCCCCCCCCCCCCCBCBBBBBBBBBBCCCAAAAAAAAAAA
21214442213122233442312222221144414411221212244421
BBBBBBBBBBBBBBBBBBBBBAAAAAAAAACCCBCCAAAAAAACCCCCCC
24344422212213144334434444344444424341444344144413
CCCCCCAAAAAAACCCCCCCCCCCCBBBBCCCCCCCCCCCCCCCCCCCAA
22122112214442444143321212111211211412422241212344
AAAAAAAAAACCCCCCCACBAAAAAAAAAAAAAAAAAAABBBBBBBBBBB
12124321242122232424444244444444412444414434444434
AAABBBBBBBBBBBBBBBBCCCCCCCCCCCCCCCCCCCCCCCCCCCCCCC
11221214124133224332442213341441211442422412324213
AAAAAAACBBBBBBBBBBBBBBBBBBBBBCCAAAACCCCBBBBBBBBBBB
42133323441141212124112211212411131211123314343423
BBBBBBBBBBBBBBBAAAAAAAAAAAAAAAAAAAAAAAAABBBBBBBBBB
41434444114442144443334221234221112214124421122311
CCCCCCCCCCCCCCCCCCCBBBBBBBBBBAAAAAAAAAAACCAAAAAAAA
44422442242341434444143444424342444442222122121421
CCCAACCCCCCCCCCCCCCCCCCCCCCCCCCCCCCCCAAAAAAAAABBBB
11223444122333144411211441312324111314434243444444
AAACCCCCAABBBBBBBBBBBBBBBBBBBBBBBBBBBBBCCAAACCCCCC
22444244444414422244144122112122344424344244424122
BBCCCCCCCCCCCCCAAACCCCAAAAAAAAAABBBBBCCCCCCCCCCAAA
34213443444344422213344444444441111112122212222222
BBBBBCCCCCCCCCBBBBBBBBCCCCCCCCCAAAAAAAAAAAAAAAAAAA
21122314212411213244444414411412123111233422243334
AAAAAAAAAAAAAAAAAACCCCCCCCCCCCCAAAAAAABBBBBBBBBBBC
14341144443214444211141431342343312233314243141143
ABBBAACCCCCCCCCCCCCCBBBBBBBBBBBBBBBBBBBBBCCBBBBBBB
44413134444234444444424413244222232221134424442212
CCCCCCCCCCCCCCCCCCCCCCCCCCCCCCCAAAAAAAAACCCCCCCCCC
24444142422441334342441222312411242224122211112122
ACCCCCCCCCCCCCABCCCCCCCAAAAAAAAAAAAAAAAAAAAAAAAAAA
12211444434243111124433442444444111113242222112423
AAAAACCCCCCCCCAAAAACCCCCCCCCCCCCAAAAAAAAAAAAABBBBB
22122111112222443442244241414111112211142342112124
AAAAAAAAAAAAAACCCCCCCCCCCCCCCCAAAAAAAAABBBBBAAAAAC
44441212234112233144221424211111232444123444244421
BBBBBBBAABBBBBBBBBBBBBBBBCAAAAAAAAACCCCCCCCCCCCCCC
21241311441424414423342414424412214221134144444444
AAAAAAAABBBBBBBBCCBBBBBCCCCCBAAAABBBBBBBCCCCCCCCCC
12122322341431322211212224131442244444444444441224
AAAAABBBBBBBBBBAAAAAAAAABBBBBBBBBBBCCCCCCCCCCCCCBB
22122122212244114244413114444424424442423112124433
AAAAAAAAAAAACCCCCCCCCBBBBCCCCCCCCCCCCAAABBBBBBBBBB
34234444241412244142434431342242432241221122231242
BBBBCCCCCCCCCCCCCCCCCCCCCCBBBBBBBBBBBAAAAAAAAAAACC
12144341211422442434334112312221112211233342313314
AAABBBBBBBBBBBBBBBBBBBBBBBAAAAAAAAAAAAABBBBBBBBBBB
42221311111221112211122212321211221132141234313421
AAAAAAAAAAAAAABAAAAAAAAAAAAAAAAAAAABBBBBBBBBBBBBBB
12111221222412222114114432444422222222344122233443
AAAAAAAAAAABBBAAAAAAAACCCCCCCCAAAAAAAABBBBBBBBBCCC
12421214443144344321442444244444443113414241421411
AABAAAACCCCCCCCCCCAACCCCCCCCCCCCCCCBBBBBCCCCCAAAAA
32442322243444324444141144221123232342334324121433
CCCBBBBBBBCCCCCCCCCCCCCBBBBBCCCCCBBBBBBBBBBBBBBBBB
42431212111223311112224141111342222221414432412412
CCCCAAAAAAAAAAAAAAABBBBBBBAAAAAAAAAAAACCCBCCCAAAAA
42324443444244144444444422121331121224142311444244
CCCCCCCCCCCCCCCCCCCCCCCCAAABBBBBBBAABBBBBBBBCCCCCC
22112442112222122442221212111114423442421132444342
AAAAABAAAAAAAAAAAAAAAAAAAAAAAAACCCCCCCCCAAAACCCCCC
43132243134411112211311122211211222122212231242122
BBBBBBBBBBBBBAAAAAAAAAAAAAAAAAAAAAAAAAAAAABBBBAAAA
22121222231223122142121222334444444444344243421421
AAAAAAAAAAAAAAAAAAAAAAAAAACCCCCCCCCCCCCCCCCBBBBBBB
32222211413321214224244442434434443444414344122122
AAAAAAAAAAAAAAAACCCCCCCCCCCCCCCCCCCCCCCCCCCCAAAAAA
24444444244242111122221214121111414144141143413233
CCCCCCCCCCCCCCAAAAAAAAAAAAAAAAABAACCCCCCCCCBBBBBBB
41444412124441111222222212222122122422222221214424
BBBBBBBBBCCCCCAAAAAAAAAAAAAAAAAAAAAAAAAAAABAAACCBC
21114422214232434143434112311211221221322232222112
AAAABBBBBBBBBBBBBBBBBBBBBBBBAAAAAAAAAAAAAAAAAAAAAA
12213413243122142224422233122132334124333224213311
AABBBBBBBBBBBBBBBBBBBBBBBBBBBBBBBBBBBBBBBBBAABBBBB
32212214211111221123112131113214421121344434324444
AAAAACCCAAAAAAAAAAAAAAAABBBBBBBBBAAAAACCCCCCCCCCCC
11211212421212112324123142122221444424441312214111
AAAAAAAAAAAAAAAAAAAAAAABBBBBBBBBCCCBBCCCAAAAAACCCB
21244223344334212312111214444444444442442122244414
BBBBBBBBBBBBBBAAAAAAAAAACCCCCCCCCCCCCAAAAAAAABBBBB
12232211124414433443314444431222112221144441443444
AAAAAAAAABBBBCCCCCCCCCCCCCBBAAAAAAAAAAACCCCCCCCCCC
11123311314411341442123222221444441444431443444424
AABBBBBBBBBBBBBBBBBBAAAAAAAAACCCCCCCCCCCCCCCCCCCCC
22121114441441334243421422323412444214441244324421
AAAAAAACCCCCCBBBBBBBBBBBBBBBBBBBCCCCCCCCCCCCBBBBBB
12112121144344414443344444121221334424443223232141
AAAAAAAAACCCCCCCCCCCCCCCCCAAACCCCCCCCCCBBBBBBBCCCC
34442422221344434444243444244444433143212132331143
BCCCCAAAAAACCCCCCCCCCCCCCCCCCCCCCCCBBBBBBBBBBBBBBB
22244422444211321332412413343313344413244421142323
AAACCCCCCCCBBBBBBBBBCCBBBBBBBBBBBBBBBBBBBBBBBBBBBB
43432321341223221212112222141121444443441122112212
BBBBBBBBBBBBBBAAAAAAAAAAAAAAAACCCCCCCCCCCBAAAAAAAA
11133422443443232132313442243231322314424444441111
AAABBBBBBBBBBBBBBBBBBBBBBBBBBBBBBBBBBCCCCCCCCCAAAA
22113423214444121322121211121122121422121122124122
AAAABBBBBBBBBBBAAAAAAAAAAAAAAAAAAAAAAAAAAAAAAAAAAA
11112241211444242122444344442334411112414141224444
AAAAAAAAAAACCCCCCCCCCCCCCCCCBBBBBBBBBBBBBBCCCCCCCC
34332211334244444444422211224334424444242444413141
AAAAAAAAAACCCCCCCCCCCAAAAAAACCCCCCCCCCCCCCCCCCCCCC
32141322244444444321334241213333134442224231121211
BBBBBBBBBBCCCCCCCCCCCCCCCBBBBBBBBBBBBBBBCAAAAAAAAA
22134224132444142241441133243124344141444224444444
AABBBBBBBBCCCCABBBBBBCAAABBBBBBBBBBCCCCCCCCCCCCCCC
14212111211112122222112412122111221222221222143441
AAAAAABBAAAAAAAAAAAAAAAAAAAAAAAAAAAAAAAAAAAAABBBBB
41424242434234122442243132211211212224144434143324
BBBBBACCCBBBBBCBBBBBBBBAAAAAAAAAAABBBBBCCCCCCCCCCC
22222322124443444244431431424334442441433144443414
AAAAAAAAAACCCCCCCCCCCCCCCCCBCCCCCCCBBBBBBBBBBBBBBA
43421444442432331222234121222444114333234444311444
BBBBBCCCCCCCCABBBBBBBBBBAAAACCCCAACBBBBCCCCCCCCCCC
11111412211444444444434141412211344444314244241344
AAAAAAAAAAACCCCCCCCCCCCCCAAAAAAACCCCCCBBBBCCCCCCCC
14124313441422312233141121322122423112444444333424
CCCCCCCCCCBBBBBBBBBBBCAAAAAAAAAAAAAAAACCCCCCBBBCCC
44342233423344443143143433412323443424324311431123
BBBBBBBBBBBBBBCCBBBBBBBBBBBBBBBBCCCCBBBBBBBBBBBBBB
13144143344444141423442444444344444111221231112242
ABBCCCCCCCCCCCCCBBBBCCCCCCCCCCCCCCCBCABBBAAAAAAAAA
14144434244312112114114144142112323324124413134144
BBCCCBBBBBBCAAAAAAAAAACCCCCBBBBBBABBBBBBBBBBBBBCCC
32111221121224344424414142144114442444443441242242
AAAAAAAAAACCCCCCCCCCCCCCCCCCCCCCCCCCCCCCBBBBBBBABB
12211211234411234444121112122214111422423324144412
AAAAAAAAACCCAAABCCCAAAAAAAAAAAAAABBBBBBBBBBCCCCCAA
14141212211211424122121122221222123212424441141444
CCCCCAAAAAAAAAAAAAAAAAAAAAAAAAAAABBAAACCCCCCCCCCCC
22112141443142441444423444144432441111223121142111
AAAAAABBBBBBBBBCCCCCCCCCCCCCCCCCCCAAAAAAAABAACAAAA
11121341111421341444441212231111322111121123344122
AAAAAABBBBBBBABCCCCCCCAAAAAAAAAAAAAAAAAAAABBBBBBBC
43224112112221214444443422422122111221121212122211
AAAACAAAAAAAAAAACCCCCCCCCCCCAAAAAAAAAAAAAAAAAAAAAA
11212122344442344434333324222122123113444444344233
AAAAAAAACCCCCCCCCCBBBBBBBBBBBBBBBBBBBBCCCCCCCCCBBB
34323113433111241342432222444444444444441442212142
BCBBBBBBBBBBBBBBABBBBBBAAACCCCCCCCCCCCCCCCCCAAAABB
22111111121122112121121222233422112113211324132141
AAAAAAAAAAAAAAAAAAAAAAAAAAABBBBAABBBBBBBBBBBBAAAAA
42131311324422314134131122433424414444444214244344
BBBBBBBBBBBBBBBBBBBBBBAAACCCCCCCBBCCCCCCCAACCCCCCC
42124132312412111442442444214344122212222212311222
AAAAAAAAAAAAAAAAACCCCCCCCCCCCCCCCAAAAAAAAAAAAAAAAA
11221322114133121411233112144123144444414413343131
AAAAAABBBBBBBBBBBBBBBBBBBBBBBBBBBCCCCCCCCCCCCCCCCC
41222244412313143412132242442442244243422414222443
BAAAAACCBBBBBBBBBBBBBBBBBBBBBBBBBBBBBBBBBBBCCCCCCC
42441444444444442231444444441434422221224441111131
BBCCCCCCCCCCCCCCAAAACCCCCCCCCCCCCCCCAAAACCCAAAAAAA
12243222324211234442241243222433214344442432232323
BBBBBBBBBBBBBBBBBBBBBBBBBBBBBBBBBBBBCCCCCBBBBBBBBB
21412122131122122212112121141113331142411114112114
AAAAAAAAAAAAAAAAAAAAAAAAAABCCBBBBBBBBBBAAAAAAAABBB
24112111322244441234443444442244444233144413443443
CCAAAAAAAAACCCCCCCCCCCCCCCCCCCCCCCCCCCCCCCCCCCCCCC
42444331133211344333231223411123132414113312442424
BBBBBBBBBBBBBBBBBBBBBBBBBBBBBBBBBBBBBBBBBBBBBBBBBB
41222111244142111341334444414444442212111233222123
AABCAAAAACCCCAAAABBBBBCBCCCCCCCCCCCAAAABBBBBBBBBBB
12244444434422212222222112141422121222112221331114
AACCCCCCCCCCAAAAAAAAACAAAAAAACAAAAAAAAAAAAABBBBBBB
22334333413432223323133441242214121221241221121122
ABBBBBBBBBBBBBBBBBBBBBBBBBBBBBBBAAAAAAAAAAAAAAAAAA
22341243434442212241214141444222441412213322222222
AABBBBBBCCCCCCAAAAAABBBBBCCCCCCCCCCCCCBBBBBBBBBBBB
32242314114313211224211112121121113122124343413124
BBBBBBBBBBBBAAAAAAAAAAAAAAAAAAAAAAAAAAACCBBBBBBAAA
11212211111222212213414141444444441211122211121221
AAAAAAAAAAAAAAAAAAACCCCCCCCCCCCCCCAAAAAAAAAAAAAAAA
22112122222411121222213431331443433342213313121211
AAAAAAAAAAAAAAAAAABBBBBBBBBBBBBBBBBBBBBBBBBBBBAAAA
21221121122112222422343324444441444442424144244144
AAAAAAAAAAAAAAABBBBBBBBBCCCCCCCCCCCCCCCCCCCCCCCCCC
32332112111323222412222232444413123244121122121112
BBBBBAAAAAAAAAAAAAAAAAAABBBBCCAAAAAAAAAAAAAAAAAAAA
14441444414444244311414443412211113342434122223412
BCCCCCCCCCCCCCCCCCCCCCCCCCBBBBBBBBBBBBBBBAAAAAABBB
44342231231241142212311342114443141244414241112221
BBBBBBBBBBBBBBBBBBBBBBBBBBCCCCCCCCCCCCCCCCCCAAAAAA
12131331414441111224244244411421344443444412122411
AAAAACCCCCCCCAAAAACCCCCCCCCAAAAABCCCCCCCCCCCCCCCCC
43411212244342332342212244144434444412212133144222
CBBBBBBBBBBBBBBBBBBBBBBBCCCCCCCCCCCCAAAAAABBACCBBB
44442224213422112112112422223342444442444442444434
CCCCABBBBBBBBBBAAAAAAAAAAAABBBCCCCCCCCCCCCCCCCCCCC
11343112231214443322321422211111124112334123124323
ABBBBBBBBBBBBBBBBBBBBBBBBBBBAAAAAABBBBBBBBBBBBBBBB
44223232114411331144412224442323212121241212111211
BBBBBAAAAAABBBBBBBBBBBBBBBBBBBAAAAAAABBBAAAAAAAAAA
11113311322233343221434324331231114434444444424443
AABBBBBBBBBBBBBBBBBBBBBBBBBBBBBBBBBBBBBCCCCCCCCCCC
44434424414121244442442344444444444212221211111121
CCCCCCCCAAAAAAACCCCCCCCCCCCCCCCCCCCCAAAAAAAAAAAAAA
21114121111123222112111111121242123111212121122111
AAAAAAAAAAAAAAAAAAAAAAAAAAAAAAAAAAAAAAAAAAAAAAAAAA
43422322114431243324443434412434444321411424434444
BBBBBBBBBBBBBBBBBBBBCCCCCCCCCCCCCCCCCCCCCCCCCCCCCC
24211232221224441424111212122213111331111222243421
BAABBBBBAAAAACCCACCCAAAAAAABBAAAAAAAAAAAAAAABBBBBB
34322414344421332144423433114142332111244444312411
BBBBBCCCCCCCBBBBBBBBBBBBBBBBBBBBBBBAAAACCCCCCAAAAA
12213233443444414141112123211211222111112122212222
AAAABBBBCCCCCCCAAAAAAAAAAAABAAAAAAAAAAAAAAAAAAAAAA
42211221122241112323434323444442441112111221132221
BAAAAAAAAAAAAAABBBBBBBBBBBCCCCCCCCCAAAAAAAAAAAAAAA
11132221221442211142414444331424433122231211111141
AAAAAAAAAAACCAAAABCCCCCCCBBBBBBBBBBAAAAAAAAAAAAAAA
14224434214114242212111114444324443214444211121211
ABBBBBBBBBBBBBBBBBBBBBBBBCCCCCCCCCBBBBBBBAAAAAAAAA
22214244444224424442444141414444344224111444444414
AAAACCCCCCCCCCCCCCCCCCCCCCCCCCCCCCCCCCCCCCCCCCCCCC
14444444441443441221121141444441324444211221422221
ACCCCCCCCCCCCCCCCAAAAAAACCCCCCCCCACCCCAAAACCCAAAAA
12222124424441133444123242144121442211114244444444
AAAAAAACCCBBBBBBBCBBBBCBBBBCBBBBBBBAAAAACCCCCCCCCC
14341422444413441121444242122122111122111234344444
BBBBBBBBCCCCCCCCCCBBBBBBBAAAAAAAAAAAAAAAABBCCCCCCC
14324441114424124444111211141411414231212224444212
BBBBBBBBBBBBBBBBBCCCAAAAAAACCCCBBBBBBBBAAAAACCCCAA
43311311222213211412141232421112441212432121121221
AAAAAAAAAAAAAAAAAABBBBBBBBBBBBBBBBBBBCCCAAAAAAAAAA
34444124113413133314134144242444442444444314424433
ACCCBBBBBBBBBBBBBBBBBBBBCCBBBBCCCCCCCCCCCCCCCCCBBB
11223443444413444424424222223121121321211321413443
AAAAACCCCCCCCCCCCCCCCCCABBBBBBAAAAAAAAAAAAABBBBBBB
32232423124232242344144423142311123422424114112421
BBBBBBBBBBBBBBBCCCCCCCCBBBBBBBBBBBBBBBBBBBBBAAACAA
11112222221422422211231244214444244444443444411211
AAAAAAAAAAAAAAAAAAAAACCCCCCCCCCCCCCCCCCCCCCCCCCCCC
24211444134111211111111121234444121122211344344334
ABBBBCCCCCCCAAAAAAAAAAAAACCCCCCCAAAAAAAAACCCBBBBBB
22241412414144142212121222212224212122443443431122
AACCCCCCCCCCCCCCCBAAAAAAAAAAAAAAAAAAAACCCCCCBBAAAA
12422122212421131212132111323121311211123241113121
AAAAAAAAAAAAAAAAAAAAAAAAAAAAAAAAAAAAAAAAAACCBBBBBB
21211224442444444444144444441341414444344444122222
AAAAAAACCCCCCCCCCCCCBCCCCCCCCCCCCCCCCCCCCCCCCBAAAA
41213121221121213422112112221223132421222133141122
BAAAAAAAAAAAAAAAAAAAAAAAAAAAAAAAAAAAAAAAAABBBBBBBB
31222214232411222112413122121123414321324222421444
BBBBBBBBBBBCAAAAAAAAABBAAAAAABBBBBBBBBBBBBBBBBBCCA
21324444212414433233423424311144444244444442222221
AAAACCCCCCCCCCCCBBBBBBBBBBBBBCCCCCCCCCCCCCCAAAAAAA
31134434311221212141221111213244412114334343344444
BBBBBBBBBBAAAAAAAAAAAAAAAAAAABBBBBBBBBBBBBBBCCCCCC
12412144413444111412234432122112212242212122124442
BAAAAACCCCCCCCBBBBBBBBBBBBBBBBBAAAAAAAAAAAAAAACCCC
33222443421222212232214223211234444414232311141121
BBBCCCCCCCAAAAAAAAAAAAAAAAAAAACCCCCCCCCCBBBBBBBBBB
22412432131213121314431414443212212211231221112121
BBBBBBBBAAAAAAAAABBBBBBBBBBBBBAAAAAAAAAAAAAAAAAAAA
22441444134444443424441441122444444443431212242212
AAACCCCCCCCCCCCCCCCCCCCCCCAAACCCCCCCCBBBBBBBBBBBBB
23223111214113121332344412312444342214144124112112
BBBBBBBBBBBBBBBBBBBBBBBBBBCCCCCCCCAAACCCCAAAAAAAAA
44111124414244424112311212213142412111121122211434
CCAAAAACCCCCCCCCCBBBBBBBABBBAAAAAAAAAAAAAAAAAAACCC
24221211113443123443444441123311443444434241341412
AAAAAAAAAABBBBBBBBCCCCCCCCBBBBBBBBCCCCCCBBBBBCCCAA
21244243444443143444243444133424314311444444314441
CCCCCCCCCCCCCCCCCCCCCCCCCCCBBBBBBBBBBBCCCCCCCCCCCC
33341442432434121211221122121221221321423112423121
BBBBCCCCCCCCCCCCAAAAAAAAAAAAAAAAAAABBBBBBBBBBBBBBB
44222221224222434442314424234243111234312344422111
AAAAAAAABBBBBBBBBCCCCCCCCCBBBBBBBBBBBBBBBBBBBAAAAA
42124423444341211412211444444414444134443211214412
BBBBBBBBBBBBBBBBBBBAAAACCCCCCCCCCCCCCCCCCCCCCCCCCC
11131224331232321213122111431312434122222112122112
BBBBBAABBBBBBBBBBBBBBBBBBBBBBBBBBBAAAAAAAAAAAAAAAA
34441441442123142411111212442224121114443241424444
CCCCCCCCCCAABBBBBBBAAAAAAAABBBBBBBBBBBBBBBBBCCCCCC
12241221144424112412411112444242242444214242414131
AAAAAAAAACCCCCABBBBBBBBCCCCCCCCCCCCCCCCCCCBBBBBBBB
22123441444442244111141444442424444443444444244444
AAAAACCCCCCCCAACCCCCCCCCCCCCCCCCCCCCCCCCCCCCCCCCCC
12421223311221131143244313121211243122322441123324
BBBBBBBBBAAAAAAAAABBBBBBBBBBAAAABCCCABBBBBBBBBBBBB
31121212331211144144243234441314442122231312211122
AAAAAAAABBBBBBCCCCCCCCBBBBCCCCCCCCAAAAAAAAAACAAAAA
32242221432413422244331112231442443211241211221122
AAAAAAAABBBBBBBBBBBBBBAAAAABBBBBBBCAAAAAAAAAAAAAAA
11221142144134213442423211343222111112321233231333
AAAAABBBBBBBBBBBBBBBBBBBBBBBBAAAAAAAAABBBBBBBBBBBB
43111112213412121411444414443343434213441432222434
AAAAAAAAAAAAAAAAACCCCCCCCCCCCCCBBBBBBBBBBBBBBBBCCC
24443322114124312243433324344444311221123412411344
AACCAAAAAABBBBBBBBBBBBCCCCCCCCCCCCAAAAAABBBBBBBBBB
24422111121231231231212144434444441431344342213444
BBBBBBBAAAAAAAAAAAAAAAACCCCCCCCCCBBBBBBCCCCCCCCCCC
32442124122244341344341434312144233231221422432412
CCCCAAAAAAAABBBBBBCCCCCCCBBBBBBBBBBBBBBBBBBBBBBBBA
43434344444444433444442443231443443144442411112122
BBBBCCCCCCCCCCCCCCCCCCCCCCCCCCCBCCCCCCCCACAAAAAAAA
34224244412324231122141121243444442334132144444421
BBBBBCCCCAABBBBBBBAAAAAAAAACCCCCCCCBBBBBAACCCCCAAA
41121134244424444344441232324322231412121313244113
BBBBBBBBBCCCCCCCCCCCCCBBBBBBBBBBBBBBBBBBBBBBBBBBBB
24441444314221332412421143332342441322144113121321
ACCCCCCCCAAAABBBBBBBBBBBBBBBBBBBBBBBBBBBBBBBBAAAAA
21131144143444444212121121234411231444143444241441
AAAAAACCACCCCCCCCAAAAAAAAABBBBBBBBBBBBBCCCCCCCCCCC
11122421211122231211121122431144414344433121111222
AAAAAAAAAAAAAAAAAAAAAAAAAACCCCCCCCCCCCCCCAAAAAAAAA
34433211224334331324234122141221222111213322244444
BBBBBBBBBBBBBBBBBBBBBBBAAAAAAAAAAAAAAAAAAAAAACCCCC
44211424414114211442441444344443413444442321122222
AAAAABBBBBBBBBAAACCCCCCCCCCCCCCCCCCCCCCCCCAABAAAAA
12111221422142143424444244121221442323313441141344
AAAAAAAAAAACCACCCCCCCCCCCCBBBBBBCCBBBBBBBCCCCCCCCC
22112424124444223221122314232121434441431342322333
AAAAAAAAAACCCCAAAAAAABBBBBBBBBBBCBBBCCCBBBBBBBBBBB
41121142221211213331444441442444244434331444221223
AAAAAAAAAAAAAABBBBBCCCCCCCCCCCCCCCCCCCCCCCCCAAAAAA
21421414444344444442434444444121144232224222143444
BBBBBCCCCCCCCCCCCCCCCCCCCCCCCAAAACCCCAAAAAAACCCCCC
11244444112444113212423443441123431223422112222111
AAACCCCCAAACCCAAAAAACBBBBBBBBBBBBBBBBBBAAAAAAAAAAA
14214423221211244444134444444344121122112221211233
BBBBBBBBBBAAAAACCCCCCCCCCCCCCCCAAAAAAAAAAAAAAAAAAA
21121211442233141424444211211112422112243444244332
AAAAAAAACCCCBCCCCCCCCCCCAAAAAABBBBBBBBBBBBBBBBBBBB
12141322222224112211221232433144414422124222112112
AAAAAAAAAAAAAAAAAAAAAAACBBCCCCCCCCCCAAAAAAAAAAAAAA
11211122212431344224424431322212123344112113143224
BAAAAAAAAABBBBBBBBBBBBBBBBBBBAAAAABBBBBBBBBBBBBBBB
21122444444412122114214244244244232222111242122223
BBBBBCCCCCCCAAAAAAACCCCBCCCCCBBBBBBBBBBBBBBAAAAAAA
22114123111211144341244311433134234431313421221121
CCBBBBBBBAAAAAACCCCCCCBBBBBBBBBBBBBBBBBABBBBBBBAAA
21122332122214111221122421223112211111121221211312
AAAAAAAAAAAAAAAAAAAAAAAAAAAAAAAAAAAAAAAAAAAAAAABBA
41144444112212142221112121212212121121211412413211
AACCCCCCAAAAAAAAAAAAAAAAAAAAAAAAAAAAAAAAABBBBBBBBB
21111132122312421214221231223444443441243423221341
AAAAABBBAAAAAAAAAAAAAAAAAAAACCCCCCCCCBBBBBBBBBBBCC
12212433122433143423113322442141411332234243142444
AAAAAAABBBBBBBBBBBBBBBBBBBBBBBBBBBBBBBBBBBBBBBBCCC
22141111232224444444412112222221221123123121142223
BBBBAAAAAAAAACCCCCCCCAAAAAAAAAAAAAAAAAAAAAAAABBBBB
21213311111111112211311221112212141411134111441114
AAAABBAAAAAAAAAAAAAAAAAAAAAAAAAABBBBBBBBBBAAACCCCC
22341432311431321214212112244434434434444244444134
BBBBBBBBBBBBBBBBAAAAAAAAACCCCCCCCCCCCCCCCCCCCCCCCC
12341224231344331221121111344432431344434424424111
BBBBBBBBBBBBBBBBAAAAAAAAAABBBBBBBBBBBBBBCCCCCCCCBA
44111143431331122321124341144341243444144111221221
BBBBBBBBBBBBBAAAAAAAAACCCCCCCCCAACCCCCCCCAAAAAAAAC
11211122444231423224244431322232434344444223441143
AAAAAAACCCCBBBBBBBBBBBBBBBBBBBBBBBBBBCCCCCCCCCCCCC
13434421441244344322444441144131344421414444434422
BBBBCCCCCCBBBBBBBBBBBCCCCBBBBBBBBCCCCCCCCCCCCCCCAA
22121322112444444244444324331213444424444224444442
AAAAAAAAAAACCCCCCCCCCCCBBBBBBAACCCCCCCCCCCCCCCCCCA
22134333214444444424111221221123243444311443341444
BBBBBBBBBBCCCCCCCCCCAAAAAAAAAAACCCCCCCCCCCCCCCCCCC
22112221212221121143341321143444414111143341422433
AAAAAAAAAAAAAAAAABBBBBBBBBBBCCCCCAAAAAACCCCCCABBBB
21231242442123334423241431121144443332211121212244
AAABBBBCCCABBBBBBBBBBBBBBBBAABBCCCCCAAAAAAAAAAAACC
12222212332344444424422224221243443413142142332421
AAAAAAAABBBBCCCCCCCCCCCBBBBBBBBBBBBBBBBBBBBBBBBBAA
21421244444444212343414444124314444444411214443224
AAAAACCCCCCCCCBBBBBBBCCCCCACCCCCCCCCCCCCBBBBBBBBCC
14443444434341341141114444142444444144444212211122
CCCCCCCCCCCCCCBBBBBAAACCCCCCCCCCCCCCCCCCAAAAAAAAAA
12431143214141221341441311111212211123114432313312
AABBBBBBBBBBBBBBBBBBCCAAAAAAAAAAAAAAABBACCCBBBBBBB
23222122131121242113332111442413232121212212321244
BBBBBBBAABBBAAAAAAAAAAAAAACCCCBBBBAAAAAAAAAAAAAACC
12122111131211131222111222221222122121121221122444
AAAAAAAAAAAAAAAAAAAAAAAAAAAAAAAAAAAAAAAAAAAAAAACCC
21211112212112121244414224444444431421441242444444
AAAAAAAAAAAAAAAAAACCCCCCCCCCCCCCBBBBBBBBBACCCCCCCC
42111122223112233322333332141321444414442444443444
BAAAAAAAAAAAAAABBBBBBBBBBBBBBBBCCCCCCCCCCCCCCCCCCC
11224234433113321143444341412444444232213124221212
AAAACCBBBBBBBBBBBBCBCCCCCCCCCCCCCCCBBAAAAAAAAAAAAA
22214224244441122122122211111314441414444441222112
AAAAACCCCCCCCAAAAAAAAAAAAAAAACCCCCCCCCCCCCCAAAAAAA
44443424422422444234242344422421434441312424444142
CCCCCCCCCCCCCCCCCCCCCCCCCCCCCCCCCCCCCAAAAACCCCCCCC
11122222122241114121113112222222332133433412114423
AAAAAAAAAAAAAAAAAAAAAAAAAAAAAAAABBBBBBBBBBBBBBBBBB
33442214134444444444314424144144424444211144444342
BBCCCCCCCCCCCCCCCCCCABBBBCCCCCCCCCCCCCCAAACCCCCCCC
11442221111213144442234232112112212122211323233111
BCCAAAAAAAAAAAACCBBBBBBBBAAAAAAAAAAAAAABBBBBBBAAAB
31411244434414444334442411242121224343121211111113
AAAAAACCCCCCCCCCCCCCCCCCBBBBBBBBBBBBBBAAAAAAAAAAAA
24342234223213424321413313444443344122244141223134
ACCCAABBBBBBBBBBBBBBBBBBBBBBBBBBBBCCAAACCCCCBBBBCC
14131213214444124411111111111144343212133422221112
ABBBBBBBBBCCCBBACCAAAAAAAABBBBBBBBBBBBBBBBAAAAAAAA
24432212221232341212411412122444444444411311221113
CCCCAAAAAAABBCCCABBBBBBBAAAAACCCCCCCCCCCABBBBBBBBB
21222242222311321443244443443224324423444311211144
AAAAAAAAAAABAAAAACCCCCCCCCCCCCCCCCCCCCCCCCCAAABBBB
22414222331431432241144244414444444412311142222414
AACCCBBBBBBBBBBBBBBBBBBBCCCCCCCCCCCBBBBBBBBBBBBBBB
32244434441221123241122211221212222221312222211111
CBBCCCCCCCAAAAAABBBAAAAAAAAAAAAAAAAAAAAAAAAAAAAAAA
11221224221214444444244442244122122112244444444444
AAAAAAABBBBBCCCCCCCCCCCCCCCCCCAAAAAAAAACCCCCCCCCCC
23234441444444421312433323244441111122242222122122
BBBBCCCCCCCCCCCCBBBBBBBBBBBCCCCAAAAAAAAAAAAAAAAAAA
23411224444442231112222132422114412322133314412212
BBCCCCCCCCCCCAAAAAAAAAAAAAAAAAACCABBBBBBBBBBBAAAAA
11112131121132242211211114122212211331234213122131
AAAAAAAAAAAAAAAAAAAAAAAAAAAAAAAAAAABBBBBBBBBBBBBBA
34444211121421244223314344341313114333111111123222
BCCCCAAAAAABBBBBBBBBBBBBCCCBBBBBBBBBBBAAAAAAAAAAAA
22344444124441444442242212244433142131214111111131
BBBBCCCCCCCCCCCCCCCAAAAAAAABCCBBBBBBBBBBBBBBBBBBBB
22442123141143444444444444144124444244441323312431
BBCCAAACCCCCCCCCCCCCCCCCCCCCCCCCCCCCCCCCBBBBBBBBBB
34211221112133221222121111222424144334414434444341
BCAAAAAAAAAAAAAAAAAAAAAAAAAAAAACCCCCCCCCCCCCCCCCCA
21111121313413221141332422224141123131344334441222
BAAAAAACCAAAABBBBBBBBBBBBBBBBBBAAAAACCBCCCCCCCCAAA
12423121212214241213244414231111214434444344432241
AAAAAAAAAAAAAABBBBBBBBBCCCAAAAAAACCCCCCCCCCCCCCCCB
34243311134221111423141111442241441444234211122211
BBBBBBBBBBBBAAAABBBBBBBBBACCABCCCCCCCCBBBAAAAAAAAA
44324122231211444424241244122224111114212342111132
BBBBBBBBBBAAAACCCCCCCCCCCCCAAAABAAAAAAAAABBBBBBBBB
12121434444421222121144244444444222111144114234442
AAAAACCCCCCCAAAAAAAAACCCCCCCCCCCAAAAAAACCCCCCCCCCB
12211111422221122211321312111444441434441424414443
AAAAAAAAAAAAAAAAAAAAAAAAAAAAAACCCCCCCCCCCCCCCCCCCC
44444134223213321234422442121233222211322313111222
CCCCCBBBBBBBBBBBBAAAAAAAAAAAABBBBBBBBBBBBBBBAAAAAA
32121111122243224442333313211211124424431222113223
AACCCAAAAAAAACCCCCCCBBBBBBAAAAAAAACCBCCCAAAAAABBBB
43343324224134131342122144444144444411234144443444
BBBBBBABBBBBBBBBBBBAAABBCCCCCCCCCCCCCCCCCCCCCCCCCC
12244321243214341233341234141143141422332222441112
ACCCCCCBBBBAACBBBBBBBBBBBBBBAABBBBBBBBBBBBBBBBBAAA
12111124434424444341324144444244231331343343222444
AAAAAAACCCCCCCCCCCCCCCCCCCCCCCCCABBBBBBBBBBBBBBBBB
31213131214122231332112114111221222134224444412221
BBBBBBBBBBBBBBBBBBBBAAAAACAAAAAAAAAAAAAACCCCCAAAAA
32221214121111211124443442114234244244221321123213
AAAAAAAAAAAAAAAAAAACCCCCCBBBBBBBBBBBCCAAAAAAAAAAAB
21122211432222424333412214424432431323221444334134
AAAAAAAABBBBBBBBBBBBBBBBCCCCCCCBBBBBBBBBBBBBBBBBBB
44334412214211212211122222221212221231321141124422
CCCCCCAAAAAAAAAAAAAAAAAAAAAABAAAAAAAAAAAAAAAACCCAA
33134224221212444344112231244434244421421331334344
BBBBBBAAAAAAAACCCCCCBBBBBBBBCCCCCCCCCCCAAABBBBCCCC
21133212343412422214442242422211114111212234112134
AAABBBBBBBBBBBBBAAACCCCCCAAAAAAAAAAAAAAAAAACAAAABB
21332423241111133222414123113221244241332431234122
AABAABBBBBAAAAABBBBBBBBBBBBBBBBBBCCCCBBBBBBBBBBBBB
12112211122223412222212112111143444434444444414143
AAAAAAAAAAAACCCAAAAAAAAAAAAACCCCCCCCCCCCCCCCCCCCCC
34144424442412112134421112222211212133231144344321
BBBCCCCCCCCCAAAAAACCCAAAAAAAAAAABBBBBBBBBBBBBBBBBA
22243114142444433423344444442444443344442111314334
BBBBBBCCCCCCCCCCCCCCCCCCCCCCCCCCCCCCCCCCAAAABBBBBB
22221122144433431431124444242112121411221121441111
AAAAABBBBBBBBBBBBBBBBBCCCCCCAAAAAAAAAAAAAAAABBBBBB
24243434141112334144442344331434133114443444144311
BBBBBBBBBBBBBABBBBBBBBBBBBBBBBBBBBBBBCCCCCCCACCAAA
22234413224224112134111112112223342241131112211212
BBBBBBBBBBBBCCAAAAAAAAAAAAAAAABBBBAAAAAAAAAAAAAAAA
31211122121413244244414444441344434233233343431341
BBBAAAAAAACCCCCCCCCCCCCCCCCCCCCCCBBBBBABBBBBBBBBBB
22444232112444444144442441421111133424422311123422
AACCCAAAACCCCCCCCCCCCCCCCCCAAAAABBBCCCCBBBBBBBBBBB
33212211111422244341311421122122122343224414143111
BBBBAAAAAAAAABBBBBBBBAAAAAAAAAAAAAABBBBBBBBBBBBBAA
14221322113314221121123221112111232121121122223121
CCAAAAAAAABBBBBBAAAAAAAAAAAAAAAAAAAAAAAAAAAAAAAAAA
24441144122114441321121441444444222221431112212121
CCCCCCCBBBBBBBBBBBBBBBBBCCCCCCCCAAAAAAAAAAAAAAAAAA
24222222112211322112214414444444134444344442444434
ABBBBAAAAAAAAAAAAAAAAACCCCCCCCCCCCCCCCCCCCCCCCCCCC
44341222224313421243144432442413441444131413332311
CCBBBBBBBBBBBBBBBBBBBBBBBCCCCCCCCCCCCCCBBBBBBBBBBB
22122122444144444344414311111131244444444442134412
AAAAAAAACCCACCCCCCCCCCCBBAAAAAAAACCCCCCCCCCBBBBBBB
24241312231432232211441434411122142112121222412122
BBBBBBBBBBBBBBBBBBBBCBBBBBCAAAAAAAAAAAAAAAAAAAAAAA
22131244122222112242133334431124414343213111224443
AAABBCCCAAAAAAAAAAAAABBBBBCBBBBBBBBBBBBBBAAAAACCCC
14434343344141412314313444144244142221222244311323
AAACCCCCCCCCCBBBBBBBBCCCCBBBCCCCCCAAAAAAAABBBBBBBB
21111214121141232332342321144344431421413224211111
AAAAAABBBBBBBBBBBBBBBBBAAAACCCCCCCCCCCCBBBBBAAAAAB
14212221221431124442412141214211221112112114214223
AAAAAAAAABBBBBCCCCCCCAAAAAAAAAAAAAAAAAABBBBBBBBBBB
14444141213242243322432424324413121411322312144432
ACCCCCCAAAAAAAACCCBBBBBBBBBBBBBBBBABBBBBBBBCCCCCCA
23342143311134434412212224421322121112122321414414
CBBBBBBBBBBBBCCCCCBBBBBBBCBBBBBAAAAAAAAAABBCCCCCCC
43431323312322114221244421432144444124444434424444
BBBBBBBBBBBBBBBBCCCCCCCCCCCCCCCCCCCCBCCCCCCCCCCCCC
21222324332312322311211324242123321224441444344314
AAAAAAABBBBBBBBAAAAAAAAAAAAAAABBBBBCCCCCCCCCCCCCBB
21111223432244144241344344444424444444444444343444
AAAAAABBBBBBCCCCCCCCCCCCCCCCCCCCCCCCCCCCCCCCCCCCCC
24344124234434434444434344423233442434442422214233
CCCCCCCCCCCCCCCCCCCCCCCCCBBBBBCCCCCCCCCCCCAAABBBBB
21221313112441211112114211221244344443442444113412
AAAAABBBBBBBBBBBBBAAAAAAAAAAAACCCCCCCCCCCCCCCCCCCB
43424444441444344441212412222132212214442444144121
BBBBCCCCCCCCCCCCCCCAAAAAAAAAAAAAAAAACCCCCCCCCCCCAA
14232112244343444214222121112212142421213133132311
BBBBBBBBCCCCCCCCCCCBBBAAAAAAAAAAAAABBBBBBBBBBBAAAA
12312422111111221444334322444443334212122221234244
AAAAAAAAAAAAAAAAACCBBBBBBBCCCCCCCCCAAAAAAAAAAACCCC
12134242331444244443444144442111444444444244414344
AAABBBBBBBCCCCCCCCCCCCCCCCCBCCCCCCCCCCCCCCCCCCCCCC
12212441424241444422121212224421122133223422223131
AAAAACCCCBBBBBBBBBBBBBBAAAAACCBBBBAAAAAABBBBBBBCCC
11112211122311212111322111211121212242112112224244
AAAAAAAAAAAAAAAAAAAAAAAAAAAAAAAAAAAACAAAAAAAAACCCC
23112414224444444122221444444334433412212222121211
AAAAACCCCCCCCCCCCAAAAAACCCCCCCCCCBBBBBAAAAAAAAAAAA
42422212112123222111421211112421121111222121121223
CCCAAAAAAAAAAAAAAAAAAAAAAAAAAAAAAAAAAAAAAAAAAAAABB
21212132111211221112243114344444441444441114241311
AAAAAAAAAAAAAAAAAAAAAAAAAABBCCCCCCCCCCCCCCCCCCAABB
41131121112112212212344434423342124214221144211112
AAAAAAAAAAAAAAAAAAAAACCCCBBBBBBBBBBBBBAACCCCAAAABB
34112124211242144313211344441232441124414314412124
CCAAAAAAAABBBBBBBBBBBCCCCCCCABBBBBBBBCCCCCBBBBBBCC
44444112242444442234444112443444134144343413444444
BBCCCCCCCCCCCCCCCCCCCCCBBBBBBCCBBBBBBBBBBBBBCCCCCC
23212243322243432244441432412244444444443411111221
AAAAABBBBBBBBBBBBBCCCCCCCCCCCCCCCCCCCCCCCBBBBBAAAA
32421121222213411214122212222221222114331444341424
AAAAAAAAAAAAAAAAAAAAAAAAAAAAAAAAAABBBBBBBBBBBCCCCC
44344141423324124431232244444414113221414322114441
CCCCCCCCCCBBBBBBBBBBBBBBCCCCCCCCAAAABBBBBBBBBCCCCA
22243444412121121133122221211243242444414444444434
AAABBBBCCAAAAAAAAAAAAAAAAAAAAACCCCCCCCCCCCCCCCCCCC
12224114124124111444421212141314211213234311242122
AABBBBBBBBBBBBBBBBBBBBBBBBBBBAAAAAAABBBBCCAAAAAAAA
21142244343444444444444442412323412222111233211223
BBBAAACCCCCCCCCCCCCCCCCCCCCCCCCCCAAAAAAAAABBBBAAAA
32143144424424442223441334331112211121221121131244
BBBBBBBCCCCCCCCCAAABBBBBBBBBBAAAAAAAAAAAABBBBBBBBB
12211131311232244424143431443144323341433424244212
ABBBAAAABBBABBBBCCCCCCCCCCCCBBBBBCCCCCCCCCCCCCCCBB
22132221314112132211121123242111334231221114442122
AAAAAAAAAACAAAAAAAAAABBBBBBBBBBBBBBBAAAAAAACCCAAAA
14233314243242211242132334444444444442421212132121
ABBBBBBCCCBBBBBBBBBBBBBBBCCCCCCCCCCCCCCAAAAAAAAAAA
42242114414143142314334421243243124431243142222212
CCCCCCACCCCBBBBBBBBBBBBBBBBBBBBBBBBBBAACCCCAAAAAAA
11221232212211221233422133212113133221422411434442
AAAAAAAAAAAAAAAAAAAABBBBBBBBBBBBBBBBBBBBBBBBCCCCCA
42221221112113211223334442114242243333433132221143
AAAAAAAAAAAAAAAAAAAAACCCCAAAAAAAAABBBBBBBBBBBBBBBB
42443434413444112222334342424341122211142311433332
BBBBBBBBBBBCCCAAAAAABBBBBBCCCCCAAAAAAAABBBBBBBBBBB
34124311221111121211121422244434334442344344441313
BBAAAAAAAAAAAAAAAAAAAAAAAAAACCCCCCCCCCCCCCCCCCBBBB
14212412222224412214144444432332321213111241444234
BBBBBBBBBBBBACCCCAACCCCCCCCBBBBBBBBBBAAAAACCCCCCCC
41444333132343342412211411311111121431321121141444
CCCCCBBBBBBCCCCCCAAAAAABBBBBAAAAAABBBBBBBBBBBBBCCC
12121224222112211122211421223444123324433223134214
AAAAAAAAAAAAAAAAAAAAAAAABBBCBBBBBBBBBBBBBBBBBBBBBC
12131123344414414112241313123443114244212132344314
AAAAAABBCCCCCCCCCCAAABBBBBBBBBBBBBBBBBBCCCBBBCCCCC
11432444444434444444414442124442443412234342212244
AABBCCCCCCCCCCCCCCCCCCCCCBBBBCCCCCCCBBBBBBBAAAAACB
21144214112212223311143444421224444244444421442444
AAAAAAAAAAAAAAAAAAAACCCCCCCAAAACCCCCCCCCCCAACCCCCC
31143344311221421211122112112324431322132224242112
BAAAAACCCAAAAAAABBBBAAAAAAAAABBBBBBBBBBBBBBBBBBBBB
31112143444434444244444412213112424442124111124231
AAAAAABBCCCCCCCCCCCCCCCCAAAAAAAACCCCCBBAAAAAAAAAAA
42444434434411221111444244324244311123341443211221
BBBBBBBCCCCCAAAAAAAACCCCCCCCCCCCCAAAABBBBBCCAAAAAA
24332311134434444244442341224121121114123124122212
CCCCCAAAACCCCCCCBBCCCBBBAAAACCAAAAAAAAAAAAAAAAAAAA
44112442344412341434444111241112121113442321221424
CCCCCCCAABBBAACCCCCCCCCCAAAAAAAAAAAAACCCCBAAABBBBB
11112241212222121212122224212114221214132231331342
AAAAAAAAAAAAAAAAAAAAAAAAAAAAACCCBBBBBBBBBBBBBBBBBA
34341324122412223214243431114411141122444441121212
BBBBBBBBBBBBBBAAAAABBBBBBBBBBBBAAAAAAACCCCCAAAAAAA
14244441444441444241211111113221332332331142314344
ACCCCCCCCCCCCCCCCCCCCAAAAAAAACBBBBBBBBBBBBBBBBBBCC
12241421111222224112422142144444421322432222122112
AAAAAAAAAAAAAAAAAAAAAAAAAAACCCCCCAAAAAAAAAAAAAAAAA
12444441444413444441214421441141422444211244444442
ACCCCCCCCCCCCCCCCCCAAACCAACCCCCCCABBBBAAAACCCCCCCA
11211112221114322132444434142232243131133444444423
AAAAAAAAAAAAABBBBBBBBBBBBBBCAAAAACCCBBBBBBBBBCCCCC
23431332412111432112222241222144444121143222111421
BBBBBBBBBBBBAAAAAAAAAAAAAAAAAACCCCCCCABBBBBBBBBBBB
21122222222211224444442444244444444421444443434443
AAAAAAAAAAAAAACCCCCCCCCCCCCCCCCCCCCCCCCCCCCCCCCCCC
22212114441444232441223231144444212112111121432114
AAAAAAACCCCCCCCCCCCCCCBBBAACCCCCAAAAAABBBBBBBBBBBB
11124443414344122412142412442142221333132123112131
AAAACCCCCCCCCCCCACCCCCCCCCCCCCCBBBBBBBBBBBBBBBBBBB
11131112312123121123321222413424343444444211142132
AAAAAAAAAAAAAAAAAAABBBBBBBBBBCCCCCCCCCCCCCCAAAAABB
43241422331233223144414413444324444444441443221444
BBBBBBBBBBBBBBBCCCCCCCCCCCCCCCCCCCCCCCCCACCBBBBBBB
11111223122413431144424144442431432121412144432444
AAAAAAAAABBBBBBBCCCCCCCCCCCCCCCCCAAAAAAAAACCCBBCCC
31222411134444411214112112112122112312122211243122
AAAAAAAAAABBBBBBBBBBBBAAAAAAAAAAAAAAAAAAAAAAAAAAAA
42333444242444134444414221242441221242132111222413
BBBBBCCCCCCCCCCCCCCCCCCCCCCCCCCAAAAAAAAAAAAAAABBBB
33122443411121114244112231322112222111213214221344
BBBBBCCBCCCAAAAAAABBBBBBBBBBBAAAAAAAAAAAAAACCAACCC
22221444444444444443422423441234421111141444243112
AAAAACCCCCCCCCCCCCCCCCCCCCCCCCCCCAAAAAACCCCCBBBBBB
23222421233213231233132232423114214444342112122122
BBBBBBBBBBBBAAAAAABBBBBBBCCCCCBBBBCCCCCCAAAAAAAAAA
41344411432243324224414444422112414424434231432124
CCCCCCBBBBBABBBBBAAACCCCCCAAAAAABBBBBBBBBBBBBBBBBB
14344424144434341444444442441444424444443133232122
ACCCCCCCCCCCCCCCCCCCCCCCCCCCCCCCCCCCCCCBBBBBBBAAAA
22411221221221111123333413223443313111441242212142
AAAAAAAAAAAAAAAAAABBBBBBBBBBBBBBBBBBBBBBBBAAAAABBB
11111233334243242311212124122141111211342323311134
AAAAAABBBBBABBBBBBAAAAAAAAAAAAAAAAAAABBBBBBBBBBBBB
21112323441131214312244314114111212122444434444444
AAAAABBBBBBBBBBACCCCCCCCABBAAAAAAAAAACCCCCCCCCCCCC
22421221212121211342233342133311121232121233224232
AACAAAAAAAAAABBBBBBBBBBBBBBBBBAAAAAAAAAAAAABBBBABA
21212223124344234112342414141134442324121233422344
AAAABBBBBBCCCCBBBBBBBBBCCCCCCCCCCCBBBBBBBBBBBBBBBB
22211211421334442221231422222112214212222123212211
AAAAAAAABBBBBBBBAAAAAAAAAAAAAAAAAABAAAAAAAAAAAAAAB
11122142214414411323232112221111111232222232213132
AAAAACCCCCCCCCCBBBBBBCAAAAAAAAAAAAAAAAABBBBBBBBBBB
21433212121212121224214222433333324233421121222232
ABBAAAAAAAAAAAAAAAAAAAAAABBBBBBBBBBBBBAAAAAAAAAAAA
12114232141443123422124223312224311444442442122111
AAAACCCCBBBBBBBBBBBBBBBBBBBAAAAAAAACCCCCCCCAAAAAAA
11143331311211122241224442241424243241444444424444
BBBBBBBBBBBAAAAAAAAAAACCBAABBBBCCCCCCCCCCCCCCCCCCC
44144444444442213431311424331113442442424223224222
CCCCCCCCCCCCCBBBBBBBBBBBBBBBBBBBBBBBBBBBBBBBAAAAAA
12444414434122221121112424433342124422412322132321
ACCCCCCCCCCAAAAAAAAAAAABBBBBBBBBBBBBBBBBBBBBBBBBBB
12122212443243444434441244413432444424424444244444
AAAAABBBBBBBCCCCCCCCCCCCCCCCCCBBCCCCCCCCCCCCCCCCCC
34144444244441434414434243333434444132324342231222
BBBCCCCCCCCCCCCCCCCCBBBBBBBBBBBCCCCBBBBBBBBBBBBBAA
12114234222121222242211121242444444243211123243433
AAAABBBBAAAAAAAAAAAAAAAAAAACCCCCCCCCCBBBBBBBBBBBBB
21122212214113444444424443423243141311443333332123
AAAAAAAAAAAAABCCCCCCCCCBBBBBBBCBBBBBBBBBBBBBBBBBBB
21111112414421131121321141434113442224324444444413
AAAAAAABBBBBBBBBBAAAAAAAAABBBBBBBBBBBBBCCCCCCCCCBB
12113234333424311442414444244444144444421111211441
AAAABBBBBBBBACCBBCCBBBBBBBBCCCCCCCCCCCCAAAAAAAACCC
21212111211212121114411122212112122212121241221444
AAAAAAAAAAAAAAAAAAAAAAAAAAAAAAAAAAAAAAAAAABCAAACCC
22132422212421222232212124444443414313213241143121
AAAAAAAAAAAAAAAAAAAAAAAAACCCCCCCCCCBBBBBBBBBBBBBBB
22221444442444344221242444413112141122131124123411
AAAAACCCCCCCCBCCCCAAACCCCCCAAAAAAAAAAAAAAAABBBBBBB
22124412241231144434221343413311122221224133331244
AAABBCAAAAAAAAACCCCCAAABBBBBBBBAAAAAAAACCBBBBBBBBB
22221221134124112121112122142421411442321122433432
AAAAAAAAAAAAAAAAAAAAAAAAAAAAAAABBBBBBBBBBBBBBBCCBB
11444432131424211121122422211411122222142333244442
AACCCCCBBBBBBBBBBAAAABBCAAAAAAAAAAAAAAABBBBBBBBBBB
23231121411123424442444143412211222114444444443111
AAAAAAACCAAAACCCCCCCCCCCCAAAAAAAAAAAACCCCCCCCCCCCA
31341444444411121121224323143421133132422444242211
BBBBCCCCCCCCCAAAAAAABBBBBBBBBBBBBBBBBAAAACCCCAAAAA
42113313231312133312242232224242232113212421111212
BBBBBBBBBBBBBBBBBBBBBBBAAAAAABBABBBBBBAAAAAAAAAAAA
32244324211411242413424444244441442344122143444442
AAACCCCCBBBBBBBBBCCACCCCCCCCCCCCCCCCCCAAAACCCCCCCC
41441212311212231341341242141132421111211142443211
CCCCAAAAAAAAABBBBBBBBBBBBBBBBBBBBBBBBBBBBBBBCCCAAA
22123241222112333131222412112114241444414442444141
AAAABBBBBBBBBBBBBBBBBBBBAAAAAAACCCCCCCCCCCCCCCCCCC
21211312211413411331224423144142121434412431342414
AAAAAAAAAAACCCCAABBBBBBBBBBBCCCBBBBBBBBBBBBBBBBBBB
42211122211212111121221142444212112242312412342334
AAAAAAAAAAAAAAAAAAAAAAAACCCCCAAAAAABBBBBBBBBBBBBBB
12422324444442221144231232242444341131141134144444
AAAAABBCCCCCCAAAABBBBBBBBBCCCCCCCCBBBBBBAACCCCCCCC
34443422132434131144411241111113244442413242411441
BCCCCCAAABBBBBBBBBBBBBBBBCAAAAAAACCCCCCCCCCCCCCCCA
12112424142442333214113313321424331331413224443434
AAAAACCCCCCCBBBBBBBBBBBBBBBBBBBBBBBBBBBBBBBCCCCCCC
44442141213221211112321141313312422344323222412122
CCCCCCCAAAAAAAAAAAAAAAAAABBBBBBBBBBBBCCCCAAAAAAAAA
23111114212212344141111212124143234122112222241242
AAAAAAAAAAAAAAAAAAAAAAAAAAABCCCCCCCAAAAAAAAABBBBBB
11414443444144143414243334333312224444434443234322
BBCCCCCCCCCCCCCCCCCCCBBBBBBBBBBBAACCCCCCCCCBBBBBBB
32341434444141433333422221144441144424444444433112
AACCCCCCCCCBBBBBBBBBBBAAAACCCCCCCCCCCCCCCCCCCCCAAA
22122111211221114444342412322223322332212124113412
AAAAAAAAAAAAAAAAACCCCCCCBBBBBBBBBBBBBAAAAAAAAABBBB
12421121341142432111342311144423332432224212212221
AABBBBBBBBBBBBBBBBBAAAAAAACCCCBBBBBBBBBBBBAAAAAAAA
12211232444444444434444323323444432242134444442443
AAAAAAAACCCCCCCCCCCCCCCBBBBBBCCCCBBBBBBBCCCCCCCCCC
21234334424331413321222211244442441444441444441134
AAABBBCCCCCBBBBBBBAAAAAAAAACCCCCCCACCCCCCCCCCCCCCC
22324444441243444441212444121211221412121211113221
BBBCCCCCCCCCCCCCCCAAAACCCCAAAAAAAAAAAAAAAAAAAAAAAB
43232122311223344414144323414144114441442444444444
BBBBBBBBBBBBBBCCCCCCCCBBBBCCBBBCCCCCCCCCCCCCCCCCCC
31231231222411221221144444444441233133311144424342
AAAAAAAAAAABBBAAAAAAACCCCCCCCCCCBBBBBBBBBBCCCCCCCC
24121241224442224443411422144321124223244132142311
BBBBBBBBBBBBCAAABBBBBBBBBBBBBBBBBBBBBBBBBBBBBBBBBB
44444444444444441444243214222211212121444444444344
CCCCCCCCCCCCCCCCCCCCAAAAAAAAAAAAAAAAAACCCCCCCCCCCC
44122124243243144442314244212342244144244344414442
AAAAAACCCCCCCCCCCCCCCCCCCCAABBBBCCCCCCCCCCCCCCCCCC
44144443211423243222413241143444442441444144414222
BBBBBBBBBBBBBBBBBBBBBBBBCCCCCCCCCCCCCCCCCCCCCBBAAA
42222444244344444411112223121321424444444444342441
CCCCCCCCCCCCCCCCCCCBBBBBBBBBBBBBBBCCCCCCCCCCCCCCCC
42331343443331314333414444443433444134444344312311
BBBBBBBBBBBBBBBBBBBCCCCCCCCCCCCCCCCCCCCCCCCCCCBBAA
42221112121221124222121222242424444441444121311143
AAAAAAAAAAAAAAAAAAAAAAAAAAACCCCCCCCCCCCCBBBBBBCCCC
11441133324222231231343444334241123414444414441143
BBBBBBBBBBBBAABBBBBBBBBBBBBBBBBBBBCCCCCCCCCCCCCCCC
11122212221312414334441112134222441122242144143434
AAAAAABBBBBBBBBBBBCCCCAAAAAACCAACCBBBBBCCCCCCCCCCC
32244241143312432313333342423312221111144444221211
BBBBBBBBBBBBBBBBBBBBBBBBBBBBBBAAAAAAAAACCCCAAAAAAA
22122112244211211112144441442121122124122322242244
AAAAAAACCCCAAAAAAAAACCCCCCCCAAAAAAAAAAAAAAAABCCCCC
22444441412244344244122221441313443444444244431422
BBBBCCCCCBBBBBCCCCCCAAAAAABBBBBBCCCCCCCCCCCCCCCCAA
22222121212112344444211112112112212112223414412242
AAAAAAAAAAAAAACCCCCCAAAAAAAAAAAAAAAAAAAACCCCCAAACC
21111144421443444134441441342241432134442241244444
AAAAAACCCCCCCCCCCCCCCCCCCCBBBBBBBBBBBBBBBAAAACCCCC
34434142331311111331223444341144321221223314243333
CCCCCBBBBBBBBBBBBBBBBBCCCCCCCCCCCAAAAAAABBBBBBBBBB
22343231442132111224444441141132131111213314342412
AAACCCCCCCACCAAAAACCCCCCCCCCBAAAAAAAAAAABBBBBBBBAA
11212211124223421211311444441444122344422124414244
AAAAAAAAABBBBBBBBBBBBBBBCCCCCCCCAAAACCBBBBCCCACCCC
11444224433413341423444442232434222222121222112124
CCCCCCCCCCCCCCCCCCCCCCCCCAAAACCCAAAAAAACAAAAAAAABB
12332144413124444111434121211314144443444414431222
BBBBBBBCCAAAACCCCBBBBBBAAAAAACCCCCCCCCCCCCCCCCBBBB
12212131311214144443444342424141224242412122224314
AAAAAABBBAAAACCCCCCCCCCCCCCCCCCBBBBBBCCBBBBBBBCCCC
42244441424414444422133223322434343134113243444341
BAACCCCCCCCCCCCCCCAAAABBBBBBBBBBBBBBBBAABBBCCCCCCC
21124444134414331444443441421144442114444144412322
BAAACCCCACCCCCCCCCCCCCCCCCCCCCCCBBBBBCCCCCCCCAAAAA
41344423111212431422234221214444344421441321141112
BBBBBBBBBBBBBBBBBBBAABBBBBBBBCCCCCBBBBBBBBAAAAAAAA
14221212413332413141212131242342334214141111432121
AAAAAABBBBBBBBBBBBBAABBBBBBBBBBBBBBCCCCCAABBBBBBAA
22222411122211222112212231134313243133114114444221
AAAAACAAAAAAAAAAAABBBBBBBBBBBBBBBBBBBBBBBBBBBBCCBB
14343422222121111221121122211211443321334123211121
ACCCCCCAAAAAAAAAAAAAAAAAAAAAAAAABBBBBBBBBBBAAAAAAA
21434444442442412313432132211141132241444344244224
AACCCCCCCCCCBBCCCBBBBBBBBBAAAABBBBBBCCCCCCCCCCCCCC
12121111111122213212241111444414444414231111244244
AAAAAAAAAAAAAAAAAAAAAAAAAACCCCCCCCCCBBBBBAAAABBBCC
12111411221122212344442321112222244421424414444423
AAAAAAAAAAAAAAAAAACCCCCCAAAAAAAAAAAAAACCCCCCCCCCCC
22112212121211322121221431444444444444444222122121
AAAAAAAAAAAAAAAACAAABBBCCCCCCCCCCCCCCCCCCAAAAAAAAA
11432223333314111232312131313411221232132132211133
AAAAAAABBBBBBCBBBBBBBBBBBBBBBBBAAAAAAAAAAAAAAAAABB
41221244221212231142411231424231214111111221141444
BBAAABBBBAAAAAAAAAAAAAAAAAAAAAAAAAAAAAAAAAAAAABBBB
44441444434244241322124124433234324344444243142444
CCCCCCCCCCCCCCCCAAAAAAABBCCBBBBBBBBBBCCCCCCBBBBBBB
21221224341343412122122123424441444214444444344421
AAAAAAACCCCBBBBAAAAAAAAAAACCCCCCCCCCCCCCCCCCCCCCAA
21122122212222222122232223331232433334142413413114
AAAAAAAAAAAAAAAAAAABBBBBBBBBBBBBBBBBCCCCBBBBBBBBBB
41334133442211211244412111112112112211121122142212
AABBBBBBBAAAAAAAACCCCAAAAAAAAAAAAAAAAAAAAAAAAAAAAA
31231211121222121112213323444244444144422413444234
BBBBBAAAAAAAAAAAAAAABBBBBCCCCCCCCCCCCCCCCCCCCCCCCC
22243314122444242122124444234444112233122423221444
AABBBBBCCCCCCCBBBAAAAACCCCCCCCCBBBBBBBBBBBBBBBBCCC
12213322321243212142334344224444334212112112224313
BBBBBBBBBBBBBBBAAAABBBBBBCCCCCCCCCBBAAAAAAAAAABBBB
44344444324144443114444342434344441343112211112144
CCCCCCCCCCCCCCCCBBBCCCBBBBBBBBCCCCAABBAAAAAAAABBBB
34434411113124111212333444442311424432143442332132
BBBBCCAAAAAAAAAAAAAABBBBCCCBBBBBBBBBBBBBBBBBBBBBBA
43223414412212221231132221423211344314444221424112
CBBBBBBBBBAAAAAAABBBBBAAAAAAAAAAACCCCCCCBBBBBBBBBB
22223134334141432442441444144442432313141122334142
AAABBBBBBBBBBBBBBCCCCCCCCCCCCCCCCBBBBBBBBBBBBBBBBB
11443441241323121143142344442222141241142112344233
AABBBBBBBBBBBBBBBBBBBBBBCCCCBBBBBBBBBBBBBBBBBCCCCC
14444421211422221112124221111443144444134443112121
BCCCCCAAAAACAAAAAAAAAAAAAAAACCCCCCCCCCCCCCCBBBBBBB
11113124111131241334433234433332112144114414411111
AAAAAAAAAAABBBBBBBBBBBBBBBBBBBBBBBBACCCCBBBCCAAAAA
14111122122224122124344443441143442424211112244143
AAAAAAAAAAAAAAAAAAACCCCCCCCCAACCCCCCCCAAAAAAABBBBB
23412223212212444444412221143441341131231313222231
BBBBBBBBAAAAAACCCCCCCAAAAAACCCCBBBBBBBBCBBBBBBBBBB
13131433133231112121233444342431344422442222141413
BBBBBBBBBBBBBAAAAAAAAACCCCCCCCCCCCCCCCCBBBBBBBBBBB
42121124123444113221112212222212144444442444441431
AAAAAAAAAACCCBBBBAAAAAAAAAAAAAAAACCCCCCCCCCCCCCCCA
11112121211241213122212211144444444434112431142124
AAAAAAAAAAAACBBBAAAAAAAAAACCCCCCCCCCCCCCCCBAACAAAC
13221222121112222112122141211412112111114221212434
AAAAAAAAAAAAAAAAAAAAAAAAAAAAAAAAAAAAAAAAAAAAAACCCC
42221222212124413231244244434443442231444443113144
BBBBBBAAAAAABBBBBBBBBBBACCCCCCCCCCBBBBBBBBBBBBBCCC
12112121213221112112112242211124413334414334434241
AAAAAAAAAAAAAAAAAAAAAAAAAAAAAAACCCBBBBCCCCCCCCCBBB
41133211111213323231212314341314441344444434414434
BBBBBAAAAAAAABBBBBBBBBBBBBBBBBACCCCCCCCCCCCCCCCCCC
41413144133424132324242244233324421141123444442144
BBBBBBBBBBBBBBBBBBBBBBBBBBBBBBBBBBBBBBBBBBCCCCCCCC
