44344443424414433444441112111122121113212221412214
BBBBBCCCCCCCCCCCCCCCCCBAAAAAAAAAAAAAAAAAAAAAAAAAAB
12444411314422432432344442112144413444423344444441
ACCBCCBBBBBBBBBBBBBBBBCCCAAAAACCBBCCCCCCCCCCCCCCCB
24234244144244441221434411124443141232111242124244
BBBCCCCCCCCCCCCCCAAACBCCAAAACCBBBBBBBAAAAAAAAABBBB
12214411121111121121331434132112111232213222211321
AAAAAAAAAAAAAAAAAAABABBBBBBBAAAAAAAAAAAAAAAAAAAAAA
21121221141134141211111121242442413441214344444444
AAAAAAAAAAAAAAAAAAAAAAAAAACCCCCCCCCCCCCCCCCCCCCCCC
44212132342441414334342444443421121122114131311444
BBBBBBBBBBBBBBBBBBBCCCCCCCCCCCCBAAAAAAABBBBBBBBBBB
12122111124244444444424444431144112212322211122211
AAAAAAAAAAAACCCCCCCCCCCCCCCAAAAAAAAAAAAAAAAAAAAAAA
12111212222222211113114112121111242122122222423212
AAAAAAAAAAAAAAAAAAAAAAAAAAAAAAAAAAAAAAAAAAABBBBBBB
34141444444343424444424241411131343224444412344444
BCBBBCCCCCCCCCCCCCCCCCCBBBBBBBBBBBAAACCCCCCCCCCCCC
21344444444444444322434231144124422324341121111143
BBBCCCCCCCCCCCCCCBBBBBBBBBBBBAACCBBBBBBBBBBAAAAACC
44342143242433114212111121121242221222123144344442
CCCCAACBBBBBBBBBCCAAAAAAAAAAAAAAAAAAAAAAAACCCCCCCC
23244132421221244122142121121112121123231323421122
BBBBBBBAAAAAAACCCAAABBBBBAAAAAAAAAAAAAAAABBBBBAAAA
34244444444443134434444222231244231411222432143142
BCCCCCCCCCCCCCCCCCCCCCCAAABBBBBBBBBBBBBBBBBBBBBBCB
21121122211241143144143243313444144443244411143322
AAAAAAAAAAAAAABBBBBBBBBBBBBBBBBBBCCCCBBCCCCBBBBBBB
22142334422412234444444344424121111411211122422423
AAAAABBBBBBBBBBBCCCCCCCCCCCAAAAAAAAAAAAAAAACCCCBBB
22222421344112241124212223314214343444342132234444
AAAAAAAAAAAAAAAAAACCAAABBBBBBBCCCCCCCCCCBBBBBBCCCC
12111212111412143244112121122212212311222444434441
AAAAAAAAAAAAACCCCCCCCCAAAAAAAAAAAAAAAAAACCCCCCCCCC
12141122222241211224211223113323132424242134144231
AAAAAAAAAAAAAAAAAAAAAABBBBBBBBBCCCCBBBBBBBBBBBBBBB
24312143144223442441122332211211111211111133331212
BBBBBBBBBCCCCCCCCCCAAAABBAAAAAAAAAAAAAAAABBBBBAAAA
23144444444434322443444232222124333412244444443434
BBBCCCCCCCCBBBBBBBBBBBCAAAAAAAABBBBBBBBCCCCCCCCCCC
22241212242114121122114221121114411243241232243144
AAACAAAAAAAAAAAAAAAAAAAAAAAAAAACCBBBBBBBBBBBBBCCCC
31441221212122123331443412421313321212221111123211
BBCCAAAAAAAABBBBBBBBCCCCCBBBBBBBBBAAAAAAAAAAAAAAAA
44123144124444441444322111422121112234112122132334
CCCCCBBBBBBBCCCBBBBBBBAAAAAAAAAAAAAAAAAAAAAAAAACCC
11132111222222212244344442142343313233313122344312
AAAAAAAAAAAAAAAAAACCCCCCCCCCBBBBBBBBBBBBBBBBBBBBBB
21111222434122331141342343231321132122421241212122
AAAAAAACBBBBBBBBBBBBBBBBBBBBBBBBBBBAAAAAAAAAAAAAAA
44213114424431442412342234344133322432224434443444
BBBBBBBCCCCCCCCCCCBBBBBBBBBBBBBBBBBBBBBBBBBCCCCCCC
43344111421221434444433444234211322212241123224321
BBBBBBBBBBAAAACCCCCCBBBBBBBBAAAAAAAAAAAAAAAAAABBBC
22212121132222122232444422424444224244444444443344
AAAAAAAAAAAAAAAAAABBCCCCCCCCCCCCCCCCCCCCCCCCCCCCCC
12122442112122241421212421122221213421212312212121
AAAAACCAAAAAAAACCCAAAAAAAAAAAAAAAABBAAAAAAAAAAAAAA
12211411321343122322444121224441144214344232444333
AAAAAAAABBBBBBBBBBBACCCAAAAACCCBCCCCCCCCCCCCCCCBBB
22243413441444244411422211444144444414442444443441
AAACCCCCCCCCCCCCCCCCCAAAAACCCACCCCCCCCCCCCCCCCCCCC
21211123244421432311212222121144434332244434443411
AAAABBBBBBBBBBBBBAAAAAAAAAAAAACCCCCCCCCCCCCCCCCCCC
11112123442414122124321212411311212112222122422124
AAAAAABBBBBBBBBBBBBBBBBBAACBBBBBBBBBAAAAAAAAAAAAAC
43144144422211143434142413421221133341442444414433
CCCCCCCCCAAAAAACCCCCCBBBBBBBBBBBBBBCCCCCCCCCCCCCCC
21121144444341334143344444441341444422211213444434
AAAAAACCCCCCCCCCCCCCCCCCCCCCCCCCCCCCAAAAAAACCCCCCC
41111211211134123121221442234444344312421323114434
BBAAAAAAAAAAABBBBBBBBBBBBBBBCCCCCCCBBAAAAAAAAAAABB
23441344444241143131231232122112234121113321211214
BBCCCCCCCCCCCBBBBBBBBBBBBAAAAAACCBBBBBBBBBBAAAAACC
11131112144444313444444443142422442111141444442413
AAAAAAAAAAACCCCCCCCCCCCCCCCCCCCCCCAAAAACCCCCCBBCCC
13211442214241444131213412212212413112411221244444
ABBBBBBBBBBBBBBCCBBBBBBBBAAAAAAAAAAAAAAAAAAACCCCCC
22142211122212232341232231111244441444444413122121
AAAAAAAAAAAAAAABBBBBBBBBBBBBAACCCCCCCCCCBBBBBBBAAA
12221212212212243332124413444132434222144342413214
AAAAAAAAAAAAAABBBBBBBBBBBBBBBBBBBBBAAAAACCCCCCCCCC
42241221221122222121223211443122444434311244441444
BAAAAAAAAAAAAAAAAAAAAABBBBBBBBAACCCCBBBBBBBCCCCCCC
21121221121411122222124214221421244414222241424142
AAAAAAAAAAAAAAAAAAAAAAAAAAAAAAAAABBBBBBBBBBBBBBBBB
13132124444134431133231132431424411111214444444332
AAAAAABCCCCCCCCCAABBBBBBBBCCCCCCCAAAAAACCCCCCCCBBB
12222211222122223121121124222222124211211212312231
AAAAAAAAAAAAAAAAAAAAAAAAAAAAAAAAAAAAAAAAAAAAAAABBB
12122214444342212132132222111214211444444414111221
AAAAAAACCCCCCAAAAAAAAAAAAAAAAAAACCCCCCCCCCCCCAAAAA
22112112232422442344114112122231444222321211111122
AAAAAABBBBBBBBBBBCCCBBCCAAAAAABBBCCCAAAAAAAAAAAAAA
14444444414444332221211313134122124444444414441443
CCCCCCCCCCCCCCBBBBAAAAAAAAAAAAAABBCCCCCCCCCCCCCCCC
21411212112111111121433344441424124434221211121221
AAAAAAAAAAAAAAAAAAAABBBCCCCCCCCCCCCCCCAAAAAAAAAAAA
43123223334211243244244232244242223131121244441121
BBBBBBCCBBBBBBBBBBBBBCCBBBBBBBBBBBBBBBBAAACCCCAAAA
22212121111211112221122112214334411231444241231221
AAAAAAAAAAAAAAAAAAAAAAAAAAABBBBBCAAABBBCCBBBBBBBBB
32111211211122111222212214444444443424224344421323
BBAAAAAAAAAAAAAAAAAAAAAAACCCCCCCCCBBBBBBBBBBBBBBBB
12412341141212341234442344433333312434321413311122
BBBBBBBBBBBBBBBBBBBBCCCCBBBBBBBBBBBBBBBBBBAAAAAAAA
44313343431411121131114242322122112213124144424444
CCBBBBBBBBBBBBBBBBBBBBBBBBBBBAAAAAAAAAAAACCCCCCCCC
44324421124444144414122212124114421342122111112212
CCAAABBBABCCCCCCCCCCAAAAAAAAAAACCBBCCAAAAAAAAAAAAA
12213123213441121121124222214234314321241211213431
AAAABBBBBBBBBBBAAAAAAAAAAAAABBBBBBBBBBBBBBBBBBBBBA
22112211221222442331443143444434432443442414334444
AAAAAAAAAAAAAABBBBBBCCCCCCCCCCCCCCCCCCCCCCCCCCCCCC
44444444443212442411244144444414424444321442111212
CCCCCCCCCCCCCCBBBBAAABBBCCCCCCCCCCCCCCCCCCCAAAAAAA
21444442414434134411421344443234344234121321344233
AACCCCCCCCCCCCCCCCBBBBBCCCCCCCCCBBCCCCAAACBBBBBBBB
12132144422442432312113232423121114442443443424221
BBBBBBBBBBBBBBCCBBBBBBBBBBBBBBBBCCCCCCCCCCCCCAAAAA
14242122314432431444144444414244444244444211244444
BBBBBBBBBBBBBBBBACCCCCCCCCCCCCCCCCCCCCCCBBBBBCCCCC
22322411322222132421122243341444442113124211323423
AAAAAAAAAAAAAAAAAAAAAAAACCCCCCCCCCAAAAAAAAAABBBBBB
12112444424443424443344344444442341144222131113434
AAAAACCCCCCCCCCCCCCBBCCCCCCCCCCCCBACCCCCCBBBBBBBBC
12431222421231124221144444424244424442221111111432
CCBBBAAAAAAAAAAAAAAAACCCCCCCCCCCCCCCCCAAAAAAAAABBB
12444414424344344443412443124411242242442241433414
AACCCCCCCCCCCCCCCCCCCCCCCCAACCCCCCAAAACCBBBBBBBBBB
33434333313232121111212123212123114112232213332213
BBBBBBBBBBBBBBAAAAAAAAAAAAAAAAAAAAAAAAABBBBBBBBBBB
11224222112221224122332424311212232214121421121212
AAAAAAAAAAAAABBBBBBBBBBBBBBBBBBBBBBBBBAAAAAAAAAAAA
12114221112221222222211244444444122442311314121111
AAAAAAAAAAAAAAAAAAABBBBBCCCCCCCCBBBBBBBAAAAAAAAAAA
24122241122221224222122132324111113311122232333112
AAAAAAAAAAAAAAAAAAABBBBABBBBBBBBBBBBBBBBBBBBBBAAAA
14133444114424322111121121111212124321221112212212
AABBBCCCCCCCCCAAAAAAAAAAAAAAAAAAAACAAAAAAAAAAAAAAA
24442124214222444434444132224112314244144343424441
BBBBBBBBAACCABCCCCCCCCCBBBAABAAAAAAACCCCCCCCCBCCCC
11111122121232342433121211211121313144213422422212
BBAAAAAAACAABBBBBBBBBAAAAAAAAAAAAAAACCCBBBBAAAAAAA
31241443244444142344434443443433444112221221322211
BBBBCCCCCCCCCCCCCCCCCCCCCCCCCCCCCCCAAAAAAAAAAAAAAA
43442442444114212434424444242124224332411311224112
CCCCCCCCCCCCCCCCCCCCCCCCCCCCCBBBBBBBBBBBBBAAAAAAAA
21111134234311313132122221443143212313442233414332
AAAAABBBBBBBAABBBBBAAAAAAACCBBBBBBBBBBBBBBBBBBBBBB
33313122431122121212221122324444444122432444221232
BBBBBBBBBBBAAAAAAAAAAAABBBBCCCCCCCCBBBBBBCCCAAAAAA
12213313412321131224121442442234424442122122211121
AAAAAAAABBBBBBBBBBBBBBBBBBCCCCCCCCCCCAAAAAAAAAAAAA
34442144242241222212144233433142414324331434443222
BBBCCCCCCCCAAAAAAAACCCCBBBBBBBBBBBBBBBBBBBBBBBBBBB
21222344213444221122122122211112133444421214211343
AABBBBBBBBBBBBAAAAAAAAAAAAAAAAAAABBBBBBBAAACBBBBBA
42444344434414344444414411444144423243432211212311
CCCCCCCCCCCCCCCCCCCCCCCCCCCCCCCCCBBBBBBBBBBBAAAAAA
12221121221244444441422331134123414422221121442221
AAAAAAAAAAAACCCCCCCCCCBBBBBBBBBBCBCCBBAAAAAAAAAAAA
42222322443212222121412212244114234333222133131312
AAAAAAAACCCCAAAAAAAAAAAAAAACAAAAABBBBBBBAABBBBBBBB
44414443131122222212121122222112112122121332132431
BBBCCCCCAAAAAAAAAAAAAAAAAAAAAAAAAAAAAAAAAAAABBBBBB
21112224244424233221114414333424123214121324244221
AAAAAAACBBCCCCBBBBBBBBBBBBBBBBBBBBBBBBBBBBBBBCCCCB
12421441112322132211444144444434423444334344111122
BBBBBBBBAAABBBBBBAAACCCCCCCCCCCCCCCCCCCCCCCCBBBBBA
21111111212122111111114242214121312111224424141111
AAAAAAAAAAAAAAAAAAAAAAAAAAAAAAAAAAAAAAAACCAAACAAAA
22411223221223213442444444444244443443211231221224
BBCAAAAAAAAAAAAAACCCCCCCCCCCCCCCCCCCCCAAAAAAAAAAAA
33424241111324213443244444434122421121214422121114
BBBBBBBBBBBBBBBBBBBBBCCCCCCCCCCCCAAAAAAAAAAAAAAAAB
12111422121341223232333322344442441242113442323243
AAAAAAAAABBBBBBBBBBBBBBBBBBBCCCCCCCBBBBBBBBBBBBBBB
22134114423133231123423314443223112441433122113243
AABBBBBBBBBBBBBBBBBCCCBBBBBBBBBBBBBBBBBBBBBBCCCCCC
22112243314221242313222221441211114112122211424143
AAAABBBBBBBBBBBBBBBBBBBBBBBBBBBBBBBAAAAAAAAAAABBBB
34444224424444142211134224134112212344421121122132
CCCCCCCCCCCCCCCCAAAACCCCCCCCCAAAAAAAACCAAAAAAAAAAA
21241321414244444114122412214433224444224444441444
ABBAAAAAAACCCCCCCAACAAAAAAAAABBBBCCCCCCCCCCCCCCCCC
14412334243444444444423442212221234241414144113111
BCCAAAACCCCCCCCCCCCCCCCCCAAAAAAAACCCCCCCCCCCAAAAAA
12144444434441111124413331122314443144444441443442
AAACCCCCCCCCCCAAAAACBBBBBAAAACCCCCCCCCCCCCCCCCCCCC
23311422211114444424332434344244431113311412311112
BBAAAAAAAAACCCCCCCBBBBBBBBBCCCCCCCCCCBAAAAAAAAAAAA
31143133421112124212334114222342123132134333313142
AAABBBBBBBBBBBBBBBBBBBBBBBBBBCCCBBBBBBBBBBBBBBBBBB
21221112133114444433211211442414442444121124444412
BBBBACBBBBBAACCCCCAAAAAAACCCCCCCCCCCCCAAAAACCCCCCA
11114122214112121112141112142214212442442414144444
AAAAAAAAAAAAAAAAAAAAACAAAAAAAAAAAAACCCCCBBBCCCCCCC
32121112222234142121414442222431232122144431323334
AAAAAAAAAAAAAAAAAACCCCCCCCBBBBBBAAAAAAACCCBBBBBBBB
31142412131444424324424444344424414444244234444444
BAACBBBBBBBCCCCCCCCCCCCCCCCCCCCCCCCCCCCCCCCCCCCCCC
21442342444424443444444442224444443434424332111224
AACCCCCCCCCCCCCCCCCCCCCCCCCCCCCCCCCCCBBBBBBBBBBBBB
11221212221432411124112444241434413444444421222222
AAAAAAAAAAAAAAAAAAAAAAAABCBBBBBCCCCCCCCCCCAAAAAAAA
21422324422444443343122443212141134112131222214311
AAABBBBBCCCCCCCCCCBBBBCCCCBAAAAAABBBAAAAAAAAACCCCC
12112212122211122221444312212232221221414241422412
AAAAAAAAAAAAAAAAAAAABBCCAAAAAAAAAAAAAABBBBBBBBBBAA
11214444432444444444444444112314244444444444412244
AAAACCCCCCCCCCCCCCCCCCCCCCAAAAACCCCCCCCCCCCCCBBBCC
12222211111211242421121133221121244213414124234424
AAAAAAAAAAAAAAAAAAAAAAAAAAAAAAAAACCBBBBBBBBBBBBBBB
41323312221223134111411444144442411433423313134444
BBBBBBBBBBBBBBBBBBBBBBCCCCCCCCCBBBBCBBBBBBBBBBCCCC
21211221131122112113211242442414144344114444432244
AAAAAAAAAAAAAAAAAAAAAAAAAACCCCCCCCCCCCCCCCCCCBBBBB
23234443342334332233122113411432342131312242122243
BBBBBBBBBBBBBBBBBBBBBBBBBBBBBBBAAAAAAAAAAAAAAAAACC
22444341111222222211122212212131442424441314444442
ACCCCCCAAAAAAAAAAAAAAAAAAAAAAACBBCCCCCCCCCCCCCCCCC
31321321112244441212112123311211141113214413343134
BBBBBBBAAAAACCCCAAAAAAAAAAAAAAAAAAAAAAABCBBBBBBBBB
12223334414444424442122411224434444441121312412144
BBBBBBCCCCCCCCCCCCCAAAAAAAAACCCCCCCCCAAAACAAAAAACC
21144444444411212411222114343442333442444232331132
AAACCCCCCCCCAAAAAAAAAAAAAAAACCCBBBBBBBBBBBBBBBBBBB
33111111344241444423324434444414144423443441133441
BBBBBAAACCCCCCCCCCCCCCCCCCCCCCCCCCCCCCCCCCCABBBBBB
21214112122121211111243441424131324141334434311122
AAAAAAAAAAAAAAAAAAAAAABBBBBBBBBBBBBBBBBBBBBBBBBBAA
42122333212124331412334444244431423343222324444441
BBBBBBBBBBBBBBBBCCAACCCCCCCCBBBBBBBBBBBBBBBCCCCCCC
31111121441223442213424111423123114211343444324334
AAAAAAAAABBBBBBBBBBBBBBBBBBBBAAAAAAAAACCCCCCCCCCCC
11221121233321411121231443442221141444232444344444
AAAAAAAABBBBBBAAAAAAACCCCCCCCCAAACCCCCCCCCCCCCCCCC
22444422344424413113322423423124142132111211111242
CCCCCCCCBCCCCCCCCBBBBBBBBBBBBBBBBCAABBAAAAAAAAAAAA
44434334434444443342111122214243344434444243244421
CCCCCCCCCCCCCCCCCCCAAAAAAAACCCCCCCCCCCCCCCCCCCCCCA
22344214143211111212222121111324442442444344242111
ABBBBBBBBBBBAAAAAAAAAAAAAAAAAAACCCCCCCCCCCCCAAAABB
21314421211224423111211121222213442111211121121112
AAAAACAAAAAAACCCAAAAAAAAAAAAAAAAAAAAAAAAAAAAAAAAAA
11241431212421112341222124222414342344111121112222
AAABBBBBBAAAAAAABBBAAAAAABBBBBBBBBBCCCBBBAAAABBBBB
12222111134444444144342444424144244443244144121411
AAAAAAAAAACCCCCCCCCCCCCCCCCCCCCCCCCCCCCCCCCCAAAAAA
41412122224114124444424422444412444424244143241334
BBBBAAAAAACCCCCCCCCCCCCCCCCCCCCCCCCCCCCCCBBBBBBBBB
11321211223113212232122111212234344444443443441414
AAAAAAAAAAAAABBAAAAAAAAAAAAAACCCCCCCCCCCCCCCCCCCCC
12321142111412442221213214111311113221412221321211
AAAABBBBBBBBBBBBAAAAAAAAAAAAAAAAAAAAAAAAAAAAAAAAAA
24414431313342224211242212122132112214122131111322
BBBBBBBBBBBBBBBBBAAAAAAAAAAAAAAAAAAAAAAAAAAAAAAAAA
23444444111141442444142443443444412414444444244444
CCCCCCCCAAAABBCCCCCCCCCCCCCCCCCCCBBBBCCCCCCCCCCCCC
11413134141241334111122221222112212211122114423221
AAAABBBBBBBBBBBBBBBBBBAAAAAAAAAAAAAAAAAAAAACCCCBBB
42221212123321144124444434124424243211442241222231
BBBAAAAABBBBBBBBBBBBCCCCCCCCCCCCCCCCCCCCCCCAAAAAAA
31131312231112244424444444131111321324112121114444
AAAAAAAAAAAAAAACCCCCCCCCCCCCCAAAAAAAAAAAAAAAAACCCC
44444444411344241144444141344441442444443441444414
CCCCCCCCCCCCCCCCCCCCCCCCCCCCCCCCCCCCCCCCCCCCCCCCCC
24142424441411441224423444342431334221141233111221
CCCCCCCCCCCCCCCCCCCCCCCCCCCCBBBBBBBBBBBBBBBBAAAAAA
22141212121212221434414222432332414244441433244312
AAAAAAAAAAAAAAACCCCCCBBBBBBBBBBBBBBBCCCCCCCAACCCCC
12122212321443311444444414144444444424311121222212
AAAAABBBBBBBBBBBBCCCCCCCCCCCCCCCCCCCCCAAAAAAAAAAAA
23222214132233432133113232113113222122112121122142
ABBBBBBBBBBBBBBBBBBBBBBBBBBBBAAAAAAAAAAAAAAAAAAAAA
21411311321242432322442121122211111213212432424311
AABBBBBBBBBBBBBBBBBBBCCAAAAAAAAABBBBBBBBBBBBBBCAAA
44324411444442411414143244122433424444444243441112
BBBBBBBBCCCCBBBBBBBCCCCCCCAACCCCCCCCCCCCCCCCCCBBBB
11122221434442211342341423221112211221421211211444
AAAAAAAACCCCCBBBBBBBBBBBBBAAAAAAAAAAAAAAAAAAAAACCC
23422232444423341142442414442144434444424444444444
CCCBBBBBBCCCCCCCCCCCCCCCCCCCCCCCCCCCCCCCCCCCCCCCCB
14244244313211121243422444444141313344121122121132
BBBBBBBBBBBBAAAAAACCCCCCCCCCCABBBBBBCCCAAAAAAAAAAA
14144331211122211212114433111413441341144444434441
ACCCABAAAAAAAAAAAAABBBBBBBCCCCCCCCCCCCCCCCCCCCCCCC
14234322144312124231424444434212321222111121221442
ABBBBBBACCCCAAAACCCCCCCCCCCCCCCCAAAAAAAAAAAAABBCCC
11141212221124132442442444242442412221212244344411
AAACAAAAAAAAACCCCCCCCCCCCCCCCCCCCAAAAAAAABBCCCCCAA
21112112124133332144444144424442441441334444314442
AAAAAAAAAABBBBBAACCCCCCCCCCCCCCCCCCCCCCCCCCCCCCCCA
32231244442441344424443444422134411213414342314443
BBBBBBBCCCCCCCCCCCCCCBBCCCCCBBBBBBBBBBBBBBBBBBBCCC
12222112232133341342311413412414444444444111133441
AAAAAAAABBBBBBBBBBBBBBBBBBBBCCCCCCCCCCCBBBBBBBBBBB
41232113421122123111124324411212211144444421124212
BBBBBBBBBBAAAAAAAAAAAABBBBBBAAAAAAAACCCCCCAAAAAAAA
43124313111111111144412223441222321243242222211111
CCAAAAAAAAAAAAAAACCCCAAAACBBAAAABBBBBBBBAAAAAAAAAA
12212212222111222221121212444444131211331221212322
AAAAAAAAAAAAAAAAAAAAAAAAAACCCCCCCCBBBAAAAAAAAAAAAA
41444221144344214344444441323133421424133224124221
AACCCBBBACCCCCCCCCCCCCBBBBBBBBBBBBBBBBBBBBBBBBBBBB
44212333143341414131221234443124341422343313344111
BBBBBBBBBBBBBBBBBBBBBBBBBBBBBBBCCCBBBBBBBBBBBBCCAA
32213223414244424442442431424444434233241223411311
AAABBBBBCCCCCCCCCCCCCCCBBAAACCCCCBBBBBBBBBAABBBBBB
22221224233442142333223322422424242344443443143421
AAAAAAABCCCCCCCCCCCBBBBBBBBBBBBBBBBBCCCCCCCCCCCCCC
21314234411314444244444111323432224333112141221112
AAAACCCCCCCCCCCCCCCCCCBBBBBBBBBBBBBBBAAAAAAAAAAAAA
12114243442121121122114113233241244441324124143413
AAAACCCCCCAAAAAAAAAAAACCBBBBBBBBCCCCCBBBBBBBBBBBBB
44444141412114234112211142422442443221124443224444
CCCCCCBBBBBBBBBBBBBBBBBBBBBBBBCCCBBBBAAACCCCCCCCCC
11414441422224431122424214322422444444431441442441
BBBBCCCCCCCCCCCBBBBBBBBBBBBBBBBBCCCCCCCCCCCCCCCCCA
21212143121132234442421112214231321124212222111422
AAAAAACCAAAAAAACCCBCCAAAAAABCBBBBBBBBBAAAAAAAAAAAA
34311142212141431122124244144411444244441444124444
BBBBBBBAAAAACCCAAAAAAACCCCCCCCCCCCCCCCCCCCCCCCCCCC
11212211121231112212122112112114414311143421432431
AAAAAAAAAAAAAAAAAAAAAAAAAAAAAAACCCCBBBBBBBBBBBBBBB
34212231312112211312232222133143344222212144144342
BBBAAAAAAAAAAAAAAAAAAAAAAABBBBBBBBBBBBBBBBBBBCCCCC
11222444144444421131322121124414442412112211111121
AAAAACCCCCCCCCCAAABBBBAAAAAAACCCCCCAAAAAAAAAAAAAAA
11121112444221414441334433333121222222221222221113
AAAAAAACCCCBBBBBBBBBBBBBBBBBBBAAAAAAAAAAAAAAAAAAAA
21234442413243323323243342212442124312114212233413
AAABBBBBCBBBBBBBBBBBBBBBBBBCCCCCCCCBBBBBAABBBBBBBB
22121112121131221132111232112112121112422221112111
AAAAAAAAAAAAAAAAAAAAAAAAAAAAAAAAAAAAAAAAAAAAAAAAAA
13144212411332232424321112131212321233443312444324
BBBBBBBBBBBBBBBBCCAAAAAAAAABBBBBBBBBBBBBBBBCCCCCCC
43114344212123424444441424414431134122112243412422
CCCCCCCCBBBBBBBBCCCCCBBBBBBBBBBBBBBAAAAABBBBCCCCBB
33324333421323112444413221221411441114323142141411
BBBBBBBBBBBBBBBBBBCCCCCCAAAAACCCCCBBBBBBBBBBBBBBBB
31212323313234144111211432444421322222233243124414
BBBBBBBBBBBBBBBBBBBBBBCCCCCCCCBBBAAAAAAABBBBBBCCCC
44144422142121324221444422243222122222111221133324
CCCCCCAAABBBBBBBBBBBBBBBBBBBBBBBAAAAAAAAAAAAACBBBB
34244411224221141221221112221222114132121124431121
BBBCCCCAAAAAAAAAAAAAAAAAAAAAAAAAACCCCAAAAAABBBAAAA
44444444444222313212211212122111222111212111121222
CCCCCCCCCCCAAAAAAAAAAAAAAAACAAAAAAAAAAAAAAAAAAAAAA
14444444344444444133224442211111212222111213213213
ACCCCCCCCCCCCCCCBBBBBBBBBAAAAAAAAAAAAAAAAAAAAABBBB
24244113343323423321431432443224224134222211111111
BBBBBBBBBBBBBBBBBBBBBBBBBBBBBCCCCCCCCCAAAAAAAAAAAA
21232222211223132143221344141222412222144232242423
AAAAAAAAAAAAABBBBBBBBBBBCCCCAAAAAAAAAAABBBBBBCCCCC
23134443144444443242124433311211122223143141241131
AAACCCCCCCCCCCCCCCCAAAAAAAAAAAAAAAAABBBBBBBBBBBBBB
12131213242114234213321444424344432443434112421122
BBBBBBAAABBBBBBBBBBBBBBBCCBBBBCCCCBBBBBBBBBBBBAAAA
23422123324331144442343444444442441444312423212222
BBBBBBBBBBBBBBACCCCCCCCCCCCCCCCCCCCCCCCCCCAAAAAAAA
42141412144444444244444444443442411323313143412444
BBBCCCCCCCCCCCCCCCCCCCCCCCCCCCCCCBBBBBBBBBCCCCCCCC
31433424413313311444424444343344132222213314312234
AACBBBBBBCCCAAAAACCCCCCCCCCCCCCCCAAAAABBBBBBBBBBBB
12121244123224122333444424234344122414424112423212
AAAAAABBBBBBBBBBBBBBBCCCCCBBBBBBBBBBBBBBBAAAAAAAAA
22222221234124434321423233134342312143134232442332
AAAAAAAAACCCCCCCCBBBBBBBBBBBBBBBBBBBBBBBBBBBBBABBB
11112442411142123124244132412231112232223122232231
AAAACCCCBBBBBBBCCCCCCCCCCCCAAAAAAAAAAAAAAAAAAAAABB
44444444441441122211411311223211242222213122111221
CCCCCCCCCCCCCAAAAAAAAAAAAAAAAAAAAAAAAAAAAAAAAAAAAA
22443322242112441232434424444142122122243144444434
AABCBBAAAAAAACCCBBCCCCCCCCCCCCCAAAAABBBCCCCCCCCCCC
31121221111111112121422442333424344244424412244444
BBBAAAAAAAAAAAAAAAAABBBBBBBBBCBBBCCCCCCCCCAAACCCCC
11214244223123242142214221211114442144444244444444
AAACCCCCAAAAAAAAAAAAAAAAAAAAAAACCCCCCCCCCACCCCCCCC
44424211421211134444412242134112221111223434414212
CCCCCAAAAAAAAAABBBBCCCCCCAACCAAAAAAAAAAAACCCCCCCAA
11444443224342143111314142333434123223112212222321
AACCCCCBBBBBBBBBBBBBBBBBBBBBBBBBBBBBBAAAAAAAAAAAAA
31342442444421111112341213212212211121113212222232
BBBBCCCCCCCCAAAAAAAAAAAAAAAAAAAAAAAAAAAAAAAAAAAAAA
42412212212443444222112444444444214441411214324423
AAAAAAAAAAACCCCCCAAAAAACCCCCCCCCCCCCCCCBBBBBBBBBBB
24131122222212221422211221221213232222244444232444
AAAAAAAAAAAAAAAAAAAAAAAAAAAAAAABAAAAAAACCCCCCCCCCC
23414324434424434414434344243414444434443321121112
BBBBBBBBBCCCCCCCCCCCCCCCCCCCCCCCCCCCCCCCCCCCCAAAAA
43244424444234443244221312112111111211111111111112
BCCCCCCCCCCACCCCCCCCAAAAAAAAAAAAAAAAAAAAAAAAAAAAAA
42243444444412444111144444344222241142242444444111
BBBBBCCCCCCCCCCCCCCCCCCCCCCCCCCCBCCCCCCCCCCCCCCAAA
34131111122411222231141311133244441232244443442413
BBBBBBBBBAAAAAAAAAAAACAAAAAACCCCCCBBBACCCCBBBBBBBB
14243444213243441223111242144112123121324432444444
BBBBBBBBBBBBCCCCCCCAAAAAAAACCCAAABBAAAAACCCCCCCCCC
24314444413223324212331222242123233414444121112443
ACCCCCCCCCBBBBBBBBBBBBBBBBBBBBBBBBBCCCCCCCAAAAAAAB
21141111121321214442113314232122232443412441312434
AAAAAAAAAAABBBBBBBBBBBBBBBBBBBBBBBBBBBCCCCBBBBBBBB
31442121421322144211233122431432214423342222212221
BBBBBBBBBBBBBBBBBABBBBBBBBBBBBBBBBBBBBBBAAAAAAAAAA
23131324444414223323414134224242243222432134223444
AAABBBBCCCCCBBBBBBBBBBBBBBBBBBBBBBBBBBBBBBBBBBBBBB
11212212341423244411213114141413422413121111123134
AAABAAAACCCCBBBBBAAAAAAABBBBBCCCCCBBBBBBBBBBBBBBBB
42424323432441432231123434332412311334211221221121
CBBBBBBBCCCCCCCAAAAAAABBBBBBBBBBBBBBBAAAAAAAAAAAAA
11112111111212143441144444444444444424421111111242
AAAAAAAAAAAAAABBBBBBBCCCCCCCCCCCCCCCCCCAAAAAAAAAAA
22241244434434444344244414444442444124231131222132
AABBBACCCCCCCCCCCCCCCCCCCCCCCCCCCCCCBBBBBAAAAAAAAA
34232234244442441442133211141243444444241112411121
BBAAAACCCCCCCCCCCCCBBBBBBBCCCCCCCCCCCCCCAAAAAAAAAA
33332422112122114344434341141212112213322121412112
BBBBBCAAAAAAAAAACCCCCCCCCBBBBBAAAAABBBBAAAAAAAAAAA
32442414431431241421233124411221124444313441344221
BBBBBBBBBBBBBBCCCCCBBBBBCCCAAAAAAACCCCCCCCCCCCCCCC
14424443441121122113431423412222243331411443211422
BBCCCCCCCCBAAAAAAAAABBCCBBAAAAAABBBBBBBBBBBBBBCCBB
24211144441413121444411413131113324414212121421443
AAAACCCCCCAAAAAAACCCCAABBBBBBBBBBCCCCCAAAAAABBAAAA
33222123211412212122221111124211223122212112434422
AAAAAAAAAAAAAAAAAAAAAAAAAAAAAAAAAAAAAAAAAAACCCCCAA
14414424442241314124241444431211123232121212423444
CCCCCCCCCCBBBBBBBBBBBBBBBBBBBBBAAAAAAAAAAAACCCCCCC
42132342443144134114214211122314412134414443444244
AAAAAAAACCCCCCACCCCCCCCAAAAAACCCCCCCCCCCCCCCCCCCCC
21214444444444444433144121221234111121222111443442
AAAACCCCCCCCCCCCCCCCCCCCAAABBBBBBAAAAAAAAAACCCCCCC
11222211213231141221212112221143441444444434444224
AAAAAAAAAAAAAABBBBAAAAAAAAAAAACCCCCCCCCCCCCCCCCCCC
22212121122212123111442444442344444322434344441142
AAAAAAAAAAAAAAAABAAACCCCCCCCCCCCCCBBAAABCCCCCBBBBB
14422442221123111322113221122121121412311414141433
CCCBBBBAAAAAAAAAAAAAAAAAAAAAAAAAAAAAAACBBBCCCCCCCC
21114222244444114444444441221224444424144414424444
AAAAAAAAACCCCCCCCCCCCCCCCCCBBBBCCCCCCCCCCCCCCCCCCB
22121211111221122244414432424444433433224444444444
AAAAAAAAAAABAAAAAABBBBBBBBCCCCCCCCCCBBBBBCCCCCCCCC
22441214314114423243112221214442444123111113224221
BBBBBBBBBBBBBBBBBBBBBAAAAAAACCCCCCBBBBAAAAAAAAAABB
22214112423224123242411211224112121122222231212241
AAAABBBBBBBBBBBBBCAAAAAAAAAAAAAAAAAAAAAAAAAAAAAABB
11143444424442241412133422344341332221122222121221
AAACCCCCCCCCCBBBBBBBBBBBBBBBBBBBBBAAAAAAAAAAAAAAAA
23311144434441421114442444444411121411144442232122
AAAAACCCCCCCCCCCAAACCCCCCCCCCCAAAAAAAAACCCCBBBBBAA
43423112324144334114321123424432411122444121242114
BBBBBBBBBBCCCCCBBBCCBBAAABCCCCCCCAAAAAAABBBBBBBBBB
31441333133242411241344424424143442332124421242333
AACCBBBBBBBBBAAAAACCCBBBBBBBBBCCCCCCCCCCCCBBBBBBBB
42121214214241441442232113344421121112114243122441
CAAAAAAAAABBBCCCCCCAABBBBBCCCCAAAAAAAAAAAAAAAACCCC
21122212211121444332443213213121211312132224242222
AAAAAAAAAAAAAABBBBBBBBBBBBBBBBBBBBBBBBBBBBBBBBAAAA
11144444144441433211224222223214143244434442221112
CCCCCCCCCCCCCCCCAAAAAAAAAAAAAAAAACCCCCCCCCCAAAAAAC
42444444113413332142421112222111221131212221121341
BCCCCBCCBBBBBBBBBCCCBBAAAAAAAAAAAAAAAAAAAAAAAABBBB
44424114211412222221124442213233122233323214121112
CCCCCBBBBAAAAAAAAAAACCCCCCCCBBBBBBBBBBBBBBBBBAAAAA
22121212344144331442434422411111423444112113434121
AAAAAAAACCCCCCCCCCCCCCCBBBBBAAAABBBBBBBBBBBBBBBAAB
12112114231433331112111222111143442221312412131444
AAAAABBBABBBBBBBBBBBAAAAAAAAABCCCCAAACCCBBBBBBBBBB
12114411123222141214241344442442114144444444144121
AAAACCAAAAAAAAABBBACCCCCCCCCCCCAAACCCCCCCCCCCCCAAA
12111221131121221241434414244434211224112222241211
AAAAAAAAAAAAAAAAAACCCCCCCCCCCCCCAAAAAAAAAAAAAAAAAA
12221122222221112212114441424414343331442232411124
AAAAAAAAAAAAAAAAAAAAACCCCCCBBBBBBBBBBBBBBBBBBAAAAC
14112221114441113423344424414241143443444431443444
AAAAAAABBBBBBBBBBBCCCCCCCCCCCCCCCCCCCCCCCCCCCCCCCC
11211421134241434442124444444444444141124444442434
ABBBBBBBCCCCCCCCCCCCCCCCCCCCCCCCCCCCCCCCCCCCCCCCCC
22122242111314214111444444434241344414444144434442
AAAAAAAAAAAAAAAACCCCCCCCCCCCCCCCCCCCCCCCCCCCCCCCCC
11112232442444211122322213444421121131244444443444
AAAAAAAACCCCCCAAAAAABBBBBBCCCCAAAABAAAACCCCCCCCCCC
22122212141322144242244441324443342332332114324443
AAAAAAAAACBBBCCCCCCCCCCCCBBBBBBBBBBBBBBBBBBBBBBBBB
22222211442122312222121122121323414444444444344443
CAAAAAAACCAAAAAAAAAAAAAAAAAAAAACCCCCCCCCCCCCCCCCCC
22111132241443133334443444414441422444441312243322
AAAAAAAABBBBBBBBBBBBCCCCCCCCCCCCCCCCCCBBBBBBBBBBBA
21444444114313214121342414344442444444114444444211
ACCCCCCBBBBBBBBBBBBBBBBBBBBCCCCCCCCCCCCCCCCCCCCCAA
41422122111344424432124232324412432434312212141312
BBBBAAAAAAACCCCCCCCCBBBBBBBBBBBBBBBBBBBAAAAABBBBBB
14241444423232444414142442342434133233131243121331
CAACCCCCBBBBBBCCCCBBBBBCCCCCCCCCABBBBBBBBBBBBBBBBB
12324432112442444441112222332411122114434442443443
CBBBBBBBBBBBCCCCCCCAAAAAAABBAAAAAAAAACCCCCCCCCCCCB
22211223142444211112411444424444212421144112221121
AAAAABBBBBBCCCAAAAAACCCCCCCCCCCCCAAACCCCCAAAAAABBB
11243211111232221112412122121424142442112114244144
AAAAAAAAAAAAAAAAAAAAAAAAAAAAAAABBBBCCAAAAAAAACCCCC
11134423444144224142111212122211212412243123321224
AABBBBBBCCCCCCCCCCCAAAAAAAAAAAAAAAACBBBBBBBBBBBBBB
14444442421342221211211234124114112444441111142144
AACCCCCAAAAAAAAAAAAAAAABBBBBBBBBBBBCCCCCAAAAAAAACC
13121313332332111224443233223242211212121231312211
BBBBBBBBBBBBBBBBBBBBBBBBBBBBBBBAAAAAAAAAAACCBBAAAA
41412212242111121211422222444214224122212421212412
CCCAAAAAAAAAAAAAAAAAAAAAAACCCCCCCCCAAAAAABBAAAABBB
14322411224434242444413124444241344114442341444444
BBBCCCAAAACCCCCCCCCCCAAAAABBBBBBBBBBBBBBBBBBCCCCCC
44122312214341313141411224412221333144134113144434
BBBBBBBBBBBBBBBBBBBBBBBBBBBBBBBBBBBBBBBBBBBBBBBBBB
33422244424411242321414331134212114443331114433444
BBBBBBBBBBBBBBBBBBBBBBBBBBBBBAACBBBBBBBBBBBBBBBBCC
21212221241422221321244444211211213244242343341114
AAAAAAAAABBBBBBBBBBAACCCCCBBBBBBBBBBBBBBBBBBBBBBBB
33323331223444122144443414444442321124423214444144
BBBBBBBBBBBCCCCAAACCCCCCCCCBBBBBBBBBBCCAAAAACCCCCC
12111422124211122422122143434243244243444414132444
AAAAACBBBAAAAAAAAAAAAAABBBBBBBBBBBBCCCCCCCCCCBBBBC
24444244214134424342211324144443444414211421111212
ACCCCCCBBBBBBBBBBBBBAAAACCCCCCCCCCCCCCAAAAAAAAAAAA
23314444412433424234444112144132212112121122214222
BBBACCCCBBBCBBBBBBBBBBBBBBBBBBBBAAAAAAAAAAAAAAAAAA
44313124242141441112112242231131322134244314224243
CCBBBBBBBBBBBBBBAAAAABACCCBBBBBBBAAAABBCCCCCCCCBBB
12211111231211224212121134443442131123444443211443
AAAAAAAAAAAAAAAAAAACCAAACCCCCCCBBBBBBBBBBBBBBBCCCC
13112111443444242443441211222324412441324214444441
BBBBBBBBBBBCCCCCCCCCCCCAAAAABBBBBCCCCCCCCCCCCCCCCC
44111411121111121424324434443441444241111222344221
BBAAAAAAAAAAAAAAACCCCCCCCCCCCCCCCCCCCAAAAAABBBBBBB
33321314431211113123211424313321112414444233444422
BBBBBBBBBBBBBBBBBBBBBBBBBBBBBBAAABBBBBCCBCCCCCCCCC
12122322212113241121112112111214444444433444444442
AAAAAAAAAAAAAAAAAAAAAAAAAAAAABBCCCCCCBBBBBCCCCCCCA
22122211441324144421124444432211144444431144444443
AAAABCCCCCCCCCCCCCCAAACCCCCBBAAAAACCCCCCCCCCCCCCCB
21322221221121111214441412444443421444414444444434
BBBBBBBBAAAAAAAAAAAACCCCCCCCCCCCCCCCCCCCCCCCCCCCCC
41243223121442111323131231122411421244332421444444
BBBBBBBBBBAAAAAAAAAAAAAAAAAAAAAABBBBBBBBBBBBCCCCCC
12221122244343444244212144122214221114111321121142
AAAAAAAAABBBBBBBBBBBBBBBCCAAAAAAAAAAAAAAAAAAAAAAAA
21341234213244143421433112243413414444444444332244
ABBBBBBBBBBBBBBBBBBBBBBAAACCCCCCCCCCCCCCCCCCCCCCCC
14434412444442231212214441442121113444441444444344
CCCCCCCCCCCCCCCCCAAAAACCCCCCCCCAAAACCCCCCCCCCCCCCC
21221242211421112121121244432442122232344444242441
AAAAAAAAAAAAAAAAAAAAAAAACCCCCCCAAAAAAAACCCCCAAAAAA
41424441421422112214211111111444444344444434442444
BCCCCCCCCCCCAAAAAAAAAAAAAAABCCCCCCCCCCCCCCCCCCACCC
44411143341222424444121124444442142242412141213444
BBBAAACCCCAAAAAABCCCAAAACCCCCCCCCCBBBBBBBBBBBBCCCC
11112232112222111212132321344442434323432421243231
AAAAAAAAAAAAAAAAAAAAAAAAABCCCCCBBBBBBBBBBBBBBBBBBA
24144424444224444442431231412241211432214124443443
BCCCCCCCCCCCCCCCCCCCCBBBBBBBBBBBBBBBBBBBBAACCCCCCC
34424341214114412443414414422214434344122124112111
BBBBBBBBBBBBBBCCCCCCCCCCCCBBBAACCCCCCCAAAAAAAAAAAA
22221112111121212121132243443333311424234214432122
AAAAAAAAAAAAAAAAAAAABBBBBBBBBBBBBBBBBBBBBBBCCAAAAA
22112244434244344221211244221144434113344434314243
AAAAAACCCCCCCCCCCAAAAAAAACBBBBBBBBBBBBBCCCCCCCCCCA
11232312414243444244431114223343312421114112221321
AABBBBBBBBCCCCCCCCCCCCCCCCBBBBBBBBBBBBBBBBAAAAAAAA
12222122222142441422422212211134234444444411243443
AAAAAAAAAAAAAACCCCAABBBAAAACCCCCCCCCCCCCCCCCCCCCCC
11211344144144422121234444444444424441222221244241
AAAAACCCCCCCCCCAAAAAACCCCCCCCCCCCCCCCAAAAAAABBBBBB
21141211124123444242144431411113223144214331141344
AAAAAAAAACCCCCCCCCCCCCCCCBBBBBBBBBBBBBBBBBBBBBBBBB
21122121424122221311211214312114224414341434123224
AAAAAAAAAAAAAAAAACAAAACBBBBBBBBBBBBBABBBBBBBBBBBBB
24124222213234112212232122142421422111442114112143
AAAACCAAAABBBBBBBBBBBBAAAAABBBBBBBAABBBBBBBBAAAABB
21344143444113344434244224444333441444433212211231
BBBCCCCCCCCBBBBCCCCCCCCCCCCCCCCCCCCCCCCCCAAAAAAAAA
32224411241422232312212221231122114231111334433111
BBBBBBBBBBAAAAAAAAAAAAAAAAABAAAAAABBBBBBBBBBBBBBBB
44442123434241442211222344244443412224333244244434
BBCCCCCCCCCBBBBBAAAAAAABBBBBCCCCCCBBBBBBBBBBCCCCCC
41122213212442122311222443211413424414441444233431
AAAAAAAAAAAABAAAAAAAAAACCCCCCCCCCCCCCCCCCCCCCCBBBB
12224214442323341113122242414414123244134412444444
AAABBBBBBBBBBBBBAAAAAAACCCCCCCCCCCCCCCCCCCCCCCCCCC
21212112444232111222221122212121223114121424442224
AAAAAAABCCCCCAAAAAAAAAAAAAAAAABBBBBBBBBBBCCCBBBBBB
42211113111243112222141122212121212422214441314434
AAAAAAAAAAAAAAAAAAAAAAAAAAAAAAAAAABCAAAACCAAAACCCC
21444441222334441212212211212112211114244211144344
AACCCCCBBBBBBCCCAAAAAAAAAAAAAAAAAAAAACCCCAAACCCCCC
42412212144122224344424432444414444413214131232222
BBBBBBBBBBBAAAAABCCCCCCCCCCCCCCCCCCBBBBBBBBBAAAAAA
22342413232144224143343322232122124434444444444444
BBBBBBBBBBBCCCACCBBBBBBBAAAAAAAAACCCCCCCCCCCCCCCCC
12211222131142413242411211444111332444212413211122
AAAAAAAAAAAACCCCCCCCCBBBBBBCCCBBBBBCCBBBBBBBBBBAAA
44324243323222421222121231421144443144444113122212
BBBBBBBBBBBBAAAAAAABBBBBBBBAAACCCCCCCCCCCBBBAAAAAA
41132132211111332434442222444444313444421441443444
AAAAAAAAAAAAAAAAACCCCCAAAACCCCCCCCCCCCCCCCCCCCCCCC
34444444314243244142244414344444412123223122111221
CCCCCCCCCABBBBACCCCCCCCCCCCCCCCCCAAAAAAAAAAAAAAAAA
33112231341244412141233442144314213114313422123344
BBBBBBBBBBBBBBBBBBBBABBBBBBBBBBBBBBBBBBBBBAAAABCCC
11212111121222444424342434244212221222341342431211
AAAAAAAAAAACCCCCCBBBBBBCCCCBBBAAAAABBBBBBBBBBBBABB
21113144442133333244341212212421112121441231143324
AAAAAACCCCCBBBCCCCCCCCAAAAAAAAAAAAAAAABBBBBBBBBBBB
22344344444443213333114333424234413224122212321212
BBBCCCCCCCCCCBBBBBBBBBBBBBCBBBBBAAAAAAAAAAAAAAAAAA
11221111112222221122112134411422214222333441221222
AAAAAAAAAAAAAAAAAAAAAAAACCBBBBBBBBBBBBBBBBCAAAAAAA
22234314334421122433331241134224222143142143231441
BBBBCCCCBBBBBBBBBBBBBBBBBBBBBBBBBBBBBBBBBBBBBBBBBB
21222212122221411322112212121433121222342112143233
AAAAAAAAAAAAAAAAAAAAAAABBBBBBBBBBBBAAAABBBBBBBBBBB
22242434413321222121231212121434412414123341444124
AAAAACCCBBBBBBBAAAAACAAAAAAAABBBBBBBBBBBBBBBCCCCCC
42212231143412344144444413442144434414243232443332
AAAAABBBBBBBAACCCCCCCCCCCCCCCCCCCCCCCCBBBBBBBBBBBC
12211221111141323424123112142322214414412442414444
AAACAAAAAAABBBBBBBBBBBBBAAAAAAAAAACCCCCBBBBCCCCCCC
22222143234444432443233444244434434444422414344444
AAAAAABBBBCCCCCCCCCCCCCCCCCCCCCCCCCCCCCCCCCCCCCCCC
13133413241313424134411111444423424413444444444321
BBBBBBBBBBBBBBBBBBBBBBAAACCCCCCCCCCCAACCCCCCCCCCCC
21142142223323221111222232232121312222212444444444
AAAAAAAAAAAAAAAAAAAAAAAAAAAAAAAAAAAAAAACCCCCCCCCCC
41214133432144332434424344114444433414313444444444
BBBBBBBBBBBBBBBBBCCCCCCCCCCCCCCCBBBBBBBBBCCCCCCCCC
22221113221222131222222122212222212222323222222221
AAAAAAAAAAAAAAAAAAAAAAAAAAAAAAAAAAAAAAAAAAAAAAAAAA
14221113144243414444212121112242144343112312221334
BBBBBBBBBBCCCCCCCCCCAAAAAAAAAAAAACCCCCAAAAAAAAABBC
21213141334324143213212242113242112421111221121444
AAABBBBBBBBBBCCCCCCCBBBBBBBBBBBBBBBBAAAAAAAAACCCCC
14441332443132242242123244434413444444442433444111
BBBBBBBBBBBBAAAAAAAAABBCCCCCCCCCCCCCCCCCCCCCCCBBBB
32133212144322244344444312221112314414444144443424
BBBBBBBCCCCAAAACCCCCCCCAAAAAAAAAACCCCCCCCCCCCCCCCC
22111221121433222214221122121121121424414444444143
AAAAAAAAAAABBBBBBBBBBBBBBBBBAAAAAAACCCCCCCCCCCCCCC
42211112321112212124441444444434443444214444141444
AAAAAAAAAAAAAAAAAAAACCCCCCCCCCCCCCCCCCCCCCCCCCCCCC
14332444334114121111412122232223212122222144313223
BBBBACCCBBBBBBAAAAAAAAAAAAAAAAAAAAAAAAAAAABBBBBBBB
11321443244212212344322222244321421413444421443412
AABBBCCCCCCCAAAAABBBBBBBBBBBBBBBCCCCCCCCCCBBBBBBBB
14212222142122242223142212221232212121122133414424
AAAAAAAAAAAAAAAAAAAAAAAAAAAAAAAAAAAAAAAABBBBBBBBBB
32213412444142222124223121121241442123134232143144
BBBBBBBBBBBAAAAAAAAAAAAAAAAABBBBBBBBBBBBBBBBBBBCCB
21422322112121122123244432343443223323314412321134
BBBBBBBAAAAAAAAAAAAACCCCCBBBBBBBBBBBBBBBBBBBBBBBBB
32221121412111114424242444344433424241421122112321
AAAAAAAAAAAAAAACCCCCCCCCCCCCCCCCCCCCCCCAAAAAAAABBB
22111434133342441131421444421211233413432313413334
BAAABBBBBBBCCCCCCCCCCCCCCCCBBBBBBBBBBBBBBBBBBBBBBB
11443433234134344212141143322334444434444423324333
AACCCCCCCCCCCCCCCACBBBBBBCBBBBBCCCCCCCCCCCBBBBBBBB
24221221111322244222211314434421122121111111211111
AAAAAAAAAAAAAAAAAAAAAAAAACCCCCAAAAAAAAAAAAAAAAAAAA
42112222142113112414144434411443341442112431434113
AAAAAAAAAAAAABBAAACCCCCCCCCCCCCCCCCCCCBBCCBBBBBBBB
12221134422223212314112112112111221424244444233134
AAAAAAACCAAAAAAAAAAAAAAAAAAAAAAABBCCCCCCCCCCCCCCCC
21142311121121132244444231132131444122221221212122
AAACBBBAAAAAAAAAAACCCCBBBBAAAABBCCCAAAAAAAAAAAAAAA
11423121211444442414341222212112221221121121111111
BBBBBBBBBBBCCCCCBBBBBBBAAAAAAAAAAAAAAAAAAAAAAAAAAA
23121143434143114433124414224444242424444344441441
BBBBBBBBBCCCCCCCCCBBBBBBBBBBCCCCCCCCCCCCCCCCCCCCCC
21121111132432411313113244434423122111242111112121
AAAAAAAAABBBBBBBBBBBBBCCCCCCCCAAAAAAAAAAAAAAAAAAAA
13343122124222112312122221421111312242121211214324
BBCCCAAABBBAAAAAAAAAAAAAAAAAAAAAAAAAAAAAAAAABBBBAB
21244444444444322221321221112121314142121121222214
BBCCCCCCCCCCCCCAAAAAAAAAAAAAAAABBBBBBBAAAAAAAAAAAA
11442312111122211444444441322142214443134423442444
AACCAAAAAAAAAAAACCCCCCCCCAAAAAAAAACCCBBCCCCCCCCCCC
21441423414123212444432444444224132122121142312111
AACCCCCCCCCAAAAAACCCCCCCCCCCCAAAAAAAAAAAAAAAAAAAAA
24311441421441442424113224231431434444112334244111
BBBBBCCBBBBBBBCCCCCCBBBBBBBBBCBBBBBBBBBBBBBBBBBBBB
41332324133214222111122111232124312121122112221221
BBBBBBBBBBBBBBBBBBBAAAAAAAAAAAAAAAAAAAAAAAAAAAAAAA
31112221231241321232312332111111111232111222121221
AAAAAAABBBBBBBBABBBBBBBBBBBAAAAAAAAAAAAAAAAAAAAAAA
22241433333332122211111142111413134431112122121131
AABBBBBBBBBBBAAAAAAAAAAAAABBBBBBBBBBBAAAAAAAAAAAAA
12444212121121232222222214424432444444343211422122
BBBBBAAAAAAAAAAAAAAAAAAACCCACCCCCCCCCCCCCAAAAAAAAA
31444212112221221222313442412144342212243212444424
CCCCCAAAAAAAAAAAAAAABBBBBBBBBBBBBBBBBBBBBBBBBCCCCC
14441414444112444444441144123234124233111332231421
BCCCCCCCCCCBBBBBCCCCCCCCCCABBBBBBBBBBBBBBBBBBBBBBB
32221144134211213231212233342234322434342212221223
BAAAAACCCCCAAAAAAAAAAAAACBBBBBBBBAACCCCCAAAAAAAAAA
22123224211434211342424412423143414134131221232321
BBBBBBBBBBBBBBBBBBBBBBBBBBBBBBBBBBBBBBBBBAAAABBBBB
13121434341213333414422224444444411414234342444142
ABBBBBBBBBBBBBBBBBBBBBBBCCCCCCCCCCCCCCCCCCCCCCCCCB
11214112113112121134131111221142414334444321233432
AAAABBBAAAAAAAAAAABBBBBBBAABBBBBBBBBCCCCBBBBBBBBBB
12222212141421122213222113433113442112222112242221
AAAAAAAABBBBBBBBBBBBBBBBBBBBBBBBBCAAAAAAAAAAAAAAAA
12244442332422421143424114431234324144311112211121
AAACCCCBBBBBBBBBBBBBBBBBBBBBBBBBBBBBBBBBBAAAAAAAAA
11121121441121223122212222232343433112212111122214
AAAAAAAACCCCCBBBBAAAAAAABBBBBBBBBBBAAAAAAAAAAAAACC
32123124112334331323212441431133114314312222241111
BBBBBBBBBBBBBBBBBBBBBBBBBBBBBBBBBBBBBBBBBBAAACAAAA
44342111211111213314122133213444213232444414444424
BBBBAAAAAAAAAABBBBBBAAAABBBBCCCCBBBBBBCCCCCCCCCCCC
12212124134432441211111222242122244444122112212121
AAAAACCCCCCCCCCAAAAAAAAAABBBBBBBBBBBBBBAAAAAAAAAAA
22243111111112413444424444444142241142444344144421
AABBAAAAAAAAAABBBBBCCCCCCCCCCBBBCCCCCCCCCCCCCCBBAA
12322121211212111121112442433121414122124314212313
AAAAAAAAAAAAAAAAAAAAAABBBBBBBBBBBBBBBBBBBBBBBBBBBB
22224122421313222144213331423341124434444443342414
AAAAAAAAAAAAAAAAAACCBBBBBBBBBBBBBBCCCCCCCCBBBBBBBC
22214441411311113444444444444444142212221122223321
AAAABBABBBBBAAAAACCCCCCCCCCCCCCCCCAAAAAAAAAAAAAAAA
21221244214443441422211234441144421231143234342211
AAAABBBBBBCCCCCCBAAAAAAACCCCCCCCCCBBBBBBBBBBBBAABB
12124212434414414433411412211221212222112211122124
BBBBBBBBBBBBBBBBBBBBBBBBBAAAAAAAAAAAAAAAAAAAAAAAAC
22411214214424444144444134244414242323442323214233
AAAAAAAAACCCCCCCCCCCCCCCCCCCCCCCCCBBBBBBBBBBBBBBBB
22212122331122131223243332124121213134322432214221
AAAAAAAAAAAAAAACAABBBBBBBBBBBBBBBBBBBBBBBBBBBBBBBB
33422321121244411122124443224142212112422223334444
BBBBBBBBBBBBBBBBAAAABBBBBBBBBBBBBBBAAAAAAAABBBCCCC
21214422142312221111214222122133243212211114414211
AAAACCAAAAAAAAAAAAAAAAAAAAAAAACCCCCAABBBBBBBBBBBBB
13112221324444444342433414112432313212122441222212
AAAAAAAACCCCCCCCCCCCCBBBBBBBBBBBBBBBAAAACCCAAAAAAA
13234214414343444442443114223421111211442112242211
BBBBBBBBCCCCCCCCCCCCCCCCBBBBBBAAAAAAABBBBBBBBBBBBB
14444444333444111112111111121444411223243111443322
CCCCCCCCCCBBBBBBAAAAAAAAAAAACCCCCBBBBBBBBBBBBBBBBB
11322111142144344141444444244244441443244143333133
AAAAAAAAACAACCCCCCCCCCCCCCCCCCCCCCCCCCCCBBBBBBBBBB
11131211111322111232142244442424444442442214323444
AAAAAAAAAAAAAAAAAAAAAAAACCCCCCCCCCCCCCCCAAACCCCCCC
31112122222342121211234334442222112112211144142412
AAAAAAAAAAAAAAAAAAAACCCCCCCCAAAAAAAAAAAAAABBBCCCAA
22122122121443421222121123422344444444444434244444
AAAAAAAAAAACCCCAAAAAAAAAABBBCCCCCCCCCCCCCCCCCCCCCC
12244122434342444141112131111331242341114144422422
BBCCCACCCCCCCCCCCAAAAAAABBBBBBBBBBBBBBBBCCCCCBBBBB
31214232141212123111141144421211114444342242414444
BBBBBBBAAAAAAAAAAAAAAAAACCCAAAABBBBBBBBBBABBBBCCCC
11111243331131444344341441223112222444112141224122
AAAAABBBBBBBCCCCCCCCCCCCCAAAAAAAAAACCCAAAAAAAACAAA
41424121211112112134133422121122321211122121111222
BBBBBBAAAAAAAAAAAABCABBBBBAAAAAAAAAAAAAAAAAAAAAAAA
44444443243432444444444444424412442224124231111221
CCCCCCCCCCCCCCCCCCCCCCCCCCCCCCAAAAAAABBBBAAAAAAAAA
12142231442333343233314344234321141121111232112221
AABBBBBBBBBBBBBBBBBBBBBBBBBBBBAAAAAAAAAAAAAAAAAAAA
21311213344344444344444433444212111422122212121132
BBBBBBBBCCCCCCCCCCCCCCCCCCCCCAAAAAAAAAAAAAAAAAAAAA
12122112213211434332444311113244411121441142443244
AAAAAAAAAAAAAACCCCCCCCCCAAAABBBBBBBBBBBBBACACCBBBB
11424414421122112444434444334441414444444144124124
AACCBBBCCCAAAAABBCCCCCCCCCCCCCCCCCCCCCCCCAACCCCCCC
11312221134141414424343442131221122114443334321341
AAAAAAAABBBBBBCCCCCCCCBBBBBBAAAAAAAAACCBBBBBBBBBBB
13343211131433244441241244214444442312213413114444
BBBBBBBBBBBBBBBBCCCBBBBCCCCCCCCCCCCCCBBBBBBBBBCCCC
21443414444122212121112221341124441313344432122232
BBBBCCCCCCAAAAAAAAAAAAAAABBBBCCCCCBBBBBBBBBBBBBBBA
11212211322142211322243444413444421144124313431413
AAAAAAAAAAAAAAAAAAAAACCCCCCAACCCCAAACCBBBBBBBBBBBB
22242411114114441133212232214434434311231444144111
AAAAAAAAAACBBBBBBBBBBAAACAAABCCCCCCBBBBBBBBBBBBBBB
21421114411444423444234323433131211221124441434441
AAAAAAACCCCCCCCCCCCCCCCBBBCCCAAAAAAAAAACCCCCCCCCCC
14111121441411144344112132212212414441244424241122
BBAAAAAACCCCCCCCCCCCCABBBAAAAAAACCCCCCCCCCCCCCAAAA
44444344444424412312343444344444444431111212112213
CCCCCCCCCCCCCCCAAAAACCCCCCCCCCCCCCCCCAAAAAAAAAAABB
24414141334333141411341431131343141413211413214124
ACCCCBBBBBBBBBBBBBBBBBBBBBBBBBBBBBBBBBBBBBBBBBBBBB
22112332114344444441414244444434124234341122311233
AAAABBBBBBCCCCCCCCCCCCCCCCCCBBBBBACCBBBBAAAACCAABB
21212222223111121144144214424311222144444222444444
AAAAAAAAAAAAAAAAAACCCCCCCCCCCCCAAAAACCCCCCCCCCCCCC
22242111212122211412313221111132212112112114321332
AAAAAAAAAAAAAAAAAAAAAAAAAAAAAAAAAAAAAAAAAAACBBBBBA
24224412411243412122114343312323144323441323113244
ABBBBBAAAAABBBBBBBBBBBBBBBBBBBBBBBBBBBBCBBBBBBBBCC
12214211111412144211224443444423414423214123111224
AAAAAAAAAAAAAAAAAAAAACCCCCCCCCCCCCCCBBBBBBBBAAAAAA
11221112222111121221211443233312424344344441444444
AAAAAAAAAAAAAAAAAAAAAAABBBBBBBBBBBBBCCCCCCCCCCCCCC
22224211233132234333214321221221122112122421233244
BBBCCBBBBBBBBBBBBBBBBBBBBAAAAAAAAAAAAAABBBBBBBBBBC
32441432113142221112141312221214244114411334323134
AABBBBBBBBBBCAAAAAAAAAAAAAAAAAACCBBBBBBBBBBBBBBBBB
42311112144412111222212113142321323233342223441113
BBBBBBBBBBBBBAAAAAAAAAAABBBBBBBBBBBBBBBAAAABBBBBBB
12211221144443241444242241411111121123222342411422
AAAAAAAAACCCCCCCCCCCCCAAAAAAAAAAAAAAAAAAABBBBBBBAC
21214222244342312132132222111244232111121423121221
AAAAAAAAAACCCCCBBBBAAAAAAAAAAAAAAAAAAAAABBBBBBBBBB
43111432211124424311132433112243314244311313313241
BBBBBBBBBBBBCCCCCCCCCBBBBBBBBBCBBBBBBBBBBBBBBBBBBA
21212212212211122244441221241344442444124422212133
AAAAAAAAAAAAAAAAAACCCCAAAAABBCCCCCCCCCCCCCAAAACACB
44234431113114244224232212224444421122111112222212
BBBBBBBBBBBAABBBBBBBCCCAAAACCCCCCAAAAAAAAAAAAAAAAA
31221123121221222112322114234311122111112212112224
BAAAAAAAAAAAAAAAAAAAAAAAABBBBBBBBAAAAAAAAAAAAAAAAB
21221224144431414433432212122122121444444111111111
AAAAAAACCCCCCCCCCCAAAAAAAAAAAAAAAACCCCCCCAAAAAAAAA
11122212412212321143444241112421144411222214344422
AAAAAAAAAAAAAAAAABBBBBBBBBAAABAAACCCAAAAAAACCCCCBB
22221422121311121222312111224421414444124442412321
AAAAAAAAAAAAAAAAAAAAAAAAAAABCCCCCCCCCCCCCCCAABBBAA
24222212114444321144441444341432221122314341134324
AAAAAAAAAACCCCCCCCCCCCCCCCCCCCCAAAABBBBBBBBBBBBBBB
41414144411211122434341231434112424313133324232232
CCCCCCCCCAAAAAAAACCCCCBBBBBBBAAACBBBBBBBBBAAAAAAAA
44422111222114112214411434444444444421424142124143
BBBAAAAAAAAAAAAAAAACCCCCCCCCCCCCCCCCBBBBCCCCCCCCCB
21221144443414444444343411214113231311312142333443
AAAAAACCCCCCCCCCCCCCCCCCAAAABBBBBBBBBBBBBBBBBBBBBB
21122212434222121443441141444424441124144434314424
AAAAAAABCCCCAABBBBBBBBBBBBCCCCCCCCAAACCCCCCCCCCCCC
11212411211121224131423244414434241411331112442433
AAAAAAAAAABBBBBBBBBBBBBBBBCCCCBBABBBBBBBAAAACCBBBB
14212211111113323134341224342244142141442441344144
AAAAAAAAAAAABBBBBBBBBBBBBBBBBBBBBBBBBBBBBBBBBCCCCC
21111214121132124122342114432412234444343331124343
AAAAAAAAAAAAAAAAAAAABBBBBBBBBBBBBCCCCCBBBBBBBBBBBB
22112221111212142212221212422122414342441431414343
AAAAAAAAAAAAABAAAAAAAAAAAAAACAAACBBBCCCCCCBBBBBBBB
44444442112221314142432244234444211112131211431433
CCCCCCCAAAAAAAAAAAAAAAAACCCCCCCCAAAAAAAAAAAAABBBBB
41344334444344244442424444421142112121111211442312
BBBBBBBCCCCCCCCCCCCCCCCCCCCAAAAAAAAAAAAAAAAACBBBBB
21312222224223211141121112221121412122111423112244
AAAAAAAAAAAAAAAAAAAAAAAAAAAAAAAAAAAAAAAAAAAAAAACCC
33433312211442233121111121121111144444244444441444
BBBBBBBBBBCCCCCCAAAAAAAAAAAAAAAAAACCCCCCCCCCCCCCCC
12323311221411111111221222241211242221222411213334
BBBBBBBBAAAAAAAAAAAAAAAAAAAAAAAAAAAAAAAAAAAAABBBBB
32222243211434122323411441443244444112334414423431
BBBBBBBBBBBBBBBBBBBBBBBBBBBBBBCCCCCABBBBCCCCCCCCCC
31141221112414443423341223342221112222211141313121
BBBBBBBBBBBBBBBBBBBBBBBBBBBBAAAAAAAAAAAAAABBBBBBBB
11432134341232143344442444441222221222211113212334
BBBCCCBBBBBBBBBBBBCCCCCCCCCCAAAAAAAAAAAAAAABBBBBBB
11112131122314121443444441242221211121313322342433
AAAAAAAAAAAAAAAAACCCCCCCCBBBBAAAAAAAAABBBBBBBBBBBB
34441344112443231332411333233212212122311122222212
CCCCBBBBBBBBBBBBBBBBBBBBBBBBBAAAAAAAAAAAAAAAAAAAAA
12122321314424313423144212222222412443143424444234
AAAABBBBBBBBBBBBBBBBBBAAAAAAAAAAAAAAABBBBCCCCCCCCC
12431431411343424212312111211321114121232121224433
BBBBBBBBBBBBBBBBBBBBBBBBAAAAAAAAAAAAAAAAAAAAAACCCB
23112121232421114111212211211112111112221221232111
AAAAAAAAAAAAAAAAAAAAAAAAAAAAAAAAAAAAAAAAAAAAAAAAAA
31432133321122244422341442142444414214144344322211
BBBBBBBBAAAAAAACCCCCCCCCCCCCCCBBBBBBBBBBBBBBBAAAAA
44444444424444241441444444344442414431444414442233
CCCCCCCCCCCCCCCCCCCCCCCCCCBBCCCCCCCCCCCCCCCCBBBBBB
12222221121232122133322341234423414233411222124224
AAAAAAAAAAAAAAAAABBBBBBBBBBCCCCCBBBBBBBBAAAAAAAACC
22223111123212422332222213242234224312442411134244
AAAAAAAAABBBBBBBBBAAAAAAAABCCCCCACCCCCBBBBAAACCCCC
21234414444444122112141221211112424114331212121121
AAABBBBCCCCCCCCAAAAAAAAAAAAAAAAAAACCBBBBBCAAAAAAAA
33111212242444143441412222222111221114112221111122
BBAABBAAACCCCCCCCCCAAAAAAAAAAAAAAAAAAAAAAAAAAAAAAA
43223421121212444444444442214144444144444444344344
BBBBBBAAAAAAAACCCCCCCCCCCAAACCCCCCCCCCCCCCCCCCCCCC
24424414234124434313312221212113444414331221213314
ACCCCCCBBCCCCCCABBAAAAAAAAAAAAACCCCCBBBBAAAAAACCCC
21111142411212112211122221112112211144444121222444
AAAAAACCCAAAAAAAAAAAAAAAAAAAAAAAAAAACCCCCAAAAAABCC
21232312144141142134424234434321124122444434444242
AABBBBBBBBBBBBBBBBBCBBBBBCCBBBBBBBBBBBCCCCCCCCCCCC
23111111144424444431444434244133212122211434312111
AAAAAAAAACCCCCCCCCCCCCBBBBBBBBBBAAAAAABBBBBBBBAAAA
33124234111233142424411111444441232423442423122242
BBBBBBBBBBBBBBBBBBBBBBBAACCCCCCCCCCCCCCCCCAAAAAAAA
42443144441423342242321121334413122112322221124332
BBBBBBBBBBBBBBBBBBBBBBBBBBBBBBBBAAAAAAAAAAAAAABBBB
23312414342414343424442432244444444434432423422312
BBBAABBBBBBBBCCCCCCCCCCCCCCCCCCCCBCCCCCCCCCBBBBBBB
11213222122122414112132212112114434122222333222441
AAAAAAAAAAAAACCCCAAAAAAAAAABBBACCCCBAAAAABBBBBABBB
33113312144424324424444443122124311422111222212222
BBBBBBAAACCCCCCCCCCCCCCCCCAAAAAAAAAAAAAAAAAAAAAAAA
11212212122211131221131343224331144324442444111224
AAAAAAAAAAAAAAAAAAAAAABBBCCBBBBBBBCCCCCCAACAAAAAAC
12132211212122122244443244412244244312423144423444
AAAAAAAAAAAAAAAAAACCBBBBCCCAAACCCCBBBBBBBBBBBBBBBB
14214223112112441411121443122242343244444442333432
AAAAAAAAAAAAAACCCCCAABBBBBBBBBBBBBBCCCCCCCCABBBBBB
31342312143434141442243343442222123134421412122212
BBBBBBAAACCCCCCCCCCCBBBBCCCCAAAAAABBBBBBACAAAAAAAA
32121211321123344442213111214344144444132423211242
BBBAAAAAAAAAABBBBBBBBBBAAAACCCCCCCCCCCBBBBAAAAAACC
22122131211424443143342311142411123343134322414143
AAAAAAAAAAACCCCCCCCCCCAAAAAAABBBBBBBBBBBBBBBBBBBBB
21112311221441221123121221411121121112221111211231
AAAAAAAAAAAACAAAAAAAAAAAAAAAAAAAAAAAAAAAAAAAABBBBC
43444442444242221211211211221122144414421331441222
BBBCCCCCCCCBBAAAAAAAAAAAAAAAAAAAACCCCCCBBBBBBBAAAA
42421212232143233434414444341234341233133311441242
AAAAAAAAACCBBBBBBCCCCCCCCCCCCBBBBBBBBBBBBBBBBBBBBB
43323111323142431431344444443324143443422321441444
BBAAAAAAABBBBBBBBBBBCCCCCCCCCCCCCCCCCCCBBBBBCCCCCC
32414444432423221312134342221111211112432221212412
CCCCCCCCCCCCBBAABBBBBBBBBBBBAAAAAAAAAAAAAAAAAAAAAB
34144242243443413444114423314144314144111443442141
ACCCCCBBBBBBCCCCCCCCCCCCCCBBCCCCCCCCCCAAACCCCCCCCC
22112212112444444431122112211122221211223333344343
AAAAAAAAAAACCCCCCCBBAAAAAAAAAAAAAAAAAAAABBBBBBBBBB
12343324311421142421441443414113334442412222122214
AABBBBBBBBBBBBBBBBBCCCCCCCCCCBBBBBBBBAAAAAAAAAAAAB
11144444444444444444434211444244414444444444441224
AAACCCCCCCCCCCCCCCCCCCCCCCCCCCCCCCCCCCCCCCCCCCCCCC
22233334241421122111222212321212444432442434242444
AAABBBBBBCAAAAAAAAAAAAAAAAAAAAAACCCCCCCCCCCCCAACCC
12214144441343442412211421112412234112332311222122
AAAACCCCCCCCCCCCCCCAAAAAAAAAAAAAAABBBBBBBBBBBAAAAA
44444443344421231231344124314441121224244444424424
CCCCCCCCCCCCCBBBBBBBBCCCCCCCCCCAAAAAACCCCCCCCCCCBC
33123424213414144444332111221314442323241234343341
BBBBBBBBBBBBCCCCCCCCCCBBBBBBBBACCBBBBBBBBBBBBBBBBB
11111123224442344211222112412211112111122331112221
AAAAAAABBBCCCCCCCAAAAAAAAABBBAAAAAAAAAAAAAAAAAAAAA
11111112232221222212221111123112323414444441413424
AAAAAAAAAAAAAAAAAAAAAAAAAAABBBBBBBBBBBCCCCCCCCCCCC
21223111222122111211443111231213231213121222234321
AAAAABAAAAAAAAAAAAAACCBBAAAAAAACBBBBBBBBAAAABBBBBA
14132311131213114214244411114111111211224432111133
AAAAABBBBBBBBBBAAAABBCCCBBBBBBBBBBAAAAABBBBBBBBBBB
41122242244344443344341444434442444123442441113121
AAAAAAAAACCCCCCCCCCCCCCCCCCCCCCCCCCCCCCCCCCBBBBBBB
11212122122211444244444431441424124244442443432433
AAAAAAAAAAAAAACCCCCCCCCCCCCCCCCCCCCCCCCCBBBBBBBBBB
11222144132431342221212144433314224121214133222412
AAAAABBBBBBBBBBBBBAAAAAACCCCBBBCAAAAAAABBBBBBBBBBB
44212212121221122223312441212322214412311141343444
CCBBAAAAAAAAAAAAAAABBBBBBAAABBBBBBBBAAAAAABBBCCCCC
12321442131144444432424222141444112112242423123141
BBBBBCCAAAAACCCCCCBBABBBBBBBABBBBBAAAAACBBBBAAAAAA
12122214224241121344344444331323111111122111222243
AAAAAABBBCCCCCCCCCCCCCCCCCAAAAAAAAAAAAAAAAAAAAAABB
22124111112112242223212122212332111212243444444132
AAACCAAAAAAAAAAAAAAAAAAAAAAAABBBBBAAAAACCCCCCCCCCC
23112134433121324224111112331333342141444244443442
BBBBBBBBBBBBBBBBBBBBBBBBBBBBCBBBBBBBBBCCCCCCCCCCCC
11221223142144441444111311233222122112111221221211
AAAAAAAAAAAACCCCCCCCAAAAAAAAAAAAAAAAAAAAAAAAAAAAAA
22112124441344442322323244221214242344444441421232
AAAABBBBCCCCCCCCCCBBBBBBBBBBBBBCAAACCCCCCCCAAAAAAA
13212121212124442211442444442121122232222112222221
AAAAAAAAAAAACCCCCCCCCCCCCCCCCCAAAAAAAAAAAAAAAAAAAA
22112134214343444423141231221111141322122211233241
BAAAAAACCCCCCCCCCCCCCCAAAAAAAAAAAAAAAAAAAAAAACBAAA
31144244443444424244313121111211131243444111114121
BBBCCCCCCCCCCCCCCCCCCBBBAAAAAAAAABAACCCCCCAAAAAAAA
21412221113344432331122332312112423122312434112123
AACAAAAABBBBBBBBBBBBBBBBBBBBBBBBCAAAABBBBBBAAAAAAA
11122111244444444443424344444444344444444414444444
AABBBBBBBCCCCCCCCCCCCCCACCCCCCCCCCCCCCCCCCCCCCCCCC
24343234333413342422444443234313231432113442444241
BBBBBBBBBBBBBBBCCCCCCCCBBBBBBBBBBBBBBBBBBBBBCCCCCC
31111421322111111112222141221431411444111111122112
AAAAAAAAAAAAAAAAAAAAAAAABBBBBBBBBBBCCCAAAAAAAAAAAA
44241343312212244442444423144244342121122211424341
BBBBBBBCCAAAAAACCCCCCCCCCCCCCCCCCCCBBBBAAAAABBABBB
11243122133312434324444414123114144441344443444114
AABBBBBBBBBBBBBCCCCCCCCCCBBBBBBBBCCCCCCCCCCCCCCAAA
21114144341423444432422441444444413344444444441311
AAAACCCCCCCCCCCCCCCCCCCCCCCCCCCCCCCCCCCCCCCCCCBBBA
31414444244444144344211213424444414442244431221222
BBCCCCCCCCCCCCBBBBCCAAAAACCCCCCCCCCCCCBBBBBBBBBBBB
41444344244444443441233143214132444244344244114221
BBCCCCCCCCCCCCCCCCCAABBBBBBBBBBACCCCCCCCCCCBBBCAAA
21421313331241314234411112212112432421244441413321
AABBBBBBBBBBBBBBBBBBAAAAAAAAAAAAABBBBBBBBBBBBBBBAA
31211344132423213334443232243442414441423134334424
BBBBBBBBBBBBBBBBBBBCCCCCCCBCCCCBCCCCCCCBBBBBBBBBBB
13243232133212241441134444222141131244441412321422
BBBBBBBAAAAAAAAAACCAAACCCCAAAABBBBBCCCCCCCCBBBBBBB
34414343224444444441114443212224233414441333242242
BBBCCCCCCCCCCCCCCCCAAACCCCAAAAABBBBCCCCCBBBBBBBBBB
