11221221221111412144432444144442212111124444444412
AAAAAAAAAAAAAAAAACCCCCCCCCCCCCCAAAAAAAAACCCCCCCCAA
12124444444211332122121111211121222442322434213124
BBAACCCCCCCCBBBBAAAAABAAAAAAAAAAAAABBBBBBBBBBBBBBB
21112241343443131121122213132222222221144432244414
AAAAABBBBCCCCCAAAAAAAAAAAAAAAAAAAAAAABBBBBCCCCCCCC
24142122222124344443444221121211111222122212222212
AAAAAAAAAAAAACCCCCCCCCCAAAAAAAAAAAAAAAAAAAAAAAAAAA
14231444444444211213424344444414424442414221444424
BBBBBCCCCCCCCCBBBBBBBBCCCCCCCCCCCCCCCCCBAACCCCCCCC
11143233242434433412212444441443442212111222214433
AAAABBBBBBBBBBBBBBAAAACCCCCCCCCCCCAAAAAAAAAAAAABBB
31343342332432444122222222131222211444413144344432
BBBBBBBBBBBBBCCCCAAAAAAAAAAAAAAAAAAACCCCCCCCCCCCBB
21221222122431313444122213222324413324122323121421
AAAAAAAAAABBBBBBBCBBAAAAAAAAAAABBBBBBBBBBBBBBBBBBB
21113131123134234441211122322222144232144211211331
AAABBBBBBBBBBBBBBAAAAAAAAAAAAAAAABBBBBBBAAAAAAAAAA
22112322124121323212222121222122221444444444244444
AAAAAAAAAAAAAAAAAAAAAAAAAAAAAAAAAAACCCCCCCCCCCCCCC
11144322244144233112224442331443443111142441122321
BBBBBBBBBCCBBCCBBBBAAACCCCCCCCCCCCAAAAACCCCAAAAAAA
14434441444241112212131444424144444412321334323332
ACCCCCCCCCCCCAAAAAAACCCCCCCCCCCCCCCBBBBBBBBBBBBBBB
22244443141444314244224313443144444214444443223412
AAACCCCCCCCCCCCCCCCCBBBBBCCCCCCCCCCCCCCCCCCBBBBBBB
12441442131413222334143444414444444434142232344444
ACCCCCCCBBBBBBBBBBBBCCCCCCCCCCCCCCCCCCCBBBBBBCCCCC
22111141113241221123244243111212144421244122211223
AAAAAAAAAABBBBBBACBBACCCCCCCAAAAACCCAAACCAAAAAAAAA
24221222211213323311122241432113241444244243443341
AAAAAAAAAAAABBBBBBBBBBBBBBBBBBBBBCCCCCCCCCCCCCBBBB
24112113331123112122444224441311341322221141222121
ABBBBBBBBBBBBBBBBAAACCCCCCCCCCCCCAAAAAAAAAAAAAAAAA
12121311244444444444213112112231444344434212324324
AAAABBBBCCCCCCCCCCCCAAAAAAAAAABBCCBBBBBBBBBBBBBBBB
22121344221211311222442244412411211341212323131241
AAAAABBBCAAAAAAAAAAACCCCCCCCAAAAAAABBBBBBBBBBBBBBB
21122211124221341331143223423244442441434123414443
AAAAAAAAAAABBBBBBBBBBBBBBBBBCCCCCCCCCCCCCCCCCCCCCC
12121122112444444123222224414144132322132212214211
AAAAABBAAAACCCCCCAAAAAAAABBBCCCCCCAAAAAAAAAAAAAAAA
43133141333342341343424214414444112114331311114121
BBBBBBBBBBBBCCCCCCCCCBBBBBBCCCBBBBBBBBBBBBBBBBBBAA
24432242414343444243231243211433421242211131212434
ACCCCCCCCBBBBBBBBBBBBBBBBBABBBBBBBAACAAAAAAAAACCCC
22222112111312111122421212112222421241114122122122
AAAAAAAAAAABBAAAAAAAAAAAAAAAAAAAAAAAAAAAAAAAAAAAAA
42343444444122243442244143211224111211121422123221
CCCCCCCCCCCCCCCCCCCCCCBBBBBAAAAAAAAAAAAAAAAAAAAAAA
23231123324421443331141314444444444334422111221122
ABBBBBBBBBCBAABBBBBBBBBBACCCCCCCCCCCCCCCAAAAAAAAAA
44232114113313112122143113331341111444421244244444
BBBAAAABBBBBBBAAAAAAAAAAABBBBBBBBBBBBBBBBCCCCCCCCC
13233122223443113242222244122342444442442242444441
BBBBBAAABBBBBBBBAAAAAAAAAAAAACCCCCCCCCCCCCCCCCCCCA
22133234323441333122333442224124112212222212124444
BBBBBACCBBBBBBBBBBBBBBCCCAAAAAAAAAAAAAAAAAAAAAACCC
24112241413122244411342144312332212111112344223142
BBBBAABBBBBAAAACCCBBBBBBBCCCCCBBBAAAAAAAAAAAAABBBB
22344444343112122122122112114211122141421124424444
BBBCCCCBBBBAAAAAAAAAAAAAAAAABBAAAAAACCCAABBBCCCCCC
22212133232112143231113442421221111141134414444141
AAAAAABBBBBBBBBBBBBAAACCCCCCCAAAABBBBBBBBBBCCCCCCA
23421111323314144442221132312411131123414444134411
BBBBBBBBBBBBBBBCCCAAAAABBBBBBBBBBBBBBBCCCCCCCCCCCC
12444444244223221221211231214244434444444442111132
AACCCCCCCCCCAAAAAAAAAAAAAAAACCCCCCCCCCCCCCCAAAAAAA
43111122312131222142214131214341243434421234132444
BBBBBABBAAAAAAAAAAAAAABBBBBBBCCBBBBBBBBBBBBBBBBCCC
11222212121112123122212221122211211214243224443124
AAAAAAAAAAAAAAAAAAAAAAAAAAAAAAAAAAAAACCCCCCCCCCCBC
21133342241421243314434244422111231432242212233423
AAABBBBBBBBBBBBBBBBBBBBBBBBBBBBBBBBBBBBBBBBBBBBBBB
42111122112123324442422113433332123423442441141222
AAAAAAAAAAAAABBBBCCCCBBBBBBBBBBBBBBBBBCCCCCCCBBBBB
41231221121122121122142121244443244444221241442223
AAAAAAAAAAABBBBBBAAAAAAAAACCCCCCCCCCCCCBBBBBCCAAAA
11232234211211211121212411112211122211242121321124
AAAAAABBAAAAAAAAAABBAAAAAAAAAAAAAAAAAAACAAAAAAAAAA
12212222413343214412114444211112214441434112221114
AAAAAAAABBBBBBBBBBBBBBBBBBBAAAAACCCCCCCCCBAAAAAABB
41211213112221212122422222112122121121122212424441
CAAAAAAAAAAAAAAAAAAAAAAAAAAAAAAAAAAAAAAAAAAACCCCCC
12212211221233243241222211112112414444443241111211
AAAAAAAAAAAABBBBBBBBAAAAAAAAAACCCCCCCCCCCCCAAAAAAA
34411233121211142211441441144444131444444434443244
BBBBBBBBAAAAAAAAAAACCCBBBBCCCCCCCCCCCCCCCCCCCCCCCC
34444444432243443232444213444444344444144112221114
CCCCCCCCCCCCCCCBBBBBBBBBBBCCCCCCCCCCCCCCCCAAAAAAAA
11212343221111122212114132424444321111141224144442
AAAAAAAAAAAAAAAAAAAAABBBBBBBBBBBBAAAAACCCCCCCCCCCC
11122213444244441314443144413433441422122221212221
AAAAAAAACCCCCCCBBBBCCCCCCCCCCCCCCCAAAAAAAAAAAAAAAA
21121212212244241424444444434442112242233232441422
AAAAAAAAAAACCCACCCCBCCCCCCCCCCCAAAAABBBBBBBBBBBBBB
32432444414421344421443424343412334414231442313122
AABBBBBBCCCBCCCBCCCCCCCCCCCCBBBBBBBBBBBBBBBBBBBBBB
21212243414143442214241444434443312221224114314224
AAAAAACCCBBBBBBBBBBBBBBCCCCCCCCCAAAAABBBBBBBBBBBBB
11112241212223432311122112144433243424234444444243
AAAAAAAAAAAAABBBBBBBAAAAAABCCCCCCCCCCCCCCCCCCCCABB
42341421124334244444424131221214244211342434244443
BBBBBBBBBBBBBCCCCCCCCCCCCAAAABBBBBBBBBBBBBBCCCCCCC
11112142141312412411113412441242443113334143443444
AAAAAAAAAAAAAAAAAAAABBBBBBBBBBBBBBBBBBBBBACCCCCCCC
12144443412112312221222111134433121222121232431113
AAACCCCCCAAAAAAAAAAAAAAAAAACCCCCBAAAAAAAAAAABBBBBB
21112122124123111323224231444341214124443324412121
AAAAAAAAAAAAAAAAAAABBBBBBBBBBBBBBBBBCCCCCCAAAAAAAA
14412321122221122112112212122222122111111211121211
BBBAABAAAAAAAAAAAAAAAAAAAAAAAAAAAAAAAAAAAAAAAAAAAA
11221122122244221222212322121121214412424144444232
AACAAAAAAAAAABBAAAAAAAAAAAAAAAAAAACBBBBBCCCCCCBBBB
21221211232224223413313222212112212212211122222122
AAAAAAAABBBBBBBBBBBBBAAAAAAAAAAAAAAAAAAAAAAAACAAAA
21234342121423423121341424113312242442422224444412
AABBBBBBBBBBBBBBBBBBBBBBBBBBBBBBBBBCCCCBBBBBCCCCAA
23224412222111112132112221144142212311112122112321
BBBBBBBBAAAAAAAAAAAAAAAAAACCCBBBAAAAAAAAAAAAAAAAAA
22221111141421122211121211211111121222121211211311
AAAAAAAAABBAAAAAAAAAAAAAAAAAAAAAAAAABBBAAAAAAAAAAA
43322222224441222221412133243122142122123113144421
AAAAAAAAAACCCAAAAAAACBBBBBBBBAABBBBBBBBBCCBBBBBAAA
12212112212324142123141233331444121142211312211414
AAAAAAAAAAAAABBBBBBBBBBBBBBBBCCCAAAAAAAAAAAAAAAAAB
21112131131341312342223141121131322134324212211142
AAAAAABBBBBBBBBBBBBBBBBBBBBBBBBBBBBBBBBBBAAAAAAAAA
13341444444122222331121122112222242211211311424412
BCCCCCCCCCCCAAAAAAAAAAAAAAAAAAAAAAAAAAAABBBBBBBBAA
22422434334442144441442212111111121212234232412312
AACCCCBBBBBBBBACCCCCCCCAAAAAAAAAAAAAAABBBBBAAAAAAA
12111111112112233231421123233113234344432444443423
AAAAAAAAAAAAAAAABBBBBBBBBBBBBBBBBBBBBBBBBBCCCCCCAA
43431412243144432444224121131221323212124222411111
BBBBBBAAACCCCCCCCCCCAAAAAAAAAABBBBAAAAAAAAAACAAAAA
21211111221231211422214444131332122144444444144441
AAAAAAAAAAAAAAAAAAAAAACCBBBBBBBBAAAAACCCCCCCCCCCCC
21222123444111444444442244444444441244341122224411
BBBBBBBBBBBBBBCCCCCCCCCCCCCCCCCCCCCCCCAAAAAAAAAABB
12441413134224232232314442113134131213313413412214
AAAABBBBBBBBBBBBBBBBBBBBBBBBBBBBBBBBBBBBBBBBBAAAAA
14112231212112122411122222441444414144444332441444
AAAAAAAAAAAAAAAAAAAAAAAAAACCCCCCCCCCCCCCCCCCCCCCCC
23411422144332443444444214444244342141424444144443
AAAAABAAACCCCCCCCCCCCCCCCCCCCCCCCCBBCBCCCCCCCCCCCC
11144444444424433243114114214212221121121444414342
AACCCCCCCCCCBBBBBBBBBBBBBBBAAAAAAAAAAAAAACCCCCCCCA
42122221121121212212111222221122214441244444431213
AAAAAAAAAAAAAAAAAAAAAAAAAAAAAAAAAACCCCCCCCCCCCBBBB
24111144344432443434443211441111221142222111122222
BBBBAACCCCCCCACCCCCCCCCCCCCCCAAAAAAAAAAAAABAAAAAAA
13211212241211114233323344444444444423324334121242
AAAAAAAAABBBBBBBBBBBBBBBCCCCCCCCCCCCBBBBBBBBBBAAAA
14444324441424443444444132114114123342122143112422
CCCCCCCCCCCCCCCCCCCCCCBBCAAAAAACBBBCAAAAAAAAAAABBB
22441421121122112132112441222111111321121222343244
AACCCCAAAAAAAAAAAAAAAAACCAAAAAAAAAAAAAAAAAABCCCCCC
12212234232142444443444311212212114122211221142141
BBBBBBBBBBBBCCCCCCCCCCCAAAAAAAAAAAAAAAAAAAAAAAAAAA
21244231342244444424344244244243213141111113212144
AABBBBBBBBBCCCCCCCBBBCCCCCCCCCCCAAAAAAAAAAAAAAAACC
44444412424342424414241324334412441123413434444421
CCCCCCCCCCCCCCBBBBBBCCBBBBBBBBBBBBBBBBBBBBBBCCCCAA
24233442112111131311131424441112214414232222244442
ABBBBBBAAAAAAAAAAAAAAAACCCCCAAAAABBBBBBBBBCCCCCCCC
22142334333324421144144413444344134244444444444444
BBBBBBBBBBBBBBBBACCCCCCCCCCCCCCCBBBBCCCCCCCCCCCCCC
13222223441444444234143444212142242114242122112212
AAAAAAABCCCCCCCCCCBBBBBBBBAAAAAABBBBBBBAAAAAAAAAAA
12123443211241212111412222112212212222122134444441
AAAAACCCCAAAAAAAAAAAAAAAAAAAAAAAAAAAAAAAAACCCCCCCA
24121111121343444122342122121122123444444421444142
AAAAAAAAAAABCCCCCBBBBBBAAAAAAAAAAACCCCCCCCCCCCCCCB
13223341222144124414443443344444443444321444322311
ABBBBBBAAAAACCCCCCCCCCCCCCCCCCCCCCCCCCCCCCCCBBBBBB
13342312124224122434424212444244214443311123231212
BBBBBBBBBBBBBBBCCCCCCCCCCCCCCCCCCCCCBBBBBBBBBBAAAA
11111112444441444414344444442441224444334444422132
AAAAAAAACCCCCCCCCCCCCCCCCCCCCCCCCCCCCCCCCCCCCCCCCC
11344241412442324222444343434434244444344144144411
AAACCCCCCCCCCBBBBBBBBBBBCCCCCCBBBCCCCCCCCCCCCCCCAA
12114431144444241112121142221213444244412321242112
AAAACCCCCCCCCCCCCAAAAAAAAAAAAAABCCCCCCCAAAAAAAAABB
22142224141444424431111211212231121212422212212121
AAACBBBCCCCCCCCCCCAAAAAAAAAAAAAAAAAAAAAAAAAAAAAAAA
11221124321344444444443344414244312111122114121314
AAAAAACCCCCCCCCCCCCCCCCCCCCCCCCCCCAAAAAAAAAACCBBBB
12124441244441244414142344213434212244323312431114
AAAAABBBBCCCCCACCCCCCCBBCCCCCCCCCBBBBBBBCBBBBBBBBB
24321113431112122444243414444214244244443221344213
AAAAAAACCCCAAAAAACCCCCCCCCCCCAACCCCCCCCCCAAACCCAAA
34113233313333311121222243441442112223424112121112
BBBBBBBBBBBBBBBBAAAAAAABBBCCCCCAAAAABBCBBBBBBAAAAA
14134243144444443421444434444444444342444231433211
AAAAAACCCCCCCCCCCCCCCCCCCCCCCCCCCCCCCBBBBBBBBBBAAA
22122122211221123411122441424144331431412343341343
AAAAAAAAAAAAAAAAAAAAAAACCCCCBBBBBBBBBBBBBBBCCCCCCC
44444442421122232212234441141444243141444444434444
CCCCCCCCCAAAAAAAAAABBBCCCCCCCCCCCCCCCCCCCCCCCCCCCC
14231344424242441443124142122422121111212144212444
ABBBBBCCBBCCCCCCBBBBBBBBCAAAAAAAAAAAAAAAAACBBBBBBB
24221121223241211322223412211441244144442444424434
AAAABAAAAABBBAAAAAAAAAAAAAAAACCCCCCCCCCCCCCCCCCCCC
33214124143142121413142122441232442241411241133231
BBBBBBBBBBBAAAAAACBBBBBBBBBBBBBBBBBBBAAAAABAABBBBB
42212213243214444244314432241444424444413434244441
AAABBBBBBBBBBCCCCCCCCCCCCCCCCCCCCCCCCCCBBBBCCCCCCC
21222112211443114234121111112222123344444432343413
AAAAAAAAAAACCBBBBBBBBAAAAAAAAAAABBBBBCCCCCCCCCBBBB
21222222243222112143424443341444324444142332112242
AAAAAAAAAAAAAAAAACCCCCCCCCCCCCCCBBBBBBBBBBBBAAAAAA
11221121122211221111112224444123244444413324221112
AAAAAAAAAAAAAAAAAAAAAAAACCCCBBBBBCCCCBBBBBBBBAAAAA
22142444443244441433444432432424132121221111321211
AAACCCCCCCCCCCCCCCCCCCCCBBBBACCCAAAAAAAAAAAAAAAAAA
24224443444441344444442444442443124131121222214122
AAAACCCCCCCCCCCCCCCCCCCCCCCCCBBBBBBBBBBBBBAAAAAAAA
11111123113112121321124312444411421212221422434144
AAAAAAAAAAAAAAAAAAAAAACBBBBBCAAAAAAAAAAAAAAACCCCCC
12244244443424214424412122214444444413444114442414
AAACCCCCCCCCAAAACCCCCAAAAAAACCCCCCCCCCCCCCCCCCCCCC
13142133122144312144414244413221231123242131433144
BBBBBBBBBBBBCCBBCCCCCCCCCCCBBBAABBCBBBBBBBBBBBBBBB
41111222411121212223132431111442341242412243223343
AAAAAAAAAAAAAAAAAAABBBBBBBBBBBBBBBBBBBBBBBBBBBBBBB
11412344414444444221244233342214444144412121324241
ACCCCCCCCCCCCCCCCBBBBBBBBBBBBAACCCCCCCCAAAAAAAAABB
41312431221221121322112341134121124311222222242322
CCBBBBBBBAAAAAAAAAAAAAAACBBBBBBBBBBBBBBBBBBBBBBBBB
24212343424221444444444433443434331142214244444424
ABBBBBBBBBBBAACCCCCCCCCCCCCCCCCCCCCCCCCCCCCCCCCCCC
12224223134314324323441443333211112221221121232222
AAABBBBBBBBBBCCCCCCCCCCCCCBBBBAAAAAAAAAAAAAAAAAAAA
14312311323413142113232222122122342422411121212132
AABBBBBBBBBBBBBBBBAAACAAAAAAAAAACCBAAAAAAAAAAAAAAA
22444444123142112223221111221322242122124222222221
BBBCCCCCCAAAAAAAAAAABAAAAAAAABABBBBBBBAAABAAAAAAAA
21411331234244341344242144144444444444433311224424
BBBBBBBBBBBBBBBBAAABBBBBBBBCCCCCCCCCCCCCCCCCCCCCCC
41311444443444242222122131211141211221311422224242
CCCCCCCCCCCCCCCCAAAAAAAAAAAAAAAAAAAAAAAAAAAAABBBBB
13113122221112222134311211343333343434444443444441
BBBBBAAAAAAAAAAAAAACAAAABBBBBBBBBBBBBCCCCCCCCCCCCC
12211114444344412421444434241222131222121122211221
AAAAAAACCCCCCCAAAAAACCCCCCCCBBBBBBAAAAAAAAAAAAAAAA
31111344144144414444341214444441422241444221423422
BBBBBBBBBCCCCCCCCCCCCCCCCCCCCCCAAAAACCCCCCCCCCCCCA
11122121223432144311242243444244344244144444114311
AAAAAAAAAAAABBBBBBBBBBBBBBCCCCCCCCCCCBBCCCCCCBBBBA
42433141211322221111221221144333423422141113431241
BBBBBAAAAAAAAAAAAAAAAAAAACCCCBBBCCCCAAAAAABBBBBAAA
24124241143444443144423221111414421221122211334434
BBBBBBBBBBCCCCCCCCCCCAAAAAAAACCCCAAAAAAAAAAABBBBBB
42221212214112221222221434322341241113111112111422
AAAAAAAAAAAAAAAAAAAAAAABBBBBBBBBBBBBBBBAAAAAAAAAAA
21122124212112113132144444432224411224444143433144
AAAAAAAAAAAAAAAABBBBBCCCCCCAAAACCCAAACCCCCCCCCCCCC
34421244222214344423442224132142131433323414131112
BBBBBBBBBBBBBBBBBBBBBBBBBBBBBBBBBBBBBBBBBBBBBBBBBB
34331221214222312124311233141322121441441223341411
BBBBBBBBBBBBBBBBBBBBBBBBBBBBBBBBBBCCCCCCAABBBBBBAA
12112223222134334413114332211242442442134312444423
AAAAAAAAAABBBCCCCCCCCCCCAAAAAAAACBBBBBBBCCCCCCCCBB
12221121121444141441231223441432344443144441443423
AAAAAAAAAAACCCCCCCCBBBBBBBBBBBBBBCCCCCCCCCCCCCCCCC
11114444411244144441444441423444144141341442113323
AAAACCCCCAAABBBCCCCCCCCCCCCCCCCCCCCCCBBBBBBBBBBBBB
14121432412444144424244334342344442443434143222113
ACBBBBBBBAACCCCCCCCCCCCCCCCCCCCCCCCCCCCBBCCBBBBBBB
23133332311142221142431211332223412344344144422424
BBBBBBBBBBBBBBBBAAABBBBBBBBBBBBBBBBBACCCCCBBBBBBCC
22112444422142421122241323333412244442211221112221
AAABBBBBBBBBCCCAAAAABBAAABBBBBCCCCCCCAAAAAAAAAAAAA
21124131323344432141444242344114411344422122112221
AAABBBBBBBBBBBBBBCCBBBBBBBACCCCCCCCCCCCAAAAAAAAAAA
24233444344434344211444443443444444444312322131441
BBBBBBBBBBBBBBBBBAAACCCCCCCCCCCCCCCCCCBBBBBBBBBBBB
42344443444442444424414444444412431222222111112122
CCCCCCCCCCCCCCCCCCCCCCCCCCCCCCAABBBBAAAAAAAAAAAAAA
22111112344444442444433411133312421444211442212122
AAAAAAAACCCCCCCCCCCCCCCCCABBBBBBBBBBBBAAACCAAAAAAA
41444444444344444211221122112412311212423412132321
AACCCCCCCCCCCCCCCAAAAAAAAAACCCBBAAABBBBBBBBBBBBBBB
44444431411224441441122234323241434431213133223421
CCCCCCBBBBBBBBBBBBBBBBBBBBBBBBBBBBBBBBBBBBBBBBBBBB
32221122211211131112144132132121122422122221121421
AAAAAAAAAAAAAABBAAAAAAAABBBBAAAAAAAAAAAAAAAAAAACCC
21421112234221144442244232331122144232324231421221
CBBBBBAAAACCAAACCCCABBBAAABBBBBBBBBBBBBBBBBBBBBBBB
14114234143211124243413414444444344221112111222122
BBBBBBBBBBAAABBBCCCCCCCCCCCCCCCCCCCAAAAAAAAAAAAAAA
44444443421232442414444444444444444432414442141222
CCCCCCCCCBBBBBBBBBCCCCCCCCCCCCCCCCCCCCCCCCCBBBAAAA
41332111211414312211223221443414244443124343112234
BBBBAAAAAAAACCCAAAAAAAAAAACCCCCCCCCCCCCBBBBBBBBBBB
11221121342343233214444424441144332444243444424444
AAAAAAAACCCCCCCBBBCCCCCBCCCCAACCCCCCCCCCCCCCCCCCCC
34241221221111411212121224332231443444244432112444
BBBBBBBAAAAAAAAAAAAAAABBBBBBAAAACCCCCCCCCCCCCCCCCC
22214211222212342113242323213422412423143414244144
AAAAAAAAAAAAAABBAAABBBBBBBBBBBBBBBBBBBBBBBBBBBBBBB
12214444141412444421321211112214344441424442144224
BBAACCCCCCCCCCCCCBBBBBBAAAAAAAACCCCCCCCCCCCCCCCCCC
12424221434424414143444444444132222122112232433131
BBBBCCCCCCCCCCCABBBBBCCCCCCCCCAAAAAAAAAAAABBBBBBBB
44433143413224311213241344242143242424232324343442
CCCBBBBBBBBBBBBAAAAACCCCCCCCCCCCCCCCBBBBBBBCCCCCCC
44433444444124441444423412111113314214424414444334
CCCCCCCCBBBBBCCCCCCCCCCCAAAAAAABBBCCCCCCCCCCCCCCCC
42322112112421143422342114123221331112311431324242
AAAAAAAAAAAAAAABBBBBBBBBBBBBBBBBBBBBBBBBBBBBBBAAAA
24444444344441444411211242214321322321443143122324
ACCCCCCCCCCCCCCCCCAAAAAABBBBBBBBBBBBBBBBBBBBAAABBB
12442311133422133243132334312133224344443414443444
BBBBBBBBBBBBBBBBBBBBBBBBBBBBBBBBAACCCCCCCCCCCCCCCC
22112211444211112131123111212222311442441441343122
AAAAAAACCCCAAAAAAAAAAAAAAAAAAAAAAAAACCCCCCCCCCCAAA
22111113443334124434444122111141121232413131242222
ABBBBBBBBBBBBBBCCCCCCCCAAAAAAAAAAAAAABBBBBBBBBCAAA
12314144231112434424114424443444414122111222232143
AAAACCCCCBBBAAACCCBBBBCCCCCCCCCCCCCAAABBBBBBBBBBBB
14112212121121223211124334323444241244412141111233
ACAAAAAAAAAAAAAAAAAAAAACCCCCCCCCCCCCCCCAAAAAAAAACB
43411433441233442444441311222233322221112232121224
BBBBBBBBBBBBCCCCCCCCCCCCAAAAAAABBBBAAAAAAAAAAAABBB
21412224411121214213412144211411413442211114414334
AAAAAAACBBBBBBBBBBBBBBAABBBBBBBBCCCCCAAAAABBBCCBBB
24111144444444114234243432244424342421234411124444
AAAAAACCCCCCCCCCCCCCCCCCBBBBBBBBBBBBBBBCCCCCCCCCCC
31111221232144444244344143422424341143414134144244
AAAAAAAAAAAACCCCCABBBBBBBBBBBBBBBBBBBBBAAACCCCCCCC
23311124211212112143223442242144444444443422441414
ABBBBBCCAAAAAAABBBBBAAACCCCCCCCCCCCCCCCCCCAACCCCCC
22114212111121211221114414224312114212421222242222
AAAAAAAAAAAAAAAAAAAAAABBBBBBBBBBBBBBAAAAAAAAACAAAA
21122132442233141222441112424444341341242434213333
AAAAAAAAAAAABBBBAAAAAAAAABBBBBBBBBBBBBBBBBBBBBBBBB
12222211112322112124222213142121222211112142112111
AAAAAAAAABBBBBAABBAAAAAAAAAAAAAAAAAAAAAAABBBAAAAAA
24122212113434442441444444241212414122112234243344
AAAAAAAAAACCCCCCCCCCCCCCCCCCAAACCCCCCBBBBBBBBBBCCC
14211111212113111121121311214144444233432112241222
AAAAAAAAAAAAAAAAAAAAAAAAAAABBBCCCCCCCCCCAAAAAAAAAA
24321432434343442212141444442222122124142211112444
BBBBBBCCCCCCCCCCAAAAACCCCCCCAAAAAAAAAAABAAAAAAACCC
13211122122124444444412313121421222112221424242141
AAAAAAAAAAAAACCCCCCCCAAAAAAAAAAAAAAAAAAAAAACCAAAAA
12132111313334124143111122121223422114141122121212
AAAAAAABBBBBAAAAAAAAAAAAAAAAAAAAAAAAAAACAAAAAAAAAA
14412122112214413414121441213442122221112323444444
AAAAAAAAAABBCCCCCCCCAAACCAACCCCCAAAAAAAABBBBCCCCCC
13324142444441414134424244443434444444444444442441
BBBBBBBCCCCCCCCCCCCCCCCCCCCCCCCCCCCCCCCCCCCCBBCCCC
14122141434144444444234323313141214224411222431314
AAAAAAAAABBBCCCCCCCBBBBBBBBBBBBBAAAAAAAABBBBBBBBBB
41231211441224341223324244421443434431424344424144
BBBBBBBBBBBAACCCBACCBBBBBCCCCCCCCCCCCCCCCCCCCCCCCC
34341424244124444442344432421222241211424443443424
BBBBBBBBBCCCCCCCCCCCCCCCAAAAAAAAAAAAAACCCCCCCCAABC
11232244134421213241344144431412444444412122112122
AAAAAACCCBBBBAACCCCCCCCCCCCCCCCCCCCCCCCAAAAAAAAAAA
12421123112231111121231211414121222312313434444113
AAAAAAAAAAAAAAAAAAAAAAAAAABAAAAAAAABBBBAAACCCCCAAB
14124121211214314434423343242242424444441122222333
BBBBBBBBBBBBBBBBCCCCCCCCCCCCCCCCCCCCCCCBBBBBBBBBBB
13243443144134132144114444441223212212111244433424
ABCCCCCCCCCCCCCCCCCCCCCCCCCCBBBBAAAAAAAAAACCCCCCAB
21423222323123322141214344444443441442112212111144
BBBBBBBBBBBBBBBBBBBCCCCCCCCCCCCCCCCCCAAAAAAAAAAACB
44344313113344442212443414443444444144241221212212
CCCCCBBBBBBCCCCCBBCAACCCCCCCCCCCCCCCCCAAAAAAAAAAAA
11421212212122111122442134442111211212311222111212
AAAAAAAAAAAAAAAAAAABBBBBBBCAAAAAAAAAAAAAAAABAAAAAA
11124211412142211212214224121234321112221111342144
AAAAAAAAAAAAAAAAAAAAAAAAAAAAAABBBAAAAAAAAAAAAAAACC
23421212121211122422422132112122222112221112142122
ACCAAAAAAAAAAAAAAAAAAAAAAAAAAAAAAAAAAAAAAAAAAAAAAA
41121211412212221444424441141444412442111221322111
AAAAAAAAAAAAAAAAACCCCCCCCCCCCCCCCCCCCAAAACCAAAAAAA
11444421344341424412441414344422121321223114124424
ACCCCCCCCCCCCCCCCCCCCCCCCCCCCCCCBBBBBBBBBBBBBBCCCC
22422122442144424324441344112313341334232322432444
BBBBCAACCCAACCCBBBBBBBBBBBBBBBBBBBBBBBBBBBBBBBACCC
14213442141444444412221131112124122221222112313421
BBBBBBBBBBBCCCCCCCAAAAAAAAAAAAAAAAAAAAAAAAAABBBBBB
34444434423244144244444344444443122212232122122212
CCCCCCCCCCCCCCCCCCCCCCCCCCCCCCCAABAAAAAAAAAAAAAAAA
42444434423122133444231131144241144443444413221442
CCCCCCCCCCBAAAAAACCCBBBBBBBBBBBBBCCCCCCCCBBBAAACCC
21323113424414122214412212212111444134122421233212
BBBBBBBBBBCCCCAAAAABBBBBAAAAAAAACCCCCCAAACAAABBBBB
43421143444344443343444212211232112223144121321444
BBCAAACCCCCCCCCCCCCCCCCAAAAAAAAAAAABBBBBBBBBBBBCCC
21144424443344244343444144242222121211122211122112
AAACCCCCCCCCCCCCCCCBCCCCCCABAAAAAAAAAAAAAAAAAAAAAA
12113142113222211122421121222121123223323144142331
AAABBBBBBBBAAAAAABBBBBBAAAAAAAAAABBBBBBBBBBBBBBBBB
12422241121423224444344444134214321222413214433132
AAAAAAAAAAAAABBBCCCCCCCCCCBBBBBBBAAABBBBBBCCCBBBBB
24122212124321211211122141112122131412133112144444
ABBBBBBBBBBBBAAAABAAAAAAAAAAAAAAABBBBBBBBBAAACCCCC
24321434241111411141233114443333334331411211143113
ABBBBBBBBBBBBBBBBBBBBBBBBBBBBBBBBBBBBBBBBBBBBBBBBB
43413233444444133134411124112241224441444444143411
CBBBBBBBBBBBBBBBBBBBBAAAAAAAAAAAAAACCCCCCCCCBBBBBB
12232414433411444232133114444343212111222324244211
BBBBBAACCBBBBBBBBBBBBBAAACCCCCCCAAAAAAAAABBBBBCCBB
44142434434344332414443144434324444411222113314312
BCCCBBBCCCCCCCCCCCCCCCCCCCCCCCCCCCCAAAAAAAAAAABBBA
42111112222122122221422322222111244441414343411222
AAAAAAAAAAAAAAAAAAAAAAAAAAAAAAAAACCCCBBBBBBBBBBBBB
21211111112131444421112411214414313144344414444444
AAAAAAAAAAAABBBBCCAAAAAAAAAACCCCCCCCCCCCCCCCCCCCCC
21212211122141411321241222213212444414444444121221
AAAAAAAAABBBBAAAAAAACAAAAAAAAAAACCCCCCCCCCCCAAAAAA
21211411212122221122121444444444412131113111114411
AAAAACAAAAAACCAAAAAAAAACCCCCCCCCCAAAAAAAAAAAAACCCC
23144433342333212114313321231233343323114423122213
BBBBBBBBBBBBBBAABBBBBBBBBBBBBBBBBBBBBBBBBBBBBBBBAB
44114121431342312442222311124244444144414424144444
CCAAAAAABBBBBBBBBBBAAAABBBBBCCCCCCCCCCCCCCCCCCCCCC
22221142312443111412432111124434141431411223444431
AAAAAABBBBBBBBBBBCBBBBAAABCCCCCCBBBBBBBBBBBBBBBBBB
42133112412433431141422224213221222444424444441444
BBBBBBBBBBBBBBBBAACCCBBBBBBBBBBBBBCCCCCCCCCCCCCCCC
22122112212221213112222222122212222212111124432444
AAAAAAAAAAAAAAAAAAAAAAAAAAAAAAAAAAAAAAAAAAACCCCCCC
24111444431434334324444424442113141233443322421221
AAAAACCCCCCCCCCCCCCCCCCCCCCCBBBBBBBBBBBBBBBBBBBBBA
12122211121222121143443422112244441242232114143213
AAAAAAAAAAAAAAAAAACCCCCCAAAAAACCCCCCBBBBBBBBBBBBBB
12212113311411311212234311222443224441444144244441
AAAAAAAABBBBBBBBBBBBBBBBBAAAAAAAAACCCCCCCBCCCCCCCB
12111221214221221221211322412224313434234334311414
AAAAAAAAAAAAAAAAAAAAAAAAAAAAAABBBBBBBBBBBBBBBBBCCC
31423444443444444112443422241231244434414413444441
BBCCCCCCCCCCCCCCCCCCCCCCCCCCCCCCCCCCCCCCCCCCCCCCCB
21112221122222111212211212212121424411323323442222
AAAAAAAAAAAAAAAAAAAAAAAAAAAAAAAAAAABBAABBBBBBBBBAA
43411422114112122121121112244141413214331111142334
BBBBBBBAAAAAAAAAAAAAAAAAAACCCBBBCBBBBBBBBBBBBBBBBB
32111121212221422421122341213411122312241433444223
AAAAAAAAAAAAABBBBBBBBBBBBBBBBBBBBBBBBBBBBBBCCBBBBB
21244341242132221111112222131213114431324114444444
AAACCCCCCCBBAAAAAAAAAAAAAAAAAAAABBBBBBBBCCCCCCCCCC
21122212213222441443444314344412311443334231344113
AAAAAAAAAAAAAACCCCBBBBBBBCCCCBBBBBBBBBBBBBBBBBBBBB
42232244414341441444443443413212213223111212421122
AAACCCCCCCCCCCCCCCCCCCCCCCCCAAAAABBBBBAAAAAAAAAAAA
12441411422224241421314444211144433443424342444443
BBCCBBBBBBBBBBBBBBBBBCCCCCAAAACCCCCCCCCCCCCCCCCCCC
31334433321414144444412144144114221114433241424344
BBBBBBBBBBBBBBBCCCCCCAAACCCCCCCCBBBBBBBCCCCCCCCCCC
34434321214412142342343243323414113444142332413322
BBBBBBBBBBBBBBBBBBBBBBBBBBBBBBBBBBBBBBBBBBBBBBBBBB
42331341234141422111131124442444443444414341443444
AAABBBBBBBBBBBBAAAAAAAAAACCCCCCCCCCCCCCCCCCCCCCCCC
12223212324411442412141211221422212212111122113144
AAAAAAAABBBBBBBCCCAAAAAAAAAAABAAAAAAAAAAAAAAAABBBB
22122422211214421213211244222241312333213314344444
AAAAAAAAAAAAABBBBBBBBBBBBBBBBBBBBBBBBBBBBBBCCCCCCC
11122221232222121113142344423444444431444444214332
AAAAAAAAAAAAAAAAAACCCCCCCCCCBCCCCCCCBBCCCCCCBBBBBB
21344442144242112111123213112121122234112114243444
AACCCCCCCCCCCBBBAAAABBBBBBBAAAAAABBBBBAAAAACCCCCCC
11224343444344113442442113231212141222431224111444
AAAACCCCCCCCCCCCBBBBBBBBBBBBBCAABCAAAAAAAAAAAAACCC
11222212121443412313424214444344424441431212442133
AAAAAAABBBBBBBBBBBBBBBBBBBBCCCCCCCCCCBBBAAAABBBBBB
22112313414444444114322444442441444444214111144444
AAAAAAACCCCCCCCCCCCCCCCCCCCCCCCCCCCCCCCAAAAAACCCCC
44131332322122122211213143214241244144334244431322
BBBBBBBBAAAAAAAAAAAAAABBBBBBBBBBBBBBBBCCCCCCCBBBBB
21212231112322223221323321444244424424144444444442
AAAAAAAAAAAAAAAAABBBBBBBCCCCCCCCCCCCCCCCCCCCCCCCCA
23114444444444211222244431341343244111242114444133
AABCCCCCCCCCCCAAAAABBBBBBBBBBBBBBCCCBBBBBBBCCCCBBB
11211111122233412211123414444444411112211121114211
AAAAAAAAAAAAAAAAAAAAAAACCCCCCCCCCAAAAAAAAAAAAAAAAA
44321221132134312414114313441111241444444444444444
BBBBBBBBBBBBBBBABCCCBBBBBBBBBBBBBBBCCCCCCCCCCCCCCC
33444233444424444442444311121322122221113122324144
BBBBBBBBBCCCCCCCCCCCCCCCCCAAAAAAAAAAAAAAABAABBBBBB
22311423311444444444441444244443443344441334444342
AABBBBBBBBBBCCCCCCCCCCCCCCCBBBCCCCCCCCCCCCCCCCCCCA
11211312111112121211344221222222111242424221221211
AAAAAAAAAAAAAAAAAAAACCCCAAAAAAAAAAAACCCCCCAAAAAAAA
11222122233332114434314211111231124214132221132211
AAAAAABBBBBBBBBBBBBBBBBBBBCCBBBBBBBBBBBBBBBBAAAAAA
22221222121221211222121224432341121121132444243241
AAAAAAAAAAAACAAAAAAAAAAABBBBBBBAAAAAAAABBCCCCCCCCC
34444144112122214212213222114111444321121244424444
BCCCCCCCAAAAAAAAAAAAAAAAAAACCCCCCCCAAAAAAAACCCCCCC
31231442244322114142434344241442414444444142444424
BBBBBBBBBBABBAAAAAAACCCCCCCCCCCCCCCCCCCCBBBBBCCCCC
12222223112122244242411122142142143441444242444442
AAAAAAAAAAAAAACCCAAAAAAAAAAAAACCCCCCCCCCCCCCCCCCCC
22112112211312444442321211111314431332423112134143
AAAAAAAAAAABBBCCCCBBBBBBBBBBBBBBBBBBBBBBBBBBBBBBCC
41144321424324422124211111123123221232121121211122
BBBBBBBBBBBBBBBBBAAAAAAAAAAAAAAAAAAAAAAAAAAAAAAAAA
31311441432442444423414414231312231333433244413214
BBBCCCCCCCCCCCCCCCCBBBBBBBBBBBBBBBBBBBBBBBCCCBBBBA
24421344412423244244412131343441111121212112212121
ABBBBBBBBBBBBBBBBBBCCAAABCCCCCCAAAAAAAAAAAAAAAAAAA
34244243422131143131444323124211221241112132211444
BBBBBBBBBBBBBBBBBBBBBBBBBBBBBBBBBBBAAAAAAAAAACCCCC
21434244434442444444444344323413332414444444413444
CCCCCCCCCCCCCCCCCCCCCCCCCCBBBBBBBBBCCCCCCCCCCCCCCC
32224434242244412244212222222122112231221242111221
BBAABBBBBBBBBBBAAACCAAAAAAAAAAAAAAAAAAAAAAAAAAAAAA
11423324444143131334141331222123232212444414212122
BBBBBBBBBCCCCBBBBBBBBBBBBBBBBBBBBBBABACCCCCCCAAAAA
12111221211421211111224444343241142342324423332222
AAAAAAAAAAAAAAAAAAAAAACCCCCBBBBBBBBBBBBBBBBBBAAAAA
31314312122442444414444131341213422133233241441214
CBBBBBBAAACCCCCCCCCCCBBBBBBBBBBBBBBBBBBBBBBBCCCCCC
24344444444444342112212212244241121244433122113112
CCCCCCCCCCCCCCCCAAAAAAAAAABBBBBBBBBBBBBBBAAAAAAAAA
11221324244443144444444422213121224344434441122221
AAAAABBBCCCCCCCCCCCCCCCBBBAAAAAAAACCCCCCCCCAAAAAAA
31112312142331314442422342444231322131212141243243
AAAAABBBBBBBBBBCCCCCCCACCCCCCBBBBBBBBBBBBBABBBBBBB
24222224221124424214233441131124142123431444424211
BBBBAAAAAAACCCCCCCCCCCCCCCCBBBBBBBBBBBBBCCCCCCCAAA
22124434444424444332213211121223243334331141444341
AACCCCCCCCCCCCCCCBBBBBBAAAAAAABBBBBBBBCBBBCCCCCCCA
21121244441112122133242323232432222431313441424143
AAAAAACCCCAAAAAAAABBBBBBBBBBBBBBBBBBBBBBBBBBBBBBBB
34413221311211241211113211122222122212222222121444
CCCBBBAAAAAAAAAAAAAAAAAAAAAAAAAAAAAAAABBBBAAAAACCC
11344442444441211344442322313423444111442433414434
AAACCCCCCCCCCAAAACCCCCCBBBBBBBBBBBBBCCCCCCCCCCCCCC
44224412121124443322144222221423421121111112214244
BBBBBBBBAAAAACCCCCCAAAAAAAAACCCBBAAAAAAAAAAAACCCCC
44133311422122411221411433432324442233244444214242
BBBBBBBBBBBBBBBBBBBBBBBBBBBBBBBBBBBBBBCCCCCCBBBBBB
24414441244444443224122241243441444113344411222111
ACCCCCCCCCCCCCCCBBBBBBBBBBBBBBCCCCCCCCCCCCCAAABBBB
41113344141323131122231222221221121122212143444444
BBBBBBBBBBBBBBBBAAAAAAAAAAAAAAAAAAAAAAAABCCCCCCCCC
21331112222221111322421113244241411244112111144114
AAAAAAAAAAAAAAAAAAAAAAAABBBBBBBBBBBBBBBBAAAAAABBBB
13134122122113321343144121141111142212124444442441
ABBBBBBBBBBBBBBBBBBBBBBAAAAAAAAAAAAAAAAACCCCCCBBBB
33234341221321111121111111112123212431214224434421
BBBBBBCAAAAAAAAAAAAAAAAAAAAAAABBBBBBBAAAAAACCCCCCC
33112232121212232222244244414242144421122411222121
BBBAAAAAAAAAAAAAAAAACCCCCCCCAAAABBBBBBAAAAAAAAAAAA
24434444414441411342141441441414442444444442434213
BBBBBCCCCCCCCCCBBBBBBBBACCCCCCCCCCCCCCCCCCCCCCCBBB
41112242212221112113444444414342232442112342123341
CAAAAAAAAAAAAAAAAAABCCCCCCCCCCCBBBBBBBBBBBBBBBBBBB
13121432211122312122244444444414441444434414444213
AAAAAAAAAAAAAAAAAAAAACCCCCCCCCCCCCCCCCCCCCCCCCBBBB
42131411344344344444441413413331442214411224211412
BBBBBBBBBCCCCCCCCCCCCCCCCCCCBBBBCCCBBBBBBBBBBBAAAA
11224444444213414141121221212223212212124121211244
AAAACCCCCCCBBCCCCCAAAAAAAAAAAAAAAAAAAAAAAAAAAAAACC
32332444343111444444431211433344444442323332112224
BBBBBCCCCCCAAACCCCCBBBBBBBBBBBCCCCCBBBBBBBBBBBAAAA
24211114444112144444211222311211223222222231324444
AAAAAAAACCCAAAACCCCCAAAAAAAAAAAAAABAAAAAAAAAAACCCC
14124212213443112134114444121213213141214224241423
AAAAAAAAAACCCCAAABBBBBBCCCBBBAAAAAAACCCCCBBBBBBAAA
41412112122224414444144444414132244344334424324444
BAAAAAAAAAAAACCCCCCCCCCCCCCCCAAAAACCCCCCCCCCCCCCCC
12444414344431312213443441124322441324443111211324
ACCCCCCCCCCCCBAAAAABBBBBBBBBBBBBBBBBBBBBBBBBBBBBBC
44442111222214231324112111322211111243123423414442
CCCCAAAAAAAAAAABBAAAAAAAAAAAAAAAAAAACCAABBBBBBBBBB
33443442322241321111421114433444143441241111444244
BBBBBBBBBBBBBBBBAAAAAAAAACCCCCCCCCCCCBBBBBBBBCCCCC
14244444444222231444444341134222442242224424331231
CCCCCCCCCCCBBBBBCCCCCCBBBBBBBAACCCAAAAAAABBBBBBBBB
44424111211414244421312243321222212211112121114424
CCCCCAAAAAAAAAABBBBBBAAABBBBBBBAAAAAAAAAAAAAAACCCC
22121111122123222222222221141244441443443123242111
CCAAAAAAAAAAAAAAAAAAAAAAAAACCCCCCCCCCCCCAAAAACCBBB
21121112222212211222241434422223411421141444143421
AAAAAAAAAAAAAAAAAAAAACCCCCCBBBBBBAAAAAAAAAAAAAAAAA
21411111111112334442324321411324124114123444114444
AAAAAAAAAAAAAAABBBBBBBBBBBBBBBBBBBBBBBBBBCCCCCCCCC
22142121121114121111311221434414334411211213441341
ACCCAAAAAAAAAAAAAAAAAAAAAABBCCCCCCCAAAAAAABBBCCBBB
24424141444144344344113344224144441434313133333424
BBBAAAAACCCCCCCCCCCCCCCCCCCCCCCCCCCCCCBBBBBBBBBBBB
21111214134311313211323424442312234143244424444444
AAAAAABBBBBBBBBBBBBBBBBBBBBBBBBBBBBBBBBCCCCCCCCCCC
44244433414144242122124242211212211221211411212323
CCCCCCCCCCCCCCAAAAAAAACAAAAAAAAAAAAAAAAAAAAAAAAAAB
11212111422211432121122213211212222414222131422112
AAAAAAAAAAAAABBBBBBBAAAAAAAAAAAAAAAAAAAAAAAAAAAAAA
24342223222121221211212431222121223111144141323413
BBBBBBBBBAAAAAAAAAAAAAABBAAAAAAAABBBBBBBBBBBBBBBBB
11121121111122244444444444133341123413412224421223
AAAAAAAAAAAAAAACCCCCCCCCCCBBBBBBBBBBBBBBBBBBBBBBBB
12211222222121223111432443442421114211211131142224
AAAAAAAAAAAAAAAABBBBBBCCCCCCCCAAAAAAAABAAAACCCCAAC
21114121221112121243233424424441443244432132222424
BAAAAAAAAAAAAAAABBBBBCCCCCCCCCCCCCBBBBBBBBBAAAAAAC
21111211141122224233222212121122222114141431444444
AAAAAAAAAAAAAAAACBBBAAAAAAAAAAAAAAAAACBCCCCCCCCCCC
22211212211211121112311122222222224212222112122124
AAAAAAAAAAAAAAAAAAAABBAAAAAAAAAAAACCAAAAAAAAAAAAAA
42411222114234444243142433444411222211241111111141
BBBBBBCCBBBBBBBCCCCCCCCCCCCCCCAAAAAAAAAAAAAAAAAACC
22212211412414334222432142244423131242114442423432
AAAAAABBBBBBBBBBBBBBBBBBBBBBBBBBBBBBBBBBBBBBBBBBBB
21221214444444444422412211121231222111243244444122
AAAAAACCCCCCCCCCCCCCCAAAAAAAAAAAAAAAABBBBBCCCCCAAA
14424434132414422142242142323242212212443124331411
ABCCCCCCBBCCBBBBBBBBBBBBBBBABBAAAAAAACCCCBBBBBBBBB
22112214141334134434441222211121211212124221232314
AAAAABBBBBACCCCCCCCCCCAAAAAAAAAAAAAAAAAAAAAAABBBBB
32211134444242122343324443133214112312412333342221
AAAAAACCCCCAAAAAABBBBBBBBBBBBBBBAABBBBBBBBBBBBAAAA
33344441443444444224411312142211212211121112111222
BBCCCCCCCCCCCCCCCBBBBBBAAAAAAAAAAAAAAAAAAAAAAAAAAA
13222222211332222111243133141113332444342223412124
AAAAAAAAAAAAAAAAAAAAABBBBBBBBBBBBBCCCCBBAAAAAAAABB
22221444444444444324441442243444444444431414444142
AAAACCCCCCCCCCCCCCCCCCCCCCCCCCCCCCCCCCCACCCCCCCBBB
12314112211124424413421242111141444312444421244421
AAAAAAAAAAAAACCCCCCCCCAAAAAAAACCCCCCCCCCCCCCCCCCCC
11214112443242123121112221111323344431232113422244
AAACCAAABBBBAAAAAAAAAAAAAABBBBBBBBBBBBABBBBCBBBBBB
11112111411221112112232111442332222141224344313441
AAAAAAAAAAAAAAAAAAAAAAAAAABBBBBAAAAAAAAACBBBBBBBBB
24243311444213433214424143212334214433422313342144
BBCCCCBBCCCCCCCBBBBBBBBBBBBBBBBBBBBBBBBBBBBBBBBBCC
21122422412144441424244443442431121231112142412433
AAAAAAAAAAAACCCCCCCCCCCCCCCCCCCAAAAAAAAAAAAAAAAAAA
42331124411341141213422221121242122211221444443334
BBBBBBBCCCCCCAAAAAAAAAAAAAAAAAAABBBBBBAAACCCCCCCCC
41422214424113144434331434444221211121211122112222
BBCABBBCCBBBBBCCCCBBBBBCCCCCCAAAAAAAAAAAAAAAAAAAAA
22122314222134122244444443311121144431211231124244
AAAAAAAAAAAAAAAAACCCCCCCCBBBAAAAAAAAAAAAAABBBBCCCC
42414444442122313132232111122113122122124123121113
BBBBACCCCCCCBBBAAAAAAAAAAAAAAABBAAAAAAAAAAAAAAAAAA
34222414414444444314444241442441442442441122211122
BBBBBCCCCCCCCCCCCCACCCCCCCCCCCCCCCCCCCCCCCAAAAAAAA
21134213344443444444443144444444421144441144444444
AAABBCCCCCCCCCCCCCCCCCCCCCCCCCCCCCCCCCCCCCCCCCCCCC
22112111212212112111111222322413411211131341121212
AAAAAAAAAAAAAAAAAAAAAAAAAAAAABBBBBBBBBBBBBBAAAAAAA
11314222122312214443314211124444444344444444412211
AAAAAAAAAABBBBBBBBBBBAAAAAAACCCCCCCCCCCCCCCCCAAAAA
11421222214214422224114234444421211422113211123244
AAAAAAAABBBBBBBBBBBBBBBBBBBCCCAAAAAAAAAAAAAAAAAACC
12213111221341113121444144411434344341324221211212
AAAAAAAAAABBBBBBBBBBBBBBBBBBBBBBBBBBBBBBAAAAAAAAAA
24444441414221324341142222142422423444344313433344
CCCCCCCCCBBBBBBBBBBBBBBBBBBBBBACCCCCCCCCCABBBBBBBC
14214211313311212323111311221123244421244121132422
BBBBBBBBBBBBBBBBBBBBBBBBBAAAAAAAABCCAAAAAAAAAAACAA
23414133244344444442214321343223443421212423313332
BBBBBBBBCCCCCCCCCCCAABBBBBBCBBBBBBBBBBBBBBBBBBBBBB
41414124211133412133132122122113444323344142341211
CABBBBBBBBBBBBBBBBBBBBBAAAAAAAACBBBBBBBBBBBBBBBBBB
11111222412312111423122221141221212113242144111121
AAAAAAAAAAAAAAAAAAAAAAAAAAAAAAAAAABBBBBBBBBBBBBBBB
21411211111421111121121121211212112111142313234434
AAAAAAAAAACCAAAAAAAAAAAAAAAAAAAAAAAAAAABBBBBBBCCCC
21222141122121121414444442444411444444442343444122
AAAAAAAAAAAAAAAAAACCCCCCCCCCCCCCCCCCCCCCCCCCCCCCAA
22422441344413414414412443342123221344343441144434
AABBCCCCCCCCCCCCCCCCCCCCCBBBBBBBAAACCCCCCCCCCCCCCC
12212111212221242111221123222242424242444444144141
AAAAAAAAAAAAAAAAAAAAAAAAAAAAAACCCCCCCCCCCCCCCCCCCC
11223313423241442112244243421413143444134234223414
AAABBBBBBBBBBBBBBBBBBBBBBBBAACCCCCCCCCBBBBBBCCCCCC
14212443441444444442444344414323234422342334314441
BCCAACCCCCCCCCCCCCCCCCCCCCCCBBBBBBBBBAAABBBBBBBBBB
12111221112122123444434444344344441233443414444221
AAAAAAAAAAAAAAAACCCCCCCCCCCCCCCCCCCCCCCCCCCCCCCCAA
31221112212221222231242114231121131122113233224313
AAAABAAAAAAAAAAAAAAAAAAAAAAAAAAAAAAAAAAABBBBBBBBBB
12221212131444442211331312422211212211141121443431
AAAAAAAAAAACCCCCAAAABBBBBBCAAAAAAAAAAAAAAAAAABBBBB
22122222413432414342422244331221112242432222221221
AAAAAAAABBBBBBBBBBBBBBBBBBBBBBBBBBBBBBBBBBBBAAAAAA
13111244414444344314222312222222224212212121241122
AAAAAACCCCCCCCCCCAAAAAAAAAAAAAAAAAAAAAAAAAAAAAAAAA
44444434444424422211421144444244311442444311213131
CCCCCCBACCCCCCCAAAAAAAAACCCCCCCCCBBBBBBBBBBBBBBBBB
14324431431321121222124444444442341444413344243424
ABBBBBBBBBBBAAAAAAAAAABBCCCCCCCCCCCCCCCCCCCCCCCCCB
12121333231121113113322434121222223141224211211221
BBBBBBBBBBBBBBBBBBBBBBBBBBAAAAAAAAAAAAAAAAAAAAAAAA
21212121222121122141321233112244324224141144211211
AAAAAAAAAAAAAAAAAABBBBBBBBBBBCCCCCCBBBBBBBBBAAAAAA
31113441242341442444222112212212443434412244344443
BBABBBAACBBBBCCACCCCAAAAAAAAAAAACCCCCCCCCCCCCCCCCC
11112212132112241142214444412433331211211222424414
AAAAAAAAAAAAAAAAAAAAAACCCCCABBBBBBBBAAAAABBBBBBBCC
24443141241444112222221224221443344444411212114223
BBBBBBBBBBBBBBBBAAAAAAAAAAAACCCCBCCCCCCAAAAAAAAAAA
12322124411424341211312322244344123434444314444142
AAAAAAACCBCCCCCCCAAAAAAABBBCCCCCAAACCCCCCCCCCCCCAA
24313411442323234324111132114212111112213431123221
BBBBBBBBBBBBBBBBBBBBBBBBBCCCCAAAAAAAAABBBCCAAAAAAA
22143232343121214212243122112244422212223121322221
AABBBBBBBBBAAAAAAAAAAAAAAAAAAACCCAAAAAAAAAAAAAAAAA
21242444443122224412422243214333122444144442442444
AABBBCCCCCBBBBBBCCCBAAAACBBBBBBBBCCCCCCCCCCCCCCCCC
11322221111111232213122222111144414431443414421112
AAAAAAAAAAAAAAAAAAAAAAAAAAAAAACCCCCCCBBBBCCCCCBBBB
14221113131314131122113222221423222131213144412342
AAAAAAABBBBBBBBBAAAAAABAAAABBBBBBBBBBBBBBBCCCAACCC
21221144222211124411433211121141221314314442433214
AAAAAACCAAAAAAAACCBBBAAAAAAAAAAAAABBBBBBCABBBBBBAA
12121124343421212212211233343222444144444444444331
AAAAAAACBBBBAAAAAAAAAAAABBBBBBBBCCCCCCCCCCCCCCCCCA
44244444114444314214431414444444444442422444444442
BCCCCCCCCCCCCCCCCCCCCCCCACCCCCCCCCCCCAAAAACCCCCCCC
12111411444124411122122223312221212121122111121211
AAAAAAAAACCBBBBBBAAAAAAAABBAAAAAAAAAAAAAAAAAAAAAAA
22444413343112221333124314133212123432144412244212
AACCCCCBBBBAAAAABBBBBBBBBBBBBAACABBBBBBBBBBBBBBBBB
22224422143331221122111123314422443432142142442422
AAABBBBBCCCCAAAAAAAAAAAAAABBCCCBBBBBBBBBBABCCCCCCC
22122444244444333124442414412442222421121212211224
AAAAACCCCCCCCBBBBBBCCCCCCCCABBBBBBBCCCAAAAAAAAAAAB
14311112121211211122214243444413444142212411221113
BBBBBBBAAAAAAAAAAAAABBBBCCCCCCCCCCCCCAAAAAAAAAAAAA
31342333241431112324423433232211412242243241323231
BBBBBBBBBBBBBAAAAACCCCBBBBBBBBBBBBBBBBBBBBBBBBBBBB
11243414314144334432434433321344443443123241111111
AAABBBBBBBBCCCCCCCCCCCCCBBBBBCCCCCBBBBBBBAAAAAAAAA
31121232222212211112122241211144342141113121213432
AAAAAAAAAAAAAAAAAAAAAAAABBBABBBBBCCCCCCCAAAACCCCBB
14414442342443243143444244443221112232221131121214
ACCCCCCCCCCCCCCCCCCCCCCCCCCCCAAAAAAABBAAAAAAAAAAAC
23133212223222434143314432344223214314422142244233
ABBBBBBBBBBBBBBBBBBBBBBBBBBBBBBBBBBBBBBBBBBBBBBBBB
11231141443314212111413141334311324424434441423222
AAAAACCBBBBBBBBBBBBBBBBBBBBBBBBBBBBCCCCCCCCBBBBAAA
32111143322122344444442134121441441422112111144441
AAAAABBBBBBBBBACCCCCCCCCCCCCCCCCCCCCAAAAAAAACCCCCC
21414312332442134414221141434231124113144213122132
BBBBBBBBBBBBBBBBBBBBBBBBBBBABBBBBBBBBBBBBBBBAAAAAA
23112411244143123214443212121122431123423141222111
ABBBBBBBBBBBBBBBBBBBBBBBBBBBBBBBBBBBBBBBBBBAAAAAAA
14444441444442443244244443424441142212221222111112
BCCCCCCCCCCCCCCCCCCCCCCCCCCCCCAAAAAAAAAAAAAAAAAAAA
41432432221122222422221323412211211121411224322234
BBBBBBBBBBBCAAAAABBBBBACCCCAAAAAAAAAAAABBBBBBBBBBB
24444444443414424211144442434434424231424432322214
BCCCCCCCCCCCCCCCCCCCCCCCCCCCCCCCCCCCCCCBBBBBBBBBBB
42122424122143422444444444133111143414444324432432
CAAAAAAAAAABBBBBACCCCCCCCCBBBBBBBBBCCCCCCCCCCBBBBB
43324324444442113221111111221444443441444444142243
BBBBBBBCCCCCCAAAAAAAAAAAAABAACCCCCCCCCCCCCCCCCCCCC
31132114332434414241444444143421223142344424121234
BBBBBBBBBBBBCCCCCCCCCCCCCCCBBAAAABBBBBBBBBBBBBBBBB
12112121121121222221422244422311444341212121121231
AAAAAAAAAAAAAAAAAAAAAAACCCCCCCCCCCCCCAAAAAAAAAAAAA
34211132211342443443444233341121133444434443411444
BAAAAAAAAABBBACCCCCCCCBBBBBBBBBBBBBCCCCCCCCCCCCCCC
21243241413311422214444412314331141414212211311121
AAABBBBBBCCCAAAAAAACCCCCBBBBBBBBBCCCCCAAAAAAAAAAAA
14311314232442324212432124443434444434444344444424
BBBBBBBCCCCCCBBBBBBBBBBBBCCCCCCCCCCCCCCCCCCCCCCCCC
21442223242244444441434132133422312221332113142444
ABCCAAABAAAACCCCCCBBBBBBBBBBBBBBBBBBBAAAAAAAACCCCC
34131322434341444244434232112441221122442223212443
BBBBBBBBBCCCCCCCCCCCCCCBBAAAACBAAAAAAACCAAABBBBBBB
12211211231423421222222122132123131211221144441434
AAAAAAAAAAACCCCAAAAAAAAAAAAAAAAAAAAAAAAAAABCCCCCCC
21312211111213111242413332444144434444441441434444
AAAAAAAAAABBBBAAAABBBBBBCCCCCCCCCCCCCCCCCCCCCCCCCC
13212212112244444143123432232114121313443313422222
AAAAAAAAAAAACCCCCCCCBBBBBBBBBBBCCCCBBCCCCBBBBBBBBB
44442113242444414444344444344444244434143444414323
CBBBBBBBBCCCCCCCCCCCCCCCCCCCCCCCCCCCCCCCCCCCCCBBBB
44444421134441344132214234444432444211244244444421
CCCCCCBBBBCCCCCCCBBBBBBBCCCCCCCBBBBBBBBCCCCCCCCCAA
22144444311444141211112221122111222111442241112211
AAACCCCCCCCCCCBABAAAAAAAAAAAAAAAABBBBACCACCAAAAAAA
41311121211212144434344243343332413413432444243421
CCCAAAAAAAAAAAACCCCCCCCCCCCCCCCCBBBBBBBAACCCCCCCAA
22121222441243122241224123221122221222121221212221
AAAAAAAAACCABBAAAAAAAAAAAAAAAAAAAAAAAAAAAAAAAAAAAA
12111232211412342443234344443141343414224444113421
AAAAAAAAAAAAAAACAACCCCCCCCCCCCCCBBCCCCCCCCCCBBBBCC
14442121211144413122443111122111112222211222223114
BBBBBBBBBBBBBBBBBAABBBBAAAAAAAAAAAAAAAAAAAAAAAAAAA
24112113141114442242411243112411122132233111222231
AAAAABBBBCBBBBBBBBBBBBBBBBBBBBBBBBBBBAAAAAAAAAACBB
14112222321312122111121222111322121111223244141443
AAAAAAAAAAAAAAAAAAAAAAAAAAAAAAAAAAAAAACCCCCCCCCCCC
34211444442243424432231341422313322322233322212341
CCCCCCCCCCCCCCCCCCCBBBBBBACBBBBBBBBBBBBBBBBBAAAAAA
22111142312111211212112221211122212232111233331441
BBAAAACAAAAAAAAAAAAAAAAAAAAAAAAAAAAAAAAAAABBBBBBBB
33434222444224223312342133122333314442222411211321
BBBBBBBBCCBBBBBBBBBCCCABBBBBBBBBBBBBBBBBBBBBBBBAAA
24121112214242211223414432114212222444312411241114
AAAAAAAAAACAAAAAAACCCCCCCCCCCBAAAAACCCCCCCCAAAAAAC
23141132122222111141221234443111434334243344144222
BBBBBBAAAAAAAAAAAAAAAABBBBBBBBBBBBBBBBBBBBBBBBBAAA
42244324344442444443344444441444423143223431343111
CAACCCCCCCCCCCCCCCCCCCCCCCCCCCCCCCCCCAAAACBBBBBBBB
24243144122442344111221222222111124434421424441334
BBBBBBBBBBBBBBBBBBAAAAAAAAAAAAAABBCCCCCCCCCCCCBCCC
12142212441424444444212111144221112222234342122434
BBBBBAAAACCCCCCCCCCCAAAAAAACCAAAABBAAAABBBBBBBBBBB
12222111134321241222112224211312411214311331332412
AAAAAAAAAAAAAAAAAAAAAAAAAABAAAAAAAAAABBBBBBBBBBBBA
11141444123123131243414214421141121243214233222234
AABBBCCCBBBBBBBBBBBBBBBCCCCCAACAAABBBBBBBBBBAAAAAB
21222312322123442434414444411422234144142444444224
AAAABBBBBBBBBBBBBBBCCCCCCCCAAAAAACCCCCCCCCCCCCCCCC
24244414341441444444441444241134331431144241111221
ACCCCCCCCCCCCCCCCCCCCCCCCCCCCCCCBBBCCCCCCAAAAAAAAA
12212112433133441243344344444444441424144324234444
AAAAAAAABBBBBBBBBACCCCCBCCCCCCCCCCCCCCCCCCCCCCCCCC
44414424424133242442424444444443311444444414444242
BCCCCCCCCCCCCBCCCCCCCCCCCCCCCCCCCCCCCCCCCCCCCCCCCA
11224234442342444441211111421412413114432122111112
AAAABBBCCCCCCCCCCCCCCCABBBBBBBBBBBBBBBBBBAAAAAAAAA
21211122423234432121121431144322112112111222231133
AAAAAAAAAAAABBBBBBBBBBBBBBBBBBBBAAAAAAAAAAABBBBBBB
22222341412333243142441231411212334431111412221121
AAAAACCCCBBBBBBBBBBBBBBBBBBBBBBBBBCCCAAAAAACAAAAAA
31243131444442114344424434434423442231212122121114
BBBBBBBBBCCCCCCCCCCCCCCCCCCCCCCCCCAAAAAAAAAAAAAAAA
11221414132213211212111124242314224321224243234223
AAAAAAAAAAAAAAAAAAAAAAAAAAACCCCCBBBBBBAABBBBBBBBBB
22111312231112211222224411113244414444232332122214
AAAAAAAAAAAAAAAAAAAAAABBBAAAACCCCCCCCBBBBBAAAAAAAB
13142311422314144444142141443144333443223342242141
BBBBBBBBBBBBCCCCCCCCCCCCCCCCAABBBBBBBBBBBBBBBBBBAA
22321322121122322244424124122144114321134433422323
AAAAAAAAABBBBBBBBBBBBBBBBBBBBBBBBBBBBBBBBBBBBAAAAA
33144244214111211122221123443244444444414444443124
BBBBBBBBAACAAAAAAAAABBBBBBBBCCCCCCCCCCCCCCCCCCCAAA
11222233324321312223342241431221121411242141332232
AAAAAABBBBBBBBBBBBBBBBBBBBBBAAAAAAABBBBBBBBBBBBBBB
31312444234124444424444423334111221112242442221234
BBBCCCCCCCCCCCCCCCCCCCCCBBBBBBAAAAAAAAABBBBBBBBBBB
13412223323122323444434144441444422413121144344433
BBAAAAAABBBBBCCCCCCCCCCCCCCCCCCCCCBBBAAAACCCCCCCCC
22111222121211222424211111124344442444442444432144
AAAAAAAAAAAAAAAAACCCAAAAAAAACCCCCCCCCCCCCCCCCCCCCC
23224444111121243232321224123221141212244332444342
AAACCCCCAAAAAAABBBBBBAAAAAAAAAAAACAAAACCCBBBBBBBBB
11112112124121112213212113222112212121111123243314
AAAAAAAAAAAAAAAAAACBAAAAAAAAAAAAAAAAAAAAAAAAAAAAAC
22111142122314422113314444441444414444444244421444
AAAAAAAAAAABBCCAABBBBACCCCCCCCCCCCCCCCCCCCCCCABBBB
21121144421222224134424443434411122141331114122132
AAAAAACCCAAAAAAAAACCCCCCCCCCCCBBBBBBBBBBBBBBBBBBBB
11342312144343123313414331441424444433412211112124
AABBBBBBBBBBBBBBBBBBBBBBBBCCCCCCCCCCBBBAAAAAABBBBB
12241144444234432333332123122221121221322224444444
AAAAAAACCCCCCCBBBBBBBBAAAAAAAAAAAAAAAAAAAAACCCCCCC
44414444444412121221112324444344412134211134241412
CCCCCCCCCCCCBBAAAAAAAAAAACCCCCCCCAAAAAAAAAAAAAAAAA
21411414132222212222124123114221144144442422344442
AAAAAAAAAAAAAAAAAAAAAAAAAAABAAAAACCCCCCCCCBBBBCCCC
23214411413334434344444111112414442322424314123444
BBBBBBBBBBBBCCCCCCCCCCCAAAAAAAABBBBBBBBBBBBBBBBBCC
22334321121144131233111444444241444433444444144434
BBBBBBAAAAAACCCBBBBBCCCCCCCCCCCCCCCCCCCCCCCCCCCCCC
12244434344421431124132113122111234421212212231343
AAACCCCCCCCCCCBBBBBBBBBBBBAAAABBCCCCAAAAAABBBBBBBB
31211231121212222112421421212212111212314444444244
BAAAAAAAAAAAAAAAAAAAAAAAAAAAAAAAAAAAAACCCCCCCCCCCC
12211124444111221212121244233221121311112111112221
AAAAAAACCCCAAAAAAAAAAAAABBBBBBAAAAAAAAAAAAAAAAAAAA
12211144443414242234244112213211442342342222234444
AAAAACCCBBBBBBBBCCCCCCCAAAAAAAACCBBBBBBBBBBBBBCCCC
13441222241411434433222334322211121223222211221332
BBBBBBBBBBBBBBBBBBBBAAAABCAAAAAAAAAAAAAAAAAAAAAAAA
34413312211122122111221232224444444434444434434131
BBBBBAAAAAAAAAAAAAAAAAAAAAACCCCCCCCCCCCCCCCCCCCCCB
14114344121432141233132431122233442222313224134444
BBBBBBBBBBBBBBBBBBBBBBBBBBBBBBBBBBBBBBBBBBBBBCCCCC
24414244444211233442321414444433431242234411314214
ABBBBBBCCCCCCBBBBBBBBBCCCCCCCBBBBBBBBBBBBBBBBBBBBB
22334313224333431211222123241344242412131324444313
AABBBBBBBBBBBBBBBBBBBBBBBBBBBBBBBBBBAABBBBBCBBBBBB
11122242243122431431424111132314121413144211122311
AAAAABBBBBBBBBBBAAAAABBAAAABBBBBBBBBBBBCCAAAAAAAAA
22121212224341111122441432113311424122432311414444
BBBBAAAABBBBBAAAAAAACCCCCAAABBBBBBBBBBBBBBBBCCCCCC
44441223211333413433244434423344434432344141212334
CCCCAAAAAAABBBBBBCBBBBBBBBBBBBBBBBBBBBBBBBBBABBBBC
11124412444431424421222224234442211141111121114444
AAAACCCCCCCCCACCCCCBBBBBBBBBBBBBAAAAAAAAAAAAAACCCC
44221221112124424112324443232444112412141442212222
AAAAAAAAAAAAABBBBBBBBBBCCCCCCCCCAAAAAAAAAABBAAAAAA
11421141111222123224121221142441424411342114112212
AAAAAAAAAAAAAAAAAAAAAAAAAAACCCCCCCCCBBBBBBBAAAAAAA
11114112242122121212322212322212211121444431222222
AAAAAAAAAAAAAAAABAAAAAAAAAAAAAAAAAAAAACCCBAAAAAAAA
21222212111322212311211111231124211112142431243442
AAAAAAAAAAAAAAAABBBBAAAAAAAAAAAAAAAAAAACCCCAABBCBB
42444221134222112222132423124424441221234331111214
CCCCCCAAAAAAAAAAAAAAAAACCCCCCCACCCCBBBBBCAAAAAAABB
12222211444424441424444122124344144444434444442434
AAAAAAACCCCCCCCCBBACCCCCAAAACCCCCCCCCCCCCCCCCCCCCC
42442421444443313231121212141442311434411244144341
AACCCCCCCCCCBBBBBBBAAAAAABBBBBBBBBBBBBBAAACCCCCCBA
22121111244441444414434143244222344411112441122222
AAAAAAAAACCCCCCCCCCCCCCCBCCCCBBBBBBCCCAAAAAAAAAAAA
11223112122211242111111132111222212121222131134444
AAAAAAAAAAAAAAAAAAAAAAAAAAAAAAAAAAAAAAAAAABBBBBCCC
12243211342342221121231211122341141222434121223212
BBBBBBBBBBBBBBBBBAAAAAAABBBBBBBBBBAACCCCCAAAAAAAAA
42123444443441423443444244433141112143144424222122
BAABCCCCCCCCCCCCCCCCCCCCCCCCCCCAAAAACCCCCCAAAAAAAA
43434234342212122222123212122214444412434442344444
BBBBBBBBBBBAAAAAAAAAAAAAAAAAAAACCCCCCCCCCCCCCCCCCC
41122222222113444444441142443214241342241411112132
CAAAAAAAAAAAAACCCCCCCCAAABBBBBBBBBBBBBBBBBBBBBBBBB
11112112221221444444424442414422144443433243222221
AAAAAAAAAAAAAACCCCCCCCCCCCCCCCCCCCCCCCCCCCCAAAAAAA
42414443444144124344443444344444244323434242444344
BBBBCCCCCCCCCCCCCCCCCCCCCCCCCCCCCCCCCCCCCCCCCCCCCC
33321312211124434233414444234411142114442421114214
BBBBBBBBBBBBBCCCCCCCCCCCCCAACCCCCCCCCCCCCCCCCCCCCC
31311133443442434444444443443132343432121112131212
BBBBBBBCCCCCCCCCCCCCCCCCCCCCBBBBBBBBAAAAAAAAAAAAAA
21121323433133221424333442244343444221142441223212
AAAAABBBBBBBBBBBBBBBBBCCCCCCCCCCCCCAABBBBCCCAAAAAA
24444143244323241424144243321412444244214114121412
ACCCCCCCCCCBBBBBBBBBBBBBBBBBBBBBCCCCCCCCCAAAAAACCC
21442421144121222121122112221212321111112123212211
AACCCCAAACCAAAAAAAAAAAAAAAAAAAABBCCAAAAAAAAAAAAAAA
21221111122212444244444444144444444414344341442242
AAAAAAAAAAAAAACCCCCCCCCCCCCCCCCCCCCCCCCCCCCCCCBBBB
24121121211222221121122124211314343441221211212223
AAAAAAAAAAAAAAAAAAAAAAAAAAAAACCCCBBBBAAAAAAAAAAAAA
22122213433224112343441222442214442444221121121311
AAAAABBBBBCAAAAAACCCCCCCCCCCCCCCCCCCCCAAAAAAAAAAAA
13214412222232322312231234132421211213322411112222
ABBCCCAAAAAABBBBBBBBBBBBBBBBBBBBBBBBBBBBBBAAAAAABB
32123114124324132344431434444424424444444444444444
AAAAAAACBBBBBBBAAACCCCCCCCCCCCBCCCCCCCCCCCCCCCCCCC
31314244424232142444441221141213111321121122214442
BBBBBBBBBBBBBBBBBBCCCCAAAAAAAAAAAAAAAAAAAAAAACCCCC
22212122412111112114212112444234442121244234441243
AAAAAAAAAAAAAAAAAAAAAAAAAACCCCCCCCAAACCCCCCCCCCCBB
12212111443433443444444442434444324234244444444444
AAAAAAAACCCCCCCCCCCCCCCCCCCCCCCCBBCCCCCCCCCCCCCCCC
11113421332323231444444444434443444414441242114412
AAAABBBBBBBBBBBBCCCCCCCCCCCCCCCCCCBBBBBBBBBBBBBCAA
42243224213312421211122143124443144124444444412444
BBBBBBBBBBBBBBBBBBBBBBBBBBBACCCCCCCAACCCCCCCCCCCCC
12222224312211213424444432243144411122221224221122
AAAAAAAAAAAAAAACCCCCCCBBBBBCCCCCCCAAAAAAAAAAAAAAAA
23132444444244444434143334424444444222112111211121
BBBBACCCCCCCCCCCCCCCCCCCCCCCCCCCCCAAAAAAAAAAAAAAAA
24444122442144324221122211112124333144444114344211
ACCCCCCCCCCCCCCAAAAAAAAAAAAAAAACCCCCCCCCCCCCCCCCCC
21323222234212133341114131232112224132132123441422
AAAAAAAAABBBBBABBBBBBBBBBBBBAAAAAABBBBBBBBBBBBBBBB
41214212134114444444444413212134441233321334214412
BBBBBBBBBBBCCCCCCCCCCCCBBBBBBBBBBBBBBBBBBBBBBBCCBB
31223443324443414421122112142243421431123142334431
BBBBBBBBBBCCCCCCCCAAAAAAAAAAABBBBBBBBBBBBBBBBBBBBB
32242314133434232121112222121434121332231221444414
BBBBBBBCBBBBBBBBAAAAAAAAAAAAAAAAAAABBAAAAAAACCCCCC
11223222121122124221214144432244444244444241324442
AAAAAAAAAAAAAAAAAAAAAAABBBBBBBBBBCCCCCCCCCCCCCCCCC
11112132221311111121114444221322242243212111122111
AAAAAAAAAAAAAAAAAAAAAACCCAAAABBBBBBBBBAAAAAAAAAAAA
43221112222322111231412121122132411112142424214244
CCAAAAAAAAAAAAAAAAAAAAAAAAAAAAAACAAAAAACCCCCAACCCC
21142424431411443424242231111324344123111424444432
AAAAABBBBBBBBBBCCCCCBBABBBBBBBBBBBBBBBAAACCCCCCCBB
22122131222243112121112122144222211414443131312211
AAAAAAAAAAAAAAAAAAAAAAAAAACCCAAAAAACCCCCBBBBBBAAAA
11111434114211112121124141443411221221444443111112
BBBBBBCCAAAAAAAAAAAAAABBBBBBBBBBBBBBBBCCCCCCAAAAAA
22121143122132214222332143341212224114213444142212
AAAAAAAAAAAABBBBBBBBBBBBBBBBBAAAACCCCCCCCCCBBBBCAA
22122242342321222111224444241222343444444242211144
BAAAABBBBBBBAAAAAAAAAACCCCCCAAAAACCCCCCCCCCCCAAACC
32314221424444444444442411112211121142334431222223
BBBBBBBAAACCCCCCCCCCCCCCAAAAAAAAAAAABBBCCBBAAAAAAA
21122221221142414444213432124221222123224221444443
AAAAAAAAAABCCCCCCCCCBBBBBBBBBBBAAAAAAAAAAAAACCCCCC
11122332422124132344233214123434244422444422141444
AAABBBBBBBBBBBBBBBBBBBBBBBBBBBBBBCCCCCCCCCBCCCCCCC
23112234121111311312221211144444444323343322133341
BBBBBCCAAAAAAAAAAAAAAAAAAAACCCCCCCCBBBBBBBBBBBBBCC
32114144124341443421144444444344444441421212144444
BBBBBBBBBBCBBBBBBBBBBCCCCCCCCCCCCCCCCCCAAAABBCCCCC
21211134244444414123444314441111414433323421144334
AAAAAACCCCCCCCCCCCCCCCCCCCCCCCAABBBBBBBBBBBBBBBBBB
44444414112114444134441442444144234444421442444343
CCCCCCCCCCCCCCCCCCCCCCCCCCCCCCCCCCCCCCCACCCCCCCBBB
21122114111212112122222121111121222222221111111211
AAAAAAAAAAAAAAAAAAAAAAAAAAAAAAAAAAAAAAAAAAAAAAAAAA
