244143312114332323112411312222
BBBBBBBBBBBBBBBBBBBBBBBBBBBAAA
111121341442344111224341242314
AAAAAACCCCCCCCCCAABBCCCCCCCCCC
212142444432134431212444444444
AAAACCCCCCAAABBBBBBBBCCCCCCCCC
244424323124414441431243312214
ACCCAABBBBBBBBBBBBBBBBBBBBBBBB
442434441444442444244114134112
CCCCCCCCCCCCCCCCCCCCCCCCBBAAAA
244431414444214422234322223233
ACCCCCCCCCCCBBBBBAABBBBBBBBBBB
211422211212112111222122221211
AAACAAAAAAAAAAAAAAAAAAAAAAAAAA
234414314342344331214123411431
BBBBBBBBBBBBBBCCBBBBBBBBBBBBBA
112111122214123444214323332111
AAAAAAAAABBBBBBBBBBBBBBBBAAAAA
413244311221212212221122311113
BBBBBBBBAAAAAAAAAAAAAAAAAAAAAA
211222241212444413424214411234
AAAAAAAAAAACCCCCCBBBBBBBBBBBBB
243424311211334434444434444212
ABBBBBBBBBBBBCCCCCCCCCCCCCCAAA
211144444242131233133424124432
AAAACCCCCCCBBBBBBBBBBBBBBBCCBB
442112112212222211221231324211
CCAAAAAAAAAAAAAAAAAAAAAAAAAAAA
244444442221111121413434443341
CCCCCCCCAAAAAAABBBBBBBBBBBBBBB
121121334244441421111112111114
AAAAABBBBBBCCCCCAAAAAAAAAAAAAB
413441124324424424331422221221
ABBBBBBBBBBCCCCCCBBBBBBAAAAAAA
224442234242213233324241233212
BBBBBBBBBBBBBBBBBBBBBBBBBBBBBB
122121222221112121124122142211
AAAAAAAAAAAAAAAAAAAAAAAAAAAAAA
213231134442211211122122224324
BBBBBBBBCCCAAAAAAAAAAAAAAAACCC
232422444444444444414244433413
BBBBBBCCCCCCCCCCCCCCCCCCCCCCCC
121134431121231422111111224412
AAAACCCBAAAAAAAAAAAAAAAAAAAAAA
141114423111121342211221322224
AAAAAAAAAAAAAAAAAAAAAAAABBBBBB
214444444444442244441444432321
AACCCCCCCCCCCCCCCCCCCCCCCBBBBB
132334244112211421113441232112
BBBBBBBCCAAAAAAAAAAAACCAAAAAAA
222411112111112211131211114322
AAAAAAAAAAAAAAAAAAACCAAAAABBBA
211334341221433334411333122322
ABBBBBBBBBBBBBBBBBBBBBBBBAAAAA
432332231212344244414443442412
BBBBBBBBBBBBBCCCCCCCCCCCCCCCCC
112444444443434424443444444243
AAACCCCCCCCCBBBBBBCCCCCCCCCCBB
242111144213122414444431444444
ACAAAACCBBBBBBBBBBCCCCCCCCCCCC
112213122112111411241434444422
AAAAAAAAAAAAAAAAAAACCCCCCCCCCC
432211234444441221212221141211
CCAAAAACCCCCCCAAAAAAAAAAAAAAAA
423121114132111211133211221213
AAAAAAAABBBBBBBBBBBBBAAAAAAAAA
234211121431111322214221411121
BBBBCCBAAAAAAAAAAAAAAAAAAAAAAA
111234314224314414444444344144
AAAAABBBBBBBBBCCCCCCCCCCCCCCCC
111422112112222221212111244431
AAAAAAAAAAAAAAAAAAAAAAAAACCCCC
343241122132233333144144311442
BBBBBBBBBBBBBBBBBBBBBBBBBAACCC
212112224122233311111124244441
AAAAAAAAAAAAAABBAAAAAAACCCCCCC
221434231312112212122414131122
BBBBBBBBBBAAAAAAAAAAAAAAAAAAAA
212221421431122122121214444444
AAAAAAAAAAAAAAAAAAAAAAACCCCCCC
222132421111122122122212122222
AAAACCCAAAAAAAAAAAAAAAAAAAAAAA
331244413124412211121344141441
BBBBBBBBBBBBBAAAAAAAAAABBBBCCC
114434443122332114322221211121
ABCCCCCCBBBBBBAAACBAAAABBAAAAA
121231221212122121211242111444
AAAAAAAAAAAAAAAAAAAAAAAAAAACCC
124214343142443332211222124122
AABBBBBBBBBBBBBBBBAAAAAAAAAAAA
212211212212232213421122421441
AAAAAAAAAAAAAAAAAAAAAAAABBBCCA
124222121111112423212111432143
AAAAAAAAAAAAAAABBBBBBBBBBBBBBB
124223121112221434124414442213
BBBBBBBBBBBBBBBBBBBBBCCCCCAAAA
344434222244142212424244322243
CCCCCCAAAABBBBBBBBBBBBBBBBBBBB
221421422331221112421122222123
AAAAAAABBBBAAAAAAAAAAAAAAAACBB
211114212211211112112112341111
AAAAAAAAAAAAAAAAAAAAAACABBAAAA
314422322223224444424433143111
BCCCBBBBBBBBBBCCCCBBBBBBBBBBBB
212222112111141221213124234412
AAAAAAAAAAAACBBBBBBBBBBBBBBBBB
112212213211211212244134343444
AAAAAAAAAAAAAAAAAAACCCCBCCCCCC
222122213211212121221221213221
AAAAAAAAAAAAAAAAAAAAAAAAAAAAAA
131223314344334213413333431242
BBBBBBBBCCCCCCBBBBBBBBBBBBBBBB
214224112214213421124321432232
AAAAAAAAAAAABBBBBBBBBBBBBBBBBB
431132323411434444411214424313
CCBBBBCCCCCCCCCCCCCAAAACCCCCCC
412143434143212213112111111411
BBBBBCCCCCCCAAAAAAAAAAAAAAAAAA
241413444444444324422111121111
BBBBBBACCCCCCCCCCCCCAAAAAAAAAA
441244444444444423443243344414
CCCCCCCCCCCCCCCCCCCCCCCCCCCCCC
422212111222112444441212221111
AAAAAAAAAAAAAAACCCCCAAAAAAAAAA
434444414444432221324344244413
BBCCCCCCCCCCCCAAABBCCCCCCCCCCC
324211312432112431111412121131
BBBBBBBAAAAAAAAAAAAAAAAAAAAAAA
211121334311122211111112122112
BBBBBBBBBBAAAAAAAAAAAAAAAAAAAA
243441344111143434443343441244
ACCCCCCCCCCCCCCCCCCBBBBBBBBBCC
221141244444444414424444313212
ABBBBBCCCCCCCCCCCCBBBBBBBBBBBB
244344334434344444441444412444
ACCCCCCCCCCCCCCCCCCCCCCCCCCCCC
244443124244144422423444414341
BBBCCCCCCCCCCCCCCCCCCCCCCBBBBB
321142414442212211111112122114
BBAABBCCCCCAAAAAAAAAAAAAAAAAAA
344123444334231213222241122244
BCCCBBCCCCCCCCABBCCAAAAAAAAACC
124224444444143121112111112322
BCCAACCCCCCCAAAAAAAAAAAAAAAAAA
331244444123131141424444121131
BBBBCCCCCBBBBBBBAACCCCCCAAAAAA
311122111124142134414444442112
AAAAAABBBBBBBBBBBCCCCCCCCCAAAA
444112211234144444443214412443
CCCAAABBBBCCCCCCCCCCCBBBBBBBBB
222341431414121121222112112423
BBBBBBBBBBBBBAAAAAAAAAAAAAABBB
344124321121122342323114412134
BBBBBBBBAAAAAAAAAABBBAABBBBBBC
434214334342144144224313342322
BBBBBBBBBBBBBBBBBBBBCBBBBBAAAA
222323444331122422212122422421
BBBBBBBBBBBAAAAAAAAAAAAAAAACCA
123222143434444444242444444423
BBCAAAACCCCCCCCCCCCCCCCCCCCCCC
221114313234322333214344123331
BBBBBBBBBBBBBBBBBBBBBBBBBBBBBA
223311112134121114433424212244
BBBBBBAAAAAAAAAAACCCCCCCAAAACC
111212113414444422124443143334
AAAAAAAACCCCCCCCCBBBBBCCCCCCCC
332121211122214233344224144212
AAAAAAAAAAAAAACCBBBBBBBBBBBBBB
422222212112211221123244111121
AAAAAAAAAAAAAAAAAAAAAACCAAAAAA
122212222233424144434443224444
AAAAAAAAABBBBBBBBBCCCCCAAACCCC
312214234441424443112121111213
AAAAAAAACCCCCCCCBBAAAAAAAAAAAA
444143444444441321112121211434
CCCCCCCCCCCCCCAAAAAAAAAAAAAABC
211442242113112111122212112444
AAACCCCCCAAAAAAAAAAAAAAAAAAACC
321124434444444144341321341423
BBCCCCCCCCCCCCCCCCCCCBBBBBBBAA
432124141111223144224332443434
AAAAAAAAAAAAAABBBBBBBBBBBBCCCC
111223442124211141434331443311
AAAAACCCAAAAAAAACCCCCBBBBBBBBB
312344441434441112212111211133
BBBBBCCCCCCCCCBBAAAAAAAAAABBBB
234211111222211212233132442243
ABBBBBAAAAAAAAAAAAAABBBBBBBBCC
122111121221121421122112112443
AAAAAAAAAAAAAAAAAAAAAAAAAAACCC
412412422211433142124444423434
BBACAAAAABBBBBBBBBBBBCCCCBBBBC
244343414334444424444434444414
ACCCCCCCCCCCCCCCCCCCCCCCCCCCCC
211222121242232241124431431124
AAAAAAAAAAAAAAAABBBBBBBBBBBBBB
244133324444212144243134413132
AABBBBBBCCCCBBBBBBBBBBBBBBBBBB
444122131222122412131122224341
CCCAAAAAAAAAAAAAAAAAAAAAAACCCC
212111222141112444444444443441
AAAAAAAAAAAAAAACCCCCCCCCCCCCCC
121111212124432311144232112222
AAAAAAAAAAABBBBBBBABBBBBBBBBBB
112211121121212111342243212244
AAAAAAAAAAAAAAAAAAAAAAAAAAACCC
122212221122211221212144334234
AAAAAAAAAAAAAAAAAAAACCCCCCCCCC
424334411211342331332122243341
BBBBBBBBBAAABBBBBBBBBBBBBBBBBB
223141114223211211114213112112
BBBBBBBBBBBBAAAAAAAAAAAAAABAAA
121122122111444441244424232442
BBBBBBBAAAAAACCCCCCCCCBBBAACCB
224444344244141432444221212322
BBCCCCCCCCCCCCCCCCCCCAAAAAAAAA
222111122111211222141444341443
AAAAAAAAAAAAAAAABBBBBBBBBBBBBB
444444224143144331241312222222
CCCCCCCCCCCCCCBBBBBBBAAAAAAAAA
223221414213221122134431441423
AAAAAAAAAAAAAAAAABBBBBBBBBBBBB
412132143232111443441313414322
BBBBBBBBBBBBBBABBBBBBBBBCCCCCC
112211211112424212224231122144
AAAAAAAAAAAAAAAAAAAAAAAAAABBBB
342414444444434441111241224424
BBBBBCCCCCCCCCCCCAAAACCCCCCCBB
421422141342414111322124121322
BBBCAABBBBBBBBBBBBBBBBBBBBBBBB
142334121111112121224414332141
BBBBBBBBBBAAAAAAAAABBBBCCBBBCC
411221334343123212233242112442
BBBBBBBBBBBBBBBAAABBBBBAAAABCB
222434121214444344141444112111
BBBBBBBBAAACCCCCCCACCCCCAAAAAA
444212444444432241342444414334
BBBBBBBCCCCCCCCCCCCCCCCCCCCBBB
144424242214321214432422221112
ACCCCCBCCBBCCAAAACCBBBBBBBAAAA
122322211114213121111432441241
AAAAAAAAAAAAAABBBBBBBBBBBBBBBB
124444421122312212111144444411
AABCCCCAAAAAAAAAAAAAAACCCCBBAA
144314444443412212121113111322
ACCCCCCCCCCCCAAAAAAAAAAAAAAAAA
111111222122112244422421233321
AAAAAAAAAAAAAAAACCCBBBBBBBBBBB
114421421313221244121144234412
BCCCCCCCCBBBBBBBBBBBBBBBBBBBBB
122122212144422211114221112112
AAAAAAAACCCCCCAAAACCAAAAAAAAAA
342231424214244311321424222244
BBBBBBBBBBBCCCCBBBBBBBBBBBACCC
331233314422324442322231312133
BBBBBBBBBCBBBBBBBBBBBBBBBBBBBB
211112243314432422444411211244
AAAAAAAACBBBCCCCCCCCCCAAAAAACC
121223141221121442422212132121
AAAAAAAAAAAAAACCCCCAAAAAAAAAAA
221424444243234241114444244421
AACBBCCCCCCCCCCCCCCCCCCCCCCCCC
221342412341442211414414321422
BBBBBBBBBBBBBBBBBBBBBBBBBBBBBB
421221211124412341334312111342
AAAAAAAAAAACCBBBBBBBBBBBBBBBBB
211221443112341221444143444444
AAAAAACCBBBBBBBBBBBBBBBBBCCCCC
112211221213144242432331442214
AAAAAAAAAAABBBBBBBBBBBBBCCCAAA
111342113243413441211241444213
BBBBBBBBBBBBBBBBBAAAACCCCCCCBB
321441144421444434114344421134
AAACCAACCCCCCCCCCCCCCCCCCBBBBB
442223112212324421212214434442
CCAAAAAAAAAABCCCAAAAAAACCCCCCC
113342124442413341324122322441
BBBBBBBBBBBBBBBBBBBBBBBBBBBBBB
411124434444414344414423443122
AABBBBCCCCCCCCCCCCCBBBBBBCCAAA
423112444444433424131444344444
BBBBCCCCCCCCCCCCCCCCCCCCCCCCCC
323324432232221213221444442443
BBBBBBBBBBBAAAAAAAAAACCCCCCCCC
134413114444424221111442411212
BBBBBBBCCCCCCCCCAAAAACCAAAAAAA
214421242222232444244331434112
AACCAAAAAAAAABBBBBBBBBBBCCCBBA
112211232111444122141121132142
AAAAAAAAAAAACCCCBBBBBBAAAAABBB
221212124341432444441444414443
AAAAAAABBBBBBBBBBCCCCCCCCCCCCC
111442443442444333422324444444
AAACCCCCCCCCCCCCBBBBCCCCCCCCCC
241411144444121122224111212424
AAAAAAACCCCCAAAAAAAAAAAAAAACCC
342111134211121122112122222343
AAAAAAAAAAAAAAAAAAAAAAAAAAAACC
313111314224224423232133341211
BBBBBBBBBBBBBCCCBBBBBBBBBAAAAA
214434114441113121124443443443
AACCCCAACCCAAAAAAAAACCCCCCCCCC
223211121112123221111142111424
AAAAAAAAAAAAAAAAACCAAAAAAAABBB
111234232224413223234442444442
AAABBBBBBBBBBBBBBBBBCCCCCCCCCC
121121241244411111212233431141
AAAAAABBBCCCCAAAAAAAAABBBBBBBB
132413232311234313244233223124
BBBBBBBBBBBBBBBBBBBBBBBBBBBAAA
222131111113412114224242412414
AAAAAAAACCBBBBBBBBBBBBBBBBBBBB
122234444412421143234212121244
AAAACCCCCCAABBBBBBBBCCAAAAAACC
211124122444423431133223222343
AAAAAAAAACCCCABBBBBBBBBBBBBBBB
234123144331444444444441112442
BBBBBBACCCCCCCCCCCCCCCCAAAACCC
242332242442422144222131222434
ABBBBBBBBBBBBBBBBBAAABBBBBBBBB
421244321122121112211442444444
BBBBBBBAAAAAAAAAAAAAACCCCCCCCC
431414414113214423341442442431
BBCCCCCCCBBBBBBBBBCCCCCBBBBBBB
244444341442341222111122222311
BBCCCCBBBBBBBBBBAAAAAAAAAAAAAA
244144444444444444221132133431
CCCCCCCCCCCCCCCCCCCCBBBBBBBBBB
212111444441111121333344341212
AAAAAACCCBBAAAAAABBBBBCCCCCAAC
244431344444113432114444443434
CCCCCCCCCCCCCCCCCCCCCCCCCCCCCC
421112111222312111242131222112
BBAAAAAAAAAAAAAAAAAAAAAAAAAAAA
211211212241212121212221232211
AAAAAAAAAAAAAAAAAAAAAAAABBBBBB
123444344423414442312423444441
BBBCCCCCCCCCBBCCCBBBBBBCCCCCCC
133332133333434443442121322413
BBBBBBBBBBBBBBCCCCCCAABBBBBBBC
421343142213441243141144244434
BBBBBBBBBBBBBBBBBBBBBBBCCCCCCC
334444424444443412423214244414
BCCBCCCCCCCCCCCCCCCCCCCCCCCCCB
312411312121224341243142422232
AAAAAAAAAAAAABBBBBBBBBBBBBBBBB
221222221212441334442332114221
AAAAAAAAAABBBBBBBCCCBBAAAAAAAA
233213142114212113241444443414
ABBBBBBBAAAAAAAAAAACCCCCCCCCBB
112222221111211211414221234322
AAAAAAAAAAAAAAAAABBBBBBBBBBAAA
111244143213114244441143212122
CABACCCCBBBBBBBBCCCCCCBBBBBBBB
423113241231322133142342242211
BBBBBBBBBBBBBBBABBBBBBBBBBBBBB
212122112212122113221222321132
AAAAAAAAAAAAAAAAABBBAAAAAAAAAA
121132414324114242112141111221
BBBBBBBBBBBBBBBCCAAAAAAAAAAAAB
142222223444234244444244444243
CCAAAAABBBAAACCCCCCCCCCCCCCCCC
111242414212221211312421444444
AAAACACAAAAAAAAAAABBBBAACCCCCC
414311112233114224214433322144
BBBBBBBBBBBBBBBBBBBBBBBBBBBBCC
114113212211124411211114111421
AAAAAAAAAAAAAACCAAAAAAAAAAAAAA
144441214442122342444344444444
BBBCCCAACCCAABBBBBBBBCCCCCCCCC
444441313143214422144411124121
CCCCCBBBBBBBBBBBBBBBBBBBBBCAAA
422431142332424441313412143113
BBBBBBBBBBBBCCCCCCCCCCBAAAABBB
212211222212244144221213444444
AAAAAAAAAAAAAACCCCCAAAAACCCCCC
143242144441214444411133221142
BBBBBBBBCCCCCCCCCCCAAAAAAAAAAA
112434334343114122212244431112
AAABBBBBBBBBBBCAAAAAAACCCCCBBA
124244244444222122143434442441
AACCCCCCCCCCAAAAAAABBCCCCCCCCC
424341444323444444121414322222
BBBBCCCCCCCCCCCCCCCBACCCBBBBBB
121121124211232221212231212134
AAAAAAAAAAAAAAAAAAAAABBBBBBBCC
421242322432214144244444444244
CCCCCBBBBBBBBBBBBBBBCCCCCCCCCC
422314443244444431244342444412
BBBBBBCCCCCCCCCCCCCCCCCCCCCCBB
241433113424243334343321233414
BBBBBBBBBBBCCCBBBBBBBBBBBBBBBB
121112144444443442434444412443
AAAAAACCCCCCCCCCCCCCCCCCCBBBBB
141112224413341414444434334242
AAAAAABBBBBBCCCCCCCCCCCCCCCCCA
222121221133341213111111131421
AAAAAAAAAAAAAAAAAAAAAABBBBBBBB
122424221221141121124444444321
AAAACCAAAAAAAAAAAAAACCCCCCCCBB
111131222221212122122121211121
AAAAAAAAAAAAAAAAAAAAAAAAAAAAAA
222222211244424423321242122411
AAAAAAABBACCCCCBBBBBBBBBBACCBB
212131142111334314231411114434
AAAAABBBBBBBBBBBBCABBBAAAACCCC
244414442413333444222434244442
BBBBBBBBBBBBBBBBBBBBBBBBCCCCCC
222211231121213111431333121131
AAAAAAAAAAAAAAAAAAAABBBBBBBBBB
122112224443432321433234334444
BBBBBBBBBBBBBBBBBBBBBBBCCCCCCC
112132221421231122411411312222
CAAAAAAAAAAAAAAAAAAAAAAAAAAAAA
112213322423444344444444444141
AAAABBBBBBBCCCBBCCCCCCCCCCCCCC
113231341324211121443144444324
AABBBBCCAAACCAAABCCCCCCCCCCCCC
222133114424222324421221112444
BBBBBBBBBBBBAAAAACCAAAAAAAACCC
211232111211232331324434441112
AAAABAAAAAAABBBBBBBBBBCCCCAAAA
444424441444434124444233131344
CCCCBBBCCCCCCCCCACCCCCBBBBBBBB
112311222231114122121244444343
AAAAAAAAAAAAAACCCAAAACCCCCCCCC
121221112211221441141444441231
AAAAAAAAAAAAAACCCCCCCCCCCCCBBB
132112211211312112322133122212
AAAAAAAAAAAAAAAAAAAAAABBBBAAAA
444342442112111111224214424424
CCCCCCCCAAAAAAAAAAAACCCCCCCCCB
344214111211114121223311112211
ABBBBBBBBBBBBBBBBAABBBBAAAAAAA
423123441112242334434424121141
BBBBBBBBBBBBBBBBBBBBCCCCBBBBBB
212221212442111144211121212112
AAAAAAAABCCCAAAAAAAAAAAAAAAAAA
122212122121123212122244424342
AAAAAAAAAAAAAAAAAAAAAACCCCCCCC
112421113321444444443142441112
AAAAABBBBBBBBBCCCCCCCCCCCCACAA
121214212142132211211344434222
AAAAAAAAAAAAAAAAAABBBBCCCCCAAA
112123212144444412422124121221
AAAAAAAAAACCCCCCAAAAAAAAAAAAAA
222212222444321411144141224414
AAAAAAAAACBBBAAAAAAACBBBBBBBBB
133444443114324232122121212144
AAAACCCCCBBBBBBBBAAAAAAAAAAACC
112112131112212434143323232434
AAAAAAAAAAAAAAACCCCCCCCCCCCCCC
221244441244441444444443423443
AAAACCCCCCCCCCCCCCCCCCCCCACCCC
112431212321122222122111412222
AABBBAAAACAAAAAAAAAAAAAAAAAAAA
222222214324432112441241124124
AAAAAAAABBBBBBBBBBBBBBBBBBBBBB
443414444344344314414444444421
BCCCCCCCCCCCCCCCCCCCCCCCCCCCCC
211111221231241112112322132222
CCAAAAAAAAAAAAAAAAAAAAAAAAAAAA
144442221112124211212224133442
CCCCBBBBBBBBBACAAAAAAAABBBBCBA
112111222221422423211442441212
AAAAAAAAAAABBBBBBBBAABBCCBBBBB
121222111143124412211122224122
AAAAAAAAAAAAAACCCAAAAAAAAAAAAA
211122312223443323114411413222
AAAAAAAAAAABBBBBBBBBBBBBBBBAAA
122331113344441412411444443424
AAABBBBBBCCCCCCCCCCCCCCCCCCCCC
112322433111442342234144232441
AABBBBBBBBBBBBBBBBBBBCCCCCCCCC
422433434444441414443444334211
CBCCCCCCCCCCCCCCCCCCCCCCBBBBBB
213344131422433432244413331112
BBBBBBBBBBBBBBBBBBBBBBBBBBBBBB
111123234221444444434222112112
AAAAAAAAAAACCCCCCCCCCABBAABBBB
144421144444244441213224321443
CCCCAAACCCCCCCBBBBBBBBBCCCCCCB
142242442414244444231134121242
BBBBBBBBBBBCCCCCCCCCCCCCAAAABB
421441313241112422221311222234
BBBBBBBBBBBAAAACAAAAAAAAAAAAAA
444444444444244444243234121322
BCCCCCCCCCCCCCCCCCABBBBBBBBBBA
144442443434443434442444221224
BCCCCCCCCCCCCCCCCCCCCCCBBBBBCC
233221131314113113114121243241
BBBBBBBBBBBCBBBBBBBBBBBBBBBBBB
222121112121244434442143444122
AAAAAAAAAAAAACCCCCCCCCCCBCCCCC
211422132111231123412432444111
AAAAAAAAAAAAABBBBBBBBBCCCCCCAA
224221123222434111212124313142
AAAAAAAAAAAABBBBAAAAAAACAAAACC
312412142323422244421312231443
BBBBBBBBBBBBBBBBCCCAABBBBBBBBB
334444444441432143124434443244
BBCCCCCCCCCCCAAACCAACCCCCCCCCC
212221123241412434141144444414
AAAAAAABBBBBCCCCCCBBBBCCCCCCCC
111221121243141121113131124444
AAAAAAAAAACCCCAAAAAABABBBBBBBB
111114444434444314442441414243
AAAAABBCCCCCCCCCCCCCCCCCCCCCCC
211243121211411241241111333343
AAABBBBBBBBBBBBBBBBBBBBBBBBBBB
114211123212213441111142122232
AAAAAAAAAAABBBBBBBBAAACAAAAAAA
142133214421324444221211122413
ABBBBBBBBBBBBBBBBBBAAAAAAABBBB
431242132444424332344222143343
BBBBBBBBBCCCAACBBBBBBBBBBBBBBB
111232324433344234431231244121
AAAAAAABBBBBBBBBBBBBBBBBBCCAAA
442411112111112434124442244444
CCCAAAAAAAAAACCCCCCCCCCAACCCCC
414243413213234143142421434244
BBBBBBBBBBBBBBBBBBBBBBBBBBBBBB
222444222222222114444344244444
AAABBBAAAAAAACCCCCCCCCCCCCCCCC
212212431114122121114411114414
AAAABBBBAAAAAAAAAAAACCAAACCBBB
141122444444444444444444444442
AAAAAAACCCCCCCCCCCCCCCCCCBBBBB
221312112211211412212222111112
AAAAAAAAAAAAAABBAAAAAAAAAAAAAA
122222412221212121111241121211
AAAAAAAAAAAAAAAAAAAAAAAAAAAAAA
422111111212111122222213213231
BBBBAAAAAAAAAAAAAAAAAABBBBBBBB
111121131221331344424444143232
AAAAAAAAAAACCCCCCCCCCCCCCCBBBB
222111133334342434311343412123
BAAAABBBBBBBBBBBBBBBBBBBBBBBBB
411331431221222344233112222211
BBBBBBBBBBBBBBBBBBBBBAAAAAAAAA
112212222411224424114212134241
AAAAAAAAAAAAAAABBBBBBBBBBBBBBB
214133434113343411111444424112
BBBBBBBBBBBBBCCCAAAACCCCCCCAAA
324434224114314444414142423444
BBBBBBBBCCCCCCCCCCCCCCCCCCCCCC
121422322122214224221221112211
AAAAAAAAAAAAAAAAAAAAAAAAAAAAAA
241432222224322221111222231444
BBBBBBBCAAAAAAAAAAAAAAAAAAACCC
221221111212323344414344444411
AAAAAAAAAAAAABBBBCCCCCCCCCCCAA
244444444441444441344242444444
CCCCCCCCCCCCCCCCCCCCCCCCCCCCCC
314434434441124112132111243444
CCCCCCCCCCCAAAAAAAAAAAAAACCCCC
312313224423131442114222223144
AAABBBBBBBBBBBBBBBBBBAAAAAAACC
144434124342444211232222112222
CCCCCCCCCCCCCCCAAAAAAAAAAAAAAA
131233221122221134424443444422
BBBAAAAAAAAAAAAACCCCCCCCCCBBBB
122211122224111212212211122212
AAAAAAAAAAAAAAAAAAAAAAAAAAAAAA
332221221212121421444443212211
CAAAAAAAAAAAAAAAAACCCCCCAAAAAA
441212123123111221122123222221
CCAAAAAAAAAAAAAAAAAAAAAAAAAAAC
332444143114244143122442121114
AAACCCCBBBBBBBBBBBAAACAAAAAAAA
334222234314444114114232212243
BBBBBBBCCCCCCCCCCCCCCBBBBBBBBB
131212221222114441244434424433
AAAAAAAAAAAAAACCCCCCCCCCCCCCCC
414142444234314341222211222211
BBBBCCCCCCCCCCCCCCAAAAAAAAAAAA
111121412444444434424424312211
AAAAAABCCCCCCCCCCCCBBBBCCAAAAA
321221121421221211222221411444
AAAAAAAAAAAAAAAAAAAAAAAAAAACCC
144444441212321412224122243122
CCCCCCCAAAAAAAAAABBBBBBBAAAAAA
344114334434311134322221232212
AAAAABBBCBBBBBBBBBBBBBAAAAAAAB
433444213112342114444344434444
CCCCCCBBBBBBBCCCCCCCCCCCCCCCCC
121211413211224343221222123132
AAAAAAAAAAAACCCCCCAAAAAAAACCCC
121124111134421142431422421113
AAAAAAAAAABBBBABBBBBBBBAAAAAAA
122123322221214212224334233234
BAAAAAAAAAAAABBBBBBBBBBBBBBBBB
121433312211442322424444434244
BBBBBBBBAAABBBBBBBBCCCCCCCCCCC
434413344443444241211112211111
BBBBBBBBCCCCCCCCCAAAAAAAAAAAAA
433433112423414414234432331232
BBBBBBAAAAABBBBBBBBBBBBBBBAAAA
122441442444144444244434444331
AAACCCCCCCCCCCCCCCCCCCCCCCCABB
