	Correctness:	0.0700
	Correctness:	0.0800
	Correctness:	0.0600
	Correctness:	0.0900
	Correctness:	0.1000
	Correctness:	0.1800
	Correctness:	0.0300
	Correctness:	0.0500
	Correctness:	0.0800
	Correctness:	0.1000
	Correctness:	0.1200
	Correctness:	0.0900
	Correctness:	0.0900
	Correctness:	0.1350
	Correctness:	0.1150
	Correctness:	0.0800
	Correctness:	0.1450
	Correctness:	0.1250
	Correctness:	0.0650
	Correctness:	0.0800
	Correctness:	0.0675
	Correctness:	0.1050
	Correctness:	0.0575
	Correctness:	0.1050
	Correctness:	0.0875
	Correctness:	0.1275
	Correctness:	0.0875
	Correctness:	0.0525
	Correctness:	0.0825
	Correctness:	0.1075
	Correctness:	0.0737
	Correctness:	0.0875
	Correctness:	0.0875
	Correctness:	0.1037
	Correctness:	0.0762
	Correctness:	0.0712
	Correctness:	0.0512
	Correctness:	0.0862
	Correctness:	0.0850
	Correctness:	0.0925
	Correctness:	0.0800
	Correctness:	0.0900
	Correctness:	0.0731
	Correctness:	0.1125
	Correctness:	0.1019
	Correctness:	0.0688
	Correctness:	0.0925
	Correctness:	0.0850
	Correctness:	0.0750
	Correctness:	0.0856
Average:	0.0889
	Correctness:	0.0700
	Correctness:	0.0900
	Correctness:	0.0600
	Correctness:	0.0900
	Correctness:	0.1000
	Correctness:	0.1800
	Correctness:	0.0500
	Correctness:	0.0700
	Correctness:	0.0800
	Correctness:	0.1000
	Correctness:	0.1600
	Correctness:	0.0900
	Correctness:	0.0900
	Correctness:	0.1300
	Correctness:	0.1150
	Correctness:	0.1000
	Correctness:	0.1550
	Correctness:	0.1250
	Correctness:	0.0850
	Correctness:	0.0750
	Correctness:	0.0825
	Correctness:	0.1100
	Correctness:	0.0575
	Correctness:	0.1050
	Correctness:	0.0925
	Correctness:	0.1425
	Correctness:	0.0925
	Correctness:	0.0625
	Correctness:	0.1050
	Correctness:	0.1175
	Correctness:	0.0862
	Correctness:	0.1025
	Correctness:	0.0950
	Correctness:	0.1212
	Correctness:	0.0988
	Correctness:	0.0887
	Correctness:	0.0563
	Correctness:	0.0988
	Correctness:	0.0900
	Correctness:	0.1000
	Correctness:	0.0844
	Correctness:	0.0994
	Correctness:	0.0862
	Correctness:	0.1175
	Correctness:	0.1144
	Correctness:	0.0800
	Correctness:	0.1050
	Correctness:	0.0963
	Correctness:	0.0850
	Correctness:	0.0969
Average:	0.0977
	Correctness:	0.9000
	Correctness:	0.9200
	Correctness:	0.9500
	Correctness:	0.9000
	Correctness:	0.8900
	Correctness:	0.7900
	Correctness:	0.9400
	Correctness:	0.9200
	Correctness:	0.9300
	Correctness:	0.9100
	Correctness:	0.8450
	Correctness:	0.8950
	Correctness:	0.9150
	Correctness:	0.8850
	Correctness:	0.8800
	Correctness:	0.8950
	Correctness:	0.8550
	Correctness:	0.8700
	Correctness:	0.9100
	Correctness:	0.8950
	Correctness:	0.9125
	Correctness:	0.8800
	Correctness:	0.9475
	Correctness:	0.8975
	Correctness:	0.9050
	Correctness:	0.8600
	Correctness:	0.9050
	Correctness:	0.9400
	Correctness:	0.9050
	Correctness:	0.8800
	Correctness:	0.9150
	Correctness:	0.8962
	Correctness:	0.9087
	Correctness:	0.8775
	Correctness:	0.8962
	Correctness:	0.9100
	Correctness:	0.9425
	Correctness:	0.9000
	Correctness:	0.9062
	Correctness:	0.9012
	Correctness:	0.9150
	Correctness:	0.9000
	Correctness:	0.9131
	Correctness:	0.8844
	Correctness:	0.8862
	Correctness:	0.9194
	Correctness:	0.8962
	Correctness:	0.9044
	Correctness:	0.9131
	Correctness:	0.9025
Average:	0.9003
	Correctness:	0.9000
	Correctness:	0.9400
	Correctness:	0.9500
	Correctness:	0.9000
	Correctness:	0.8900
	Correctness:	0.7900
	Correctness:	0.9600
	Correctness:	0.9400
	Correctness:	0.9300
	Correctness:	0.9100
	Correctness:	0.8850
	Correctness:	0.9150
	Correctness:	0.9150
	Correctness:	0.8850
	Correctness:	0.8800
	Correctness:	0.8950
	Correctness:	0.8650
	Correctness:	0.8800
	Correctness:	0.9300
	Correctness:	0.9350
	Correctness:	0.9275
	Correctness:	0.8800
	Correctness:	0.9475
	Correctness:	0.8975
	Correctness:	0.9100
	Correctness:	0.8750
	Correctness:	0.9100
	Correctness:	0.9500
	Correctness:	0.9050
	Correctness:	0.8900
	Correctness:	0.9275
	Correctness:	0.9113
	Correctness:	0.9163
	Correctness:	0.8900
	Correctness:	0.9187
	Correctness:	0.9225
	Correctness:	0.9475
	Correctness:	0.9150
	Correctness:	0.9137
	Correctness:	0.9087
	Correctness:	0.9206
	Correctness:	0.9094
	Correctness:	0.9269
	Correctness:	0.8906
	Correctness:	0.8988
	Correctness:	0.9281
	Correctness:	0.9062
	Correctness:	0.9144
	Correctness:	0.9231
	Correctness:	0.9137
Average:	0.9098
	Correctness:	0.9000
	Correctness:	0.9400
	Correctness:	0.9500
	Correctness:	0.9000
	Correctness:	0.8900
	Correctness:	0.7900
	Correctness:	0.9600
	Correctness:	0.9400
	Correctness:	0.9300
	Correctness:	0.9100
	Correctness:	0.8850
	Correctness:	0.9150
	Correctness:	0.9150
	Correctness:	0.8850
	Correctness:	0.8800
	Correctness:	0.8950
	Correctness:	0.8650
	Correctness:	0.8800
	Correctness:	0.9300
	Correctness:	0.9350
	Correctness:	0.9275
	Correctness:	0.8800
	Correctness:	0.9475
	Correctness:	0.8975
	Correctness:	0.9100
	Correctness:	0.8750
	Correctness:	0.9100
	Correctness:	0.9500
	Correctness:	0.9050
	Correctness:	0.8900
	Correctness:	0.9275
	Correctness:	0.9113
	Correctness:	0.9163
	Correctness:	0.8900
	Correctness:	0.9187
	Correctness:	0.9225
	Correctness:	0.9475
	Correctness:	0.9150
	Correctness:	0.9137
	Correctness:	0.9087
	Correctness:	0.9206
	Correctness:	0.9094
	Correctness:	0.9350
	Correctness:	0.8906
	Correctness:	0.8988
	Correctness:	0.9281
	Correctness:	0.9062
	Correctness:	0.9144
	Correctness:	0.9231
	Correctness:	0.9137
Average:	0.9100
