66666661663652226662666666666666264244655666111163
LLLLLLLLLLLLFFLLLLLLLLLLLLLLLLLLFFFFFFFFFFFFFFFFLF
16462366661661616662162652166666643442154656664666
FFFFFFLLLLLLLLLLLLLFFLLLFFFLLLLLLLFFFFFFFFFLLLLLLL
15554133334455361365122336153636223666216413412652
FFFFFFFFFFFFFFFFFFFFFFFFFFFFFFFFFFFFLLLFFFFFFFFFFF
52636666666521626366342351532631321114131355133352
LLLLLLLLLLFFFFFFLFFFFFFFFFFFFFFFFFFFFFFFFFFFFFFFFF
11546555163663663666666616666311664216433553323546
FFFFFFFFLFFLLLLLLLLLLLLLLLLLLLFFFFFFFFFFFFFFFFFFFL
15463152131463356626666666652364231322146354546513
FFFFFFFFFFFFFFFFLLLLLLLLLLLFFFFFFFFFFFFFFFFFFFFFFF
33211161162635362656431544634636563516621264564663
FFFFFFFFFFFFFFFFFFFFFFFFFLLLLLLLLLLLLLFFFFFFFLLLLL
23126446136566622615443255554211452621165461244165
FFFFFFFFFFLLLLLLLLFFFFFFFFFFFFFFFFFFFFFFFFFFFFFFFF
21636365544312255532246616665613666621162143226611
FFFFFFFFFFFFFFFFFFFFFFLLLLLLLLFFFLLLFFFFFFFFFFFFFF
36555411165425625154465344546156245134131556436566
FFFFFFFFFFFFFFFFFFFFFFFFFFFFFFFFFFFFFFFFFFFFFFFFLL
66344311115511516336663664666666666662336566636666
FFFFFFFFFFFFFFFFFFFLLLLLLLLLLLLLLLLLLLLLLLLLLLLLLL
46116416646666366646666263354666665556666622622526
FFFFFFFLLLLLLLLLLLLLLLLLFFFFFFLLLLFFFFLLLLLFFFFFFL
65311256324563413633666666266666452526636666666666
LLFFFFFFFFFFFFFFFFFFFLLLLLLLLLLLLLLLLLLLLLLLLLLLLL
66566666666566453433362444516235646456616666466666
LLLLLLLLLLLLLLLFFFFFFFFFFFFFFFFFLLLLLLLLLLLLLLLLLL
66666621165641444143234462246566246255153331325254
LLLLLLFFFFFFFFFFFFFFFFFFFFFFFFFFFFFFFFFFFFFFFFFFFF
13253214214223421124413662323225646662645415533264
FFFFFFFFFFFFFFFFFFFFFFFFFFFFFFFFLLLLLFFFFFFFFFFFLL
66623465336663366314546625466315423144114544213265
LLLFFFFFFFFLLLLLLLLLFFFFFFFFFFFFFFFFFFFFFFFFFFFFFF
56351524516454232222626552344464342625566361616664
FFFFFFFFFFFFFFFFFFFFFFFFFFFFFFFFFFFFFFFFFFFFLLLLLF
24256625542566666411443516321664533144621446126353
FFFFFFFFFFFFFFLLLFFFFFFFFFFFFFFFFFFFFFFFFFFFFFFFFF
56261525433611216512531246465163115434164214363465
FFFFFFFFFFFFFFFFFFFFFFFFFFFLLFFFFFFFFFFFFFFFFFFFFF
16634215456623364412123142431344323542366142514456
FFFFFFFFFFLLFFFFFFFFFFFFFFFFFFFFFFFFFFFFFFFFFFFFFL
21115554421351513342661532562366666666136246345452
FFFFFFFFFFFFFFFFFFFFFFFFFFFLFFFLLLLLLLFFFFFFFFFFFF
16366525452643221611546254541661511632623556613652
FFFFFFFFFFFFFFFFFFFFFFFFFFFFFLLFFFFFFFFFFFFFFFFLLL
65143662356166666665246664166666262462646366442263
FFFFFLLLFFFFLLLLLLLFFFFLLLLLLLLLLLLFFFFFLLLFFFFFFF
62132453421512152524135531364463556156113665563446
FFFFFFFFFFFFFFFFFFFFFFFFFFFFFFFFFFFFFFFFFFFFFFFFFF
66566365666666666666366512314112544546146636523426
FLLLLLLLLLLLLLLLLLLLLLLFFFFFFFFFFFFFFFFFFFFFFFFFFF
44533332466663564355511121632163324332635316416446
FFFFFFFFFLLLFFFLLLFFFFFFFFFFFFFFFFFFFFFFFFFFFFFFFF
44216666666666466666662414522146563651664454316666
FFFFLLLLLLLLLLLLLLLLLLFFFFFFFFFFFFFFFFFFFFFFFFLLLL
46656666566366663616666465433416665243166666246446
FFLLLLLLLLLLLLLFFFFFFFFFFFFFFFFFLLFFFFFLLLLLLLLFFF
63262264666666666663166666644652252266136455656663
FFFFFFLLLLLLLLLLLLLLLLLLLLLFFFFFFFFFFFFFFFFFFLLLLL
65662666516613266411635455364424264566241652326455
LLLLLLLLFFFFFFFFFFFFFFFFFFFFFFFFFFFFFFFFFFFFFFFFFF
65446666616666666634442445322531666345534346266144
FFFFLLLLLLLLLLLLLLLFFFFFFFFFFFFFLLLFFFFFFFFFFFFFFF
16666535263266464666621626566666666626666666666666
LLLLLFFFFFFFFFFLLLLLLLLLLLLLLLLLLLLLLLLLLLLLLLLLLL
35555535666241265666626666424522366661452311453126
FFFFFFFFLLLLLLLLLLLLLLLLLLFFFFFFFLLLLFFFFFFFFFFFFL
33343565345343415642523614464335454253621546623352
FFFFFFFFFFFFFFFFFFFFFFFFFFFFFFFFFFFFFFFFFFFLLFFFFF
21156461625264361255436353432423262133333466666666
FFFFFFLLLFFFFFFFFFFFFFFFFFFFFFFFFFFFFFFFFFFFLLLLLL
63554466666664613414136156446662525656523264166362
FFFFFFFLLLLLLFFFFFFFFFFFFFFFLLLFFFFFFFFFFFFFFLLLLF
13451422634262661666665366166511643544352145645552
FFFFFFFFFFFFFLLLLLLLLLLFLLLLLFFFFFFFFFFFFFFFFFFFFF
52336234165515166655156416166616665252123232634324
FFFFFFFFFFFFFFFFLLFFFFFFFLLLLLLLLLFFFFFFFFFFFFFFFF
26666666666656666646216663514466666536366664666466
LLLLLLLLLLLLLLLLLLLLFFFFFFFFFFLLLLLLLLLLLLLLLLLLLL
44525634216565161513652513516666226164355455436121
FFFFFFFFFFFFFFFFFFFFFFFFFFFFLLLLFFFFFFFFFFFFFFFFFF
66614443232616615612166635556461263566666666666366
LLLFFFFFFFFFFFFFFFFFFLLLLFFLLFFFFFFFLLLLLLLLLLLLLL
56652626464623333143551651416431625644665665435366
FFFFFFFFFFFFFFFFFFFFFFFFFFFFFFFFFFFFFFFFFFFFFFFFLL
66265663355662644333115646452454542342635661566624
FFLLLLLFFFFLLLFFFFFFFFFFFFFFFFFFFFFFFFFFFLLFFLLLFF
56654631564333666433345666262656666661666466646666
FFFFFFFFFFFFFFFFFFFFFFFFFFLFFFFFFLLLLLLLLLLLLLLLLL
63363435256132422662636143454661666636636666654666
FFFFFFFFFFFFFFFFFFFFFFFFFFFLLLLLLLLLLLLLLLLLLLFFFF
31152646446566664636513366451663666566665626661426
FFFFFFFFFFLLLLLLLLLLFFFFFFFFFLLLLLLLLLLLLLFLLLLLLL
33123532424643441253442346664612252626414366326542
FFFFFFFFFFFFFFFFFFFFFFFFFLLLLLFFFFFFFFFFFFFFFFFFFF
11365355241411366226666665666631366666664241643143
FFFFFFFFFFFFFFFLLLLLLLLLLLLLLFFFLLLLLLLLFFFFFFFFFF
66663666666666653466164423423324556132113552264666
LLLLLLLLLLLLLLLFFFFFFFFFFFFFFFFFFFFFFFFFFFFFFFFLLF
13556414156632563114561366566546344165525445146245
FFFFFFFFFFFFFFFFFFFFFFFFLLLLLLFFFFFFFFFFFFFFFFFFFF
31352326443431352441454251433163524536561423436423
FFFFFFFFFFFFFFFFFFFFFFFFFFFFFFFFFFFFFFFFFFFFFFFFFF
51562366663166666666643344521526615666422231534511
FFFFFFLLLLLLLLLLLLLLFFFFFFFFFFFFFFFFLFFFFFFFFFFFFF
63221163116453166666666154666666231236351526311134
FFFFFFFFFFFFFFFLLLLLLLLLLLLLLLLLLFFFFFFFFFFFFFFFFF
45654323334664445241566566566415562365512434516415
FFFFFFFFFFFFLFFFFFFFFFFLLLLLFFFFFFFFFFFFFFFFFFFFFF
42121224126345165463115236563664632231436326465131
FFFFFFFFFFFFFFFFFFFFFFFFFFFFFFFFFFFFFFFFFFFFFFFFFF
34632261131624161664315456631116136535363666662465
FFFFFFFFFFFFFFFFFFFFFFFFFFFFFFFFFFFFFFFFFLLLLLFFFF
34154136614542463144224666666665143546365155425653
FFFFFFFFFFFFFFFFFFFFFFFLLLLLLLLFFFFFFFFFFFFFFFFFFF
65441653565556663365315145146552533426311232225543
FFFFFFFFFFFFFLLLFFFFFFFFFFFFFFFFFFFFFFFFFFFFFFFFFF
66266651666666366266666666661652146241235212135422
FFFLLLLLLLLLLLLLLLLLLLLLLLLLLLFFFFFFFFFFFFFFFFFFFF
11556215622666566222141666664566663666566645226364
FFFFFFFFFFFFLLLLLFFFFFLLLLLLLLLLLLLLLLLLLFFFFFLLLL
26666256461513643363325113223132612231544141555433
LLLLLLLLFFFFFFFFFFFFFFFFFFFFFFFFFFFFFFFFFFFFFFFFFF
34351434525261641266333546231261555632662666666635
FFFFFFFFFFFFFFFFFFFFFFFFFFFFFFFFFFFFFFLLLLLLLLLLFF
66462432626266616655364325646666212525665661352121
FFFFFFFFFFLLLLLLLLFFFFFFFFFFLLLLFFFFFFFFFLFFFFFFFF
51116343561216666265666466266665626564434253121426
FFFFFFFFFFFFFLLLLLLLLLLLLLLLLLLLLLLLFFFFFFFFFFFFFL
34352663236666666666626666666166623654546421341446
FFFFFFFFFFLLLLLLLLLLLLLLLLLLLLLLLFFFFFFFFFFFFFFFLL
26143326513666666666665656661612446646243362252164
FFFFFFFFFFFFLLLLLLLLLLLLLLFFFFFFFFLLLFFFFFFFFFFFFF
46516666662335521625162431562546166666665666666141
FLFFFLLLLLFFFFFFFFFFFFFFFFFFFFFFFLLLLLLLLLLLLLLFFF
55266624556451344621213231636251564332361551424445
LLLLLLFFFFFFFFFFFFFFFFFFFFFFFFFFFFFFFFFFFFFFFFFFFF
65665622226356544154366265635361464264164523524616
LLLLFFFFFFFFFFFFFFFFFFFFFFFFFFFFFFFFFFFFFFFFFFFFFF
33414634462523541132254513346341546134636666646666
FFFFFFFFFFFFFFFFFFFFFFFFFFFFFFFFFFFFFFFFFLLLLLLLLL
11121511512552466244161616665644465335333665414666
FFFFFFFFFFFFFFFFFFFFFLLLFLLLFFFFFFFFFFLLLLLFFFFLLL
13435256413313121543666631114633565354266666636666
FFFFFFFFFFFFFFFFFFFFFFFFFFFFFFFFFFFFFFFLLLLLLLLLLL
43666664666623666636665636644315666266666666666231
FFFLLLLLLLLLLLLLLFFLLLLLLLLFFFFLLLLLLLLLLLLLLLFFFF
33244514252133226662663464352413625335416365644334
FFFFFFFFFFFFFFFFLLLLLFFFFFFFFFFFFFFFFFFFFFFFFFFFFF
66666625366626666666666666666663466562562223336643
LLLLLLLFFLLLLLLLLLLLLLLLLLLLLLLFFFFFFFFFFFFFFFFFFF
66546626366463413662366662143445132553161456226363
LLLFFFLLLLLFFFFFFFLLLLLLLFFFFFFFFFFFFFFFFFFLFFFFFF
62564254111433555211254153326664122654133212612535
FFFFFFFFFFFFFFFFFLFFFFFFFFFFLFFFFFFFFFFFFFFFFFFFFF
66656343662641142114311645626466616641666666316145
LLLLLLLLLLLLLLLFFFFFFFFFFFFFFFFLLLLLFFLLLLLLLLLFFF
31646326654221425166332323165565123533526514364455
FFFFFFFFFFFFFFFFFFFFFFFFFFFFFFFFFFFFFFFFLLFFFFFFFF
55323316666166631666662224362444125434345565563364
FFFFFFFLLLLLLLLLLLLLLLLFFFFFFFFFFFFFFFFFFFFFFFFFFF
21542624231451462215665144626661666666666666664633
FFFFFFFFFFFFFFFFFFFFFFFFFFFFLLLLLLLLLLLLLLLLLLLLFF
66666666652266466255414455413164333425344612443466
LLLLLLLLLFFFFLLLLFFFFFFFFFFFFFFFFFFFFFFFFFFFFFFFLL
53556346252111442546252441624551664666622666616466
FFFFFFFLFFFFFFFFFFFFFFFFFFFFFFFFFLLLLLLLLLLLLLLLLL
46335542163452226514623566535651666666662262646325
FFFFFFFFFFFFFFFFFFFFFFFFFFFFFFFFLLLLLLLLFFFFFFFFFF
36543444455266535222316642614655455111516646646666
FFFFFFFFFFFFLLFFFFFFFFLLFFFFFFFFFFFFFFFFLLLLLLLLLL
11334515221625656215665151222545365543256323635554
FFFFFFFFFFFFFFFFFFFFFFFFFFFFFFFFFFFFFFFFFFFFFFFFFF
13211145664165336616661666666166666661666466613125
FFFFFFFFFFFFFFFFLLLLLLLLLLLLLLLLLLLLLLLLLLLLFFFFFF
62462136656656246666116445255244663561443255535611
LLFFFFLLLLLLLLLLLLLFFFFFFFFFFFFFFFFFFFFFFFFFFFFFFF
35343216465465554233255553611114141314653236625155
FFFFFFFFFFFFFFFFFFFFFFFFFFFFFFFFFFFFFFFFFFFFLLFFFF
13211363435564352154651325666366666666656246462521
FFFFFFFFFFFFFFFFFFFFFFFFFFLLLLLLLLLLLLLLLLFFFLFFFF
36556313634544443621452615662456556316666666166666
FFFFFFFFFFFFFFFFFFFFFFFFFFFFFFFFFFLLLLLLLLLLLLLLLL
61662666665366246666525665636666666635126551253544
FFLLLLLLLLFFFFFFLLLLFFFLLLLLLLLLLLLLFFFFFFFFFFFFFF
51265623332534652664256256556566651525235316414112
FFFFFFFFFFFFFFFFFFFFFFFFFFFFLLLLLLFFFFFFFFFFFFFFFF
66635561422666661136513646231666526346165145146265
LLLFFFFFFFLLLLLLFFFFFFFFFFFFFFFFFFFFFFFFFFFFFFFFFF
24131441234542654666631356666166566666464646262642
FFFFFFFFFFFFFFFFFLLLLLLLLLLLLLLLLLLLLLLLLLLLLLLLFF
15365432223162352613256666662146666666663666562211
FFFFFFFFFFFFFFFFFFFFFFFLLLLLLLLLLLLLLLLLLLFFFFFFFF
55164153324266666666646666666663613161623126666666
FFFFFFFFFFFFLLLLLLLLLLLLLLLLLLLFFFFFFFFFFFFLLLLLLL
55545615322424155146666636466466662633556366643666
FFFFFFFFFFFFFFFFFFFLLLLLLLLLLLLLLLLLFFFFLLLLLLLLLL
23613615361415516666166356253666664431131434266666
FFFFFFFFFFFFFFFLLLLLLLLFFFFFFFFFLLFFFFFFFFFFFLLLLL
31143446625566664666146154644526632415534335651446
FFFFFFFFFFFFLLLLLLLLLLLFFFFFFFFFFFFFFFFFFFFFFFFFFF
65663215316131144126664644323544665422236665636666
LLLLFFFFFFFFFFFFFFFLLLLLFFFFFFFFLLFFFFFFLLLLLLLLLL
62441464556213464651551163246666653535144261312666
LFFFFFFFFFFFFFFFFFFFFFFFFFFFFFFFFFFFFFFFFFFFFFFLLL
32333613255466664443512623443516523641522652566666
FFFFFFFFFFFLLLLLLFFFFFFFFFFFFFFFFFFFFFFFFFFFFLLLLL
53543266621326666552164614634666666666666666226145
FFFFFFFFFFFFFLLLLLFFFLFFFFFFFLLLLLLLLLLLLLLLFFFFFF
55515466666666636341313154235651412534265456531152
FFFFFFFLLLLLLLLLLFFFFFFFFFFFFFFFFFFFFFFFFFFFFFFFFF
22213311542451221451351616151135656422666561544546
FFFFFFFFFFFFFFFFFFFFFFFFFFFFFFFFFFFFFFFFFFFFFFFFFF
52146541446666321325245251461246662626666413443551
FFFFFFFFFFFLLLFFFFFFFFFFFFFFFFFLLLLLLLLFFFFFFFFFFF
36462565536521566663666665164232114136423524266664
FFFFFFFFFFFFFFLLLLLLLLLLLFFFFFFFFFFFFFFFFFFFFLLLLL
51621156431523411653126663636666662344131566646125
FFFFFFFFFFFFFFFFFFFFFFLFFFFFLLLLLLLFFFFFLFLLLLFFFF
34313261566366166266466661665643665664662666666566
FFFFFFFFFLLLLLFFFLLLLLLLLLLLLLLLLLLLLLLLLLLLLLLLLL
66263666666666666112462534651656416644311641522513
LLLLLLLLLLLLLLLLLFFFFFFFFFFFFFFFFFFFFFFFFLFFFFFFFF
33416331153414512662661631546666666631666232466666
FFFFFFFFFFFFFFFFFLLLLFFFFFFLLLLLLLLLLLLLLFFFFLLLLL
31352134665325541156555144264352133625354344656664
FFFFFFFFFFFFFFFFFFFFFFFFFFFFFFFFFFFFFFFFFFFFLLLLLL
11212621161466666616366666646235211422233155421611
FFFFFFFFFFFFLLLLLLLLLLLLLLLLLLFFFFFFFFFFFFFFFFFFFF
46666161643135143532633245461646321315414645366616
LLLLLLLFFFFFFFFFFFFFFFFFFFFFFFFFFFFFFFFFFFFFFLLLLL
61334466622464445665326111144123431423214635346366
FFFFFLLLLFFFFFFFFFFFFFFFFFFFFFFFFFFFFFFFFFFFFFFFLL
66666166666666655646663231251656666666666646663665
LLLLLLLLLLLLLLLLLLLLLLFFFFFFFFFLLLLLLLLLLLLLLLLLFF
66521241163163666666556551326646666666661613266613
FLFFFFFFFFFFFFLLLLLLLFFFFFFFFFFLLLLLLLLLLLFFFFFFFF
15611554246213461315666142243116546346625326665354
FFFFFFFFFFFFFFFFFFFFFFFFFFFFFFFFFFFFFFFFFFFFFFFFFF
43121633166664546666561666532462553136512233656666
FFFFFFFFFFLLFFFLLLLLLLLLLLFFFFFFFFFFFFFFFFFFFFLLLL
66665666366566666132652534655263221356156624316666
LLLLLLLLLLLLLLLLLFFFFFFFFFFFFFFFFFFFFFFFFFFFLLLLLL
46643353362566524433241455425465363263166433562166
LLLFFFFFFFFFLFFFFFFFFFFFFFFFFFFFFFFFFFFFFFFFFLLLLL
32526656666666663414362463252463342235112315444623
FFFFLLLLLLLLLLLLFFFFFFFFFFFFFFFFFFFFFFFFFLLFFFFFFF
26145112613621465423353624552143436433525533526455
FFFFFFFFFFFFFFFFFFFFFFFFFFFFFFFFFLLFFFFFFFFFFFFFFF
46466666315645661521151136351366666666666132246361
FFFFFLLLFFFFFFFFFFFFFFFFFFFFFFFLLLLLLLLLLFFFFFFFLL
33166512251624651332561411562416363455666652266666
FFFFFFFFFFFFFFFFFFFFFFFFFFFFFFFFFFFFFFLLLLFFLLLLLL
52526261234132236635463662664666431616662166462666
FFFFFFFFFFFFFFFFFFFFFFFFLLLLLLLLLLLLLLLLLLLLLLLLLL
52562256454333415626624466666666365666666666665166
FFFFFFFFFFFFFFFFFLLLLFFFLLLLLLLLLLLLLLLLLLLLLLFFFF
12623666266255535363132642366111666666663313216666
FFFFFLLFFFFFFFFFFFFFFFFFFFFFLLFLLLLLLLLFFFFFFFLLLL
31666566666663453464235126513653666466616566522426
FLLLLLLLLLLLLLLLFFFFFFFFFFFFFFFFLLLFLLLLLLLLLFFFFL
36266664666266661633253125416115445541312144463316
FLLLLLLLLLLLLLLLLLFFFFFFFFFFFFFFFFFFFFFFFFFFFFFFFL
14613166666661665625666656646665666666216666666661
FFFFFFLLLLLLLLLLLLFFLLLLFLLLLLLLLLLLLLLLLLLLLLLLLF
45235261551233416325555514453444565611263161543645
FFFFFFFFFFFFFFFFFFFFFFFFFFFFFFFFFLLLLLLLFFFFFFFFFF
13624133115312166164666662666666666666666666564322
FFFFFFFFFFFFFFFFLLLLLLLLLLLLLLLLLLLLLLLLLLLLFFFFFF
66666636666666666666666663466666663365355254442641
LLLLLLLLLLLLLLLLLLLLLLLLLLLLLLLLLLLLLFFFFFFFFFFFFF
55265415311531211314145356662651333124665536626663
FFFFFFFFFFFFFFFFFFFFFFFFFFLLLFFFFFFFFFFFFFFFLLLLLL
31141666666641165522115632266642663646666666146466
FFFFFLLLLLLLFFFFFFFFFFFFFFFLLLLLLLLLLLLLLLLLFFFFFL
33343415666661646411611241415423664444331561666466
FFFFFFFFFLLLLLLLLFFFFFFFFFFFFFFFFFFFFFFFFLLLLLLFLL
32123511231665666563434126663626635666626166666665
FFFFFFFFFFLLLLLLLLLFFFFFFFFFFLLLLLLLLLLLLLLLLLLLLL
44342225343432266163666664656666663666666561662365
FFFFFFFFFFFFFFFFLLLLLLLLLLLLLLFLLLLLLLLLLFFFFFFFFF
66666666666661536645411261623524532656666666666612
LLLLLLLLLLLLLFFFFFFFFFFFFFFFFFFFFFFFFLLLLLLLLLLLFF
26661412655431565434353213666666161656666425654156
FLLLLFFFFFFFFFFFFFFFFFFFFFLLLLLLLLLLLLLLLLFFFFFFFF
61666666611666664322324411526253153362523551236644
LLLLLLLLLLLLLLLLFFFFFFFFFFFFFFFFFFFFFFFFFFFFFFFFFF
11351122444353636126666636625432563646666666666666
FFFFFFFFFFFFFFFFFFFLLLLLLLLFFFFFFFFFFFLLLLLLLLLLLL
56636266235325462116215342225632136121566266622215
FFFFFFLFFFFFFFFFFFFFFFFFFFFFFFFFFFFFFFFLLFLLFFFFFF
15463516226446126636664666116655135334213265353314
FFFFFFFFFFFFFFFFFFFLLLLLLLLLLLLFFFFFFFFFFFFFFFFFFF
66666666565562661233332314564613434326162665213613
FFLLLLLLLLFFFFFFFFFFFFFFFFFFFFFFFFFFFLFFFFFFFFFFFF
35366461221666633424256442151532465136542343312653
FFFFFFFFFFFLLLLFFFFFFFFFFFFFFFFFFFFFFFFFFFFFFFFFFL
56666666666666666666661666666666666626652634662625
LLLLLLLLLLLLLLLLLLLLLLLLLLLLLLLLLLLLFLFFFFFFLLLLFF
23445211666661666666666165226136124163552131652111
FFFFFFFFLLLLLLLLLLLLLLLFLLFFFFFFFFFFFFFFFFFFFFFFFF
42431453353666661642611413336134461661436424622565
FFFFFFFFFFLLLLLLLFFFFFFFFFFFFFFFFFFFFFFFFFFFFFFFFF
64254615565613666646263416321113123146523112664223
FFFFFFFFFFFFFFLLLLFFFFFFFFFFFFFFFFFFFFFFFFFFFFFFFF
12564241342425516666666663165161255661143662354235
FFFFFFFFFFFFFFFFFLLLLLLFFFFFFFFFFFFFFFFFFFFLFFFFFF
62341234244551626543266666665666625156643633642122
FFFFFFFFFFFFFFFFFFFFLLLLLLLLLLLLLFFFFFFFFFFFFFFFFF
34541521343613612666525552354433413324653666666534
FFFFFFFFFFFFFFFFFFFLLFFFFFFFFFFFFFFFFFFFFLLLLFFFFF
24525411434111133116666646266616516624644142163354
FFFFFFFFFFFFFFFFFFFFLLLLLLLLLLLLFLLLFFFFFFFFFFFFFF
63231333241416636663666666666416626656252416512651
LFFFFFFFFFFFFLLLLLLLLLLLLLLLLLLLLLLLFFFFFFFFFFFFFF
54641243441464423512234461236555361125524555146441
FFFFFFFFFFFFFFFFFFFFFFFFFFFFFFFFFFFFFFFFFFFFFFFFFF
35113444122461216666663615263666614251666141123653
FFFFFFFFFFFFFFFFLLLLLLLLFFFFLLLLLFFFFFFFFFFFFFFFFF
26356666664666146661666656542152251656666666166663
FFFFLLLLLLLLLLLLLLLLLLLLLFFFFFFFFFFFLLLLLLLLLLLLLL
56163554114661524434421434355454543243144613234421
FFFFFFFFFFFFFFFFFFFFFFFFFFFFFFFFFFFFFFFFFFFFFFFFFF
65435362114534254212111154226561431625666663266464
FFFFFFFFFFFFFFFFFFFFFFFFFFFFFFFFFFFFFFLLLLLLLLLLLL
21623614311555215522221464366666662666666631665666
FFFFFFFFFFFFFFFFFFFFFFFFLLLLLLLLLLLLLLLLLLLLLLLLLL
66665312246244565625666666666646664666446566563323
LLLLFFFFFFFFFFFFFFFFLLLLLLLLLLLLLLLLLLLLLLLFFFFFFF
36656266666366362166116254636426214322434325162565
FFFFLLLLLLLLLLLLFFLLLFFFFFFFFFFFFFFFFFFFFFFFFFFFFF
56631226263356135351565323215266466266152666655245
FFFFFFFFFFFFFFFFFFFFLLFFFFFFFFLLLLLLLLFFFLLLLFFFFF
11266456266666436666663536242613156154515263255614
FFFFFFFFFLLLLLLLLLLLLLFFFFFFFFFFFFLLFFFFFFFFFFFFFF
61666654556241535113536626435666636665663312211241
LLLLLLLFFFFFFFFFFFFFFFFFFFFFFLLLLLLLLLLLFFFFFFFFFF
43155233662266636636626666666666426646626643651162
FFFFFFFFFFFFFLLLLLLLLLLLLLLLLLFFFFLLLLLLLLLLLLLLLL
44323254666662666666666666466661666566664666666611
FFFFFFFFLLLLLLLLLLLLLLLLLLLLLLLLLLLLLLLLLLLLLLLLFF
53622614163344212243345666441361554666666666636253
FFFFFFFFFFFFFFFFFFFFFFFFLLFFFFFFFFFLLLLLLLLLLFFFFF
65662662654123634516641413642566625251663254131221
FLLLLLLLLFFFFFFFFFFFFFFFFFFFFFFFFFFFFFFFFFFFFFFFFF
26161666466666666666443525456134653666162666566665
FFFFFLLLFFLLLLLLLLLLFFFFFFFFFFFFFFFLLLLLLLLLLLLLLL
66666662535551232234526366666613653161566313465316
LLLLLLLLLLLFFFFFFFFFFFLLLLLLLLLFFFFFFFFFFFFFFFFFFF
52235161615341243422663416226666666566666662662541
FFFFFFFFFFFFFFFFFFFFLFFFFFFLLLLLLLLLLLLLLLLLLLFFFF
55353631212455661436661666636666666646666665662666
FFLFFFFFFFFFFFFFFFFLLLLLLLLLLLLLLLLLLLLLLLLLLLLLLL
66666166666666665613246123213642664661251156662666
LLLLLLLLLLLLLLLLFLFFFFFFFFFFFFFFLLLLLFFFFFFFFFFLLL
61545121141242155456266626666566556346666665662666
FFFFFFFFFFFFFFFFFFFLLLLLLLLLLLLLLLFFFFLLLLLLLLLLLL
66666635634666666335126666651511624321142542161241
LLLLLLFFLLLLLLLLLFFFFFLLLLLFFFFFFFFFFFFFFFFFFFFFFF
16245315641253524463161544152145213351225623455253
FLFFFFFFFFFFFFFFFFFFFFFFFFFFFFFFFFFFFFFFFFFFFFFFFF
41253264353213241245424566666166663236412434424562
FFFFFFFFFFFFFFFFFFFFFFFFLLLLLLLLFFFFFFFFFFFFFFFFFF
22622135642126646342666665666643624523242441226666
FFFFFFFFFFFFFFLLLLLLLLLLLLLLLLFFFFFFFFFFFFFFFFFLLL
61351433115132214621355461646425666662342436663316
FFFFFFFFFFFFFFFFFFFFFFFFFFFFLLLLLLLLLFFFFFFFFFFFFL
32223546666636634363141466666666666441162235143265
FFFFFFFLLLLFFFFFFFFFFFFFLLLLLLLLLLLFFFFFFFFFFFFFFF
32653661525433234526366366666616216662356542462466
FFFFLLLFFFFFFFFFFFFFFFLLLLLLLLLLLLLLLFFFLFFFFFFLLL
24266666666311123146654454153211566666666166666666
FFLLLLLLLLLLFFFFFFFLLFFFFFFFFFFFFLLLLLLLLLLLLLLLLL
63451324236365424426116554666433333653346246261661
FFFFFFFFFFFFFFFFFFFFFFFFFFLLLFFFFFFFFFFFFFFLLLLLFF
64415551512212531363254644666666666666166666663434
FFFFFFFFFFFFFFFFFFLLFFFFFFFLLLLLLLLLLLLLLLLLLFFFFF
21264266533116636662266666336566553225421666666552
FFFFFFFFFFFFFLLLLLLLLLLLLFFFFFFFFFFFFFFFFFLLLLLFFF
25353116545666161646616666646643663425446665666151
FFFFFFFFFFFLLLLLLLLLLLLLLLLLLLLLLLFFFFFFFLLLLLLFFF
64115554224565235226661631326666626166562651212152
FFFFFFFFFFFFFFFFFFLLLLLLLFFFFLLLLLLLLFFFFFFFFFFFFF
55362222234111113452363444342646316666421211652324
FFFFFFFFFFFFFFFFFFFFFFFFFFFFFFFFFFFLLLFFFFFFFFFFFF
45566361241525666522635624632332342621152341142333
FFFLLLLFFFFFFFLLFFFFLFFFFFFFFFFFFFFFFFFFFFFFFFFFFF
24341524653223265621666466615331236566666455226643
FFFFFFFFFFFFFFFFFFFFLLLLLLLFFFFFFFLLLLLLLFFFFFFFFF
41636143266162254256624654266662166666666666626656
FFFFFFFFFFFFFFFFFFFFFFFFFFFLLLLFLLLLLLLLLLLLLLLLLL
53531525245365312361665413336635423163251565531211
FFFFFFFFFFFFFFFFFFFFFFFFFFFFFFFFFFFFFFFFFFFFFFFFFF
66666352533366522644211165656166666622566611652365
LLLLLLFFFFFFLFFFFFFFFFFFLLLLLLLLLLLLLLLFFFFFFFFFFF
66626665666666341666666635562666653241264632442356
LLLLLLLLLLLLLLFFFLLLLLLLFFFLLLLLLLFFFFFFFFFFFFFFFF
66666666536366655526444633245466666666566664662616
LLLLLLLLFLFFFFFFFFFFFFFFFFFFFFLLLLLLLLLLLLLLLLLLLL
