62635222615515343411215115523134461656163245362266
FFFFFFFFFFFFFFFFFFFFFFFFFFFFFFFFFFFFFFFLFFFFFLLLLL
45342314463516116532414551214512533326166664662156
FFFFFFFFFFFFFLFFFFFFFFFFFFFFFFFFFFFFFLLLLLLLLLFFFF
46431445643426111624513133336666341366532153333533
LLFFFFFFFFFFFFFFFFFFFFFFFFFFLLLFFFFFLLFFFFFFFFFFFF
42334535154215623646364526666216636546214446255232
FFFFFFFFFFFFFFFFLLLLLLFFFLLLLLLLLFFFFFFFFFFFFFFFFF
66666624532666225616664666664144664666666626666666
LLLLLFFFFFFFLLLLLLLLLLLLLLLLFFFFFFFLLLLLLLLLLLLLLL
24346113322512666562556362312412541466415426366616
FFFFFFFFFFFFFFFFFFFFFFFFFFFFFFFFFFFFFFFFFFFFFFLLLL
62666661661365411256334632231664154663352466666666
FFLLLLLLLLFFFFFFFFFFFFFFFFFFFFFFFFFFLFFFFFLLLLLLLL
54663321256646665666666632366626266666266631165131
FFFFFFFFFFFFFLLLLLLLLLLLLLLLLLLLLLLLLLLLLLFFFFFFFF
26153215552213366664354166666666662566436366666146
FFFFFFFFFFFFFFFLLLFFFFFFLLLLLLLLLLLLLLLLLLLLLLLLLL
22552662631655223564454166552333166566666666666366
FFFFFFFFFFFFFFFFFFFFFFFFLFFFFFFFFLLLLLLLLLLLLLLLLL
13442355515463366542435416666566466363665321526142
FFFFFFFFFFFFFFFLLFFFFFFFFLLLLLLLLLLFFFFFFFFFFFFFFF
33646132334114211251254124143546445411316236646666
FFFFFFFFFFFFFFFFFFFFFFFFFFFFFFFFFFFFFFFFFFFLLLLLLL
13151166665642666666636445265222652453643233124534
FFFFFFLLLLLLLLLLLLLLLLLLFFFFFFFFFFFFFFFFFFFFFFFFFF
21666661166566111453233164214516151612122666666666
FLLLLLLFFFLLLLFFFFFFFFFFFFFFFFFFFFFFFFFFFLLLLLLLLL
42554312332666466666666665666666564125546666666566
FFFFFFFFFFLLLLLLLLLLLLLLLLLLLLLLLLFFFFFLLLLLLLLLLL
65363565453536464254514311566666365666166366661622
LFFFFFFFFFFFFFFFFFFFFFFFFFFLLLLLLLLLLLLLLLLLLLFFFF
66663662141334126166366666666666613661666665666655
FLLLFFFFFFFFFFFFLLLLLLLLLLLLLLLLLLLLLLLLLLLLLLLLLL
66666665636655531666466522535366666666626666213336
LLLLLLLFFFFFFFFFFLLLLLFFFFFFFFLLLLLLLLLLLLLFFFFFLL
51411426616663234666666666666626666166665616125666
FFFFFFFFFFLLLFFFFLLLLLLLLLLLLLLLLLLLLLLLFFFFFFFLLL
64666616266665661546532556145362134546451436666615
LLLLLLLLLLLLLLLFFFFFFFFFFFFFFFFFFFFFFFFFFFFLLLLLFF
66666666663566166666166466666553561126512665466166
FFFLLLLLLLLLLLLLLLLLFLLLLLLLLFFFFFFFFFFFFFFFFLLLLL
66466441625546225241666635654666666646666646664336
LLLLLFFFFFFFFFFFFFFFLLLLLLFFFLLLLLLLLLLLLLLLLLFFFF
14314264151516666346616611253331465666662664622625
FFFFFFFFFFFFLLLLLFFLLLLLFFFFFFFFFLLLLLLLLLLFFFFFFF
53411545541344161361131654635343531466662321461544
FFFFFFFFFFFFFFFFFFFFFFFFFFFFFFFFFFFFFFFFFFFFFFFFFF
42361351633222666364566655216133335666616466266666
FFFFFFFFFFFFFFFFFFFFFLLLFFFFFFFFFFLLLLLLLLLLLLLLLL
66666666623625666666666166666646666166666666646366
LLLLLLLLLFFFFFFLLLLLLLLLLLLLLLLLLLLLLLLLLLLLLLLLLL
66216252256636153662613224325331565656636442451365
LLFFFFFFFLLLFFFFFFFFFFFFFFFFFFFFFFFLFFLLLFFFFFFFFF
34561241423164461666636646631516666666316166362666
FFFFFFFFFFFFFLLLLLLLLFFFFFFFFFFLLLLLLLLLLLLLLLLLLL
46364341136622435314462112245655132114131566666666
FFFFFFFFFFLLFFFFFFFFFFFFFFFFFFFFFFFFFFFFFFLLLLLLLL
23344325643666666656664466614666563453136512641422
FFFFFFFFLLLLLLLLLLLLLLLLLLLLLLLLFFFFFFFFFFFFFFFFFF
64256126464636166666666623451424263335666464566666
FFFFLLLLLLLLLLLLLLLLLLLLFFFFFFFFFFFFFFLLFLLLLLLLLL
13531663666363465662666225324512426646666656666365
FFFFFLLLLLLLLLLLLLLLLLLFFFFFFFFFFFLLLLLLLLLLLLLLLL
66365566166266666623226463252333121545566154266215
FFFFFFFLLLLLLLLLLLFFFFFFFFFFFFFFFFFFFFFLLFFFFFFFFF
62311566433154352663666616641455446666453312656666
FFFFFFFFFFFFFFFFFFFFLLLLLLLLFFFFFFLLLLFFFFFFFFLLLL
64244666414452462146452356363324553521141446661665
LLFFFLLLFFFFFFFFFFFFFFFFFFFFFFFFFFFFFFFFFFFLLLLFFF
46454455345466662336666666626666666636663635655341
FFFFFFFFFFFFLLLLLLLLLLLLLLLLLLLLLLLLLLLLLLFFFFFFFF
65666666366566361145634355642524353444243441411656
LLLLLLLLLLLLLLLLFFFFFFFFFFFFFFFFFFFFFFFFFFFFFFFFFF
64666316431612362146161223611656125151624412512234
FFLLLFFFFFFFFFFFFFFFFFFFFFFFFFFFFFFFFFFFFFFFFFFFFF
66466666322436231663666666663666666215351352546466
LLLLLLLLFFFFFFFFFLLLLLLLLLLLLLLLLLLLFFFFFFFFFLLLLL
63666646666536451251546666214141611645611666666266
LLLLLLLLLLLFFFFFFFFFFFLLLLFFFFFFFFLLLLLLLLLLLLLLLL
66226663666116616555311346264466431315331162653666
LLLLLLLLLLLFFFFFFFFFFFFFFFFFFFFFFFFFFFFFFFFFFFFLLL
36631642666666511616245166652245613366411426163435
FFFFFFFFLLLLLLFFFLLLLFFFLLLFFFFFFFFFFFFFFFFFFFFFFF
22266466662133652224235226344363263315421565454556
FFFLLLLLLLLFFFFFFFFFFFFFFFFFFFFFFFFFFFFFFFFFFFFFFF
65224666666666642666661663466644622646656155455326
FFFFFFLLLLLLLLLLLLLLLLLLLFFLLLLFFFFLLLLLLFFFFFFFFF
66666145645145414625562336666566666656652263452456
LLLLLFFFFFFFFFFFFFFFFFFFFLLLLLLLLLLLLLFFFFFFFFFFFF
65235356141363521455342426562514453526352215163261
FFFFFFFFFFFFFFFFFFFFFFFFFFFLFFFFFFFFFFFFFFFFFFFFFF
66163156661121666446362461231313154125121335562611
LLLLFFFFFFFFFFLLFFFFFFFFFFFFFFFFFFFFFFLFFFFFFFFFFF
56264551364464623164452152645543112633154345331311
FFFFFFFFFLFFFFFFFFLLFFFFFFFFFFFFFFFFFFFFFFFFFFFFFF
62155443546222363243666624265525614662126316213432
FFFFFFFFFFFFFFFLFFFFLLLLLFFFFFFFFFFFFFFFFFFFFFFFFF
66661666666233213114266166126666332622633631226241
FLLLLLLLLLLFFFFFFFFFFFFFFFFFLLLLLFFFFFFFFFFFFFFFFF
62531535456666166666662666615451145513453214232666
FFFFFFFFFFFLLLLLLLLLLLLLLLLLFFFFFFFFFFFFFFFFFFFLLL
26345533455666556666442344521242256133452512313366
FFFFFFFFFFFFFFFFFLLLFFFFFFFFFFFFFFFFFFFFFFFFFFFFLL
63121524265431521531656656666666611661365542261364
FFFFFFFFFFFFFFFFFFFFLLLLLLLLLLLLLFFFFFFFFFFFFFFFFF
66666345222165261255262331252236331655323466666661
LLLLFFFFFFFFFFFFFFFFFFFFFFFFFFFFFFFFFFFFFFLLLLLLLL
66662466662536666662646665666312615214526642153331
LLLLLLLLLLLLLLLLLLLFFFFFFFFFFFFFLFFFFFFFFLLFFFFFFF
66666661551112643446131443215553316324261115253446
LLLLLLLFFFFFFFFFFFFFFFFFFFFFFFFFFFFFFFFFFFFFFFFFFL
32235225162334344544426542111365626653365166666666
FFFFFFFFFFFFFFFFFFFFFFFFFFFFFFLFFFFFFFFFFFFFLLLLLL
64616111452343166213614662666661333144652146252325
FFFFFFFFFFFFFFFFFFFFFFFFFFLLLLLFFFFFFFFFFFFFFFFFFF
66635663136232534526464666666333136264256646263116
LLLLFFLFFFFFFFFFFFFLLLLLLLLLFFFFFFFFFFFFFFFFFFFFFF
12124341312111662666166261632425466636666666666666
FFFFFFFFFFFFFFLLLLLLLLLLLLLLFFFFFLLLLLLLLLLLLLLLLL
15632116326525643443555221154364666662666636266666
FFFFFFFFFFFFFFFFFFFFFFFFFFFFFFFFFLLLLLLLLLLLLLLLLL
43342555116666336666465412224335452636366416664212
FFFFFFFFFFFFFFFFFFFFFFFFFFFFFFFFFFFFFFFLLLLLFFFFFF
66652515311625566626665356113623422165244313564523
LLLFFFFFFFFFFFFFLLLLLLLFFFFFFFFFFFFFFFFFFFFFFFFFFF
44225362346616641566133116666666566666666666636666
LFFFFFFFLLLFFFFFFFFFFFFFFLLLLLLLLLLLLLLLLLLLLLLLLL
51661214515352555564211161664355123126426666666666
FFLFFFFFFFFFFFFFFFFFFFFFFFFFFFFFFFFFFFFFLLLLLLLLLL
66666666133163413263641313235356616624262666626422
LLLLLLLLFFFFFFFFFFFFFFFFFFFFFFFFFFFFFFFFFFLLLLLLFF
56112564613531653152444512256526264463415625626646
FLFFFFFFFFFFFFFFFFFFFFFFFFFFFFFFFFFFFFFFFFFFLLLLLL
32146636666266566663352435426362254666664666666666
FFFFLLLLLLLLLLLLLLLFFFFFFFFFFFFFFFFLLLLLLLLLLLLLLL
66666663144424112164542446316563663462653453451332
LLLLLFFFFFFFFFFFFFLFFFFFFFFFFFFFFFFFFLLLFFFFFFFFFF
65631366666666234531424664665662666666666166666661
FFFFFFLLLLLLLLLFFFFFFFFFLLLLLLLLLLLLLLLLLLLLLLLLLL
63666666666646513143662462166424615212123363161236
LLLLLLLLLLLLLLFFFFFFFFFFFFFFFFFFFFFFFFFFFFFFFFFFFF
55256644413412165233323231416626253364431123525552
FFFFFFFFFFFFFFFFFFFFFFFFFFFFFFFFFFFFFFFFFFFFFFFFFF
66666663663326626666416234366164354632641624316666
LLLLLLLLLLFFFLLLLLLLFFFFFFFFFFFFFFFFFFFFFFFFFFLLLL
62232414214153535651211314622532352314362425655153
FFFFFFFFFFFFFFFFFFFFFFFFFFFFFFFFFFFFFFFFFFFFFFFFFF
36563222436433454143556155365641212514162565266666
FFFFFFFFFFFFFFFFFFFFFFFFFFFLLLLFFFFFFFFFFFFFFLLLLL
45516466652221615226664112656136666646663666223266
FFFFLLLLLFFFFFFFFFFLLLFFFFFFFFFFLLLLLLLLLLLLFFFFLL
22444266163126226656364665636566361666666666646466
FFFFFFLLFFFFFFFFFLLLLLLLLLLLLLLLLLLLLLLLLLLLLLLLLL
11636214152322135436261551244644466666666426664261
FFFFFFFFFFFFFFFFFFFFLFFFFFFFFLFFFLLLLLLLLLLLLLFFFF
44666665646661611454241616666516661666544635616212
LLLLLLLLLLLLLFFFFFFFFFFLLLLLFFFFLLLLLLLFFFFFFFFFFF
61112326566662666164563624442111353266666664666666
LLLLLLLLLLLLLLLLLLLLLLFFFFFFFFFFFFFFLLLLLLLLLLLLLL
36666321443411524425134323625523666466666665666616
FFFLLFFFFFFFFFFFFFFFFFFFFFFFFFFFLLLLLLLLLLLLLLLLLL
56521414153225244165662226343466216266266222345414
FFFFFFFFFFFFFFFFFFFFFFFFFFFFFFFFFFLLLLLLLFFFFFFFFF
64366325162356635646356266665366666665425312143355
FFFFFFFFFFFFFLLLLLLLLLLLLLLFFLLLLLLLLFFFFFFFFFFFFF
66666316466666565324631425551133356666666666666153
LLLLLLLLLLLLLFFFFFFFFFFFFFFFFFFFFFFLLLLLLLLLLLLFFF
35352636266146324465664236664666632425561151336332
FFFFFFFFFFFFFFFFFFFFLLFFFLLLLLLLLLFFFFFFFFFFFFFFFF
26555652462366513363522562461355336315231235326155
FFFFLLFFFFFFFFFFFFLFFFFFFFFFFFFFFFFFFFFFFFFFFFFFFF
66662661223211326232265146155623546266666656365645
FLLLLLLFFFFFFFFFFFFFFFFFFFFFFFFFFFLLLLLLLLLLFFFFFF
15243621333266143531626633666661642153464211641153
FFFFFFFFFFFFFFFFFFFFFFLLLLLLLLLLLFFFFFFFFFFFFFFFFF
35242131311546542256465325213316664435411455354325
FFFFFFFFFFFFFFFFFFFFFFFFFFFFFFFFFFFFFFFFFFFFFFFFFF
15624326556555351523666666666641142565444563526222
FFFFFFFFFFFFFFFFFFFFLLLLLLLLLFFFFFFFFFFFFFFFFFFFFF
56452231644116314663655461225135656622452636666164
FFFFFFFFFLLLLLFFFFLLLFFFFFFFFFFFFFFFFFFFFFFLLLLLLL
66523121564325316316666666666666666616666666666111
LLFFFFFFFFFFFFFFFFLLLLLLLLLLLLLLLLLLLLLLLLLLLLLFFF
55333635136334333224661225252634566345125113661166
FFFFFFFFFFFFFFFFFFFFFFFFFFFFFFFFFFFFFFFFFFFFFFFFFL
46666135354533125136632164166321613543346532462412
LLLLLFFFFFFFFFFFFFFFFFFFFFFFFFFFLLFFFFFFFFFFFFFFFF
11216265565222434362141316335141544463336362525361
LFFFFFFFFFFFFFFFFFFFFFFFFFFFFFFFFFFFFFFFFFFFFFFFFF
66616653633556415265544463515161161344653166345554
LLLLLLFFFFFFFFFFFFFFFFFFFFFFFFFFFFFFFFFFFFLLLLFFFF
46544256151514342363433562643616166642641615344561
FFFFFFFFFFFFFFFFFFFFFFFFFFFFFFFFFFFFFFFFFFFFFFFFFF
14114266566661626642663656666666666666666166654333
FFFFFFLLLLLLLLLLLFFFFFFLLLLLLLLLLLLLLLLLLLLLLLFFFF
16656665412424335364425113125655532445266466355164
FLLLLLLFFFFFFFFFFFFFFFFFFFFFFFFFFFFFFFFLLLLLFFFFFF
64243224212232542661335562262533613414226532666266
FFFFFFFFFFFFFFFFFFFFFFFFFFFFFFFFFFFFFFFFFFFFLLLLFL
54424333146346642142645225415413333243154432235123
FFFFFFFFFLLFFFFFFFFFFFFFFFFFFFFFFFFFFFFFFFFFFFFFFF
55665612614643151456426512333326351545665513666666
FFFFLLFFFFFFFFFFFFFFFFFFFFFFFFFFFFFFFFFFFFFFLLLLLL
45236121442445213434665223261322554565166665651216
FFFFFFFFFFFFFFFFFFFLLFFFFFFFFFFFFFFFFFFLLLLLLFFFFF
23666666646663666113544241561656661614666642354654
FFLLLLLLLLLLLLLLLFFFFFFFFFFFFLLLLLFFFFFLLLLFFFFFFF
22443666614315613233326226666666361654126566666366
FFFFFLLLLFFFFFFFFFFFFFFFFFLLLLLLLLFFFFFFFLLLLLLLLL
32146121165152536554615145366613615516522656262666
FFFFFFFFFFFFFFFFFFFFFFFFFFFLLLFFFFFFFFFFFFFFFFFLLL
66646664666666666134654253425335626365216422435355
LLLLLLLLLLLLLLLLLFFFFFFFFFFFFFFFFFFFFFFFFFFFFFFFFF
11165666632132466666666666666662466436636566666662
FFFLLLLLLFFFFFFFLLLLLLLLLLLLLLLLLLLLLLLLLLLLLLLFFF
62466636466164666635655515612514364314642546255612
LLLLLLLLLLLLLLLLLLFFFFFFFFFFFFFFFFFFFFFFFFFFFFFFFF
16623451455666666526266666414121613445344452326156
FFFFFFFFFFLLLLLLLLLLLLLLLFFFFFFFFFFFFFFFFFFFFFFFLL
16552143314252221662432452116522656362535511324156
FFFFFFFFFFFFFFFFLLLFFFFFFFFFFFFFFFFFFFFFFFFFFFFFFF
26666655632143366626666666661626616164666164564462
LLLLFFFFFFFFFFLLLLLLLLLLLLLLLLLLLLLLLLLLLFFFFFFFFF
36666431262163644666612435526666611162561651333132
FFFFFFFFFFFFFFFFFLLLLFFFFFFLLLLLLFFFFFFFFFFFFFFFFF
15266666643666666111445213341212263666651641324665
FFFFLLLLLLLLLLLLLLFFFFFFFFFFFFFFFLLLLLLFFFFFFFFFFF
12443615413553351611642634563145213613343646466613
FFFFFFFFFFFFFFFFFFFFFFFFFFFLFFFFFFFFFFFFFFFLLLLLFF
66565642636666666661666636625336416615462442666664
LLLLLLLLLLLLLLLLLLLLLLLLLLLFFFFFFFFFFFFFFFFFFFLLLF
66666666666661663111536631243514232211266152621145
LLLLLLLLLLLLLLLLFFFFFFFFFFFFFFFFFFFFFFFFFFFFLFFFFF
66621666536616266666666664666661666664234365525644
LLLLLLLLLLLLLLLLLLLLLLLLLLLLLLLLLLLLLLFFFFFFFFFFFL
16166463664666445543211345166644232212116332654455
FFFLLLLLLLLLLLFFFFFFFFFFFFFFFFFFFFFFFFFFFFFFFFFFFF
62462531141213154332561366666666663545152311433634
FFFFFFFFFFFFFFFFFFFFFFFFLLLLLLLLLLFFFFFFFFFFFFFFFF
66163612423651245534116355223612264313611135153566
LLLLLFFFFFFFFFFFFFFFFFFFFFFFFFFFFFFFFFFFFFFFFFFFLL
16426365666512142265212341136653521623263321164245
FFFFFFLLLLLFFFFFFFFFFFFFFFFFFFFFFFFFFFFLLFFFFFFFFF
63544615616222526113565216413235663666664646646361
FFFFFFFFFFFFFFFFFFFFFFFFFFFFFFLLLLLLLLLLLLLLLLLLLL
66666543223422234556563626663666616162425512432466
LLLLLFFFFFFFFFFFFFFFFFFLLLLLLLLLLLLLLLFFFFFFFFFFLL
44141623312462251162425455222461523631626526665665
FFFFFFFFFFFFFFFFFFFFFFFFFFFFFFFFFFFFFFFFFFFFLLLLLL
62326666665346622661356623145413245266644454355243
FFFFLLLLLLFFFFFFFFFFFFLLFFFFFFFFFFFFLLLLFFFFFFFFFF
36656615561361256364346313656666666566666666331233
LLLLLLLLLLFFFFFFFFFFFFFFFFFFFLLLLLLLLLLLLFFFLLLFFF
66666522341643225666666666666666666645423231666125
LLLLLLFFFFFFFFFFFLLLLLLLLLLLLLLLLLLLLFFFFFLLLLLFFF
21564456436433646366666666216336664166664666462321
FFFFFFFFFFFFFFFFFFFLLLLLLLLLLLLLLLLLLLLLLLLLFFFFFF
31514334442336662466666666626661266423236151664656
FFFFFFFFFFFLLLLLLFLLLLLLLLLLLLLLLLFFFFFFFFFFLLFFFF
33126346646616666664116642662466411515431645116613
FFFFFFFFFLLLLLLLLLLFFFFFLLLLLLLFFFFFFFFFFFFFFFFFFF
61565311666663612663152366221666333663665654553246
FFFFFFFFLLLLLLLLFFFFFFFFLLLLLLLLFFFLLLLLLLLFFFFFFF
55323115415454323645115462646666466666662266664666
FFFFFFFFFFFFFFFFFFFFFFFFFFFFLLLLLLLLLLLLFFLLLLFLLL
63113466356666636666661346562514436611325336213432
FFFFFFLLLLLLLLLLLLLLLLLFFFFFFFFFFFFFFFFFFFFFFFFFFF
34566144535334315522653536562156256113621666646666
FFFFFFFFFFFFFFFFFFFFFFFFFFFFFFFFFFFLLLLLLLLLLLLLLL
42366666656266666666666216311264245662363266666644
FFFLLLLLLLLLLLLLLLLLLLLFFFFFFFLFFFFFFFFFFFLLLLLLLL
52336434131265155265612143131514254516556616262165
FFFFFFFFFFFFFFFFFFFFFFFFFFFFFFFFFFFFFLLLLLFFFFFFFF
66666666642615151612623121315443564645655566663533
LLLLLLLLLFFFFFFFFFFFFFFFFFFFFFFFFFFFFFFFFFLLLLFFFF
66221515166163556456266664433636226646266651113632
FLLFFFFFFFFFFFFFFFFFFLLLLFFFFLLLFFLLLLLLLLFFFFFFFF
64466666666666362663254353415156632566562214353266
FFFFLLLLLLLLLLFLLLLFFFFFFFFFFFLLLLLLLLLLFFFFFFFLLL
11162651351633414455566466665562566666631136116662
FFLLFFFFFFFFLFFFFFFFFLLLLLLLFFFFFLLLLFFFFFFFFFLLLL
23452663113345564666366666666654646466165426254545
FFFFFFFFFFFFFFFFFLLLLLLLLLLLLLLLLLLLLLLLLLLLFFFFFF
62354421642643621124162133612166622633465531646622
FFFFFFFFFFFFFFFFFFFFFFFFFFFFFFLLLFFFFFFFFFFFFFFFFF
14466666121463434221661666612622526362155632666423
FFFLLLLLFFFFFFFFFFFFFLLLLLLFFFFFFFFFFFFFFFFFFFFFFF
36165354646232664566315314266253426423555525126635
FFFFFFFFFFFFFFFFFFLLFFFFFFFFFFLFFFFFFLLLLFFFFFFFFF
66665266666113666666663664514416416152342156652351
LLLLFFLLLLLFFFLLLLLLLLLLFFLFFFFFFFFFFFFFFFFFFFFFFF
63636161626661633352223242313554634424426523326512
LLLLLLLLLLLFFFFFFFFFFFFFFFFFFFFFFFFFFFFFFFFFFLFFFF
66632414455436614115656313513463636511113165441455
LLFFFFFFFFFFLLLFFFFFFFFFFFFFFFFFFFFFFFFFFFFFFFFFFF
66666666466616666561133355626666616333462154224252
LLLLLLLLLLLLLLLLLLLLFFFFFFFLLLLLLLLFFFFFFFFFFFFFFF
15155335356436426615445141344612522453335465461243
FFFFFFFFFFFFFFFFFFFFFFFFFFFFFFFFFFFFFFFFFFFFFFFFFF
15126336346316363233664552331536663631355211126654
FFFFFFFFFFFFFFFFFFFFFFFFFFFFFFFLLLLFFFFFFFFFFFFFFF
66661434153262215261224261224536662245631421251242
LLLFFFFFFFFFFFFFFFFFFFFFFFFFFFFFFFFFFFFFFFFFFFFFFF
25446666666641222526636531335336161666661666666666
FFFFFLLLLLLLFFFFFFFFFFFFFFFFFFFFLLLLFLLLFLLLLLLLLL
66623665411144542243166366664162424662353342666666
LLLLLLLFFFFFFFFFFFFFFFLLLLLLLFFFFFFFFFFFFFFFLLLLLL
36334666465636666616666634643421522155255216161542
FFFFFLLLLLLLLLLLLLLLLLLLLLLFFFFFFFFFFFFFFFFFFFFFFF
33532641215461661661314633311461554515552656666163
FFFFFFFFFFFFFFLLLLLLFFFFFFFFFFFFFFFFFFFFFFFLLLLLLF
56612566166666666666466563666655231126213666616651
FLLFFFLLLLLLLLLLLLLLLLLLLLLLLLLFFFFFFFFFFLLLLLLLFF
55561222166616666666666666666616321212565316556566
FFFFFFFFFLLLLLLLLLLLLLLLLLLLLLFFFFFFFFFFFFFFFFFFFF
16163546666656666466561666262531346562563665534133
FFFFFFFLLLLLLLLLLLLLLLLLLLLLLLFFFFFFFFFFFFFFFFFFFF
62666636631566666666666226656366143231512115452252
LLLLLLLLLLLLLLLLLLLLLLLFFFFFFFFFFFFFFFFFFFFFFFFFFF
32516651312344162666666666646624524525234115323654
FFFFFFFFFFFFFFFLLLLLLLLLLLLLLLFFFFFFFFFFFFFFFFFFFF
64652666666561641441321225436666666634646634666662
FFFFFLLLLLLFFFFFFFFFFFFFFFFLLLLLLLLLFFFFFFFFFLLLLL
23143432666665466636666616666666523465653312263213
FFFFFFFFLLLLLLLLLLLLLLLLLLLLLLFFFFFFFFFFFFFFFFFFFF
21164662121564613665345151244541661136266662366346
FFFFFFFFFFFFFFLLLLLFFFFFFFFFFFFLLLLFFFFFFLLLLLLLLL
33326464515563564516126564661112454415343666666151
FFFFFFFFFFFFFFFFFFFFFFFFFLLFFFFFFFFFFFFFFLLLLLLLFF
65666666636666662166633662566633136566264664464412
LLLLLLLLLLLLLLLLLLLLLLLLLLLLLLFFFFFFFFFFFFFFFFFFFF
33345665466666666666562665266626666266666656666662
FFFFFFFFFFLLLLLLLLLLLLLLLLLLLLLLLLLLLLLLLLLLLLLLLL
46324344616565666636666645426466425465221132445124
FFFFFFFFFFLLLLLLLLLLLLLLLLFFFFFFFFFFFFFFFFFFFFFFFF
24613666266514125614624666544166621664133144446146
FFFFLLLLLLLFFFFFFFFFFFFLLLFFFFFFFFLLLFFFFFFFFFFFFF
31425311366666665666641651631256142515646666111424
FFFFFFFFFLLLLLLLLLLLLFFFFFFFFFFFFFFFFFFFFLLFFFFFFF
34616534325562611142341465666666666614666564232413
FFFFFFFFFFFFLLFFFFFFLFFFFFLLLLLLLLLLFLLLLLFFFFFFFF
62233365664636666541344421526354263666351244334625
LFFFFFFFFFFFFLLLLLFFFFFFFFFFFFFFFLLLLLFFFFFFFFFFFF
65465443524453542122653355253226344126445323451616
FFFFFFFFFFFFFFFFFFFFFFFFFFFFFFFFFFFFFFFFFFFFFFFFFF
65666664262664661236666666166666466666311532422242
LLLLLLLLLLLLLLLLLLLLLLLLLLLLLLLLLLLLLLLFFFFFFFFFFF
55666366666663666666666462214651131366666454352331
FFLLLLLLLLLLLLLLLLLLLLLLLFFFFFFFFFLLLLLLLFFFFFFFFF
66225316623256423414146266665666566666534646411525
FFFFFFFFFFFFFFFFFFFFFFLLLLLLLLLLLLLLLLLFFFFFFFFFFF
51461154213421664626666666652156461452264536241225
FFFFFFFFFFFFFFLLLLLLLLLLLLLFFFFFFFFFFFFFFFFFFFFFFF
66646666615654152651325214165451652564566666666666
LLLLLLLLFFFFFFFFFFFFFFFFFFFFFFFFFFFFFFFLLLLLLLLLLL
55632543641364534413522443664516612332263345623113
FFFFFFFFFFFLLFFFFFFFFFFFFFFFFFFFFFFFFFFFFFFFLLLFFF
52456263533551664414244314541115155213316152661644
FFFFFFFFFFFFFLLLFFFFFFFFFFFFFFFFFFFFFFFFFFFFFFFLFF
62551153416362656663266626656616663566143533565135
FFFFFFFFFFFFFFFFFFFFFLLLLLLLLLLLLLLLLLFFFFFFFFFFFF
33642656226116654412633126464616136663132641413126
FFFFFFFFFFLFFFFFFFFFFFFFFFFFFFFFFFFLFFFFFFFFFFFFFF
11143526365111432121512233632643431534535344451331
FFFFFFFFFFFFFFFFFFFFFFFFFFFFFFFFFFFFFFFFFFFFFFFFFF
65666566461366666666666661311666616266544551256566
LLLLLLLLLLLLLLLLLLLLLLLLLFFFLLLLLLLLLLFFFFFFFFFFFF
66663621133143541215666634225222115436342121612514
LLLLLLFFFFFFFFFFFFFLLLLLFFFFFFFFFFFFFFFFFFFFFFFFFF
26216666666666666666665436415543612434154656161524
FFFFLLLLLLLLLLLLLLLLLLLFFFFFFFFFFFFFFFFFFFFFFFFFFF
33136262666666263146646152561224246663351535544664
FFFFLLLLLLLLLLLLFFFFFFFFFFFFFFFFFFFFFFFFFFFFFFFFFF
31416666666666222363332541565123612561463526162116
FFFFLLLLLFLLLLLFFFFFFFFFFFFFFFFFFFFFLFFFFFFFFFFFFF
66666616666443253323146152146366513464645265615634
LLLLLLLLLLLFFFFFFFFFFFFFFFFFFFLLFFFFFFFFFFFFFFFFFF
32541165622235435636646662243666265256655353526431
FFFFFFFFFFFFFFFFFFFLLLLLLFFFFLLLFFFFFFFFFFFFFFFFFF
66616666642344126656666646622226356552421543624666
LLLFFLLLFFFFFFFFFFFLLLLLLLFFFFFFFFFFFFFFFFFFFFFLLL
63411554515653623624354426351415143331565626662343
FFFFFFFFFFFFFFFFFFFFFFFFFFFFFFFFFFFFFFLLLLLLLFFFFF
22114543555465436342526126665111463542553624466666
FFFFFFFFFFFFFFFFFFFFFFFFFLLLFFFFFFFFFFFFFFFFLLLLLL
66666262341315122236551535252511316626521324341564
LLLLLLFFFFFFFFFFFFFFFFFFFFFFFFFFFFFFFFFFFFFFFFFFFF
66363566623212656626562233424226214266566666666622
LLLLFFFFFFFFFFLLLFFFFFFFFFFFFFFFFFFFFLLLLLLLLLLLFF
46666365662646666466615466661434442466334333232625
FFLLLLFFLLLLLLLLLLLLLFFFLLLLFFFFFFFFFFFFFFFFFFFFFF
65445525316512452352651513636656516666666666664642
FFFFFFFFFFFFFFFFFFFFFFFFFFFFFFFFFFLLLLLLLLLLLLLLLL
64666662365664624465666666666661666666366665666166
LLLLLLLLLLLLLLLFFLLLLLLLLLLLLLLLLLLLLLLLLLLLLLLLLL
66666666636266666656641663622666624534226663661366
LLLLLLLLLLLLLLLLLLFLLLLLLLLLFLLFFFFFFFFFFFLLLLLLFL
66666666666666126666666666243115445634651361245535
LLLLLLLLLLFLLLLLLLLLLLLLLLFFFFFFFFFFFFFFFFFFFFFFFF
43241155366366666665342666666666644452666625336442
FFFFFFFFLLLLLLLLLLLFFFLLLLLLLLLLLLFFFFLLLLFFFFFFFF
32345141151562245236664662532422324652416663666666
FFFFFFFFFFFFFFFFFFLLLLLLLFFFFFFFFFFLFFFFLLLLLLLLLL
63666666666566666254162433516443266512611363431214
LLLLLLLLLLLLLLLLLFFFFFFFFFFFFLFFFFFFFFFFFFFFFFFFFF
15334121366664666666626666544342343165665153243331
FFFFFFFFFLLLLLLLLLLLLLLLLLFFFFFFFFFFLLLFFFFFFFFFFF
16334261521534622666565666161646466466666666256146
LLFFFFFFFFFFFFFFLLLLLLLLLLLLLLLLLLLLLLLLLLLLFFFFFF
46162636552122224554555666666631666655561234234463
FFFFFFFFFFFFFFFFFFFFFFFFLLLLLLLLLLLLFFFFFFFFFFFFFF
56666666123652362135623565325523235556252361616626
LLLLLLLLFFFFFFFFFFFFFFFFFFFFFFFFFFFFFFFFFFLFFFFFLL
65315254241366112365434542666666654345465666666666
FFFFFFFFFFFFFFFFFFFFFFFFFFLLLLLLFFFFFFFFFLLLLLLLLL
21642561542644166215345656666156344346562412244424
FFFFFFFFFFFFFFFFFFFFFFFLLLLLLFFFFFFFFFFFFFFFFFFFFF
46556466646316615666666522456564463654411232145113
FFLLLLLLLLLFLLLLLLLLLLLLLFFFFFFFFFFFFFFFFFFFFFFFFF
66464161664662433136555652441551624666654365242145
LLLLLLLLLLLLLFFFFFFFFFFFFFFFFFFFLLLLLLLFFFFFFFFFFF
46425511133362514566635645436155166666666666536666
FFFFFFFFFFFFFFFFFLLLLLLLLLLFFFFFLLLLLLLLLLLLFFLLLL
66626661366642435231226533254244131412335411122566
LLLLLLLLLLLLLFFFFFFFFFFFFFFFFFFFFFFFFFFFFFFFFFFFFF
56656666633332243456645125122325314236461312466613
LLLLLLLLLFFFFFFFFFFFFFFFFFFFFFFFFFFFFFFFFFFFFLLLLL
46513241146126632166212464251445566666226151423411
LLFFFFFFFFFFFLLFFFFFFFFFFFFFFFFFFFLLLLFFFFFFFFFFFF
36663645351346216664263251325526635166363661113266
FLLLFFFFFFFFFFFFFFFFFFFFFFFFFFFFFFFLLLLLLLLFFFFLLL
66621151644666666666666563666464666666266612335644
FFFFFFFFFFFLLLLLLLLLLLLLLLLLLLLLLLLLLLLLLLFFFFFFFF
61214466245641524231652544514215513231522521314466
FFFFFFFFFFFLFFFFFFFFFFFFFFFFFFFFFFFFFFFFFFFFFFFFLL
36541635532453656141554365616361161346465514411355
FLFFFFFFFFFFFFLLLFFFFFFFFFFFFFFFFFFFFFFFFFFFFFFFFF
24265152616154244152435656626341544235633365165413
FFFFFFFFFFFFFFFFFFFFFFFFFFFFFFFFFFFFFFFFFFFFFFFFFF
51515442666665666656656266316521544236663666666636
FFFFFFFFLLLLLFLLLLLLLLLLLLFFFFFFFFFFFLLLLLLLLLLLLL
66661666666666566666112536651454226411524344463242
LLLLLLLLLLLLLLLLLLLLFFFFFFFFFFFFFFFFFFFFFFFFFFFFFF
13661166564155542355655245535645642556666666266666
FFLLLLLLLLFFFFFFFFFFFFFFFFFFFFFFFFFFLLLLLLLLLLLLLL
52564666666616626652362166666616465666641565666666
FFFFFLLLLLLFFLLLLFFFFFFFLLLLLLLLLLLLLLLFFFFFLLLLLL
66462654446166116466562351323445143443442246625226
LLLLFFFFFFFLLLFFFFLLFFFFFFFFFFFFFFFFFFFFFFFLLLFFFF
25156232255454664636343642466626666616261666646664
FFFFFFFFFFFFFFFLLLLLLLLLFFFLLLLLLLLLLLFLLLLLLLLLLL
62636666656536666615643361222652513511265315164111
LLLLLLLLLFFFFLLLLLLFFFFFFFFFFFFFFFFFFFLLFFFFFLFFFF
66665666566666636666666646665666656245411655566666
LLLLLLLLLLLLLLLLLLLLLLLLLLLLLLLLLLLFFFFFFFFFFFFLLL
24564646161262316512256665341635563665663124215331
FFFFFFFFFFFFFFFFFFFFFFFFFFFFFFFFFFFFFFFFFFFFFFFFFF
66661364353142432443216335544253146161521624414344
LLLLFFFFFFFFFFFFFFFFFFFFFFFFFFFFFFFFFFFFFFFFFFFFFF
16266666632533666356314233666614436452653322146455
FLLLLLLLLFFFFFFFFFFFFFFFFLLLLLLFFFFFFFFFFFFFFFFFFF
64221556235311144166666626666444352615436234666325
FFFFFFFFFFFFFFFFFFLLLLLLLLLLLFFFFFLLLLFFFFFFLLLFFF
64622461545623666463266666166666622626332363666614
FFFFFFFFFFFFFFFFLLLLLLLLLLLLLLLLLFFFFFFFFFFFLLLLFF
35326144356162352421235666626355442134334266662115
FFFFFFFFFFFFFFFFFFFFFFFLLLLLLFFFFFFFFFFFFFLLLFFFFF
16131166666631462253421426444615155312365461615354
FFFFFFFLLLLFFFFFFFFFFFFFFFFFFFFFFFFFFFFFFFFFFFFFFF
66666621511366366526663313523264642131356666165456
LLLLLLFFFFFFLLLLLFFFFFFFFFFFFFFFFFFFFFFFLLLLLFFFFF
66561146541263436421131315645154615666632246662653
FFFFFFFFFFFFFFFFFFFFFFFFFFFFFFFFLLLLLLLFFFFLLLLLFF
32141451321633445163133352452241654256656656524351
FFFFFFFFFFFFFFFFFLLLLFFFFFFFFFFFFFFFFLLLLFFFFFFFFF
52164326555461525532611651321514224255521662666646
FFFFFFFFFFFFFFFFFFFFFFFFFFFFFFFFFFFFFFFFFFFFLLLLLL
55521111134565462666466664666666611666664666616666
FFFFFFFFFFFFFFFFFLLLFLLLLLLLLLLLLLLLLLLLLLLLLLLLLL
66666336666166666626666664662435211125266666366666
LLLLLFFFLLLFLLLLLLLLLLLLLLLLFFFFFFFFFFLLLLLLLLLLLL
65564645213336444463243461232411531564441564434146
LLFLFFFFFFFFFFFFFFFFFFFFFFFFFFFFFFFFLFFFFFFFFFFFFL
66426166666633666663166346524642361245451553351213
LLFFLLLLLLLLLLLLLLLFFFFFFFFFFFFFFLLFFFFFFFFFFFFFFF
15316111444256566345355464346666666115562424551321
FFFFFFFFFFFFFFFLLLFFFFFFFFFFFLLLLLLFFFFFFFFFFFFFFF
66656666666662426442656635211536325561352123433315
LFLLLLLLLLLLFFFFFFFFFLLLFFFFFFFFFFFFFFFFFFFFFFFFFF
11156255211521264652265555433246224521122355666366
FFFFFFFFFFFFFFFFFFFFFFFFFFFFFFFFFFFFFFFFFFFFLLFFFL
66614666265666662666636523261564635616456656416655
LLLLLLLLLLLLLLLLLLLFFFFFFFFFFFFFFFFFFFFLLLLLLLLLFL
24166361463561153425251323253642415431664424346144
FFFLLLLFFFFFFFFFFFFFFFFFFFFFFFFFFFFFFFLLLFFFFFFFFF
56666662613666663211655666161666112422656345443633
LLLLLLLFLLLLLLLLLFFFFFFLLLLLLLLLLFFFFFFFFFFFFFFFFF
63165135264466665666252231263244164321665633223524
FFFFFFFFFFFFFFLLLLLLLFFFFFFFFFFFFFFFFFFFFFFFFFFFFF
45432252333451162433541266646666632215636212164643
FFFFFFFFFFFFFFFFFFFFFFFLLLLLLLLLLFFFFFFFFFFFFFFFFF
63266666666666636636442562243421456442451266361343
LLLLLLLLLLLLLLFFFLLLFFFFFFFFFFFFFFFFFFFFFFFFFFFFFF
14324141566161666663631666666366646626666346411665
FFFFFFFFFFFFFFLLLLLLLLLLLLLLLFLLLLLLLLLLLFFFFFFLLL
45214456226666464341262462415161522661266211133511
FFFFFFFFFLLLLLLLFFFFFFFFFFFFFFFFFFFFFFFFFFFFFFFFFF
56213432365664124166526635616666616666666666666666
FFFFFFFFFFFFFFFFFFLLLLLLLLLLLLLLLLLLLLLLLLLLLLLLLL
53432544246666661666625666666466246246366616343635
FFFFFFFFFLLLLLLLLLLLLLLLLLLLLLLLLLLFFLLLLLFFFFFFFF
12311116366215622262223166652666145266125226616656
FFFFFFFLLLLFFFFFFFFFFFFFFFFFFFFFFFFFFFFFFFFFFFLLLL
65124566661165411242355443114625661162262566655531
FFFFFLLLLLFFFFFFFFFFFFFFFFFFFFFFFFFFFFFFFLLLLFFFFF
66656663626416666266666666666464156111656214326432
LLLLLLLFFFFFFLLLLLLLLLLLLLLLLLFFFFFFFFFFFFFFFFFFFF
36345366662143312113231261664665153222213362111611
FFFFFFFLLLFFFFFFFFFFFFFFLLLLLLLFFFFFFFFFFFFFFFFFFF
41414432534524656435412336166662566666356666666666
FFFFFFFFFFFFFLLFFFFFFFFFFFFLLLLLLLLLLLLLLLLLLLLLLL
63112411136666666436334211431256235222636523612464
FFFFFFFFFLLLLLLLLLLLFFFFFFFFFFFFFFFFFLFFFFFFFFFFFF
26662663666665466666566666666666666335333122266423
LLLLLLLLLLLLFFFLLLLLLLLLLLLLLLLLLLLFFFFFFFFFFFFFFF
25364623622346666666566523344432643636646356313613
FFFFFLLFFFFFFLLLLLLLLLFFFFFFFFFFFFFFFFFFFFFFFFFFFF
33525635212351315626666121635566166666664654666626
FFFFFFFFFFFFFFFFFFFLLLLFFFFFFFLLLLLLLLLLLLLLLLLLLL
23443166665666646626153424266533136265142643164253
FFFFFLLLLLLLLLLLLLFFFFFFFFFFFFFFFFFFLFFFFFFFFFFFFF
64636666661662666666666666432326631214344653136611
LLLLLLLLLLLLLLLLLLLLLLLLLLLLFFFFFFFFFFFFFFFFFFLLFF
41466561122426666632566362366256515656662656261242
FFFFFFFFFFFFFLLLLLLFFFFFFFFFFFFFLLLLLLLLLLLLLLFFFF
43653363665264161342366636661541431361423366666126
FFFFFLLLLLLFFFFFFFFFFLLLLLLLFFFFFFFFFFFFFFLLLLLLLL
22463566666616156666646666665445151154626651346634
FFFFFFLLLLLLLLLLLLLLLLLLLLLLFFFFFFFFFFFFFFFFFFFFFF
63141554132242516526666656666666666666666666666666
FFFFFFFFFFFFFFFFFFFFLLLLLLLLLLLLLLLLLLLLLLLLLLLLLL
56111113313661632131613666424665233141444611426664
FFFFFFFFFFFFFFFFFFFFFFFFLLLFFFFFFFFFFFFFFFFFFFFLLL
25242542361235153322226631424221154664554266214316
FFFFFFFFFFFFFFFFFFFFFFFFFFFFFFFFFFFFFFFFFFFFFFFFFF
36232646141251312113436552351145564666666266252233
FFFFFFFFFFFFFFFFFFFFFFFFFFFFFFFFLLLLLLLLLLLLFFFFFF
13321364214666616666313211525556161435541143411656
FFFFFFFFFFFLLLLLLLLLFFFFFFFFFFFFFFFFFFFFFFFFFFFLLL
36125234222664241636366211355651325626222651433556
FFFFFFFFFFFFFFFFFFFFFFFFFFFFFFFFFFFFFFFFFFFFFFFFFF
42142632122263232621246333444616435656616423244336
FFFFFFFFFFFFFFFFFFFFFFFFFFFFFFLLFFFLFFFFFFFFFFFFFF
14561424343562241344621526666654512262666662262633
FFFFFFFFFFFFFFFFFFFFFFFFFLLLLLFFFFFFLLLLLLLFFFFFFF
55352465432211136431531636666666666566666556646654
FFFFFFFFFFFFFFFFFFFFFFFFFFLLLLLLLLLLLLLLLLLLLLLLLL
26266666666511316325446645245662311142665631411144
FFFLLLLLLLLFFFFFFFFFFFFFFFFFFFFFFFFFFFLLFFFFFFFFFF
66664622565666643666666566666566666666626146661666
LLLLLLLFFLLLLLLLLLLLLLLLLLLLLLLLLLLLLLLLLLLLLLLLLL
13115666666566661664316241232155525651223514431366
FFFLLLLLLLLLLLLLLLLLFFFFFFFFFFFFFFFFFFFFFFFFFFFFLL
56666666666466666616666666666656326524666666166666
LLLLLLLLLLLLLLLLLLLLLLLLLLLLLLLLLLLLLLLLLLLLLLLLLL
62144646166664661354165666666666636666666663664663
FFFFFLLLLLLLLFFFFFFFFLLLLLLLLLLLLLLLLLLLLLLLLLLLLL
21462552532136665666562614233132522456426663666663
FFFFFFFFFFFFFLLLLLLFFFFFFFFFFFFFFFFFFFFFLLLLLLLLLL
36636626236163521564514112463645166421134611464165
LLLLLLLLFFFFFFFFFFFFFFFFFFFLLLFFFFFFFFFFFFFFFFFFFF
35221266246222554451344164561362143155666536664324
FFFFFFFFFFFFFFFFFFFFFFFFFFFFFFFFFFFFFFFFFFFFFFFFFF
11453411245511135524161552626626312636666566166666
FFFFFFFFFFFFFFFFFFFFFFFFFFLLLLFLFFFFLLLLLLLLLLLLLL
24655253552143545445246245664364424312435545621623
FFFFLFFFFFFFFFFFFFFFFFFFFFFFFFFFFFFFFFFFFFFFFFFFFF
24141215333466666666664566666666666566332312325451
FFFFFFFFFFFFLLLLLLLLLLLLLLLLLLLLLLLLLLFFFFFFFFFFFF
11353126536311331151113135662663112212664324532312
FFFFFFFFFFFFFFFFLFFFFFFFFLLLLLLFFFFFFFFFFFFFFFFFFF
13312253542165342336666662335454642624525433366514
FFFFFFFFFFFFFFFFFFFFLLLFFFFFFFFFFFFFFFFFFFFFFFFFFF
62264634465616662662421224254144522155415635442234
FFLLLLLLLLLLLLLLLLFFFFFFFFFFFFFFFFFFFFFFFFFFFFFFFF
36666666324466256665666662465433515465421226636246
LLLLLLLLFFFFLLLLLLLLLLLLLFFFFFFFFFFFFFFFFFFLLFFFFF
54312554264615665162642666665324566663165446264625
FFFFFFFFFFFFFFFFFFFFFFFLLLLLFLLLFLLFFFFFFFFFFLFFFF
16151432163164634666334666626213434662332266666666
FFFFFFFFFFFFLFLLLLLFFFFLLLLFFFFFFFFFFFFFFFLLLLLLLL
16464566644565223432556546335626631546154162234623
LLLLLLLLLFFFFFFFFFFFFFFFFFFFFFFFFFFFFFFFFFFFFFFFFF
12231134516544166443564451566516663666666666666666
FFFFFFFFFFFFFFFFFFFFFFFFFFFFFLLLLLLLLLLLLLLLLLLLLL
33663522643165366666666666663661342362331552663666
FFFFFFFFFFFFFFFFLLLLLLLLLLLLLLLFFFFFFFFFFFFFLLLLLL
46434154524553364161246631466666636646666666666664
FLFFFFFFFFFFFFFFFFFFFFFFFFFLLLLLLLLLLLLLLLLLLLLLLL
45122561225463411145256326613645115134656436666646
FFFFFFFFFFFFFFFFFFFFFFFFFFFFFFFFFFFFFFFFFFFLLLLLLL
33612156655646666366646663666666656616662666666366
FFFFFFFFFLLLLLLLLLLLLLLLLLLLLLLLLLLLLLLLLLLLLLLLLL
35215422133352331633142136611223663366623524536666
FFFFFFFFFFFFFFFFFFFFFFFFFFFFFFFFLLFFFFFFFFFFFLLLLL
12341142322655443254666466654524526666666666665522
FFFFFFFFFFFFFFFFFFFFLLLLLLFFFFFFFFLLLLLLLLLLLFFFFF
66666266266162642416666134315433666666661243611126
LLLLLLLLLLLLLFFFFFLLLLFFFFFFFFFLLLLLLLLLFFFFFFFFFF
66266661552321666666666626631141635653161366336665
LLLLLLLLFFFFFFLLLLLLLLLLLLFFFFFFFFFFFFFFFFFFFFFFFF
66123655244545566666666665664666636266626666324541
FFFFFFFFFFFFFFFLLLLLLLLLLLLLLLLLLLLFLLLLLLLLFFFFFF
41242155641354422111161214631331151625222455432133
FFFFFFFFFFFFFFFFFFFFFFFFFFFFFFFFFFFFFFFFFFFFFFFFFF
64124355156532351566666566666666666622332511616351
FFFFFFFFFFFFFFFFFFFLLLLLLLLLLLLLLLLLLFFFFFFFFFFFFF
65342456431165425666666662453424461536666666663556
FFFFFFFFFFFFFFFFFLLLLLLLLFFFFFFFFFFFFFFLLLLLLLFFFF
56666666631456433136412162625631663145666666666646
LLLLLLLLLFFFFFFFFFFFFFFFFFFFFFFFLLLFFFLLLLLLLLLLLL
16666656664244345133322664152451243245646223522342
FLLLLLLLLLFFFFFFFFFFFFFFFFFFFFFFFFFFFFFFFFFFFFFFFF
64544663326456363516646114536226666263666266616666
FFFFFFFFFFFFFFFFFFFFFFFFFFFFFFFLLLLLLLLLLLLLLLLLLL
13563466266666666666666111121442164312545212336666
FFFFFFLLLLLLLLLLLLLLLLLLFFFFFFFFFFFFFFFFFFFFFFFLLL
16666666331516455136626666246466666413523666636666
FFLLLLLLLFFFFFFFFFFFLLLLLLLLLLLLLLLFFFFFFLLLLLLLLL
66666342425514464236234653351266622551241664626666
LLLLLLFFFFFFFFFFFFFFFFFFFFFFFFFLLFFFFFFFLLLFFFLLLL
64666666112666414134552425122552564361436416664314
FFLLLLLLLLLLLLLFFFFFFFFFFFFFFFFFFFFFFFFFLFFLLFFFFF
56666666666345666166661116421163556252516566146543
FFLLLLLLLLLFFFLLLLLLLLFFFFFFFFFFFFFFFFFFFFFFFFFFFF
62466431616424666661115113554552615654352162363162
FFFFFFFFFFFFFFLLLLLFFFFFFFFFFFFFFFFFFFFFFFFFFFFFFF
66666624523115522363645666666665666666322131352566
LLLLLLFFFFFFFFFFFFFFFFFLLLLLLLLLLLLLLLLFFFFFFFFFFF
64133611314555152644623324666635656666661616666666
FFFFFFFFFFFFFFFFFFFFFFFFFFLLLLLLLLLLLLLLLLLLLLLLLL
66646415466626662112334564633121414336663546666666
FFLFFFFFFLLLLLLLFFFFFFFFFFFFFFFFFFFFFLLLLLFLLLLLLL
46666622326354633116215565666266665255626664251326
LLLLLLFFFFFFFFFFFFFLFFFFFFLLLLLLLLLFFFLLLLFFFFFFFF
42452465365152456236166625163433245532612223613346
FFFFFFFFFFFFFFFFLLLLLLLLFFFFFFFFFFFFFFFFFFFFFFFFFL
21462112426125135525433312561163343166335324311666
FFFFFFFFFFFFFFFFFFFFFFFFFFFLFFFFFFFFFFFFFFFFFFFFLL
62321426616222414224545536646511521412214332422561
FFFFFFFFFFFFFFFFFFFFFFFFFLLFFFFFFFFFFFFFFFFFFFFFFF
42232611335612323221423231623562536343324633146536
FFFFFFFFFFFFFFFFFFFFFFFFFFFFFFFFFFFFFFFFFFFFFFLLLL
66363114261446666424115614344661342656366664255422
FFFFFFFFFFFFLLLLLFFFFFFFFFFFFFFFFFFLLLLLLLLLFFFFFF
66211432354454122266662565561666666666616666666146
FFFFFFFFFFFFFFFFFFLLLLFFFFFFFLLLLLLLLLLLLLLLLLLLLL
66666665651314531463344261565615522466456616322666
LLLLLLLLFFFFFFFFFFFFFFFFFFFFFFFFFFFLLLFFFFFLLLLLLL
31643623155662666666666662661122211666666634651265
FFFFFFFFFFLLLLLLLLLLLLLLLFFFFFFFFFFFFLLLLLFFFFFFFF
14226121625232121166666615463564364616253626566625
FFFFFFFFFFFFFFFFFFLLLLLLLFFFFFFFFFFFFFFFFFFFFLLLLL
64151316645366423414345361565364545356666666661311
FFFFFFFFFFFFFFFFFFFFFFFFFFFFFFFFFFFFFLLLLLLLLFFFFF
33132666312661162142312345231613224213526145221111
FFFFFFLFFFFLLFFFFFFFFFFFFFFFFFFFFFFFFFFFFFFFFFFFFF
15552166662656655342656531634464262553665314363646
FFFFFFLLLLLLLLLFFFFFLFFFFFFFFFFFFFFFFFFFFFFFFFFFFF
36223514153666666632533244166651542552121362413116
FFFFFFFFFFFLLLLLFFFFFFFFFFFFFFFFFFFFFFFFFFFFFFFFFF
56666664664666612223143566646166666453144412351216
FLLLLLFFLLLLLLLFFFFFFFFFFLLLLLLLLLLFFFFFFFFFFFFFFL
25666523136566666666663663221341252352545133561532
LLLLLLFFFFFLLLLLLLLLLLLLLFFFFFFFFFFFFFFFFFFFFFFFFF
51252352536213214666666466662666666665264662644125
LFFFFFFFFFFFFFFFFLLLLLLLLLLLLLLLLLLLLLLLLLLFFFFFFF
31563566164556662114556656666155545666521561114262
FFFFFFFFFFFFFFFFFFFFFFLLLLLLLLFFFFFFFFFFFFFFFFFFLL
16632622131251515434544165261421152266433515653264
FFLFFFFFFFFFFFFFFFFFFFFFFFFFFFFFFFFFFFFFFFFFFFFFFF
15665266663626666666566366654515166433351553665641
FFFFFLLLLLFFFLLLLLLLLLFFLLLFFFFFFFFFFFFFFFFFFFFFFF
66666656161626666365666665663666246664136613463331
LLLLLLLLLLLLLLLLLFLLLLLLLLLLLLLLLLLLLFFFFFFFFFFFFF
66666663666143634366166661366366661666666666363666
LLLLLLLLLLLLFFFFFFFLLLLLLLLLLLLLLLLLLLLLLLLLLLLLLL
62655365256524523466115152264352515424465566244342
LFFFFFFFFFFFFFFFFFFFFFFFFFFFFFFFFFFFFFFFFFLFFFFFFF
65326656666666666366315242661511464662662315166665
FFFFLLLLLLLLLLLLLLLLFFFFFFFFFFFFLLLLLLLLFFFFFLLLLL
32652236666646466646614664215215543215231226664666
FFFFFFFFLLLLLFFLLLLLLFFLLFFFFFFFFFFFFFFFFFFFLLLLLL
26663566616612666666662461435356665436552666266666
FLLLLLLLLFLLLLLLLLLLLLFFLFFFFFLLLLLFFFFFFLLLLLLLLL
66666664646656666666466664164363666666666663333263
LLLLLLLLLLLLLLLLLLLLLLLLLLLLLLLLLLLLLLLLLLLFFFFFFF
11666625223234613131251646464164161166666162564635
LLLLLLFFFFFFFFFFFFFFFFFFFFFFFFFFFFFLLLLLLFFFFFFFFF
61446251436666366453663212166514466636666636662221
LFFFFFFFFFLLLLLLLFFFLLLFFFFFFFFFFLLLLLLLLLLLLLFFFF
51463666661464131455311442433115464566151426342242
FFFLLLLLLFFFFFFFFFFFFFFFFFFFFFFFFFFFFFFFFFFFFFFFFF
66662633243515311566666666664126666315164532333513
LLLLLLFFFFFFFFFFFFLLLLLLLLLLFFFFFFFFFFFFFFFFFFFFFF
53223114114335666666666462566666666636666666635546
FFFFFFFFFFFFFLLLLLLLLLLLLLLLLLLLLLLLLLLLLLLLLLFFFF
36652626423153554444636236166616333214443333446352
FFFFFFFFFFFFFFFFFFFFFFFFFFFLLLLLFFFFFFFFFFFFFFFFFF
23332434632444324166314341241614154543135262355255
FFFFFFFFLFFFFFFFFFFFFFFFFFFFFFFFFFFFFFFFFFFFFFFFFF
66244156365663661215556142511211465225246166666666
LLFFFFFFFLLLLLLLFFFFFFFFFFFFFFFFFFFFFFFFFFLLLLLLLL
55421515521226244332533255652666153555351452622416
FFFFFFFFFFFFFFFFFFFFFFFFFFFFFLLLFFFFFFFFFFFFFFFFFF
66621655645616226662666666266666666666636616663612
LLLLLLLLLFFFFFFFLLLLLLLLLLLLLLLLLLLLLLLLLLLLLLFFFF
66563353441336626355544641343666645212342425343466
FFFFFFFFFFFFFFFFFFFFFFFFFFFFFLLLLFFFFFFFFFFFFFFFLL
63541321115356266336663666624336415422113346254545
FFFFFFFFFFFFFFFLLLLLLLLLLLLLFFFFFFFFFFFFFFFFFFFFFF
66666663665166666566636666166666665445623544134146
LLLLLLLFLLLLLLLLLLLLLLLLLLLLLLLLLLFFFFFFFFFFFFFFFF
46666433235111255465354115426645612311566666665661
LLLLLLFFFFFFFFFFFFFFFFFFFFFFFFFFFFFFFFFLLLLLLLLLLL
65453422243366666666666666661266336656666666664666
FFFFFFFFFFFFFFFLLLLLLLLLLLLLLLLLLLLLLLLLLLLLLLLLLL
66626656334264635255515366364116463211511426256266
LLLLLLFFFFFFFFFFFFFFFFFFLLLFFFFFFFFFFFFFFFFLLLLLLL
66666666166664366622526636466664266536341533133231
LLLLLLLLLLLLLLLLLFFFFFFFFFFFLLLLLLFFFFFFFFFFFFFFFF
43546156135343663636342431464516616666663244544553
FFFFFFFFFFFFFFFFFFFFFFFFFFFFFFFFLLLLLLLLLLFFFFFFFF
22535212651261155362666516232125262325635666663265
FFFFFFFFFFFFFFFFFFFFFFFFFFFFFFFFFFFFFFLLLLLLLLLLLL
16363626666661111221626124641255266252245525666463
FFFFFLLLLLLLLFFFFFFFFFFFFFFFFFFFFFFFFFFFFFFLLLLLLF
66655166614263521442321523666141242524546124146666
LLLLLLLLFFFFFFFFFFFFFFFFFFFFFFFFFFFFFFFFLLFFFFLLLL
13466666666652325622431264562536635566612446144626
LFFFLLLLLLLLLLFFFFFFFFFFFFFFFFFFFFFLLLFFFFFFFFFLLL
62266626636346666616661616152624124452434522312423
LLLLLLLLLLLLLLLLLLLLLLLLFFFFFFFFFFFFFFFFFFFFFFFFFF
66666661666636466616666664666661666622332434512512
LLLLLLLLLLLLLLLLLLLLLLLLLLLLLLLLLLLLFFFFFFFFFFFFFF
24622525154343131211461324661166666366333523156464
FFFFFFFFFFFFFFFFFFFFFFFFFFFFFFFFFLLLLLLFFFFFFFFFFF
61566454346111126633111146411466664556263666466235
FFFLLFFFFFFFFFFFFFFFFFFFFFFFFFLLLLLFFLFFFFLLLLLLFF
66663666666666636252366253524123151161566666662616
LLLLLLLLLLLLLLLLLFFFFLLFFFFFFFFFFFFFFFFLLLLLLLLLLL
55533222342443121333644213213262236666643416666666
FFFFFFFFFFFFFFFFFFFFFFFFFFFFFFFFFFLLLLLFLFFLLLLLLL
53144463314133655661531356266365165351516612263566
FFFFFFFFFFFFFFFFFFFFFFFFFFFFFFFFFFFFFFFFFFFFFFFFLL
32161362664246666666546451254165434645664256456636
FFFFFFFFFFFFFFLLLLLLLFFFFFFFFFFFFFLLFFLLFFLLLLLLLL
35414511243665214664166666666466666666641163566666
FFFFFFFFFFFLLFFFFFFFFLLLLLLLLLLLLLLLLLLFFFLLLLLLLL
64635416566612543253324452541666462511666456446666
LFFFFFFFLLLLLFFFFFLFFFFFFFFFFFFFFFFFFFLLLLLLFFLLLL
66622324651321234354116543364433623562513356335544
LLLFFFFFFFFFFFFFFFFFFFFFFFFFFFFFFFFFFFFFFFFFFFFFFF
56123253122116366634314331653153166666442525236556
FFFFFFFFFFFFFLLLLLFFFFFFFFFFFFFFFLLLLLFFFFFFFFFFFF
44523666666654165554311513134446555235154553253512
FFFFFLLLLLLLFFFFFFFFFFFFFFFFFFFFFFFFFFFFFFFFFFFFFF
26155515241663542155143415626646666266666165362454
FFFFFFFFFFFFFFFFFFFFFFFFFFLLLLLLLLLLLLLLLFFFFFFFFF
26453366432555554466122414545416631351651131641251
FFFFFFFFFFFFFFFFFFFFFFFFFFFFFFFFFFFFFFFLFFFFFFFFFF
52166666636666666266666166654131346631644623355516
FFFLLLLLLLLLLLLLLLLLLLLLLLFFFFFFFFFFFFFFFFFFFFFFFF
46666615166665251331251441155261453532666666436566
FLLLLFFLLLLLLLFFFFFFFFFFFFFFFFFFFFFFFFLLLLLLLLLLLL
63126232513531216663616145362366423156463456446614
FFFFFFFFFFFFFFFFLLLLLFFFFFFLLLLLFFFFFFFFFFFFFFFFFF
13636666666665611255335514361211513351553351626334
FFFLLLLLLLLLLFFFFFFFFFFFFFFFFFFFFFFFFFFFFFFFFFFFFF
66366462666666646666665633216365116626314235345666
LLLLLLLLLLLLLLLLLLLLLLLLFFFFFFFFFFFFFFFFFFFFFFFLLL
25456566536535261615123244246666616666566666663631
FFFFFFFFFFFFFFFFFFFFFFFFFFFFLLLLLLLLLLLLLLLLLLFFFF
46523112614625434343634352241516525625466546116666
FFFFFFFFFFFFFFFFFFFFFFFFFFFFFFFFFFFFFFFFLFFLLLLLLL
65342212624516665215421136431323334316556165465114
LFFFFFFFFFFFLLLLFFFFFFFFFFFFFFFFFFFFFFFFFFFFFLFFFF
54662653131422353533121143645313112123263536436235
FFLLLLFFFFFFFFFFFFFFFFFFFFFFFFFFFFFFFFFFFFFFFFFFFF
34116625654261561425622653664542336266666656666226
FFFFFFFFFFFFFFFFFFFFFFFLLLLLFFFFFFFFLLLLLLLLLLLLLL
65223656314561534336536652261636626665225661464415
FFFFFFFFFFFFFFFFFFFFFFFFFFFFFFFFFFLLLFLLLLLLFFFFFF
51423524232136165655242656135451325456221144632526
FFFFFFFFFFFFFFFFFFFFFFFFFFFFFFFFFFFFFFFFFFFFFFFFFF
63166126666362624666636666666616456622335321562631
LLLLLLLLLLLLLFLLLLLLLLLLLLLLLLLLLLLLLFFFFFFFFFFFFF
54316266124232236345533611615153325462241666661336
FFFFFLLLFFFFFFFFFFFFFFFFFFFFFFFFFFFFFFFLLLLLLLLLLL
42553312626325322666656626666666646243313264425666
FFFFFFFFFFFFFFFFFLLLLLLLLLLLLLLLLFFFFFFFFFFFFFFLLL
66651666653566665666662635614632153435353125566121
LLLLLLLLLLFFFLLLLLLLLLFFFFFFFFFFFFFFFFFFFFFFFLLLLF
66354366656333123666616666366612133611145664243634
LLFFFFLLLFFFFFFFFLLLLLLLLLLLLLFFFFFFFFFFFFFFFFFFFF
21112534125144352356621626543416644666664666634652
FFFFFFFFFFFFFFFFFFFFFFFFFFFFFFFLLFFFFLLLLLLLLFFFFF
66666666663662666666663526263234212363334213324531
LLLLLLLLLLLLLLLLLLLLLLFFFFFFFFFFFFFFFFFFFFFFFFFFFF
31131345652464666514545246114353462132211155166661
FFFFFFFFFFFFFFFFFFFFFFFFFFFFFFFFFFFFFFFFFFFLLLLLLF
66666146263566663664116663664666364636666566666616
LLLLLFFFFFFFFFLLLLLFFFLLLLLLLLLLLLLLLLLLLLLLLLLLLL
66666624626666141166661666544666666666266634666545
LLLLLLLLLLLLLLFFFFLLLLLLLLFFFFLLLLLLLLLLLLLLLFFFFF
66366626656666466666514665254411361224112152156161
LLFLLLLLLLLLLLLLLLLLLLLLLFFFFFFFFFFFFFFFFFFFLLLLLF
11156645654153152124111465546451524152162622122515
FFFFFFFFFFFFFFFFFFFFFFFFFFFFFFFFFFFFFFFFFFFFFFFFFF
66636126666666666666656166366632362452436442451646
LLLLLLLLLLLLLLLLLLLLLLLLLLLLLLFFFFFFFFFFFFFFFFFFLL
36632211441231412223336262256526666636666625211152
LLLLFFFFFFFFFFFFFFFFFFFFFFFFFFFLLLLLLLLLLLLFFFFFFF
36254224244646226526311233551231345214654366163166
FFFFFFFFFFFFFFFFFFFFFFFFFFFFFFFFFFFFFFFFFFFFFFFFLL
64154612463242353463544513441431446366635434354256
FFFFFLLLFFFFFFFFFFFFFFFFFFFFFFFFFFFFLLLFFFFFFFFFFF
36546616441421643151523156433545321126656616266666
FFFFFFFFFFFFFFFFFFFFFFFFFLLFFFFFFFFFLLLFLLLLLLLLLL
25614264632126666336666665664665466416555544666553
FFFFFFFFFFFFFLLLLLLLLLLLLLLLLLLLLLLFFFFFFFFFFFFFFF
35234233566651341235542416411623225652666666653531
FFFFFFFFFFLLFFFFFFFFFFFFFFFFFFFFFFFFFFLLLLLLLFFFFF
42232623515355654366663261445356624553312514665552
FFFFFFFFFFFFFFFFFFLLLLFFFFFFFFFFFFFFFFFFFFFFFFFFFF
34353615146633153325556425252356566151666156154566
FFFFFFFFFFFFFFFFFFFFFFFFFFFFFFFFFFFFFFFFFFFFFFFFLL
26664325231366666166463664666465466626265361146432
FLLLLFFFFFFLLLLLLLLLLLLLLLLLLLLFLLLLFFFFFFFFFFFLLL
66666266536662362666666266666166662666666666664446
LLLLLLLLFFFFFFFFFFLLLLLLLLLLLLLLLLLLLLLLLLLLLLLLLL
42214656661626232623655114344346166534266666262434
FFFFFFFLLLFFFFFFFFFFFFFFFFFFFFFLLLFFFFLLLLLLLLFFFF
66666666664121561541666266356612566533236166216513
LLLLLLLLLLLFFFFFFFFFLLLLLLLFFLFFFFFFFFFFFFFFFFFFFF
66366666636663552454554266666524113366666631364651
LLLLLLLLLFLLLFFFFFFFFFFFLLLLLFFFFFFFLLLLLLFFFFFFFF
66661162455223663666666616666665445542136555226656
LLLLFFFFFFFFFFFLLLLLLLLLLLLLLLLLFFFFFFFFFFFFFFFFFF
53344666666614616364313216242233342512546235535531
FFFFFLLLLLLLFFFFLLLLFFFFFFFFFFFFFFFFFFFFFFFFFFFFFF
64112622154565431365511152133114351152242414211544
LLLLLLFFFFFFFFFFFFFFFFFFFFFFFFFFFFFFFFFFFFFFFFFFFF
36565534255431666616666666666666666666666666664616
FFFFFFFFFFFFFFLLLLLLLLLLLLLLLLLLLLLLLLLLLLLLFFFLLL
46666666265421313512366666366654151266221412666264
FLLLLLLLLLLFFFFFFFFFLLLLLLLLLLLFFFFLLLFFFFFFFLLLLF
26366122431261311164465666666666646666435336311142
FFFFFFFFFFFFFFFFFFFFFLLLLLLLLLLLLFLLLLFFFFFFFFFFFF
66664661666656166663666636661645411344436466666215
LLLLLLLLLLLLLLLLLLLLLLLLLLLLLLFFFFFFFFFFFFLLLLFFFF
33634516563666666666223442635543521315536415422155
FFFFFFFFFFLLLLLLLLLLFFFFFFFFFFFFFFFFFFFFFFFFFFFFFF
61516111246233233443416666461226641545656662461663
FFFFFFFFFFFFFFFFFFFFFFLLLLFFFFFFFFFFFFLLLLLLLLLLLL
32153643226312256543465666666666666151466616416666
FFFFFFFFFFFFFFFFFFFFFFFLLLLLLLLLLLLLFFFLLLLLLLLLLL
56323564622112666666662666635666666666666666664416
LLFFFFFFLLFFLLLLLLLLLLLLLLLFFLLLLLLLLLLLLLLLLLFFLL
32546621355464356543563234131263453543436364442361
FFFFFFFFFFFFFFFFFFFFFFFFFFFFFFFFFFFFFFFFFFFFFFFFFF
41251265535566666466166616346421423246212431245454
LFFFFFFFFFFFLLLLLLLLLLLLFFFFFFFFFFFFFFFFFFFFFFFFFF
56151621224442562666664454366456614532541164456666
LLLFFFFFFFFFFFFLLLLLLLFFFFFFFFFFFFFFFFFFFFFFFFFLLL
52226633665446325322665666656666456666664651625126
FFFFFFFFFFFFFFFFFFFFLLLLLLLLLLLLLLLLLLLLLLLFFFFFFF
46366641554266656363454435514646636665662462666666
FFFLLLFFFFFFLLLLLLLFFFFFFFFFFFFLLLLLLLLLLLLLLLLLLL
24444412311546133666666462516665524416366666636366
FFFFFFFFFFFFFFFFFLLLLLLFFFFFFLLFFFLLLLLLLLLLLFFFFF
36663666662666662662314123661131436413365136461666
FLLLLLLLLLLLLLLLLLLFFFFFFFFFFFFFFFFFFFFFFFFLLLLLLL
11633646624125241251413333216423666666666666643461
FFFFFFFFFFFFFFFFFFFFFFFFFFFFFFFFLLLLLLLLLLLFFFFFFF
35235532461652526362461666666666666666666666466126
FFFFFFFFFFFFFFFFFFFFFLLLLLLLLLLLLLLLLLLLLLLLLLLLLL
54666662136666666166616631666666663656452656156615
FFLLLLLLLLLLLLLLLLLLLLLLLLLLLLLLLLLLLLFFFFFFFFFFFF
26111565613124213566613343313246535313312256416316
FFFFFFFFFFFFFFFFFFLLLLFFFFFFFFFFFFFFFFFFFFFFFFFFFL
36666624233144425645455364366166666666656666621533
FLLLLLLFFFFFFFFFFFFFFFFFFFFFLLLLLLLLLLLLLLLLLFFFFF
63611144136442461266323356365453512411534124436352
LLFFFFFFFFFFFFFFFFFFFFFFFFFFFFFFFFFFFFFFFFFFFFFFFF
61252236666555641422666664363666666566511141413151
LFFFFFFLLLLFFFFFFFFLLLLLLLLLLLLLLLLLLFFFFFFFFFFFFF
54311344566664266312516412462622333561223163315243
FFFFFFFFLLLLLLLLFFFFFFFFFFFFFFFFFFFFFFFFFFFFFFFFFF
45322331661616666466561135456155562666666612666326
FFFFFFFLLLFLLLLLLLLLLLLFFFFFFFFFFLLLLLLLLLLLLLFFFF
24424532113361414355223314465456643112566622153122
FFFFFFFFFFFFFFFFFFFFFFFFFFFFFFFFFFFFFFFFFFFFFFFFFF
66664266666666666256635525133421364545651461222542
LLLLLLLLLLLLLLLLLLLLLFFFFFFFFFFFFFFFFFFFFFFFFFFFFF
23666666665666666632361564512266166466616666666316
LLLLLLLLLLFLLLLLLLFFFFFFFFFFFFLLLLLLLLLLLLLLLLLFFF
61623165435325166646144361466245626456562656612345
FFFFFFFFFFFFFFFFLLFFFFFFFFFFFFFFFFFFLLFFFFFFFFFFFF
53533424135636632255316666166666666666666161666465
FFFFFFFFFFFFFFFFFFFFFLLLLLLLLLLLLLLLLLLLLLLLLLLLLF
52451116662636666316166646626266241264432352334646
FFFFFFFLLLLLLLLLLLLLLLLLLLLLLLLLFFFFFFFFFFFFFFFFFF
33426512533236132314611414661453152566252644141561
FFFFFFFFFFFFFFFFFFFFFFFFFFFFFFFFFFFFFFFFFFFFFFFFFF
12123364456221645245516214441646566666466666366666
FFFFFFFFFFFFFFFFFFFFFFFFFFFFFFLLLLLLLLLLLLLLLLLLLL
55236511635564211446131442366316642146666666666666
FFFFFFFFFFFFFFFFFFFFFFFFFFFFFFFFFFFFFLLLLLLLLLLLLL
46435116633511562325642212412226113126441134223631
FFFFFLLLLFFFFFFFFFFFFFFFFFFFFFFFFFFFFFFFFFFFFFFFFF
54256356436666363666666622615124422424616666666666
FFFFFFFFFFLLLLLLLLLLLLFFFFFFFFFFFFFFFFLLLLLLLLLLLL
36133114165651222546156666443666666666662236223136
FFFFFFFFFFFFFFFFFFFFFFLLLLFFFLLLLLLLLLLFFFFFFFFFFL
61666666666643663666666666166656661664416666666362
LLLLLLLLLLLLFFFLLLLLLLLLLLLLLLLLLLFFFFFFLLLLLLLFFF
21536666666636115661124236654364363663421534626624
LLLLLLLLLLLLLLFFFFFFFFFFFFFFFFFFFFFFFFFFFFFFLLLLFF
33162262245423446524216666625234156215411166215424
FFFFFFFFFFFFFFFFFFFFFFLLLLLLFFFFFFFFFFFFFFFFFFFFFF
66335311545464431562624343456432236331332233625461
LFFFFFFFFFFFFFFFFFLLLFFFFFFFFFFFFFFFFFFFFFFFFFFFFF
45211666663646266666634444264654325515211626424653
FFFFFLLLLLLLLLLLLLLLLLFFFFFFFFFFFFFFFFFLLLLLFFFFFF
22452565161562644423532612256255636666411533643346
FFFFFFFFFFFFFFFFFFFFFFFFFFFFFFFLLLLLLLFFFFFFFFFFFF
56634646456352166624624634366652666666666666663315
FFFFFFFFFFFFFFFFFFFFFFFFFFFLLLFFFLLLLLLLLLLLLLFFFF
66643665422443435665545524111312223555516634112366
LLLLLLFFFFFFFFFFFFFFFFFFFFFFFFFFFFFFFFFFFFFFFFFFFF
13115446332524562261452365553112214445445145364216
FFFFFFFFFFFFFFFFFFFFFFFFFFFFFFFFFFFFFFFFFFFFFFFFFF
42136214644414664166516663666663146666666542363436
FFFFFFFFFFFFFFFFFFLLLLLLLLLLLLLLLLLLLLLLLFFFFLLFFF
46125444613551555263645334335114641466162614566366
FFFFFFFFFFFFFFFFFFFFFFFFFFFFFFFFFFFFLLLLLLLLLLLLLL
16361666666666655666666466166366661666616622665512
FLLLLLLLLLLLLLLLFFFLLLLLLLLLLLLLLLLLLLLLLFFFFFFFFF
31234652351143342314366542145412615646461345314166
FFFFFFFFFFFFFFFFFFFFFLLFFFFFFFFFFFFFFFFFFFFFFFFFFL
65365644546353223235666633325156264662322426441565
FFFFFFFFFFFFFFFFFFFFLLFFFFFFFFFFFFFFFFFFFFFFFFFFFF
66666666646546331452531355666666666661266215454444
LLLLLLLLLLLFFFFFFFFFFFFFLLLLLLLLLLLLLFFFFFFFFFFFFF
66634661666115452454456624322562443543662161242123
LLLFFLLLLLLFFFFFFFFFFFFFFFFFFFFFFFFFFFLLFFFFFFFFFF
54462156642434651564211615345633613341354641665345
FFFFFFFFFFFFFFFFFFFFFFFFFFFFFFFFFFFFLLFFFFFFLLFFFF
26666636623236236636666655555332562636662666263635
FLLLLLLLFFFFFFFFFFFLLLLLLFFFFFFFFFFLLLLLLLLLFFFFFF
64666366666131263215635122266636666466616666662666
LLLLLFLLLFFFFFFFFFFFFFFFFFFLLLLLLLLLLLLLLLLLLLLLLL
25366666666166662466666626662666166664666166666666
FFFFFLLLLLLLLLLLLLLLLLLLFLLLLLLLLLLLLLLLLLLLLLLLLL
56313625543265566666665643656666626666661666164144
FFFFFFFFFFFFFFFFFFFFFFFFFFFFFLLLLLLLLLLLLLLLLLFFFF
35551466522533456265122613536414334554166666626666
FFFFFFLLLFFFFFFFFFLFFFFFFLFFFFFFFFFFFFFLLLLLLLLLLL
53125666631465436356144666666166644661266624666334
FFFFFFFFFFFFFFFFFFFFFFLLLLLLLLLLLFFLLLLLLLLLLLLFFF
14244524156266646642352363563561352651666666663666
FFFFFFFFLLLLLLLLLLFFFFFFFFFFFFFFFFFFFFLLLLLLLLLLLL
65254666666631215664442256141421231216531412513621
FFFFFLLLLLLLFFFFFFFFFFFFFFFFFFFFFFFFFFFFFFFFFFFFFF
46225211515546141643214363126634456666666666666616
FFFFFFFFFFFFLLLLLLFFFFFFFFFLLFFFFFLLLLLLLLLLLLLLLL
23263643363665364666666666563255166655525263316132
FFFFFFFFFFFFFFFLLLLLLLLLLFFFFFFFFFFFFFFFFFFFFFFFFF
63666626666231361331216612423466133323465461123235
LLLLLLLLLLLLLLLFFFFFFFFFFFFFFFFFFFFFFFFFFFFFFFFFFF
36661564525626666562665552431156335452211163645434
LLLLFFFFFFFLLLLLLLLLLLLLFFLLLLFFFFFFFFFFFFFFFFFFFF
33264461333366526362356666366665666666666655313341
FFFFFFFFFFFFFFFFFFFFFFLLLLLLLLLLLLLLLLLLLFFFFFFFFF
66664651242566666666456666666666666226626652631323
LLLLFFFFFFFFLLLLLLLLFFLLLLLLLLLLLLLFFFFFLLFFFFFFFF
15136636625666646662666666266423313254666666646323
FFFFLLLLLLLLLLLLLLLLLLLLLFFLLLFFFFFFFFLLLLLLLLLLFF
33111633332663143111166666466666666166614423616661
FFFFFFFFFFFFFFFFFFFFFLLLLLLLLLLLLLLLLLLFFFFLLLLLLL
66666562226564622166666666664621126631215526664516
FFLLLFFFFFFFLLLLLLLLLLLLLLLLFFFFFFFFFFFFFFFFFFFFFF
21366666644316314132415462636252466666566666625626
FFFLLLLLFFFFFFFFFFFFFFFFFFFFFFFFFLLLLLLLLLLLLFFFFL
54546664366663466666646666651356215621321165215666
FFFFFLLLLLLLLLLLLLLLLLLLLLLLFFFFFFFFFFFFFFFFFFFLLL
66553164656666666466164646431426226166666666416662
FFFFFFFFLLLLLLLLLLLLLLLLLLFFFFFFFFLLLLLLLLLLLLLLFF
54531533642566265665266662116666464346662266421555
LFFFFFFFFFFFLLFFFFFFLLLLLLLLLLLLLFFFFLLLLLLLFFFFFF
61622163115414244115262451345215214213361464311212
FFFFFFFFFFFFFFFFFFFFFFFFFFFFFFFFFFFFFFFFFFFFFFFFFF
66666645555125635563632121111242615342566566612553
LLLLLLFFFFFFFFFFFFFFFFFFFFFFFFFFLFFFFFFLLLLLLLFFFF
53125214664254545462434165333124161555425115161145
FFFFFFFLLLFFFFFFFFFFFFFFFFFFFFFFFFFFFFFFFFFFFFFFFF
42142345665666621153566666466666663135312154335262
FFFFFFFFLLLLLLLFFFFFFLLLLLLLLLLLLLFFFFFFFFFFFFFFFF
54253656666666656166664235216326666666661666126635
FFFLLLLLLLLLLLLLLLLLLLFFFFFFFFFLLLLLLLLLFFFFFFLLFF
13646511561562314632556651531124533362363266626666
FFFFFFFFFFFFFFFFFFFFFFLLFFFFFFFFFFFFFFFFFFFLLLLLLL
44256666666666666666663225614325526666466636656666
FFFFLLLLLLLLLLLLLLLLLLFFFFFFFFFFFFLLLLFLLLLLLLLLLL
61536116514122146614461136465523211441536246263533
FFFFFFFFFFFFFFFFFFFFFLFFFFFFFFFFFFFFFFFFFFFFFFFFFF
56363326545511652515162666626646666636666423354625
FFFFFFFFFFFFFFFFFFFFFFFFLLLLLLLLLLLLLLLLLFFFFFFFFF
31262256531433335566422266261225122346254335265412
FFFFFFFFFFFFFFFFFFLLLFFFFFFFFFFFFFFFFFFFFFFFFFFFFF
32156135665446666665313632225646132566666466366623
FLFFFFFFLLLLLLLLLLLFFFFFFFFFFFFFFFFFFLLLLLLLLLLLFF
14662554231166436666642666666666663666461266666341
FFFFFFFFFFFFFFFFLLLLLFFLLLLLLLLLLLLLLLFFFFLLLLLLFF
62416264646422334663662466662646635143525455464153
FFFFLLLLLLLFFFFFLLLLLLLLLLLLLLLLLFFFFFFFFFFFFFFFFF
12114362342256325324344665526431436663126553324653
FFFFFFFFFFFFFFFFFFFFFFFFFFFFFFFFFLLLLFFFFFFFFFFFFF
61211341264514262146362234456565154514255653666463
FFFFFFFFFFFFFFFFFFFFFFFFFFFFFFFFFFFFFFFFFFLLLLLLLF
66566235424431465552165646663111143464534344525662
LLLLLFFFFFFFFFFFFFFFFFFFLLLLLFFFFFFFFFFFFFFFFFFFFL
66166626155266462335464413663311414666666666666616
LLLLLLLLLFFFFFFFFFFFFFFFFFFFFFFFFLLLLLLLLLLLLLLLLL
46656214536421266445361616636666641512236464354551
FLLFFFFFFFLFFFFFFFFFFLLLLLLLLLLLLFFFFFFFFFFFFFFFFF
13626646624163626436666666666666616662566656666666
FFFFFFFFFFFFLLLLLLLLLLLLLLLLLLLLLLLLLLLLLLLLLLLLLL
41622611661545616361515231352363612613313615626666
FFFFFFFFLLFFFFFFFFFFFFFFFFFFFFFFFFFFFFFFLLFLLLLLLL
61541235341115213162536522533454411462455456221546
FFFFFFFFFFFFFFFFFFFFFFFFFFFFFFFFFFFFFFFFFFFFFFFFFF
44334651543153231526623533312423535462343556666666
FFFFFFFFFFFFFFFFFFLFFFFFFFFFFFFFFFFFFFFFFFFFLLLLLL
22214221216566453466666666411333252663216315336455
FFFFFFFFFFLLLFFFFFLLLLLLLLLFFFFFFFFFFFFFFFFFFFFFFF
66266666666666662556255414262653154551436436523462
LLLLLLLLLLLLLLLLLLLLFFFFFFFFFFFFFFFFFFFFFFFFFFFFFF
44444332521551366666661663665212111616422563216161
FFFFFFFFFFFFFFFLLLLLLLLLLFFFFFFFFFFFFFFFFFFFFFFFFF
61236541645564366616646666466542216331666666666661
FFFFFFFFFFFFFFFLLFFFFLLLLLLLLLFFFFFFFFLLLLLLLLLLLF
36662456244241346563541666666666666146143641426161
LLLLFFFFFFFFFFFFFFFFFFFFFLLLLLLLLLLFFFFFFFFFFFFFFF
66566566666666666626515626666166653653265165224154
LLLLLLLLLLLLLLLFLLLLLFLLLLLLLLLLLFFFFFFFFFFFFFFFFF
55546666666665434554645351525556666666636564664666
FFFFLLLLLLLFFFFLFFFFFFFFFFFFFFLLLLLLLLLLLLLLLLLLLL
32666626246442425444135246661142433151243546435256
FFFLLLFFFFFFFFFFFFFFFFFFFFFLFFFFFFFFFFFFFFFFFFFFFF
14614332126632155661631232214232512256666666666621
FFFFFFFFFFFFFFFFFFFLLFFFFFFFFFFFFFFFFLLLLLLLLLLLFF
66656666665641322665666662666666666666456532146646
LLLLLLLLLLLLLFFFFLLLLLLLLLLLLLLLLLLLFFFFFFFFFFLLLL
66661661666666666624156124612361262132631265522343
LLLLLLLLLLLLLLLLLLFFFFFFFFFFFFFFFFFFFFFFFFFFFFFFFF
35561515516311416266561665663543265643452561224121
FFFFFFFFFFFFFFFFFFFLLLLLLLLLLFFFFFFFFFFFFFFFFFFFFF
56455142514152255664366241231245524666461414162246
FFFFFFFFFFFFFFFFFFFFFFFFFFFFFFFFFFFFFFFFFFFFFFFFFF
22366166666616666662656666665662654134634131641316
FFFFFFFLLLLLLLLLLLLLLLLLLLLLLLLLLFFFFFFFFFFFFFFFFF
24621362622616553624236666666664616652665166666466
FFFFFFLLLLLLFFFFFFFFFFLLLLLLLLLFFFFFFFLLLLLLLLLLLL
22616643664125336666666266645425655566236626636666
FFFFFFFFFFFFFFFFLLLLLLLLLLLFFFFFFFFFFFFFLLLLLLLLLL
46324156253354266666136266362342423266413355545245
FFFFFFFFFFFFFFFFLLLLFFFFFFFFFFFFFFFFFFFFFFFFFFFFFF
66646426666636466656666666666662454652653163355344
LLLLLLLLLLLLLLLLLLLLLLLLLLLLLLLFFFFFFFFFFFFFFFFFFF
66616666666666666663666156546466161132554314521552
LLLLLLLLLLLLLLLLLLLLLLLFFFFFFFFFFFFFFFFFFFFFFFFFFF
65664536242643211235514623533255116666421224116344
LLLLFFFFFFFFFFFFFFFFFFFFFFFFFFFFFLLLLLFFFFFFFFFFFF
21134411254213563134256441336162211316363314243255
FFFFFFFFFFFFFFFFFFFFFLLLFFFFLLFFFFFFFFFFFFFFFFFFFF
65423443253641356526266666545524266666661466362526
LFFFFFFFFFFFFFFFFFFFFLLLLLFFFFFLLLLLLLLLLLLLFFFFFF
52345653616643352566631424434515625122524366665566
FFFFFFFFFFFFFFFFFFFLLLFFFFFFFFFFFFFFFFFFLLLLLLLLLL
62222143565661222366116645633114556212563663126656
FFFFFFFFFFFFFFFFFFLLFFLLFFFFFFFFFFFFFFFFFFLLLLLLLL
41162661616151316666366666666354324546521236362312
FFFFFFFFFFFFFFFFLLLLLLLLLLLLLFFFFFFFFFFFFFFFFFFFFF
45444232546456545663331514233623434111666666466656
FFFFFFFFFFFFFFFFFFFFFFFFFFFFFFFFFFFFFLLLLLLLLLLLLL
66165663666124431616466266663666261121543221233264
LLLLLLLLLLFFFFFFFFFLLLLLLLLLLLLFFFFFFFFFFFFFFFFFFF
43456626665653666665666666666666666516665335346662
FFFLLLLLLLLLLLLLLLLLLLLLLLLLLLLLLLLLLLLLFFFFFFFFLL
66636626245332411466662666666462215162521366666645
LLLLLLLLFFFFFFFFFFLLLLLLLLLLLFFFFFFFFFFFFFLLLLLLLF
24213525362516664132161614625216654413266666635544
FFFFFFFFFFFFFLLLFFFFFFFFFFFFFFFFFFFFFFFLLLLLLFFFFF
56256663132515666663666666666631616444131462131363
FLLLLLLFFFFFFFFLLLLLLLLLLLLLLLLLLLLFFFFFFFFFFFFFFF
51225631315464525143463245635666633442633522531342
FFFFFFFFFFFFFFFFFFFFFFFFFLLFFLLFFFFFFFFFFFFFFFFFFF
52616151125316334666526536664164636632566646666666
FFFFFFFFFFFFFFFLLLLLFFFFFFFFFFFLLLLFFFLLLLLLLLLLLL
35145632544246266666666661666154131253342513662664
FFFFFFFFFFFFFFFLLLLLLLLLLLLLLFFFFFFFFFFFFFFFFFFFFF
32633642213455246242435164526221455334646664631213
FFFFFFFFFFFFFFFFFFFFFFFFFFFFFFFFFFFFFFFFFFFFFFFFFF
61666666566666662332651652666653515664662145354146
LLLLLLLLLLLLLLLLLFFFFFFFFFLLLLFFFFFLLLLLLLLFFFFFFF
66666636646666653416252526552654543221665551452422
LLLLLLLLLLLLLFFFFFFFFFFFFFFFFFFFFFFFFFFFFFFFFFFFFF
23452466666666666666666353321151121666626666222265
FFFFFLLLLLLLLLLLLLLLLLFFFFFFFFFFFFFLLLLLLLLLFFFFLL
64516341612563513344666666662666664666232551424552
FFFFFFFFFFFFFFFFFFFLLLLLLLLLLLLLLLLLLLFFFFFFFFFFFF
16314245633265323563561545244143311136255114656615
FFFFFFFFFFFFFFFFFFFFFFFFFFFFFFFFFFFFFFFFFFFFFFLLFF
66465235515326524554413112554334444251445134113135
FFFFFFFFFFFFFFFFFFFFFFFFFFFFFFFFFFFFFFFFFFFFFFFFFF
14531665356652556664133251154416145513323532165263
FFFFLLLFFFFFFFFFFFFFFFFFFFFFFFFFFFFFFFFFFFFFFFFFFF
24564466666461362244533643443461366666666464224463
FFFFFFFLLLLLFFFFFFFFFFFFFFFFFFFFFLLLLLLLLFFFFFFFFF
44264465666545261551432146646666646656666566666216
FFFFFFLLLLLFFFFFFFFFFFFFFLLLLLLLLLLLLLLLLLLLLLLFFF
66666665451464566666466666635534615615455355615515
FLLLLLFFFFFFLLLLLLLLLLLLLLLFFFFFFFFFFFFFFFFFFFFFFF
64516544656616662112252355233656531226315224363446
FFFFFFFFFFFLLLLLFFFFFFFFFFFFFFFFFFFFFFFFFFFFFFFFFF
62264223665264226325363524253145532656662666666265
FFFFFFFFLLLFFFFFFFFFFFFFFFFFFFFFFFFFFLLLLLLLLLLLLL
24122654115566642421163246136515216466666333422121
FFFFFFFFFFFFLLLLFFFFFFFFLLFFFFFFFFFFLLLLLFFFFFFFFF
62661656666662351146656663534441625636666666615643
LLLLLLLLLLLLLFFFFFFLLLLLLFFFFFFFFFFFFLLLLLLLLFFFFF
56642365545536115642343625164456425221632526664466
FFFFFFFFFFFFFFFFFFFFFFFFFFFFFFFFFFFFFFFFFFFLLLLLLF
24661332662333111626666666656112366664616536615515
FFFFFFFFFFFFFFFFFFFLLLLLLLLLLLFFFFFLLLLLLFFFFFFFFF
61156162333633424261666632666613624624636666661666
LFFFFFFFFFFFFFFFFFFFLLLLFFLLLLLLLLLLLLLLLLLLLLLLLL
41666661244165436666616616666336666666616566652614
FFLLLLLFFFFFFFFFFLLLLLLLLLLLLLLLLLLLLLLLLLLLLFFFFF
66666241351151215165365432511116666146636466666666
LLLLLLFFFFFFFFFFFFFFFFFFFFFFFFFLLLLLLLLLLLLLLLLLLL
51423553431545123432525614436424653546536446466614
FFFFFFFFFFFFFFFFFFFFFFFFFFFFFFFFFFFFFFFFLLLLLLLLLL
15444664666166666616643414331245166266666665231434
FFFFFLLLLLLLLLLLLLLLFFFFFFFFFFFFFLLLLLLLLFFFFFFFFF
51343312626515263132222622655446316666466636666636
FFFFFFFFFFFFFFFFFFFFFFFFFFFFFFFFFFLLLLLLLLLLLLLLLL
61531236566134514564424364565344263661112426351246
FFFFFFFLLLLFFFFFFFFFFFFFFFFFFFFFFFFFFFFLFFFFFFFFFF
12634663666666666124546666166666666666326646666645
FFFFLLLLLLLLLLLLLFFFFLLLLLLLLLLLLLLLLLLLLLLLLLLLFF
21654426151544253131144143124465522136451445666366
FFFFFFFFFFFFFFFFFFFFFFFFFFFFFFFFFFFFFFFFFLLLLLLLLL
66163246563513565415241121254114215154626656214446
LLFFFFFLLLLFFFFFFFFFFFFFFFFFFFFFFFFFFFFFFFFFFFFFFF
66664662666631612142343216666666662146542125666665
LLLLLLLLLLLLLLLFFFFFFFFFFLLLLLLLLLFFFFFFFFLLLLLLFL
66626612124666663251646656616666666562643655534526
LLLLLLFFFFFLLLLLFFFFFFLLLLLLLLLLLLLLLFFFFLFFFFFFFF
24526142111366133114546364166661663666666423234142
FFFFFFFFFFFFFFFFFFFFFFLLLFFLLLLFFLLLLLLLLFFFFFFFFF
16615215136611532565545521466561126112441543661315
LLLFFFFFFFFFFFFFFFFFFFFFFFFFFFFFFFFFFFFFFFFFFFFFFF
66444422543441224122362413362526663325321466666635
LLFFFFFFFFFFFFFFFFFFFFFFFFFFFFFLLLFFFFFFFLLLLLLLLF
66565166666666254454265316663233235115223316666661
LLLLLLLLLLLLLLLLFFFFFFFFFFFFFFFFFFFFFFFFFFFFLLLLLL
16155641613621553644342362355451315445666666666666
FFFFFFFFFFFFFFFFFFFFFFFFFFFFFFFFFFFFFFLLLLLLLLLLLL
35136264262244236614553211331666666666342132155642
FFFFFFFFFFFFFFFFFFFFFFFFFFFFFFLLLLLLLLLLFFFFFFFFFF
31164464526464646226621662625215456163634111114544
FFFFFFFFFFFFFFFFFFFFFFLLLFFFFFFFFFFFFFFFFFFFFFFFFF
63323545264516656666124652661256611266565331666625
FFFFFFFFFFFFFFFLLLLLLLFFFFFFFFFFFFFFLLFFFFFFFLLLLF
66666333362216353562651316366663166625451331654626
LLLLLFFFLLFFFFFFFFFFFFFFFLLLLLLFFFFLLFFFFFFFFFFFFF
66266264641246231434421343315432315641311362633264
LLLLLLLLLLFFFFFFFFFFFFFFFFFFFFFFFFFFFFFFFFFFFFFFFF
62646616215666666366666666661666666661666666661666
FFLLLLLLLLLLLLLLLLLLLLLLLLLLLLLLLLLLLLLLLLLLLLLLLL
55416122563565462664661262161614463214226544452654
FFFFFFFFFFFFLLLLLLLLLFFFFFFFFFFFFFFFFFFFFFFFFFFFFF
15561314326556666666666642215564631665123516545666
FFFFFFFFFFFFFLLLLLLLLLFFFFFFFFFFFFFFFFFFFFFFFFLLLL
66646636542365266666664666664656345522366256453255
LLLFFFFFFFFFFFFLLLLLLLLLLLLLLLLLFFFFFFFFFFFFFFFFFF
36663666666666243533666134352221524115516426264666
FLLLLLLLLLLLLLFFFFFFLFFFFFFFFFFFFFFFFFFFFFFFFLLLLL
63655561544625223466166216366666666626666666666213
FFFFFFFFFFFFFFFFFFLLLLLLLLLLLLLLLLLLLLLLLLLLLLLFFF
35444633245334432626432445442653434322632166666656
FFFFFFFFFFFFFFFFFFFFFFFFFFFFFFFFFFFFFFFFFFLLLLLLLL
24455565255165152656653425326644131265366661666466
FFFFFFFFFFFFLFFFFFFFFFFFFFFLLFFFFFFFFFFLLLLLLLLLLL
32464133331441552366526254621263666664666622626662
FFFFFFFFFFFFFFFFFFFFFFFFFFFFFLLLLLLLLLLLLLLLLLLLLL
61166663266121531146562142412654611113616661555414
FFFLLLLLLLLLFFFFFFFFFFFFFFFFFFFFFFFFFFFFLLLFFFFFFF
66666666666666666166664161662223233221636136461116
LLLLLLLLLLLLLLLLLLLLLLLLLLLLLLLFFFLFFFLFFFFFFFFFFF
54562156666652632422156253365451543135244653452113
FFFFFFFFLLLLLFFFFFFFFFFFFFFFFFFFFFFFFFFFFFFFFFFFFF
61164346646666463666666126666664656222512665346631
FFFFFFFLLLLLLLLLLLLLLLLLLLLLLLLLLLLFFFFFFFFFFFLFFF
32141662561426426126216436666664662666666664343362
FFFFFFFFFFFFFFFFFFFFFFFFFLLLLLLLLLLLLLLLLLLFFFFFFF
61346666526666165666364262611635633334443224233566
FFFLLLLLLLLLLLLLLLLLLLLFFFFFFFFFFFFFFFFFFFFFFFFFFF
66666664656665632562235241155231564244534461446666
LLLLLLLFFFLLLFFFFFFFFFFFFFFFFFFFFFFFFFFFFLLLLLLLLL
61115536311656326564666666324155546231366666666352
LFFFFFFFFFFFFFFFFFFFLLLLLLLLFFFFFFLFFFFFLLLLLLLFFF
65166616666666666666123463566435524426632166664416
LFFLLFFLLLLLLLLLLLLLFFFFFFFFFFFFFFFFFFFFFFLLLFFFFF
66666666663361666266663535666632466556666662666663
LLLLLLLLLLFFFFLLLLLLLLFFFFLLLLFFLLLLLLLLLLLLLLLLLL
51636256516666262616246421443464512665666626666366
FFFFFFFFFFLLLLLLLLLLFFFFFFFFFFFFFFFLLLLLLLLLLLLLLL
44352522565546462516663666215413366366616626666435
FFFFFFFFFFFFFFFFFFFLLLLLLLFFFFFFFLLLLLLLLLLLLLLFFF
14463451666626661446351421456666646666233663611655
FFFFFFFFLLLLLLLLFFFFFFFFFFFFLLLLLLLLLFFFFFFFFFFFFF
66332461666666666561425432136131466666636431141554
FFFFLLLLLLLLLLLLLFFFFFFFFFFFFFFFFLLLLLLFFFFFFFFFFF
23311521111435323415245146525421463241541521423354
FFFFFFFFFFFFFFFFFFFFFFFFFFFFFFFFFFFFFFFFFFFFFFFFFF
46542664334351666666366346251325666166643453333551
FFFFFFFFFFFFFFLLLLLLLLLFFFFFFFFFLLLLLLFFFFFFFFFFFF
62566321634355451145564665422614446426625145523454
FFFFFFFFFFFFFFFFFFFFFFFFFFFFFFFFFFFFFFFFFFFFFFFFFF
46646652665362252131424454521544113155121631664234
LLLLLLFFFFFFFFFFFFFFFFFFFFFFFFFFFFFFFFFFFFFFFFFFFF
66653223143463344666346253456666546666665231656361
LLLFFFFFFFFFFFFFFFFFFFFFFFFLLLLLLLLLLLLLFFFFFFFFFF
51656662346666666666366131553622154313642645143542
FFFFFFFFFLLLLLLLLLLLLFFFFFFFFFFFFFFFFFFFFFFFFFFFFF
66636612666666266623541555145323323453564555465456
LLLLLLLLLLLLLLLLLLFFFFFFFFFFFFFFFFFFFFFFFFFFFLFFFF
53562321453625236624524213263335366443353561514126
FFFFFFFFFFFFFFFFLLLFFFFFFFFFFFFFFLFFFFFFFFFFFFFFFF
42653224226616512613161614366155531366455432654253
FFFFFFFFFFLLLLFFLLLLLLLLFFFFFFFFFFFFFLFFFFFFFFFFFF
11112446443451411346221316366666666626661431231456
FFFFFFFFFFFFFFFFFFFFFFFFFLLLLLLLLLLLLLLLFFFFFFFFFF
45225313145541154566366166653126136166115412442465
FFFFFFFFFFFFFFFFFFLLLLLLLLLFFFFFFFFFFFFFFFFFFFFFFF
34416366646465525525655463132166435116233335332534
FFFFLLLLLFFFFFFFFFFFFFFFFFFFFFFLLFFFFFFFFFFFFFFFFF
54613534255524266666666614444144463266153134344566
FFLLFFFFFFFFFFFLLLLLLLLLFFFFFFFFLLLLLLFFFFFFFFFFLL
51266656666645662661666666264425422156656154442423
FFFFLLLLLLLLLLLLLLLLLLLLLLLLFFFFFFFFFLLFFFFFFFFFFF
36666662562662665662666351342531255424564225221565
LLLLLLFFFLLLLLLLLLLFLLLFFFFFFFFFFFFFFFFFFFFFFFFFFF
53314632213346115516565532513512653416343645634215
FFFFFFFFFFFFFFFFFFFFFFFFFFFFFFFFFFFFFFFFFFFFFFFFFF
54112422416361423365222546336666666666631255163663
FFFFFFFFFFFFFFFFFFFFFFFFFFFFLLLLLLLLLLLLFFFFFFFFLF
62152616361166666666666666666646665653651263156666
LLFFFFFLFFFFLLLLLLLLLLLLLLLLLLLLLLLLLLLFFFFFFFFLLL
66666131544266524316634466426666666666616666654162
LLLLLLFFFFFFFFFFFFFFFFFFFFFFLLLLLLLLLLLLLLLLLFFFFF
11126232436611563616552156266666132366462115242661
FFFFFFFFFFFFFFFFFFFFFFFFFLLLLLLLFFFFFFFFFFFFFFFLLF
65156343142366612231262156264325552421555164413144
FFFFFFFFFFFFLLLFFFFFFFFFFFFFFFFFFFFFFFFFFFFFFFFFFF
34316643115565412341524666164666662135223651112136
FFFFLLFFFFFFFFFFFFFFFFFFLLLLLLLLFFFFFFFFFFFFFFFFFF
36663133215316511434113451316663636666666666661666
FLLLFFFFFFFFFFFFFFFFFFFFFFFFLLLLLLLLLLLLLLLLLLLLLL
65166261166656611422452243665666666664666162544664
FFFLLFFFFLLLLLLFFFFFFFFFFFLLLLLLLLLLLLLLLLLFFFFFFF
66636551152666664546666654156666612141141343515526
LLLLLFFFFFFFLLLLLFLLLLLFFFFFLLLLLFFFFFFFFFFFFFFFFF
66666125115124316145166163462455666661161666512565
LLLLLLLLFFFFFFFFFFFFFFFFFFFFFFFFLLLLLLLLLLLLLFFFFF
66465451625343326366415661223136254231626266661626
FFFFFFFFFFFFFFFFFFFFFFFFLLFFFFFFFFFFFFLLLLLLLLFFFF
51366632152664225121161662315165122164215366362343
FFFLLFFFFFFFFFFFFFFFFFFFFFFFFFFFFFFFFFFFFFLLLLFFFF
61663666666666666221551456666666662666666666646666
LLLLLLLLLLLLLLLLLFFFFFFFFLLLLLLLLLLLLLLLLLLLLLLLLL
34566243232413466543253566666661442156666666666644
FFFLLFFFFFFFFFFLLFFFFFFFLLLLLLLFFFFFFLLLLLLLLLLLLL
56444666413364564244442512632315216555311461556425
FFFFFLLLFFFFFFFFFFFFFFFFFFFFFFFFFFFFFFFFFFFFFFFFFF
45366666661614566111466451164426366666666635562632
FFFLLLLLLLFFFFFFFFFFFFFFFFFFFFLLLLLLLLLLLLLFFFFFFF
23553463216614525262444225656626613664366366662666
FFFFFFFFFFFFFFFFFFFFFFFFFFFLLLLLLLLLLLLLLLLLLLLLLL
54623132566553641656654466662542643546556133616666
FFFFFFFFFFFFFFFFFFFFFFFFLLLLFFFFFFFFFFFFFFFFFFLLLL
61216632623334653215651252145214635336253535465666
LLFFFFFFFFFFFFFFFFFFFFFFFFFFFFFFFFFFFFFFFFFFFLLLLL
65662666663563615536522136666241164623125666666221
LLLLLLLLLLLLLFFFFFFFFFFFFLLLLFFFFFFFFFFFFLLLLLLFFF
66666126613435165651425414452232315312143663262143
LLLLLFFFFFFFFFFFFFFFFFFFFFFFFFFFFFFFFFFFFFFFFFFFFF
61662353266134413115361452312553221411334552414436
LLLFFFFFFFFFFFFFFFFFFFFFFFFFFFFFFFFFFFFFFFFFFFFFFF
66664666345335642221616264646266661443222435516151
LLLLLLLLFFFFFFFFFFFFFFFLLLLLLLLLLLFFFFFFFFFFFFFFFF
16164251615112266432554145261514621263616266666662
FFFFFFFFFFFFFFFFFFFFFFFFFFFFFFFFFFFFLLLLLLLLLLLLLF
66462666666663666665666666666652515561432135113156
LLLLFLLLLLLLLLLLLLLLLLLLLLLLLFFFFFFFFFFFFFFFFFFFFF
43631643615114564456116166466515246666634166615356
FFFFFFFFFFFFFFFFFFFFFFFFFFFFFFFFFFLLLLLFFLLLFFFFFF
62432625633452362535115116215636666626266246644632
FFFFFFFFFFFFFFFFFFFFFFFFFFFFFLLLLLLLLLLLLLLLLLFFFF
44311513356356666666661534143245543464342525246256
FFFFFFFFFFLLLLLLLLLLLLLFFFFFFFFFFFFLLFFFFFFFFFFFFF
66662366661536633643454666234561244234665624445145
LLLLLLLLLLLFFFFFFFFFFFFFFFFFFFFFFFFFFFFFFFFFFFFFFF
21156412666626655314541166661666431526666462656662
FFFFFFFFLLLLLLLLLFFFFFFLLLLLLLLLFFLLLLLLLLLLLLLLLF
46423462263442145432634456366626646521214251311234
LLLLFFFFFFFFFFFFFFFFFFFFFLLLLLLLLFFFFFFFFFFFFFFFFF
36223355144216153361624454452535244253222631163126
FLFFFFFFFFFFFFFFFFFFFFFFFFFFFFFFFFFFFFFFFFFFFFFFFF
66366666666662666666666616166666466666666666166456
LLLLLLLLLLLLLLLLLLLLLLLLLLLLLLLLLLLLLLLLLLLLLLLLFF
63615222113255255453541433554163446422412564663344
FFFFFFFFFFFFFFFFFFFFFFFFFFFFFFFFFFFFFFFFFFFFFFFFFF
14416511655261264564213166646363615335156365624142
FFFFFFFFFFFFFFFFFFFFFFFFFFFFFFFFFFFFFFFFFFFFFFFFFF
64663666645454434113236535365656663466631625261163
LLLLLLLLLFFFFFFFFFFFFFFFFFFFFFFLLLFFLLLFFFFFFFFFFF
32414316233166666666666265216666666666666662524555
FFFFFFFFFFFLLLLLLLLLLLLLLLFFLLLLLLLLLLLLLLLFFFFLFF
42653325451635352145452363341326256166266666462442
FFFFFFFFFFFFFFFFFFFFFFFFFFFFFFFFFFFFFFFLLLLLFFFFFF
42656153336256666155556662644112666663566466666666
FFFFFFFFFFFFLLLLLLFFFFLLLLFFFFFFLLLLLLLLLLLLLLLLLL
43463666666666656652664615652211154561645241212535
FFFFFLLLLLLLLLLLLLFFFFFFFFFFFFFFFFFFFFFFFFFFFFFFFF
63166416554146533645461626666445421255324562541615
FFFFFFFFFFFFFFFFFFFFFLLLLLLFFFFFFFFFFFFFFFFFFFFFFF
64666666666666336666664642152533566546115336411266
LLLLLLLLLLLLLLLLLLLLLLFFFFFFFFFFFFFFFFFFFFFFFFFFFF
23122254466465646662566666666666664333214521454433
FFFFFFFFFLLLLLLLLLLLLLLLLLLLLLLLLLFFFFFFFFFFFFFFFF
66311616355422146234554143166265565666153666665666
LLFFFFFFFFFFFFFFFFFFFFFFFFFFLLLFFFFFLLFFFLLLLLLLLL
66453664666666666662666666666644642312236421131561
LLFFFLLLLLLLLLLLLLLLLLLLLLLLLLFFFFFFFFFFFFFFFFFFFF
66666663446666656525322261336115155541264133135656
LLLLLLLLLLLLLLLLLFFFFFFFFFFFFFFFFFFFFFFFFLFFFFFFFF
44162414423436133323242523644332221451614442366663
FFFFFFFFFFFFFFFFFFFFFFFFFFFFFFFFFFFFFFFFFFFFFLLLLL
66621525433415432316123325626666666666466663664322
LLLFFFFFFFFFFFFFFFLLFFFFFFFFFLLLLLLLLLLLLLLLLLFFFF
11562334334354366663665666666663366655636646166666
FFFFFFFFFFFFFFFLLLLLLLLLLLLLLLLFFLLLLLLLLLLLLLLLLL
62666666665626666646166651244356666666453655553322
LLLLLLLLLLLLLLLLLLLLLLLLFFFFFLLLLLLLLLLFFFFFFFFFFF
51315321135334325655466351256126333363653464131142
FFFFFFFFFFFFFFFFFFFFFFFFFFLLLFFFFFFFLFLFFFFFFFFFFF
33145152566666641661664656613663566621161332626156
FFFFFFFFFLLLLLLLLLLFLLLLLLLFFLLLLLLLLLFFFFFFFFFFFL
21612463455416666663464525532164561323166653635333
FFFFFFFFFFFFFLLLLLLFFFFFFFFFFFFFFFFFFFFFLLFFFFFFFF
46656436116666433535654124463112521163666664666666
LLLLFFFLLLLLLFFFFFFFFFFFFFFFFFFFFFFFFFFFLLLLLLLLLL
22241512154411411144226561211665645661164246666256
FFFFFFFFFFFFLFFFFFFFFFFFFFFFFFFFFFFFFFFFFFFLLLLFFF
46311256463142634546362316215161252336636645364232
FFFFFFFFFFFFFFFFFFFFFFFFFFFFFFFFFFFFFLLLLLFFFFFFFF
54161343621551514466331264334452343564261453541626
FFFFFFFFLLFFFFFFFLLLFFFFFFFFFFFFFFFFFFFFFFFFFFFFFF
35616224253563631211426666666665666666166166666566
FFFFFFFFFFFFFFFFFFFFFFLFLLLLLLLLLLLLLLLLLLLLLLLLLL
65116136366163663366623161445565255136635222316533
FFFFFFFLLLLLLLLLLFLLLFFFFFFFFFFFFFFFFFFFFFFFFFFFFF
66544612565115652466626566666412623666366665665545
LLLLFFFFFFFFFFLLLLLLLLLLLLLLLFFFFFFFLLLLLLLLLFFFFF
53352561666666665666422242615535344151445563426613
FFFLLLLLLLLLLLLLLLLLFFFFFFFFFFFFFFFFFFFFFFFFFFFFFF
56656566636366666666666661615266364615654666665666
LLLLLLLLLLLLLLLLLLLLLLLLLLLFFFFFFFFFFFFFFLLLLLLLLL
62234446623621316442464664326625115241232534466355
FFFLFFFFFFFFFFFFFFFFFFFFFFFFFFFFFFFFFFFFFFFFFFFFFF
25135623123324234111441315544246162335461615224561
FFFFFFFFFFFFFFFFFFFFFFFFFFFFFFFLLFFFFFFFFFFFFFFFFF
62663235152656666666665323516231532234223566616324
FFFFFFFFFFFFFLLLLLLLLLFFFFFFFFFFFFFFFFFFFFLLLLLLLL
32455131156666663666645445442364431666666641454342
FFFFFFFFFLLLLLLLLLLLLFFFFFFFFFFFFFFLLLLLLFFFFFFFFF
45555365256656523154644346616666616116166666134236
FFFFFFFFFFLLFFFFFFFFFFFFFLLLLLLLLLLFFFFLLLLLFFFFFF
13536161112531635426266456332463226566552616154365
FFFFFFLLLFFFFFFFFFFFFLLFFFFFFFFFFFFFFFFFFFFFFFFFFF
66666666666661323566366666666666134423566666626666
LLLLLLLLLLLLLFFFFFLLLLLLLLLLLLLLFFFFFFLLLLLLLLLLLL
16433355252411651236132664615433245112535631523434
FFFFFFFFFFFFFFFFFFFFFFFFFFFFFFFFFFFFFFFFFFFFFFFFFF
26314141612666265512466423666666666661636665666666
FFFFFFFFFFFFFFFFFFFFFFFFFFLLLLLLLLLFFFFFLLLLLLLLLL
62453626666666666616652531631325416444534543521436
FFFFFFFLLLLLLLLLLLLLLFFFFFFFFFFFFLLLLFFFFFFFFFFFFF
63144163631346161513146266153614661425562454625665
FFLFFFFFFFFFFFFFFFFFFFFFFFFFFFFFLLFFFFFLFFFFFFFFFF
53665315132516563534165451313541666666526613453515
FFFFFFFFFFFFFFFFFFFFFFFFFFFFFFFFLLLLLLFFFFFFFFFFFF
65666626161216442662666364325466345665425423444144
LLLLLLLLLLFFFFFFFLLLLLLFFFFFFFLFFFFFFFFFFFFFFFFFFF
43626164635216464615133556464436136256666636636625
LLLLLLLFFFFFFLLLLLFFFFFFFFFFFFLLLFLLLLLLLLLLLLLLLL
52465122613613442165244435256421622515551454624124
FFFFFFFFFFFFFFFFFFFFFFFFFFFFFFFFFFFFFFFFFFFFFFFFFF
26366666665564365666656264426651112243163245426551
FFFFLLLLLLLLLFFFFLFLLFFFFFFFFFFFFFFFFFFFFFFFFFFFFF
14431525436666546635445262313453516454236556156331
FFFFFFFFFFLLLLFFFFFFFFFFFFFFFFFFFFFFFFFFFFFLLFFFFF
66216262666161266366556256623666666666514433132662
LLLLLLLLLLLLLLLLLLLFFFFFFFFFFLLLLLLLLLLFFFFFFFFFFF
51142162453266166666654452131166666626256534114345
FFFFFFFFFFFLLLLLLLLLLFFFFFFFFFLLLLLLFFFFFFFFFFFFFF
16666661666266166666636646664116163325166665645565
LLLLLLLLLLLLLLLLLLLLLLLLLLLLFFFFFFFFFFFFFLLFFFFFFF
53425666661666666665616626215351535455121626666666
FFFFFLLLLLLLLLLLLLLLLLLLLLLFFFFFFFFFFFFFFFLLLLLLLL
11646666661666666665626665666664336155266353115233
FFLLLLLLLLLLLLLLLLLLLLLLLLLLLLLFFFFFFFFFFFFFFFFFFF
26111344112625652333113544611611533424111621535222
FFFFFFFFFFFFFFFFFFFFFFFFFFFFFFFFFFFFFFFFFFFFFFFFFF
16346341566666636616666646666433425612255333226223
FFFFFFFFFLLLLLLLLLLLLLLLFLLLLFFFFFFFFFFFFFFFFFFFFF
42434566612313662633443131642326612161442615126466
FFFFFFFFFFFFFFFFFFFFFFFFFFFFFFFFFFFFFFFFFFFFFLLLLL
65666662663664616366233444233436462541333162666666
FFLLLLLLLLLLLFLFFFFFFFFFFFFFFFFFFFFFFFFFFLLLLLLLLL
26666614666666666566564522646124216266666666266323
FLLLLLLLLLLLLLLLLLLLFFFFFFFFFFFFFFFLLLLLLLLLLLLLFF
63516242526113216355526633535452365266111233461143
FFFFFFFFFFFFFFFFFFFFFFFFFFFFFFFFFFFFFFFFFFFFFFFFFF
11642154315666666664221151615553266564311413353666
FFFFFFFFFFFLLLLLLLLFFFFFFFLFFFFFFFFFFFFFFFFFFFFLLL
66565656146626166636644313446534266616644436133342
LLLLLLLLLLLLLLLLLLLLLLFFFFFFFFFFFFLLLLLFFFFFFFFFFF
56616666566166666656656663661422235466414454262413
FLLLLLLLLLLLLLLLLLLLLLLLFFFFFFFFFFFFFFFFFFFFFFFFFF
65566661666662616666663646566254132565311531625514
LLLLLLLLLLLLLLLLLLLLLLLLFFFFFFFFFFFFFFFFFFFFFFFFFF
66643115254663543421526342643266616666665666666146
LLLFFFFFFFFFFFFFFFFFFFFFFFFFFLLLLLLLLLLLLLLLLLLLLL
62456236666666663465213666661421663236335554543546
LLFFFFFFLLLLLLLFFFFFFFFLLLLLFFFFFFFFFFFFFFFFFFFFFF
42645463256663664666666266566665666446666663666636
FFFFFFLLLLLLLLLLLLLLLLLLLLLLLLLLLLLLLLLLLLLFLLLFFF
25463136666666226131343562166615655666636255663651
FFFFFFFLLLLLLLFFFFFFFFFFLLLLLLLLLLLLLLLLLFFFFFFFFF
46666111465214221233256441166666156635646613233264
LLLLLFFFFFFFFFFFFFFFFFFFFFFFLLLFFFFLLLLFFFFFFFFFFF
16645341161524415611313544663634444433521163253515
FFFFFFFFFFFFFFFFFFFFFFFFFFFFFFFFFFFFFFFFFFFFFFFFFF
62143322624163416512513666166343513466646616466514
FFFFFFFFFFFFFFFFFFFFFFFLLLLLLFFFFFFFLLLLLLLLLLLFFF
33366366466222666665614236656666662656646143153233
FFLLLLLLLLFFFFLLLLLLLLLFFLLLLLLLLLLLLLLLLFFFFFFFFF
66661156142242442654536465523343123444321641633326
LLLLFFFFFFFFFFFFFFFFFFFFFFFFFFFFFFFFFFFFFFFFFFFFFF
43643553243123622453635233324656126661654623645544
FFFFFFFFFFFFFFFFFFFFFFFFFFFFFFFFFFFLLLFFFFFFFFFFFF
62341216242226116635266646666666454144652563112142
LFFFFFFFFFFFFFFFLLLLLLLLLLLLLLLLFFFFFFLFFFFFFFFFFF
13413512513353462355346641461631642414561362451325
FFFFFFFFFFFFFFFFFFFFFFFFFFFFFFFFFFFFFFFFFFFFFFFFFF
43523333526614666666256666666633666466666666664636
FFFFFFFFFFFFFFLLLLLLLLLLFFLLLLLLLLLLLLLLLLLLLLLLFF
11346546536633155343362266633543443636646666666661
FFFFFFFFFFFFFFFFFFFFFFFFLLLFFFFFFFFFFFFFLLLLLLLLFF
55266656331532623236636555126662466561636666146355
FFFLLLLLFFFFFFLLLFFLLLLFFFFFLLLFLLLLLLLLLLLFFFFFFF
56666666616563345233116656666666266164265656666666
LLLLLLLLLLLLLFFFFFFFFFLLLLLLLLLLLLLFFFFFFFFLLLLLLL
26122423631335415361363355335634662566666645545656
LLLFFFFFFFFFFFFFFFFFFFFFFFFFFFFFFFFFLLLLLLFFFFFFFF
41136536212516166666666366666666636346646666662666
FFFFFFFFFFFFFFFLLLLLLLLLLLLLLLLLLLLLLLLLLLLLLLLLLL
35446426256426542435615324666616622662541316264665
FFFFFFFFFFFFFFFFFFFFFFFFFFLLLLLLLLLLFFFFFFFFFFFLLL
26335666616343311123331566615323561222266666666663
FFFFFLLLLLLFFFFFFFFFFFFFFFFFFFFFFFFFFLLLLLLLLLLLLF
66655316666212444511256366666666266616636666664666
LLLLFFFLLLLFFFFFFFFFFFFFFLLLLLLLLLLLLLLLLLLLLLLLLL
12333226661316666666543335516156452135466666661626
FFFFFFLLLLFFFLLLLLLLFFFFFFFFFFLLLFFFFFLLLLLLLLLLLL
23561523213111466624254624235164631424544411412341
LFFFFFFFFFFFFFFFFFFFFFFFFFFFFFFFFFFFFFFFFFFFFFFFFF
66666666666616666233165323225233346163456364143621
LLLLLLLLLLLLLLLLLFFFFFFFFFFFFFFFFFFFFFFFFFFFFFFFFF
44154513663363665535533133656461164561666664563646
FFFFFFFFFFFFFFFFFFFFFFFFFFFFFFFFFFFLLLLLLLLLLLLLLL
55431666666466464323564613236366266161666636366666
FFFFFLLLLLLLLLLLLFFFFFFFFFFFFFFFFLLLLLLLLLLLLLLLLL
34345566666566665661463146252562243466666466666666
FFFFFLLLLLLLLLLLLLLLFFFFFFFFFFFFFFFFLLLLLLLLLLLLLL
34222235666451365126336416466666666666666366662611
FFFFFFLLLLLFFFFFFFFFFFFFFLLLLLLLFLLLLLLLLLLLLLFFFF
66666666645411424123213451366666461666466666666626
LLLLLLLLLFFFFFFFFFFFFFFFFFFFLLLLLLLLLLLLLLLLLLLLLL
53255421346224226211646355642666544224344536416531
FFFFFFFFFFFFFFFFFFFFFFFFFFFFFLLLFFFFFFFFFFFFFFFFFF
14536462246334524621311266345242342416256526231636
FFFFFFFFFFFFFFFFFFFFFFFFFFFLLFFFFFFFFFFFFFFFFFFFFL
51566666665611465241464254322614461321611164455466
FFLLLLLLLLFFFFFFFFFFFFFFFFFFFFFFFFFFFFLFFFFFFFLLLL
42566666324643443353251554312466663231562666562333
LFFLLLLLFFFFFFFFFFFFFFFFFFFFFFLLLLFFFFFLLLFFFFFFFF
56541325446316661666666666362662512532514161666666
FFFFFFFFFFFFLLLLLLLLLLLLLLLLFFFFFFFFFFFFFFFFLLLLLL
65163241212136666636666616166252541416666666636616
LFFFFFFFFFFFFFLLLLLLLLLLLLLLLFFFFFFFFLLLLLLLLLLLLL
66662546124133246323553666243365366264666665466666
LLLLFFFFFFFFFFFFFFFFFFFFFFFFFFFFFFLLLLLLLLLLLLLLLL
56666664246661266635266666666664346166666466511615
FLLLLLLLLLLLLLLLLLFFLLLLLLLLLLFFFFLFFFLLLLLLFFFFLF
62222145164136314256661132335634366135666626462446
FFFFFFFFFFFFFFFFFFFFFLFFFFFFFFFFFFFFFFLLLLFFFFFFFF
61112641114341325316551435253265544165656566662263
LFFFFFFFFFFFFFFFFFFFFFFFFFFFFFFFFFFFFFLLLLLLLLFFLL
25236266551414555243622142633611622443263145636666
FFFLLFLLLLFFFFFFFFFFFFFFFFFFFFFFFFFFFFFFFFFFFFLLLL
26141242623332425223436561512342254255666666666666
LLFFFFFFFFFFFFFFFFFFFFFFFFFFFFFFFFFFFFLLLLLLLLLLLL
66466666666663533263323661655446412664112412564411
LLLLLLLLLLLLLFFFFFFFFFFFFFFFFFFLLFFFFFFFFFFFFFFFFF
63132421541113633563666356536643566244436651666666
LLFFFFFFFFFFFFFFFFFFLLLFFFFFLLFFLLLFFFFFFFFFLLLLLL
61351434111432135553632321461454512115663425564666
FFFFFFFFFFFFFFFFFFFFFFFFFFFFFFFFFFFFFFLLLFFFFFFFLL
16641553225434566666666654222166446664463114156666
FFFFFFFFFFFFFFFLLLLLLLLLFFFFFFFFLLLLLFFFFFFFFFLLLL
64256466666651244536666613466261264442464124343412
LLLLLLLLLLLLFFFFFFFLLLLFFFFFFFFFFFFFFFFFFFFFFFFFFF
15262656153616666663466665666666666646642163666411
FFFFFFFFFFFFFLLLLLLLLLLLLLLLLLLLLLLLLLLLFFFLLLFFFF
46145242543624452125224664616166616661564646145352
FFFFFFFFFFFFFFFFFFFFFFFLLLLLLLLLLLLLLLLLFFFFFFFFFF
32461246666666666625233365661316325433356636341136
FFFFFFFLLLLLLLLLLLFFFFFFFFFFFFFFFFFFFFFFFFFFFFFFFL
66664661632132524655612225636233413243231265136515
LLLLLLLLLFFFFFFFFFFFFFFFFFFFFFFFFFFFFFFFFFFFFFFFFF
61652346424153433214323244563263646631666666652666
FFFFFFFLFFFFFFFFFFFFFFFFFFFLLLLLLLLLLFLLLLLLLFFFLL
66666213556353112455266651361363116665666666214166
LLLLLFFFFFFFFFFFFFFFFLLLFFFFFFFFLLLLLLLLLLLFFFFFLL
66466165635212463334564165366646666661666666666666
LLLLFFFFLFFFFFFFFFFFFLFFFFFFLLLLLLLLLLLLLLLLLLLLLL
52363222231636666366646666666266662666666646662614
LLLLFFFFFFFFFLLLLLLLLFFFLLLLLLLLLLLLLLLLLLLLLLLLFF
26551361154646661263642264616626615666666656666666
FFFFFFFFFFFLFFFFFFFFFFFFFFFLLLLLLLLLLLLLLLLLLLLLLL
56444211652456454261526114542222351333556623431416
FFFFFFFFFFFFFFFFFFFFFFFFFFFFFFFFFFFFFFFFFFFFFFFFFF
66155316445413324532535115264256534556513634352152
LLFFFFFFFFFFFFFFFFFFFFFFFFFFFFFFFFFFFFFFFFFFFFFFFF
16362324464323331226444526122624345562553242463516
FFFFFFFFFFFFFFFFFFFFFFFFFFFFFFFFFFFFFFFFFFFFFFFFFF
33345461346263666166666663165254623533313666666624
FFFFFFFFFFLLLLLLLLLLLLLFFFFFFFFFFFFFFFFFFFFLLLLLLL
62664321645566156666666661262662564666242343615556
FFFFFFFFLLFFLLLLLLLLLLLLLLLLLLLFFFFFFFFFFFFLLFFFFL
11621226666644123111312154546361565362361366666666
FFFFFFFFLLLLFFFFFFFFFFFFFFFFFFFFFLFFFFFFLFLLLLLLLL
66666225666314332215364666266666166665666665313532
LLLLFFFFFFFFFFFFFFFFFFFLLLLLLLLLLLLLLLLLLLLFFFFFFF
63313453223211545541121642635636666666666665214264
FFFFFFFFFFFFFFFFFFFFFFFFFLLLLFFFFLLLLLLLLLLLFFFFFF
26663252411222664616222636254165666612364451354456
LLLLLFFFFFFFFFLLLLLLFFFFFFFFFFLLLLLLFFFFFFFFFFFFFF
35446264666664666651262155555336642545424121366445
LFFFLLLLLLLLLLLLLLFFFFFFFFFFFFFFFFFFFFFFFFFFLLLLLL
36666153632543313526421414666531465354526666212456
LLLLLLFFFFFFFFFFFFFFFFFFFFLFFFFFFFFFFFFFLLLLLLFFFF
11345323612156255666644256143632125566366166662225
FFFFFFFFFFFFFFFFFLLLLLFFFFFFFFFFFFFLLLLLLLLLLLFFFF
66251553336425655522633136531223326421336312562516
FFFFFFFFFFFFFFFFFFFFFFFFFLFFFFFFFFFFFFFFFFFFFFFFLL
66546632656261666136666666621211162526221362161146
FFFFFFFFFLLLLLLLLLLLLLLLLFFFFFFFFFFFFFFFFFFFFFFFFF
63454224365266441614466664452665646666626662666462
FFFFFFFFFFFFFFFFFFFFFFFFFFFFLLLLLLLLLLLLLLLLLLLLLL
62155564141456656646663526324554453262256621465146
FFFFFFFFFFFFFFFFLLLLLLFFFFFFFFFFFFFFFFFFFFFFFFFFFF
