32322212244124144133424224323411223214431241442431
AABBBBAAACBBAACCCBCCCABBABBAACBAABBBCCCBBBBBCCBCCB
14444442444134413144232144442221313121213414111222
ACCCCCCBCCCBBBCAAABBBBABBCCCBBBAAACAABBBBCCCBBBBBC
12311312331133414124232442414242141342243224133114
AABBBBBBBBBAABBBCCBBBBBBBBBBBBBBBBBBBBBBBBBCCBBBBB
22242242344432132111244341122124144322413121424441
AAABBACCCCCCBBAAAAAAACCCCAAAAAAAAAAAAACBBBBBBBCCCA
44411233432232211411341122114431123114112421434443
BBBABBBBAAAAABBBBBBBBAAAAAABBBBBABBCCCCCCCCCBBCCCB
13344431442224222424111243122321244424244334444141
BCCCCCAAACBCCCBBBBAAAAAAAAAAACAAACBCBBBCBBBBBBAACC
41434244132242143314214444243124211314414322143112
BBBBBBCCCCCABAABBBBBCCCCCBBBBAABBBBBCCCAABBBBBBBAA
23234234444423422123443421222211121444112111223234
AAABBBBBBCCCACCBBABBCCBBAAAAAAAABBBBBAAAAAAAACCAAC
24414144222411412122221221131141122412221123444121
ABBBCCCCBBBBBBBAAAAAAAAABBBBBBBBBBBAAABBBBBBCCACAA
22224323133313234144444243243444414113312242244221
AAAAAAAAABBBBBBBBBCCCCCCCBBBBBAABBCBBBBBAAABABBBBB
41421122114442331434421421211343444344434444113242
BBBBBBBAAACCCBBBBBBCCAAAAAAAACCCCCCACCCCCCCCAAABBB
11133434141314422223121212334444413432311434442421
AAAAACBBBBAABBBBAAAAAAAAAABBCCCCBBBBBBBACCCCCCCCCA
22212212444422432222212322444241124444432114212114
AAAAAACCCCCBBBBCBAAAABBBBBBCCBCAACCCCBAAAAABBBAAAB
21244422212411242331341142111114414122424221311422
ABBCCBAAAAABBABBBBAAABBBCBBBAAACCBBBBBBBCBBBBAABBB
22221414213432321331424244111432443342441142242144
AAAAAABBBBBCBBBBBBBBCACCCCAAABBBBCBACBBBBBBBBCAACC
21132134131144444411211141414214422323244332312241
AAABAABBAAAACCCCBCABBAABBBBBAAACCAAAAAACCBBBBBAAAB
22231443113141121322132413443323442443341211331123
AAAAACCBBBBBBAAAABBBBBBBBBBBBBBBBCCCCCCCCAABBBBBBB
13113244414434112123443423221331134234412433442444
BBBBBBCCCCCCCBBBBBBBCCAAAAAAACABBBCBACCCBBBBBBACCA
44134323421112442121441412144442441131422422413444
ABBBBBBBBBBBBACCAAAACCBCCCAAACCCCCBBBBBBBBBBBBBBBB
21211444444444241132412244213133114424421313124121
AAAAAACCCCCCCCBCBBBBBAAACCBBBACAAACCBBBBBBBBBBCAAA
