3413123224244434432411412
ABBBBBBBBCCCCCCCCAAAAAAAA
2214431344311343424421211
AACCCCABCCBABBBBBACCAAAAA
2131422421442244144411224
BBBBBBBBBBBBBBCCCCCBBBBBB
1144444141434141314444233
AACCCCCBABBBBBBBBCCCCBBBB
3143422122424414244442232
BBBBBBBBBBBBBBBBBCCCCBBBB
1233133132124224342221111
BBBAAAAAAAAAAABBBBBBCAAAA
1412433442222434241121411
ACCCBBBBBAABBBBCCBBAAABAA
4411413124212132421231241
AABABBBBBBBBBBBBCCCCBBBBB
3314344244124114443213343
ABBBBBCCCBBBCAACCCBBBBBBB
2243344143442414324244314
ACCABBCCCBBBBBCBBBBBCCBBC
3442213231132132344332312
ABBBBBBBBAAAAAAAACCAAABAA
3224244412111331212421124
AABCCCCBBBBABBBBBBBBBBBBB
2412144244224242111311224
AAAAACCBBCBACBAAAABBBBBCC
2413311424422444132231121
AAAAAAACBBACCBCBBBACBCCCC
4432342222322411422434441
CBBBBBBBCABBBBBBBBBCCCABB
4424412134424332224243122
CCCCCAAABBCCCBBAAAAAAAAAA
1134242334424122244411422
ABBBBBBBBBBBAAAAAABBAAABB
1232412411141234142231444
ABBBBBBBBBBBBBBBBBBABBBCB
1131322243342122144314341
BBBBBBBBBBBBAABABCCBBCCCC
2224424422143444411332212
AAACCBBBBCCCCCCCCAAAAAABB
4342243121321421132232434
CBCCCCBCCAACCAAAAAAAAACBC
2112423143321121313344121
AABAABBBBBBBAAAABBBBCCAAA
2123222234443212244421144
AAAAABBBBCCCAAAABCCCCCCCC
3223111243432411313344444
AAABABBCCBCBBBBBBBBBBBBBB
1221121112412111141134112
AAAAAABBBBBBABBBBBBBBBBBA
1134332112223222144322142
ABBBBBAAAAAAAAABBBBBBBBBB
2244441122443414444221221
ABCCCCAAAACCBCCCCCCBAAAAB
2431221242234324241234443
AAAAAAAAAABBBBBBBBBAACCCC
3342234322334132331222122
BBBAABBBBBABBBBBAAAAAAAAA
3232424321143424344444231
BBBBBBBBBAACCCCCCCCCCCBBB
4211112234433124212422443
ABAAAAAABBBBBBBCBBBBBBBCC
1211144243331123433412342
AAAABBBBBAAAAAABBBBBBBBBB
1122321121131124444234331
AAABBBBBBBBBABBBCCCBBBBBB
2411212144241444443243242
AAAAAAACCBABACCCCCAAACAAA
2433112114113441224441444
ABBBAAAAAAAABBCABBCCCCCCC
1111321442213124231241312
ABBBBBBBBAAABBABBBBBBBBBA
3121322123241113111414112
AAAAABBBBBBBBBBBBBBBABBBB
1121433413123221212424431
AAAABBBBBBBBBAAABBBCCCBBB
1224122323411412241143314
AAACCBBAAAAAABBAAAABBBBCC
4443424444411224234213432
CCCCCCCCCCCAAAAABBCCCCCBB
