13424212333122242143442334244444442134142222222444
ABBBBAAAABBBAAABBBBBBBBBBBACCCCCCBABBBBBBAAAAAABCC
11423442444424211242213211413333143223211122444334
BBAAABCCCCCBBBBAAAAAAAAABBBBBBBBAAAAAAAAAAABCCCBBB
21223222442331232442211211323241223312121211433222
ABBBBAABBBBBBBBCCCCBBBCAABBBBBBBBAAAAAAAAAAACCBBBA
23133431144412212224123414331112424413112321421421
ABBBBBBCCCCCBAAAAAAAABBBBBBBBBBBBBCCAAAAAABCCAAAAA
13243133343121221123411211444412224411211443423431
AAACBBBBBBBAAAAAABBBBAAABCCCCCAAACCCBBAAABBBBBBBBB
22123134314113121122322432313334241332233421443221
ACBABABBBBBBBBABBBAABBBBBBBACCCBBBBBBBBBBCABCCBAAA
14142231241442411444221241444144432244342121443414
ACAAAAAAACCCCCCBCCABBBAAAACCCCCCCCCCCCCBBBBBCCCCCC
21442444431341313442342442113322443412434223131414
BBCCCCBBBBBBBBBBBBBACCCCCBABBBBBBBCCCBBBBBBBBAACCC
24344213421212444141444424234242412234322424111411
AACCCBBBBAAAABBBCCCCCCCCCBACCCBBBBBBBBBAABBBABBAAA
11414431212342112313423414133441122212214443211214
BCCCCCAAAABBBBAAABBBBBBBBBBCCCBBBBBBBAAACCCBAAAACC
24343444444233133241423242122122422212311342434244
ABBCCCCCCCCAABBBBBBBCCBBAAAAAAAACBBBBBBBBBBCCCCCCA
12142234132442414231314121313414111112412431232122
CCCCCBBBBBBBBBBBBBBABABBBBBBBBBBBAAAAAAAACCAAAAAAA
21222421223244244444344224314124434444422314444444
AAABABBBBABCCCBBBBBBBCCBACAAAAACCBCCCCAAABBCCCCCCB
32243322234213444122432444444143332221231143214444
ABBBBBBAABAACCCCCBBBBBCCCCCCBBBBBBBBAABBBBCBBACCCA
31422113224342212412434114112224444444444443214424
CCCBBBBBAAAAAAAAAAAABBBBAAAABBCCCCCBCCCCCCCBCCCCBB
21123322144124444441244141144413224414444413222421
AAAAABBBCCCCCCCCCCCAAABBBBACBAAAAAACCCCCCBBBBAAAAA
41112414331132314323421122224244212241144321114144
AAAACCCCBBAABBBBBBBBBBBAABAAAACCAAAABBCBBBBABCCCCC
24443442241212211121121144222221142224134144333413
ACCCCCCAAAAAABCAAAAAAAACCCAAAAAAABBBBBBBCCCCBBBBBB
24442441424224131131222221231441244224444422134234
CCCCBBBBCBCBBCBBABBBBAABBBBBBCCBBBBBBBBBCCBBBBBBBB
22221344414431444423232444143441443442344414412422
BBBBBBCCCBCCBBBBCBAABBBBBBBBBBBBBCCCCCCCCCCCBBBBBB
24344442242444224441444322212313211114121224134324
ABBCCCCACCCCCCCCCCCBCCBBBBBBBBBBBAABBABBBAABBBBBBB
24444232124132244424111113331141142332122122214114
AAACCCCBBBBBBBBBBBBBBBBBBBBBAABAABABBAAAAAAAACCCCC
42211434244221323222222121131212111212212414442344
BAAAACCCACCAABBBBBBCCCCBAACAAAAAAAAAAABBBCCCCCBCCC
44431444144232123111242121414132143324442412443122
CCCCCCCCCCBBBBAAAAAAAABAACCCABBAABBBCCCCBCBBBBBBBA
41143212343222212242143142322214412441222243213423
AABBBBBBBBBBBBBBBBBBAAAABBBBBBBBCBAABBBBBBBCBBBBBB
44221412441431244443331413123312443444114431244424
CCBBCCCCCCCCCCBCCCBBBBBBBBABBBBBCBBCCCBBBBBAACCCCC
43222221344134243414311122442321143122143411134442
CBBBBBBBBCCBBBBBBBBBBBBBAABBBBBBBBBBBBBACCAAAACCCA
31244444113213114431414444433412213422433324224142
AAAACCBBBAAAABBABCABCCCCCCCBBBAABBBBBBCBBBBBBBBBBB
44323233211223141234444411142424421312112142422212
BBBBBAAAAAAAABBBBBBCCCCCBBBBBCCBBBBBBBCAABBBBBBBBB
21122114444444121444443131413423212411431442313143
AAAAAAABBCCCCCAAACCCCBBBBBBBBBBBBBAACBBBBBBBBBBAAB
11243122223112223412332114144343422413441133441223
AAACBBBBBBBBBBBBBBBBBBBABBCCCBAAAAAAAACCCBBBBBBAAB
21423422214112413423212144444232244124123342444412
BBBBBBBBBBBAAABBBBBBAAAACCCCBBBBBBCCAABABBBBBBBCCC
21212344443432433422443311224344341431222444224411
AAABBBCCCCCBBABBBBBBBCBBBBBBBBBBBBBBBBBBBCCCCCCCBC
12112111412242134144112442142432213211123313324422
AAABBCCBAAAABAABBBCCAAACCCBBCBAAAABBAAAAAAAABBBCBB
41311113141421132242121444431242122334112112323241
CBBBBCCCBAAABAABBCBBBBBBBCBBBBCACBBBBBAAAAAAAAAACC
22414344441423244114412342222234442443122331121143
AABBBBCBCCBBBBCCCAAAAABBBAAAAABCCCCCCBBBBBBAAAAAAA
43244131111142314441213221211111224412424444242231
BBCCCABABBAAAAAACCCAAABAAAAAAAAAAACCABBBCCCCCBBBBC
11232221441444134112241144243233331322132414443414
AAABBBBBCCCCCCBBBBBAAAAACCCCBBBBBBBBBBBBBCCCCCCCBB
23244411214241412242341241114112131431342114434441
AAAABCAAAAABBBAAAAAACCCCCCCBAAAAABBBBBCCAACCCCCCCA
11111312244444231441242244444331141444444441332114
ABAABBBCCCCCCCBBACCCAAAACCCCCBAAACCCCCCCBAAAAAAAAA
