1244142143344311343221124
AACCCCCCCCCCCBBBBBBAAAAAA
1324111344144232334421414
ABBBBAACCCBBBBBBBBBCCCBBC
4332341114342411211231141
CBBBBBBBBBBBBBABBBBBBAACB
4232113211433211212444444
AACBBABBBAABBBBCBBCCCCCCC
4111222341434114341311324
AAAAAAABCCCCCCCCBBBBAAACC
4224321411231121123312321
AABCCCCCAABBBAAAAABBBBAAA
1131131242124244233114414
ABAAAABCBAABBBBBBBBAACCCC
1444211122441342422111341
AACCAAABBBCCBBBBAAABBBBBB
4244244444122444443344431
CCBBBCCCCCBBBCCCCCBBCCBBB
3134422242344434444244444
CCCCCCAAAABCCCCCCCCCCBBBB
2222211222322424444311134
BAAAAAAAAAAABAACCCCAAAABB
2333333114242132111243324
BBBBBBBBAACCAABAAAAAABBBB
3114141322244444442434244
AABBBCAAAAACCCCCCAAAACCCC
1222122113123423222121234
AAAAAAAAAAAAAAAAAAAAAABBB
2242122221113112422343341
AAAAAAAAAAABBBBBBBAACCBBB
3444144414134142421221222
CCCCCCCCBBBCCAAAAAAABBBBB
1421134133433331331111334
CCAAAACBBBCBBBBBBBBBBBBBB
1214424422214124444144442
ABACCBCAAAAAAAACCCCCCCCBB
1112433444441221332414112
AAAAABBBBCCCCAAABAAAAAAAA
1222422431212214112134443
AAACCABBAAAAAAAAAAAABBBCC
3212444444424244444211422
AAAACCCCCCCCBBBCCBBBBBBBB
4311241432212144121341144
BBBCBBBCCBBBACCCAAAAAACCB
2424114111423222344441441
BBBBBAAAAACBBAAAAACCCCBBB
1433324231431143444141241
AABBBBAABAABBBCCCCCAAABAA
4224341134133422433414331
AABBBCCCBBBBBBBBBBBBBBBBB
2122241233124212443443321
ABBBABBBBBBBCABACCBBBBBBB
2211211411112144234421213
AACAAAAAAAAAAAABBBBBAAAAA
1412224423432214234442432
AAAABBCBBBBBBBBCCBBABBCAA
1241441331311422444144321
ABBBCCCBBBBBBBBBBBBBCCCCC
1241224143123144442422221
ABBBBBBBBBBAAABCCCACAABBB
3323124443212224421114244
BBBBBBCCCCAAAACCCAAAAAACB
1431231133331421143221211
ACBAABBBBBBBAAAAAABBBBABB
3344443341122223444244414
ABBBBBBBBBBBAAABBBBBCCCCC
4141124334133211321332411
ABBBCCCCBBBBCAABBCBAAABBB
2412414343141244421341444
AAAABBBBBBBBBBCCCBBBBABCC
4134122412114344142234123
BBBBAABBBAAAAACCABBBBBBCC
2414423134231111244222224
ABBCCBBBBBBBAABAACCCBBBCB
1221132141424422444442211
AAAAAACBBBBBCCAAACCCCCCCC
2441444232211422113234311
ACCBCCCBAAAAAAAAAABBBBBBB
2212231142324222211322122
AAAACCAAAAABBBBBBBBBAABBB
4114111442112412224144241
BBBBBBBBBBBBBCBBBBBBBBBBB
2344224214414411132443443
AABBBCCBBBBBBCBBBBBBBBACC
1132424344222242111121443
AAAABCCCCCAAABBAAAAAAACCA
1132113414312422312211214
AABBBAAAABBBBCBBBAAAAABBC
3343311442444414444121212
BBBBBBACCCCCCCCCCCCCBBBBB
4432342242311114142223312
BBBBCCBBBBBAABBBBBBBBBBBB
1412133222224111131441241
AAAAABAAABBBBBBBBBBBBBBBB
1422441214111332221142123
AAAAACCAAAAAABBAAAAAAABBB
1144234444413331341141214
BBBBBBBCCCCAAAAABCCCCAAAC
4121312214444344241444122
AAAAAAAAACCCCCCCCCCCCCBBB
1241214234432243224314214
AAAAAACAACBBBBBBABCBBBBBC
2131211122433213443224123
AABAAAAABBBBBBBBBBBBBBBBB
2114323414411211121231124
ACCBBBBBBBCBBAAAAAAAAAAAB
2421433112131311122112141
ACBCCAAAABBBBBAAAAAAAAAAA
1121213144432342442424443
AABBBBBBBBCAAACCCCCCACCCA
1442131423241314444443123
ACCBBBBBBBBCBBBBCCCCCBAAB
1313424442333341211112414
AAABCCCCCBBBBBBBBBBBBBBBB
3241421421121324414441442
AABBBBBBBAAAAAAACCCCBBBCA
4443444444213131133213344
CCCCCCCCCCABBBBBBBBBBBBAC
3112212413432124444124234
AAAAAACCBBBBBBBBCCCBBBBBB
2144314431431334322312444
BBCCBABBBBBBBBBBBBBBBBBCB
2213324344441223211132421
AABBBBBBBCCBABAAAAABBBBBB
1414413431443313223433112
ABCCCCCCBBBBBBABBBBCAAAAA
2211214242214213132112244
AAAABBCAAAAACAAAABBAAABCC
4242133444432144412143314
BBBABBBBBBBBBBCCCAAAACCBC
2212341442113221131244413
AAABBBBBBBBBBBBBBBBABCCCC
2432411422224121141222413
ABBBBBBBBBAAAABBBBBAABBBB
4223111321323113122223344
AAAAAAAAAABBBAAAAABBBBBCC
3132121114333341122141321
ABBBBBBBBBBBBBBBBBBBBBBAA
2344111244211334123424311
ACCCAAACCCCCCAAAAAAABCBAA
2212211344134344444443144
AACBBBBBCBBBCCCCCCCBCBBCC
1131111312114134124444444
AAAAAAABBBBBBBCCABCCCCCCB
4421211412241424233312324
BBAAAAAAAAAAAAABBBBBBBBBB
2331224212212443112232241
AAAAAAACCCBAAABBAAAABBBBB
4344221312412112411322412
CCCCBBBBBBBBBBBBBBBCABBBB
2422424132141114434341114
AAAAAAAABBBBBBBBBBBBBBAAC
2321222213124441242422244
AABBAAAAAAAACCCBBCBBBBBBB
4231442244132211244334444
CBBBBBAACBAAAAAAABBBBBCCC
2324341122221112341443243
AAABBBBAAAAAABBBBBBCCCCCA
2343224322431424341231111
AACBBBBBBBBBBBBCCBBBAABBB
4434211442324443334343241
CCBCCBBAAAAAAACBBBBBCBBBA
1222114434344423421424123
AAAAAABBBCCCCCBBBBBBBBAAB
1122143413111311211324424
AAABBBBBBBAAAAAAAAABCCCBB
4144441122424331314444434
BBCCCCCBBBBBCBCBBBBBCCBBB
1211424124341412433323312
ABBBBBBBBBBBBCCBBBBBBBBBB
1122211141221433331234424
AAAAAAAABBBBBBBBBBAAACCCC
4241344241244311314442111
BBBBBCCCCBBCBBBABBBCCCAAA
2214244244434341332222421
AAABBCCCCCCCCBBBBBBAAABBB
2441143443323143212314114
ABBBBBCCCCBBBBCABBBAAABCC
4431111334144422421114111
CCBBBBBBBCACCCCCCAAAAAAAA
1242141311211223342212241
BBBBBBAAAABBBBBBBBBBBBBBB
2142222112221144444324231
BBAAAAAAABAABBCCCCCCCCCCA
2244421244124342121244424
BAABCAABCBBBCCCAAABBCCBBC
3123311224441313114424111
AABBAAAABCCCCBABABBBBCAAB
4213231234441423432224411
BBBBBBBBBCCBBCBBBBBBAACCB
1144142142341324212122324
AACCCBBACBBBBBBBBAAAAABBB
1241124412224443444414422
AAAAAAACAAAACCCCCCBBBBBAA
3322432241344424241121133
BBBAAAABBCBCCBBBBBBAABBBB
1312112212424312343423224
ACBAAAAAABBBBBBBBBBBBBBBB
2233133241442411222341141
AABBAAAABBBBBBBBBBABBBBBB
1121234441234222124444142
AABBBBCCCABAAAAAACCCCCCCC
2223444344412122112342112
AABBCBBBBBBAAAAAAABCBBAAA
4324342434411424122112342
CCCCCCCCCCCAACBBBBBBBBBBB
2112431432334313432443334
AABBBBBBBBBBBBABCBBCCBBBB
2122214423343221114444444
AAAAACCCCBBBBAAAAACCCCCCC
1323113444321211441443112
ABBBBBBBBCBBBBAACCCBBBAAA
1322423244211414411221221
ABAAAAACCBBBBBACABBBBBBBB
1232323241112343312312112
ABBBBBBBAABBBBAABBBBBAAAA
3233412441113214212211112
AAAACBBBBBBBABBBBBBBAAAAA
1444311441313122314444423
ACCCBBBBCCBBBBBBBBCCCCCCB
3124134244142214423312111
AABBBBBCCBCCBBBCCCBBBAAAA
3122232444412222221444444
BAABBBBCCBBBAAAAAACCCCCCC
1141214411414443143223322
AACBBBBBACCBCCCBBBBAAABBB
4214311231412342421114411
AAABBBBABBBBBBBBCCCAABBBB
1214113342134443132311144
AABBBBBBBBBBCCCBBBBBBABCC
4224143432412223444144142
BBBBBBBBBBBBBBBBBCCCCCBBB
2211111214232344334124442
AAAAAAAAACBBACBBBBCAACCCC
2124122444124241444121344
ABBCCCCBACCCCCBBABBAAABBC
4232234414114223223433144
BABBBBCCCCCABAABAAAABBBCC
4444423341414213144421324
CCCCCABBCCCCCAAABBBBBBBBB
4121414441241214431223434
ABBAAACBBBCCCCCCCCBBBBCCC
2444441143421142243442434
BCCCCBBBBBBAAABBBCCCAACCC
1242124141214144142444444
ACCAABBAAAAABBCCCCBCCCCCC
3342221111114222413113114
BBAAAAAAAAAAAAABBBBBABBBC
1424333242321131424434134
ABBBBAABAAAAAABBBBCCCCCBC
2341324311322214244432111
BBBBBBBBABBBBBBBBCBBBBBBB
1313414323444241244434211
ACBBBBCCBBBBBBBBBCCCBBBBB
2121324414242212123142124
BBBBBBCCAAACAAAAAABBBBBBC
2221131343442221414312134
BAAAABBBBCCBBBBABBBBBBBBA
1124443124142241414144442
AABBBBBBBBBBBBBBBBBACCCCA
4223224421121433222421442
AAABCBCBABBBCCCCCAAAAACCB
1211344311413231344442144
ABAABBCCBBBBBBBBBBCCBBACC
1122412433112111133334442
BAABBBBBBBAAAABBBBBBBCCCC
2322414211442323323341241
ABBBBBBBAACBAAAAACBBBAABB
1213411212311121222234444
AAAAAAAABBBBBBBBAAABBBACC
3434444442214231243434434
CCCCCBBBBAACCAAAACCCCCCBB
1413444112433124333141141
ACBBBBBBCCCAAABCCBAAAABBB
1221224243442212144444444
BBBBBCCCCCCCAAAAACCCCCBBC
3422134444321213434324113
BBAAAACCCCAAAAAABCCBBCBAB
4414332241113214333443444
BBBBBBBBBBBBBBBBBBBBCCCCC
1121334434433332311211444
BABBBBBBBBABBBBBAAAAACCBB
2112413214412341121211111
AAAABBBBBCCBCCCBAAAAAAAAA
2244121444223324122212111
AACCAABCCBBBBBBBBBBBAAAAA
4114124324142323332111212
ABBBBAABBBBBBBBBBBBAAAAAA
1211324321132242311412321
AAABBCCCAAABBBBBBBBBBBBAA
3141121224234312121144444
AAAAAAAAACCCCBBBBBBBCCCCB
3124444443212122211234213
BBBCCCCCCCBBBBAAAAAABBBBB
1441424324411413121124321
BCCCCBBBBCCBBCABBAAAABBBB
2223141222141242444433343
ABBCCBAAAAAAAAABBBCBBBBBB
4443244433314344444434214
CCCCCCCCCBBBCCCCCCCCAAABB
4112244424223144444443223
AAAAAACCCCCCCCCCCBBBBBBBB
1221122443444431244112424
AAAAAAABCACCBBBCCCBBBBBBB
1123123144443114341441342
ABBBBBBBCCCCBBBABCCCCAAAA
2122121143222232412142342
AAAAAAAABCAAAAAAAAAABBBCC
2442313114444414344343231
ACCCBBBCCCCCCCCCCCCBBBBBB
4434424111114232231132442
CCBBBBBBBBAACCBBBBBBBBCCA
1224242421144444444244244
AAABBBBBBAAACCCCCCCCCCCCC
1111114323341212444442414
AAAAACCBBBBBBAACCCCCCBBBB
2241213412121314114242121
AABBBBBBBBBBBCCCCCCCCBAAA
1444122223341331441331234
BACCBBBBBBBBAABBCCCBBBBBB
3243233124214224224342442
AAAAAAABBCAAAAACBBCBBBBBB
2212222424324142142442131
AAAAAAABBBBBBBBAAAACAAAAA
3232131132314121234211321
BCBBBBBBBBBBBAAABBBBAAAAB
1134424441224222243422124
BAABBAAAAAAAAAAAACCCCBBBC
2144434412421334114314444
BBBBCCCCCACBBBBBBBBBBBCBB
1122114211143421121444344
AAAAAAAAAAABBBAAAABCCCCCC
2211444444211224112242141
AAAACCCCCCBBBBBCAAAABBBBB
4311223322232413414444214
AAAAAAABBBBBBBBCCBBBBBABB
1441422243342111332423141
AACACBBBBBBBBBBBBBBBBBBBB
2211222422324434422444343
AAAAAAAABACCCCBCCCCCCCCCC
1422114314131211432214241
ACBBAABBBBBAABBBBBBBCCAAB
1311121213311241444424444
AAAAAAACABBBBBCCCCCCCCCCC
1424241422111214244342414
BABCCBBCCCCBBBBBCCCCCCCCC
4332411131321244444423244
BBBBBAAABCCCBBBBBBCCCBBBB
2342124421242434444113143
BBBAAAACAABBBBBBCCCBBAAAB
2341134434212121222412444
BBCBBBCCBBAAAAAAAABCCCCCC
1411221331134244441322333
AAAABBBBBBBBBBBCCCABBBBBB
2321111122223123444244422
AAAABBBBAAABBBBBCCCCCCAAA
2211112222341324223211343
AAAAAAAAAACCABBBBBBCCCBBB
4344331444414244123412221
AACCBBBBBBCBBACBBBBBAAABB
3442124412414123414212321
ABBBACCCAACCCCAAACCCBBBBB
2241131312434411134413334
AABBBBBBBBBBBBBBBBBBBBBBB
4311111221312323444441313
BBBBAAAAAABBBBBBCCABBBBBB
4412441111344121141134242
CCBBCCAAAACBCBBAAABBBBBBB
3332341114114232412413314
ABBBBBBBBBBBCBBBBBBBBBBBB
1111234314444141444113141
AAAAACCCCCCCCBCBCCCAAACBB
1421211141313241441142424
AABAAAAACCBBBBCBBBBBBBBAC
1141424114144442243312344
AAAAABBBBCACCCCBBCBBBBBBC
3411144321342411242414133
AAAABCCBBBBBBCAAABBBBCBBB
2321212313413414212214224
AAAAAAAAABBBBBBBBAAAAAAAA
1111444322113233223231143
AABACCBBBBBBBABBBBBBBBBCC
2213343432224121341214331
AAABBBBBBABBBBBBBBBBBBBBB
2321222144444444443124432
ABBBBBBBCCCCCCCCBBBBBBCBB
2124421433411332434144112
CCABBBBBBBBBBBBBBBCCCCABB
4443411414441322322212212
CCBBBBBBBCCCBBAAAAAAAABAA
1322233333322114214423314
AABBBBBBBABAAAABBBBBBBBBB
4441322442423313334414442
CCCAAAACCCCBBBAABBCCCCBCB
2214232242221223143114232
BBBBBAAAAAAAAAAACCCAAAAAA
2142211334141321221233414
BBCAAABBBBBBBBBAAABBCCBBB
2244144332322112133334114
ABBBBCCBBBBBBAAAABBBBBBBB
