	Correctness:	0.9700
	Correctness:	0.8400
	Correctness:	0.8900
	Correctness:	0.9100
	Correctness:	0.8400
	Correctness:	0.8100
	Correctness:	0.8900
	Correctness:	0.7900
	Correctness:	0.9200
	Correctness:	0.9400
	Correctness:	0.8700
	Correctness:	0.9300
	Correctness:	0.9300
	Correctness:	0.8950
	Correctness:	0.9200
	Correctness:	0.8950
	Correctness:	0.8100
	Correctness:	0.8350
	Correctness:	0.9150
	Correctness:	0.9250
	Correctness:	0.9250
	Correctness:	0.8700
	Correctness:	0.9000
	Correctness:	0.9000
	Correctness:	0.9200
	Correctness:	0.8875
	Correctness:	0.9075
	Correctness:	0.8975
	Correctness:	0.8850
	Correctness:	0.9450
	Correctness:	0.8838
	Correctness:	0.9313
	Correctness:	0.8688
	Correctness:	0.9000
	Correctness:	0.9025
	Correctness:	0.8875
	Correctness:	0.9163
	Correctness:	0.9025
	Correctness:	0.9075
	Correctness:	0.9012
	Correctness:	0.8881
	Correctness:	0.8744
	Correctness:	0.8869
	Correctness:	0.8956
	Correctness:	0.8881
	Correctness:	0.8869
	Correctness:	0.9006
	Correctness:	0.8975
	Correctness:	0.9069
	Correctness:	0.9144
Average:	0.8941
	Correctness:	0.9700
	Correctness:	0.8400
	Correctness:	0.8900
	Correctness:	0.9100
	Correctness:	0.8400
	Correctness:	0.8100
	Correctness:	0.8900
	Correctness:	0.7900
	Correctness:	0.9200
	Correctness:	0.9400
	Correctness:	0.8700
	Correctness:	0.9300
	Correctness:	0.9300
	Correctness:	0.8950
	Correctness:	0.9200
	Correctness:	0.8950
	Correctness:	0.8100
	Correctness:	0.8350
	Correctness:	0.9150
	Correctness:	0.9250
	Correctness:	0.9250
	Correctness:	0.8700
	Correctness:	0.9000
	Correctness:	0.8950
	Correctness:	0.9200
	Correctness:	0.8875
	Correctness:	0.9025
	Correctness:	0.9025
	Correctness:	0.8850
	Correctness:	0.9400
	Correctness:	0.8788
	Correctness:	0.9287
	Correctness:	0.8688
	Correctness:	0.9000
	Correctness:	0.9025
	Correctness:	0.8875
	Correctness:	0.9137
	Correctness:	0.9025
	Correctness:	0.9075
	Correctness:	0.9012
	Correctness:	0.8869
	Correctness:	0.8744
	Correctness:	0.8881
	Correctness:	0.8956
	Correctness:	0.8881
	Correctness:	0.8812
	Correctness:	0.9006
	Correctness:	0.8975
	Correctness:	0.9069
	Correctness:	0.9144
Average:	0.8936
	Correctness:	0.0200
	Correctness:	0.1400
	Correctness:	0.1200
	Correctness:	0.0800
	Correctness:	0.1500
	Correctness:	0.1700
	Correctness:	0.0900
	Correctness:	0.2000
	Correctness:	0.0500
	Correctness:	0.0700
	Correctness:	0.1500
	Correctness:	0.0650
	Correctness:	0.0450
	Correctness:	0.1000
	Correctness:	0.0650
	Correctness:	0.1200
	Correctness:	0.1700
	Correctness:	0.1450
	Correctness:	0.0800
	Correctness:	0.0600
	Correctness:	0.0725
	Correctness:	0.1125
	Correctness:	0.0950
	Correctness:	0.1075
	Correctness:	0.0775
	Correctness:	0.1100
	Correctness:	0.0725
	Correctness:	0.0900
	Correctness:	0.1075
	Correctness:	0.0575
	Correctness:	0.1075
	Correctness:	0.0700
	Correctness:	0.1313
	Correctness:	0.0963
	Correctness:	0.1037
	Correctness:	0.0963
	Correctness:	0.0762
	Correctness:	0.0925
	Correctness:	0.0938
	Correctness:	0.1050
	Correctness:	0.1138
	Correctness:	0.1187
	Correctness:	0.1100
	Correctness:	0.1050
	Correctness:	0.1050
	Correctness:	0.1100
	Correctness:	0.0875
	Correctness:	0.1006
	Correctness:	0.0912
	Correctness:	0.0850
Average:	0.0998
	Correctness:	0.0200
	Correctness:	0.1400
	Correctness:	0.1200
	Correctness:	0.0800
	Correctness:	0.1700
	Correctness:	0.1700
	Correctness:	0.0900
	Correctness:	0.2000
	Correctness:	0.0500
	Correctness:	0.0700
	Correctness:	0.1200
	Correctness:	0.0900
	Correctness:	0.0550
	Correctness:	0.0950
	Correctness:	0.0650
	Correctness:	0.1150
	Correctness:	0.1900
	Correctness:	0.1500
	Correctness:	0.0900
	Correctness:	0.0600
	Correctness:	0.0725
	Correctness:	0.1225
	Correctness:	0.0950
	Correctness:	0.1050
	Correctness:	0.0775
	Correctness:	0.1100
	Correctness:	0.0850
	Correctness:	0.0975
	Correctness:	0.1125
	Correctness:	0.0625
	Correctness:	0.1225
	Correctness:	0.0725
	Correctness:	0.1313
	Correctness:	0.1000
	Correctness:	0.0988
	Correctness:	0.1138
	Correctness:	0.0900
	Correctness:	0.0988
	Correctness:	0.0938
	Correctness:	0.0975
	Correctness:	0.1138
	Correctness:	0.1237
	Correctness:	0.1125
	Correctness:	0.1037
	Correctness:	0.1100
	Correctness:	0.1206
	Correctness:	0.0988
	Correctness:	0.1019
	Correctness:	0.0925
	Correctness:	0.0862
Average:	0.1032
	Correctness:	0.9700
	Correctness:	0.8400
	Correctness:	0.8900
	Correctness:	0.9100
	Correctness:	0.8400
	Correctness:	0.8100
	Correctness:	0.8900
	Correctness:	0.7900
	Correctness:	0.9200
	Correctness:	0.9400
	Correctness:	0.8500
	Correctness:	0.9300
	Correctness:	0.9300
	Correctness:	0.8950
	Correctness:	0.9200
	Correctness:	0.8950
	Correctness:	0.8200
	Correctness:	0.8350
	Correctness:	0.9250
	Correctness:	0.9250
	Correctness:	0.9200
	Correctness:	0.8750
	Correctness:	0.9000
	Correctness:	0.8950
	Correctness:	0.9200
	Correctness:	0.8875
	Correctness:	0.9025
	Correctness:	0.9025
	Correctness:	0.8900
	Correctness:	0.9350
	Correctness:	0.8812
	Correctness:	0.9287
	Correctness:	0.8762
	Correctness:	0.9025
	Correctness:	0.9000
	Correctness:	0.8875
	Correctness:	0.9137
	Correctness:	0.9050
	Correctness:	0.9075
	Correctness:	0.9038
	Correctness:	0.8856
	Correctness:	0.8781
	Correctness:	0.8881
	Correctness:	0.8944
	Correctness:	0.8894
	Correctness:	0.8881
	Correctness:	0.9031
	Correctness:	0.9012
	Correctness:	0.9056
	Correctness:	0.9169
Average:	0.8942
	Correctness:	0.0200
	Correctness:	0.1400
	Correctness:	0.1200
	Correctness:	0.0800
	Correctness:	0.1700
	Correctness:	0.1700
	Correctness:	0.0900
	Correctness:	0.2000
	Correctness:	0.0500
	Correctness:	0.0700
	Correctness:	0.1200
	Correctness:	0.0900
	Correctness:	0.0550
	Correctness:	0.0950
	Correctness:	0.0650
	Correctness:	0.1250
	Correctness:	0.1900
	Correctness:	0.1600
	Correctness:	0.0900
	Correctness:	0.0600
	Correctness:	0.0725
	Correctness:	0.1225
	Correctness:	0.0950
	Correctness:	0.1000
	Correctness:	0.0775
	Correctness:	0.1100
	Correctness:	0.0900
	Correctness:	0.0975
	Correctness:	0.1050
	Correctness:	0.0625
	Correctness:	0.1225
	Correctness:	0.0725
	Correctness:	0.1313
	Correctness:	0.1000
	Correctness:	0.0988
	Correctness:	0.1138
	Correctness:	0.0925
	Correctness:	0.0988
	Correctness:	0.0938
	Correctness:	0.0975
	Correctness:	0.1138
	Correctness:	0.1237
	Correctness:	0.1125
	Correctness:	0.1062
	Correctness:	0.1156
	Correctness:	0.1169
	Correctness:	0.1000
	Correctness:	0.0981
	Correctness:	0.0925
	Correctness:	0.0862
Average:	0.1036
	Correctness:	0.0200
	Correctness:	0.1400
	Correctness:	0.1200
	Correctness:	0.0600
	Correctness:	0.1700
	Correctness:	0.1700
	Correctness:	0.0900
	Correctness:	0.2000
	Correctness:	0.0500
	Correctness:	0.0700
	Correctness:	0.1200
	Correctness:	0.0750
	Correctness:	0.0550
	Correctness:	0.1000
	Correctness:	0.0650
	Correctness:	0.1100
	Correctness:	0.1800
	Correctness:	0.1600
	Correctness:	0.0800
	Correctness:	0.0600
	Correctness:	0.0675
	Correctness:	0.1275
	Correctness:	0.0950
	Correctness:	0.0925
	Correctness:	0.0725
	Correctness:	0.1100
	Correctness:	0.0900
	Correctness:	0.0950
	Correctness:	0.1175
	Correctness:	0.0625
	Correctness:	0.1175
	Correctness:	0.0700
	Correctness:	0.1263
	Correctness:	0.0963
	Correctness:	0.1013
	Correctness:	0.1138
	Correctness:	0.0887
	Correctness:	0.0950
	Correctness:	0.0963
	Correctness:	0.0925
	Correctness:	0.1138
	Correctness:	0.1250
	Correctness:	0.1125
	Correctness:	0.1050
	Correctness:	0.1037
	Correctness:	0.1156
	Correctness:	0.0912
	Correctness:	0.0956
	Correctness:	0.0912
	Correctness:	0.0875
Average:	0.1013
	Correctness:	0.0200
	Correctness:	0.1400
	Correctness:	0.1200
	Correctness:	0.0800
	Correctness:	0.1700
	Correctness:	0.1700
	Correctness:	0.0900
	Correctness:	0.2000
	Correctness:	0.0500
	Correctness:	0.0700
	Correctness:	0.1200
	Correctness:	0.0650
	Correctness:	0.0450
	Correctness:	0.1000
	Correctness:	0.0650
	Correctness:	0.1100
	Correctness:	0.1900
	Correctness:	0.1500
	Correctness:	0.0900
	Correctness:	0.0600
	Correctness:	0.0725
	Correctness:	0.1275
	Correctness:	0.0950
	Correctness:	0.0975
	Correctness:	0.0725
	Correctness:	0.1100
	Correctness:	0.0850
	Correctness:	0.1000
	Correctness:	0.1225
	Correctness:	0.0575
	Correctness:	0.1125
	Correctness:	0.0700
	Correctness:	0.1313
	Correctness:	0.0988
	Correctness:	0.0963
	Correctness:	0.1087
	Correctness:	0.0850
	Correctness:	0.0950
	Correctness:	0.0938
	Correctness:	0.0950
	Correctness:	0.1150
	Correctness:	0.1263
	Correctness:	0.1150
	Correctness:	0.1062
	Correctness:	0.1075
	Correctness:	0.1181
	Correctness:	0.0963
	Correctness:	0.1019
	Correctness:	0.0925
	Correctness:	0.0900
Average:	0.1020
