	Correctness:	0.3300
	Correctness:	0.2600
	Correctness:	0.2200
	Correctness:	0.2600
	Correctness:	0.3600
	Correctness:	0.3100
	Correctness:	0.2000
	Correctness:	0.2400
	Correctness:	0.2200
	Correctness:	0.3300
	Correctness:	0.2800
	Correctness:	0.2850
	Correctness:	0.2750
	Correctness:	0.2550
	Correctness:	0.2850
	Correctness:	0.3150
	Correctness:	0.3350
	Correctness:	0.2900
	Correctness:	0.3050
	Correctness:	0.3400
	Correctness:	0.2650
	Correctness:	0.2825
	Correctness:	0.2650
	Correctness:	0.3200
	Correctness:	0.2800
	Correctness:	0.3100
	Correctness:	0.2925
	Correctness:	0.2600
	Correctness:	0.3075
	Correctness:	0.2575
	Correctness:	0.2525
	Correctness:	0.2725
	Correctness:	0.2963
	Correctness:	0.2850
	Correctness:	0.2975
	Correctness:	0.3225
	Correctness:	0.3075
	Correctness:	0.2675
	Correctness:	0.3100
	Correctness:	0.2863
	Correctness:	0.2675
	Correctness:	0.2756
	Correctness:	0.2825
	Correctness:	0.2938
	Correctness:	0.2794
	Correctness:	0.2712
	Correctness:	0.3025
	Correctness:	0.2769
	Correctness:	0.2731
	Correctness:	0.2687
Average:	0.2845
	Correctness:	0.8300
	Correctness:	0.8000
	Correctness:	0.8700
	Correctness:	0.8400
	Correctness:	0.8100
	Correctness:	0.8600
	Correctness:	0.8800
	Correctness:	0.8400
	Correctness:	0.8800
	Correctness:	0.7600
	Correctness:	0.8300
	Correctness:	0.8450
	Correctness:	0.8500
	Correctness:	0.8500
	Correctness:	0.8300
	Correctness:	0.8200
	Correctness:	0.8000
	Correctness:	0.8200
	Correctness:	0.8000
	Correctness:	0.7800
	Correctness:	0.8200
	Correctness:	0.8175
	Correctness:	0.8350
	Correctness:	0.8000
	Correctness:	0.8325
	Correctness:	0.8000
	Correctness:	0.8400
	Correctness:	0.8300
	Correctness:	0.8350
	Correctness:	0.8325
	Correctness:	0.8375
	Correctness:	0.8300
	Correctness:	0.8225
	Correctness:	0.8263
	Correctness:	0.8113
	Correctness:	0.7925
	Correctness:	0.7913
	Correctness:	0.8313
	Correctness:	0.7987
	Correctness:	0.8037
	Correctness:	0.8256
	Correctness:	0.8269
	Correctness:	0.8237
	Correctness:	0.7956
	Correctness:	0.8000
	Correctness:	0.8331
	Correctness:	0.8237
	Correctness:	0.8225
	Correctness:	0.8300
	Correctness:	0.8344
Average:	0.8240
	Correctness:	0.1800
	Correctness:	0.1900
	Correctness:	0.1200
	Correctness:	0.1500
	Correctness:	0.2000
	Correctness:	0.1500
	Correctness:	0.1300
	Correctness:	0.1700
	Correctness:	0.1300
	Correctness:	0.2300
	Correctness:	0.1650
	Correctness:	0.1500
	Correctness:	0.1550
	Correctness:	0.1450
	Correctness:	0.1750
	Correctness:	0.1850
	Correctness:	0.2050
	Correctness:	0.1850
	Correctness:	0.1950
	Correctness:	0.2250
	Correctness:	0.1825
	Correctness:	0.1850
	Correctness:	0.1675
	Correctness:	0.1975
	Correctness:	0.1650
	Correctness:	0.2025
	Correctness:	0.1625
	Correctness:	0.1725
	Correctness:	0.1625
	Correctness:	0.1650
	Correctness:	0.1613
	Correctness:	0.1713
	Correctness:	0.1762
	Correctness:	0.1750
	Correctness:	0.1900
	Correctness:	0.2062
	Correctness:	0.2100
	Correctness:	0.1700
	Correctness:	0.2025
	Correctness:	0.1950
	Correctness:	0.1737
	Correctness:	0.1737
	Correctness:	0.1756
	Correctness:	0.2050
	Correctness:	0.1994
	Correctness:	0.1663
	Correctness:	0.1769
	Correctness:	0.1781
	Correctness:	0.1706
	Correctness:	0.1663
Average:	0.1768
	Correctness:	0.5700
	Correctness:	0.6600
	Correctness:	0.6700
	Correctness:	0.5500
	Correctness:	0.5200
	Correctness:	0.6100
	Correctness:	0.5800
	Correctness:	0.5500
	Correctness:	0.6500
	Correctness:	0.5700
	Correctness:	0.6050
	Correctness:	0.6700
	Correctness:	0.5900
	Correctness:	0.6350
	Correctness:	0.6750
	Correctness:	0.5650
	Correctness:	0.6100
	Correctness:	0.6350
	Correctness:	0.6150
	Correctness:	0.6050
	Correctness:	0.6250
	Correctness:	0.6200
	Correctness:	0.6050
	Correctness:	0.6325
	Correctness:	0.6125
	Correctness:	0.6650
	Correctness:	0.5425
	Correctness:	0.6550
	Correctness:	0.5675
	Correctness:	0.6125
	Correctness:	0.6412
	Correctness:	0.6350
	Correctness:	0.5875
	Correctness:	0.5863
	Correctness:	0.6362
	Correctness:	0.6075
	Correctness:	0.6000
	Correctness:	0.6312
	Correctness:	0.6075
	Correctness:	0.6062
	Correctness:	0.6181
	Correctness:	0.6294
	Correctness:	0.6006
	Correctness:	0.6138
	Correctness:	0.6650
	Correctness:	0.6212
	Correctness:	0.6131
	Correctness:	0.6169
	Correctness:	0.6481
	Correctness:	0.6369
Average:	0.6135
	Correctness:	0.8300
	Correctness:	0.8000
	Correctness:	0.8700
	Correctness:	0.8400
	Correctness:	0.8100
	Correctness:	0.8600
	Correctness:	0.8800
	Correctness:	0.8400
	Correctness:	0.8800
	Correctness:	0.7600
	Correctness:	0.8300
	Correctness:	0.8450
	Correctness:	0.8500
	Correctness:	0.8500
	Correctness:	0.8300
	Correctness:	0.8200
	Correctness:	0.8000
	Correctness:	0.8200
	Correctness:	0.8000
	Correctness:	0.7800
	Correctness:	0.8200
	Correctness:	0.8175
	Correctness:	0.8350
	Correctness:	0.8000
	Correctness:	0.8325
	Correctness:	0.8000
	Correctness:	0.8400
	Correctness:	0.8300
	Correctness:	0.8350
	Correctness:	0.8325
	Correctness:	0.8375
	Correctness:	0.8300
	Correctness:	0.8225
	Correctness:	0.8263
	Correctness:	0.8113
	Correctness:	0.7925
	Correctness:	0.7913
	Correctness:	0.8313
	Correctness:	0.7987
	Correctness:	0.8037
	Correctness:	0.8256
	Correctness:	0.8269
	Correctness:	0.8237
	Correctness:	0.7956
	Correctness:	0.8000
	Correctness:	0.8331
	Correctness:	0.8237
	Correctness:	0.8225
	Correctness:	0.8300
	Correctness:	0.8344
Average:	0.8240
	Correctness:	0.5000
	Correctness:	0.4800
	Correctness:	0.5100
	Correctness:	0.4500
	Correctness:	0.4800
	Correctness:	0.4300
	Correctness:	0.5000
	Correctness:	0.5600
	Correctness:	0.4100
	Correctness:	0.5000
	Correctness:	0.4400
	Correctness:	0.4050
	Correctness:	0.4150
	Correctness:	0.4650
	Correctness:	0.4600
	Correctness:	0.4900
	Correctness:	0.4400
	Correctness:	0.5000
	Correctness:	0.4950
	Correctness:	0.4300
	Correctness:	0.4800
	Correctness:	0.4400
	Correctness:	0.4475
	Correctness:	0.4500
	Correctness:	0.4550
	Correctness:	0.4550
	Correctness:	0.4450
	Correctness:	0.4625
	Correctness:	0.4575
	Correctness:	0.4625
	Correctness:	0.4763
	Correctness:	0.4825
	Correctness:	0.4888
	Correctness:	0.4612
	Correctness:	0.4550
	Correctness:	0.4662
	Correctness:	0.4450
	Correctness:	0.4688
	Correctness:	0.4662
	Correctness:	0.4587
	Correctness:	0.4569
	Correctness:	0.4619
	Correctness:	0.4525
	Correctness:	0.4650
	Correctness:	0.4619
	Correctness:	0.4550
	Correctness:	0.4544
	Correctness:	0.4594
	Correctness:	0.4531
	Correctness:	0.4400
Average:	0.4629
	Correctness:	0.1800
	Correctness:	0.1900
	Correctness:	0.1200
	Correctness:	0.1500
	Correctness:	0.2000
	Correctness:	0.1500
	Correctness:	0.1300
	Correctness:	0.1700
	Correctness:	0.1300
	Correctness:	0.2300
	Correctness:	0.1650
	Correctness:	0.1500
	Correctness:	0.1550
	Correctness:	0.1450
	Correctness:	0.1750
	Correctness:	0.1850
	Correctness:	0.2050
	Correctness:	0.1850
	Correctness:	0.1950
	Correctness:	0.2250
	Correctness:	0.1825
	Correctness:	0.1850
	Correctness:	0.1675
	Correctness:	0.1975
	Correctness:	0.1650
	Correctness:	0.2025
	Correctness:	0.1625
	Correctness:	0.1725
	Correctness:	0.1625
	Correctness:	0.1650
	Correctness:	0.1613
	Correctness:	0.1713
	Correctness:	0.1762
	Correctness:	0.1750
	Correctness:	0.1900
	Correctness:	0.2062
	Correctness:	0.2100
	Correctness:	0.1700
	Correctness:	0.2025
	Correctness:	0.1950
	Correctness:	0.1737
	Correctness:	0.1737
	Correctness:	0.1756
	Correctness:	0.2050
	Correctness:	0.1994
	Correctness:	0.1663
	Correctness:	0.1769
	Correctness:	0.1781
	Correctness:	0.1706
	Correctness:	0.1663
Average:	0.1768
	Correctness:	0.1800
	Correctness:	0.1900
	Correctness:	0.1200
	Correctness:	0.1500
	Correctness:	0.2000
	Correctness:	0.1500
	Correctness:	0.1300
	Correctness:	0.1700
	Correctness:	0.1300
	Correctness:	0.2300
	Correctness:	0.1650
	Correctness:	0.1500
	Correctness:	0.1550
	Correctness:	0.1450
	Correctness:	0.1750
	Correctness:	0.1850
	Correctness:	0.2050
	Correctness:	0.1850
	Correctness:	0.1950
	Correctness:	0.2250
	Correctness:	0.1825
	Correctness:	0.1850
	Correctness:	0.1675
	Correctness:	0.1975
	Correctness:	0.1650
	Correctness:	0.2025
	Correctness:	0.1625
	Correctness:	0.1725
	Correctness:	0.1625
	Correctness:	0.1650
	Correctness:	0.1613
	Correctness:	0.1713
	Correctness:	0.1762
	Correctness:	0.1750
	Correctness:	0.1900
	Correctness:	0.2062
	Correctness:	0.2100
	Correctness:	0.1700
	Correctness:	0.2025
	Correctness:	0.1950
	Correctness:	0.1737
	Correctness:	0.1737
	Correctness:	0.1756
	Correctness:	0.2050
	Correctness:	0.1994
	Correctness:	0.1663
	Correctness:	0.1769
	Correctness:	0.1781
	Correctness:	0.1706
	Correctness:	0.1663
Average:	0.1768
	Correctness:	0.5000
	Correctness:	0.5300
	Correctness:	0.4900
	Correctness:	0.4900
	Correctness:	0.5300
	Correctness:	0.4900
	Correctness:	0.4900
	Correctness:	0.5200
	Correctness:	0.4900
	Correctness:	0.4800
	Correctness:	0.4800
	Correctness:	0.4900
	Correctness:	0.5250
	Correctness:	0.5100
	Correctness:	0.5000
	Correctness:	0.4800
	Correctness:	0.5050
	Correctness:	0.5050
	Correctness:	0.4900
	Correctness:	0.4950
	Correctness:	0.5025
	Correctness:	0.4975
	Correctness:	0.4925
	Correctness:	0.4950
	Correctness:	0.4925
	Correctness:	0.5025
	Correctness:	0.5100
	Correctness:	0.5050
	Correctness:	0.4975
	Correctness:	0.5000
	Correctness:	0.5038
	Correctness:	0.4988
	Correctness:	0.5000
	Correctness:	0.5038
	Correctness:	0.5100
	Correctness:	0.5000
	Correctness:	0.5038
	Correctness:	0.5100
	Correctness:	0.5012
	Correctness:	0.4975
	Correctness:	0.5012
	Correctness:	0.4994
	Correctness:	0.4956
	Correctness:	0.5062
	Correctness:	0.4994
	Correctness:	0.4944
	Correctness:	0.5006
	Correctness:	0.5012
	Correctness:	0.4963
	Correctness:	0.5006
Average:	0.5002
	Correctness:	0.1800
	Correctness:	0.1900
	Correctness:	0.1200
	Correctness:	0.1500
	Correctness:	0.2000
	Correctness:	0.1500
	Correctness:	0.1300
	Correctness:	0.1700
	Correctness:	0.1300
	Correctness:	0.2300
	Correctness:	0.1650
	Correctness:	0.1500
	Correctness:	0.1550
	Correctness:	0.1450
	Correctness:	0.1750
	Correctness:	0.1850
	Correctness:	0.2050
	Correctness:	0.1850
	Correctness:	0.1950
	Correctness:	0.2250
	Correctness:	0.1825
	Correctness:	0.1850
	Correctness:	0.1675
	Correctness:	0.1975
	Correctness:	0.1650
	Correctness:	0.2025
	Correctness:	0.1625
	Correctness:	0.1725
	Correctness:	0.1625
	Correctness:	0.1650
	Correctness:	0.1613
	Correctness:	0.1713
	Correctness:	0.1762
	Correctness:	0.1750
	Correctness:	0.1900
	Correctness:	0.2062
	Correctness:	0.2100
	Correctness:	0.1700
	Correctness:	0.2025
	Correctness:	0.1950
	Correctness:	0.1737
	Correctness:	0.1737
	Correctness:	0.1756
	Correctness:	0.2050
	Correctness:	0.1994
	Correctness:	0.1663
	Correctness:	0.1769
	Correctness:	0.1781
	Correctness:	0.1706
	Correctness:	0.1663
Average:	0.1768
