	Correctness:	0.9400
	Correctness:	0.9000
	Correctness:	0.9500
	Correctness:	0.8900
	Correctness:	0.8900
	Correctness:	0.9400
	Correctness:	0.9300
	Correctness:	0.9000
	Correctness:	0.9600
	Correctness:	0.8100
	Correctness:	0.8650
	Correctness:	0.9300
	Correctness:	0.9050
	Correctness:	0.9250
	Correctness:	0.9100
	Correctness:	0.8800
	Correctness:	0.8800
	Correctness:	0.8650
	Correctness:	0.8850
	Correctness:	0.8500
	Correctness:	0.8700
	Correctness:	0.9150
	Correctness:	0.9000
	Correctness:	0.9100
	Correctness:	0.9200
	Correctness:	0.9125
	Correctness:	0.9175
	Correctness:	0.9375
	Correctness:	0.8975
	Correctness:	0.9050
	Correctness:	0.9150
	Correctness:	0.9125
	Correctness:	0.9100
	Correctness:	0.8875
	Correctness:	0.8875
	Correctness:	0.8900
	Correctness:	0.8925
	Correctness:	0.9113
	Correctness:	0.8575
	Correctness:	0.8612
	Correctness:	0.8994
	Correctness:	0.9125
	Correctness:	0.8944
	Correctness:	0.8962
	Correctness:	0.8862
	Correctness:	0.9062
	Correctness:	0.9050
	Correctness:	0.9050
	Correctness:	0.9131
	Correctness:	0.8944
Average:	0.9006
	Correctness:	0.0700
	Correctness:	0.1100
	Correctness:	0.0400
	Correctness:	0.0800
	Correctness:	0.1200
	Correctness:	0.0400
	Correctness:	0.0500
	Correctness:	0.0900
	Correctness:	0.0200
	Correctness:	0.2200
	Correctness:	0.1450
	Correctness:	0.0650
	Correctness:	0.0900
	Correctness:	0.0750
	Correctness:	0.0900
	Correctness:	0.1100
	Correctness:	0.1250
	Correctness:	0.1250
	Correctness:	0.1300
	Correctness:	0.1500
	Correctness:	0.1200
	Correctness:	0.0925
	Correctness:	0.1025
	Correctness:	0.1000
	Correctness:	0.0950
	Correctness:	0.0925
	Correctness:	0.0850
	Correctness:	0.0800
	Correctness:	0.1000
	Correctness:	0.0825
	Correctness:	0.0862
	Correctness:	0.1013
	Correctness:	0.0900
	Correctness:	0.1113
	Correctness:	0.1113
	Correctness:	0.1163
	Correctness:	0.1100
	Correctness:	0.0925
	Correctness:	0.1487
	Correctness:	0.1375
	Correctness:	0.0994
	Correctness:	0.0894
	Correctness:	0.1050
	Correctness:	0.1056
	Correctness:	0.1200
	Correctness:	0.0944
	Correctness:	0.0950
	Correctness:	0.1006
	Correctness:	0.0862
	Correctness:	0.1037
Average:	0.1000
	Correctness:	0.6600
	Correctness:	0.5300
	Correctness:	0.5600
	Correctness:	0.6000
	Correctness:	0.7600
	Correctness:	0.6700
	Correctness:	0.6200
	Correctness:	0.5900
	Correctness:	0.6600
	Correctness:	0.5400
	Correctness:	0.6600
	Correctness:	0.6450
	Correctness:	0.6950
	Correctness:	0.6600
	Correctness:	0.5650
	Correctness:	0.6800
	Correctness:	0.6050
	Correctness:	0.6500
	Correctness:	0.6350
	Correctness:	0.5950
	Correctness:	0.5975
	Correctness:	0.5875
	Correctness:	0.5900
	Correctness:	0.5775
	Correctness:	0.6250
	Correctness:	0.5425
	Correctness:	0.6950
	Correctness:	0.5825
	Correctness:	0.6800
	Correctness:	0.5925
	Correctness:	0.5250
	Correctness:	0.5750
	Correctness:	0.6775
	Correctness:	0.6450
	Correctness:	0.6238
	Correctness:	0.6288
	Correctness:	0.5913
	Correctness:	0.5563
	Correctness:	0.5863
	Correctness:	0.5863
	Correctness:	0.5787
	Correctness:	0.5850
	Correctness:	0.6300
	Correctness:	0.5856
	Correctness:	0.5294
	Correctness:	0.6162
	Correctness:	0.6538
	Correctness:	0.6256
	Correctness:	0.6062
	Correctness:	0.5719
Average:	0.6125
	Correctness:	0.9400
	Correctness:	0.9000
	Correctness:	0.9500
	Correctness:	0.8900
	Correctness:	0.8900
	Correctness:	0.9400
	Correctness:	0.9300
	Correctness:	0.9000
	Correctness:	0.9600
	Correctness:	0.8100
	Correctness:	0.8650
	Correctness:	0.9300
	Correctness:	0.9050
	Correctness:	0.9250
	Correctness:	0.9050
	Correctness:	0.8800
	Correctness:	0.8800
	Correctness:	0.8650
	Correctness:	0.8850
	Correctness:	0.8500
	Correctness:	0.8700
	Correctness:	0.9150
	Correctness:	0.9000
	Correctness:	0.9050
	Correctness:	0.9200
	Correctness:	0.9150
	Correctness:	0.9125
	Correctness:	0.9375
	Correctness:	0.9025
	Correctness:	0.9050
	Correctness:	0.9125
	Correctness:	0.9100
	Correctness:	0.9087
	Correctness:	0.8850
	Correctness:	0.8875
	Correctness:	0.8900
	Correctness:	0.8950
	Correctness:	0.9087
	Correctness:	0.8575
	Correctness:	0.8588
	Correctness:	0.8956
	Correctness:	0.9113
	Correctness:	0.8944
	Correctness:	0.8962
	Correctness:	0.8875
	Correctness:	0.9050
	Correctness:	0.9050
	Correctness:	0.9062
	Correctness:	0.9119
	Correctness:	0.8944
Average:	0.9001
	Correctness:	0.5600
	Correctness:	0.4100
	Correctness:	0.4900
	Correctness:	0.5200
	Correctness:	0.6000
	Correctness:	0.4800
	Correctness:	0.5700
	Correctness:	0.6000
	Correctness:	0.4800
	Correctness:	0.5000
	Correctness:	0.5200
	Correctness:	0.4200
	Correctness:	0.5350
	Correctness:	0.5150
	Correctness:	0.4400
	Correctness:	0.5850
	Correctness:	0.4550
	Correctness:	0.5400
	Correctness:	0.5100
	Correctness:	0.4450
	Correctness:	0.4825
	Correctness:	0.4700
	Correctness:	0.5050
	Correctness:	0.4450
	Correctness:	0.4925
	Correctness:	0.4175
	Correctness:	0.5750
	Correctness:	0.4525
	Correctness:	0.5475
	Correctness:	0.4925
	Correctness:	0.4575
	Correctness:	0.4788
	Correctness:	0.5587
	Correctness:	0.5262
	Correctness:	0.4738
	Correctness:	0.4988
	Correctness:	0.4775
	Correctness:	0.4675
	Correctness:	0.4788
	Correctness:	0.4813
	Correctness:	0.4731
	Correctness:	0.4681
	Correctness:	0.4956
	Correctness:	0.4819
	Correctness:	0.4213
	Correctness:	0.4900
	Correctness:	0.5056
	Correctness:	0.4925
	Correctness:	0.4725
	Correctness:	0.4544
Average:	0.4942
	Correctness:	0.5200
	Correctness:	0.5400
	Correctness:	0.5300
	Correctness:	0.5200
	Correctness:	0.4300
	Correctness:	0.5400
	Correctness:	0.5100
	Correctness:	0.5100
	Correctness:	0.4600
	Correctness:	0.5500
	Correctness:	0.4550
	Correctness:	0.4950
	Correctness:	0.4400
	Correctness:	0.4600
	Correctness:	0.5600
	Correctness:	0.4700
	Correctness:	0.5450
	Correctness:	0.4700
	Correctness:	0.4850
	Correctness:	0.5450
	Correctness:	0.5075
	Correctness:	0.5250
	Correctness:	0.5125
	Correctness:	0.5525
	Correctness:	0.5050
	Correctness:	0.5725
	Correctness:	0.4450
	Correctness:	0.5200
	Correctness:	0.4775
	Correctness:	0.5125
	Correctness:	0.5825
	Correctness:	0.5525
	Correctness:	0.4600
	Correctness:	0.4875
	Correctness:	0.4963
	Correctness:	0.4950
	Correctness:	0.5175
	Correctness:	0.5563
	Correctness:	0.5337
	Correctness:	0.5188
	Correctness:	0.5319
	Correctness:	0.5344
	Correctness:	0.4969
	Correctness:	0.5169
	Correctness:	0.5594
	Correctness:	0.5031
	Correctness:	0.4869
	Correctness:	0.4881
	Correctness:	0.5075
	Correctness:	0.5437
Average:	0.5107
	Correctness:	0.0700
	Correctness:	0.1100
	Correctness:	0.0400
	Correctness:	0.0900
	Correctness:	0.1200
	Correctness:	0.0400
	Correctness:	0.0500
	Correctness:	0.0900
	Correctness:	0.0200
	Correctness:	0.2200
	Correctness:	0.1350
	Correctness:	0.0650
	Correctness:	0.0900
	Correctness:	0.0750
	Correctness:	0.0900
	Correctness:	0.1100
	Correctness:	0.1250
	Correctness:	0.1250
	Correctness:	0.1400
	Correctness:	0.1500
	Correctness:	0.1250
	Correctness:	0.0925
	Correctness:	0.1025
	Correctness:	0.1050
	Correctness:	0.0950
	Correctness:	0.0975
	Correctness:	0.0900
	Correctness:	0.0850
	Correctness:	0.0900
	Correctness:	0.0825
	Correctness:	0.0912
	Correctness:	0.1025
	Correctness:	0.0875
	Correctness:	0.1138
	Correctness:	0.1187
	Correctness:	0.1187
	Correctness:	0.1100
	Correctness:	0.0950
	Correctness:	0.1487
	Correctness:	0.1400
	Correctness:	0.1069
	Correctness:	0.0931
	Correctness:	0.0988
	Correctness:	0.1106
	Correctness:	0.1175
	Correctness:	0.0938
	Correctness:	0.0975
	Correctness:	0.0994
	Correctness:	0.0875
	Correctness:	0.1037
Average:	0.1011
	Correctness:	0.9400
	Correctness:	0.8800
	Correctness:	0.9500
	Correctness:	0.9100
	Correctness:	0.8900
	Correctness:	0.9400
	Correctness:	0.9100
	Correctness:	0.8800
	Correctness:	0.9600
	Correctness:	0.7900
	Correctness:	0.8650
	Correctness:	0.9300
	Correctness:	0.9050
	Correctness:	0.9350
	Correctness:	0.9050
	Correctness:	0.8800
	Correctness:	0.8800
	Correctness:	0.8850
	Correctness:	0.9150
	Correctness:	0.8400
	Correctness:	0.8850
	Correctness:	0.9100
	Correctness:	0.9100
	Correctness:	0.9100
	Correctness:	0.9150
	Correctness:	0.9100
	Correctness:	0.9125
	Correctness:	0.9325
	Correctness:	0.9075
	Correctness:	0.9050
	Correctness:	0.9150
	Correctness:	0.9050
	Correctness:	0.9062
	Correctness:	0.8925
	Correctness:	0.8825
	Correctness:	0.8850
	Correctness:	0.8912
	Correctness:	0.9163
	Correctness:	0.8625
	Correctness:	0.8662
	Correctness:	0.9019
	Correctness:	0.9087
	Correctness:	0.8981
	Correctness:	0.8938
	Correctness:	0.8825
	Correctness:	0.9087
	Correctness:	0.9050
	Correctness:	0.9062
	Correctness:	0.9169
	Correctness:	0.8994
Average:	0.9006
	Correctness:	0.0700
	Correctness:	0.0900
	Correctness:	0.0400
	Correctness:	0.0800
	Correctness:	0.1200
	Correctness:	0.0600
	Correctness:	0.0500
	Correctness:	0.0900
	Correctness:	0.0200
	Correctness:	0.2200
	Correctness:	0.1350
	Correctness:	0.0650
	Correctness:	0.0900
	Correctness:	0.0750
	Correctness:	0.0900
	Correctness:	0.1100
	Correctness:	0.1250
	Correctness:	0.1250
	Correctness:	0.1400
	Correctness:	0.1500
	Correctness:	0.1250
	Correctness:	0.1025
	Correctness:	0.1075
	Correctness:	0.1050
	Correctness:	0.0950
	Correctness:	0.0975
	Correctness:	0.0900
	Correctness:	0.0850
	Correctness:	0.0900
	Correctness:	0.0875
	Correctness:	0.0912
	Correctness:	0.1037
	Correctness:	0.0900
	Correctness:	0.1138
	Correctness:	0.1163
	Correctness:	0.1187
	Correctness:	0.1125
	Correctness:	0.0925
	Correctness:	0.1487
	Correctness:	0.1400
	Correctness:	0.1044
	Correctness:	0.0944
	Correctness:	0.1025
	Correctness:	0.1119
	Correctness:	0.1175
	Correctness:	0.0944
	Correctness:	0.0963
	Correctness:	0.0994
	Correctness:	0.0912
	Correctness:	0.1025
Average:	0.1014
	Correctness:	0.0700
	Correctness:	0.0900
	Correctness:	0.0400
	Correctness:	0.1000
	Correctness:	0.1200
	Correctness:	0.0400
	Correctness:	0.0400
	Correctness:	0.1100
	Correctness:	0.0200
	Correctness:	0.2200
	Correctness:	0.1350
	Correctness:	0.0650
	Correctness:	0.1000
	Correctness:	0.0750
	Correctness:	0.1000
	Correctness:	0.1100
	Correctness:	0.1250
	Correctness:	0.1250
	Correctness:	0.1200
	Correctness:	0.1400
	Correctness:	0.1250
	Correctness:	0.0975
	Correctness:	0.1025
	Correctness:	0.0900
	Correctness:	0.0850
	Correctness:	0.0975
	Correctness:	0.0850
	Correctness:	0.0750
	Correctness:	0.0950
	Correctness:	0.0925
	Correctness:	0.0862
	Correctness:	0.0938
	Correctness:	0.0950
	Correctness:	0.1087
	Correctness:	0.1163
	Correctness:	0.1138
	Correctness:	0.1125
	Correctness:	0.0925
	Correctness:	0.1487
	Correctness:	0.1400
	Correctness:	0.1031
	Correctness:	0.0919
	Correctness:	0.1050
	Correctness:	0.1056
	Correctness:	0.1194
	Correctness:	0.0919
	Correctness:	0.0963
	Correctness:	0.0981
	Correctness:	0.0900
	Correctness:	0.1037
Average:	0.1001
