	Correctness:	0.1200
	Correctness:	0.1000
	Correctness:	0.0900
	Correctness:	0.1400
	Correctness:	0.1200
	Correctness:	0.0100
	Correctness:	0.0600
	Correctness:	0.1700
	Correctness:	0.0900
	Correctness:	0.0300
	Correctness:	0.0400
	Correctness:	0.0800
	Correctness:	0.0950
	Correctness:	0.1300
	Correctness:	0.1400
	Correctness:	0.0750
	Correctness:	0.1100
	Correctness:	0.1250
	Correctness:	0.0900
	Correctness:	0.1800
	Correctness:	0.1000
	Correctness:	0.1325
	Correctness:	0.1425
	Correctness:	0.1375
	Correctness:	0.1450
	Correctness:	0.0675
	Correctness:	0.0975
	Correctness:	0.0975
	Correctness:	0.0775
	Correctness:	0.0625
	Correctness:	0.0975
	Correctness:	0.1087
	Correctness:	0.0988
	Correctness:	0.0963
	Correctness:	0.0813
	Correctness:	0.0862
	Correctness:	0.0737
	Correctness:	0.1288
	Correctness:	0.0988
	Correctness:	0.1062
	Correctness:	0.1087
	Correctness:	0.1119
	Correctness:	0.0906
	Correctness:	0.0944
	Correctness:	0.1075
	Correctness:	0.0969
	Correctness:	0.0900
	Correctness:	0.0981
	Correctness:	0.0794
	Correctness:	0.1119
Average:	0.1004
	Correctness:	0.8500
	Correctness:	0.9100
	Correctness:	0.9200
	Correctness:	0.8400
	Correctness:	0.8900
	Correctness:	0.9800
	Correctness:	0.9200
	Correctness:	0.8400
	Correctness:	0.9200
	Correctness:	0.9800
	Correctness:	0.9650
	Correctness:	0.9250
	Correctness:	0.9000
	Correctness:	0.8750
	Correctness:	0.8650
	Correctness:	0.9200
	Correctness:	0.8850
	Correctness:	0.8800
	Correctness:	0.9200
	Correctness:	0.8150
	Correctness:	0.8875
	Correctness:	0.8650
	Correctness:	0.8600
	Correctness:	0.8600
	Correctness:	0.8575
	Correctness:	0.9300
	Correctness:	0.9050
	Correctness:	0.8975
	Correctness:	0.9250
	Correctness:	0.9325
	Correctness:	0.8975
	Correctness:	0.8900
	Correctness:	0.9000
	Correctness:	0.9062
	Correctness:	0.9175
	Correctness:	0.9150
	Correctness:	0.9275
	Correctness:	0.8838
	Correctness:	0.9025
	Correctness:	0.8912
	Correctness:	0.8906
	Correctness:	0.8888
	Correctness:	0.9075
	Correctness:	0.9062
	Correctness:	0.8938
	Correctness:	0.9025
	Correctness:	0.9087
	Correctness:	0.9000
	Correctness:	0.9219
	Correctness:	0.8875
Average:	0.8992
	Correctness:	0.9300
	Correctness:	0.9100
	Correctness:	0.9400
	Correctness:	0.8400
	Correctness:	0.8700
	Correctness:	0.9800
	Correctness:	0.9200
	Correctness:	0.9200
	Correctness:	0.9400
	Correctness:	0.9600
	Correctness:	0.9850
	Correctness:	0.9250
	Correctness:	0.9000
	Correctness:	0.8950
	Correctness:	0.8750
	Correctness:	0.9250
	Correctness:	0.9150
	Correctness:	0.9000
	Correctness:	0.9700
	Correctness:	0.8550
	Correctness:	0.9125
	Correctness:	0.8950
	Correctness:	0.8675
	Correctness:	0.8875
	Correctness:	0.8775
	Correctness:	0.9400
	Correctness:	0.9250
	Correctness:	0.8825
	Correctness:	0.9150
	Correctness:	0.9525
	Correctness:	0.9163
	Correctness:	0.9025
	Correctness:	0.9050
	Correctness:	0.9137
	Correctness:	0.9250
	Correctness:	0.9225
	Correctness:	0.9475
	Correctness:	0.9038
	Correctness:	0.9075
	Correctness:	0.9113
	Correctness:	0.9006
	Correctness:	0.9156
	Correctness:	0.9062
	Correctness:	0.9100
	Correctness:	0.9062
	Correctness:	0.9225
	Correctness:	0.9175
	Correctness:	0.9062
	Correctness:	0.9306
	Correctness:	0.9100
Average:	0.9138
	Correctness:	0.1200
	Correctness:	0.1000
	Correctness:	0.0900
	Correctness:	0.1400
	Correctness:	0.1200
	Correctness:	0.0100
	Correctness:	0.0600
	Correctness:	0.1700
	Correctness:	0.0900
	Correctness:	0.0300
	Correctness:	0.0400
	Correctness:	0.0800
	Correctness:	0.0950
	Correctness:	0.1300
	Correctness:	0.1400
	Correctness:	0.0750
	Correctness:	0.1100
	Correctness:	0.1250
	Correctness:	0.0900
	Correctness:	0.1800
	Correctness:	0.1000
	Correctness:	0.1325
	Correctness:	0.1425
	Correctness:	0.1375
	Correctness:	0.1450
	Correctness:	0.0675
	Correctness:	0.0975
	Correctness:	0.0975
	Correctness:	0.0775
	Correctness:	0.0625
	Correctness:	0.0975
	Correctness:	0.1087
	Correctness:	0.0988
	Correctness:	0.0963
	Correctness:	0.0813
	Correctness:	0.0862
	Correctness:	0.0737
	Correctness:	0.1175
	Correctness:	0.0988
	Correctness:	0.1062
	Correctness:	0.1087
	Correctness:	0.1119
	Correctness:	0.0906
	Correctness:	0.0944
	Correctness:	0.1075
	Correctness:	0.0969
	Correctness:	0.0900
	Correctness:	0.0981
	Correctness:	0.0794
	Correctness:	0.1119
Average:	0.1002
