	Correctness:	0.7800
	Correctness:	0.8300
	Correctness:	0.8200
	Correctness:	0.8300
	Correctness:	0.8000
	Correctness:	0.8700
	Correctness:	0.8100
	Correctness:	0.7800
	Correctness:	0.8200
	Correctness:	0.9000
	Correctness:	0.8650
	Correctness:	0.8500
	Correctness:	0.8250
	Correctness:	0.8200
	Correctness:	0.8000
	Correctness:	0.8400
	Correctness:	0.8200
	Correctness:	0.8500
	Correctness:	0.8150
	Correctness:	0.7750
	Correctness:	0.8250
	Correctness:	0.8000
	Correctness:	0.8250
	Correctness:	0.8000
	Correctness:	0.8025
	Correctness:	0.8300
	Correctness:	0.8500
	Correctness:	0.8350
	Correctness:	0.8600
	Correctness:	0.8300
	Correctness:	0.8137
	Correctness:	0.8000
	Correctness:	0.8113
	Correctness:	0.8137
	Correctness:	0.8337
	Correctness:	0.8350
	Correctness:	0.8275
	Correctness:	0.8163
	Correctness:	0.8200
	Correctness:	0.8200
	Correctness:	0.8150
	Correctness:	0.8119
	Correctness:	0.8313
	Correctness:	0.8263
	Correctness:	0.8181
	Correctness:	0.8106
	Correctness:	0.8244
	Correctness:	0.8319
	Correctness:	0.8300
	Correctness:	0.8106
Average:	0.8232
	Correctness:	0.8000
	Correctness:	0.7900
	Correctness:	0.8000
	Correctness:	0.8100
	Correctness:	0.8100
	Correctness:	0.8800
	Correctness:	0.8200
	Correctness:	0.7900
	Correctness:	0.8200
	Correctness:	0.9000
	Correctness:	0.8600
	Correctness:	0.8500
	Correctness:	0.8200
	Correctness:	0.8150
	Correctness:	0.8050
	Correctness:	0.8350
	Correctness:	0.8300
	Correctness:	0.8500
	Correctness:	0.8100
	Correctness:	0.7750
	Correctness:	0.8350
	Correctness:	0.8050
	Correctness:	0.8175
	Correctness:	0.8050
	Correctness:	0.7950
	Correctness:	0.8425
	Correctness:	0.8500
	Correctness:	0.8475
	Correctness:	0.8625
	Correctness:	0.8350
	Correctness:	0.8275
	Correctness:	0.8237
	Correctness:	0.8213
	Correctness:	0.8150
	Correctness:	0.8387
	Correctness:	0.8400
	Correctness:	0.8387
	Correctness:	0.8150
	Correctness:	0.8337
	Correctness:	0.8200
	Correctness:	0.8181
	Correctness:	0.8150
	Correctness:	0.8431
	Correctness:	0.8275
	Correctness:	0.8219
	Correctness:	0.8137
	Correctness:	0.8294
	Correctness:	0.8381
	Correctness:	0.8425
	Correctness:	0.8144
Average:	0.8261
	Correctness:	0.7800
	Correctness:	0.8300
	Correctness:	0.8200
	Correctness:	0.8300
	Correctness:	0.8000
	Correctness:	0.8700
	Correctness:	0.8100
	Correctness:	0.7800
	Correctness:	0.8200
	Correctness:	0.9000
	Correctness:	0.8650
	Correctness:	0.8500
	Correctness:	0.8250
	Correctness:	0.8200
	Correctness:	0.8000
	Correctness:	0.8400
	Correctness:	0.8200
	Correctness:	0.8500
	Correctness:	0.8150
	Correctness:	0.7750
	Correctness:	0.8250
	Correctness:	0.8000
	Correctness:	0.8250
	Correctness:	0.8000
	Correctness:	0.8025
	Correctness:	0.8300
	Correctness:	0.8500
	Correctness:	0.8350
	Correctness:	0.8600
	Correctness:	0.8300
	Correctness:	0.8137
	Correctness:	0.8000
	Correctness:	0.8113
	Correctness:	0.8137
	Correctness:	0.8337
	Correctness:	0.8350
	Correctness:	0.8275
	Correctness:	0.8163
	Correctness:	0.8200
	Correctness:	0.8200
	Correctness:	0.8150
	Correctness:	0.8119
	Correctness:	0.8313
	Correctness:	0.8263
	Correctness:	0.8181
	Correctness:	0.8106
	Correctness:	0.8244
	Correctness:	0.8319
	Correctness:	0.8300
	Correctness:	0.8106
Average:	0.8232
	Correctness:	0.2300
	Correctness:	0.1800
	Correctness:	0.1900
	Correctness:	0.1800
	Correctness:	0.2100
	Correctness:	0.1200
	Correctness:	0.2000
	Correctness:	0.2300
	Correctness:	0.1900
	Correctness:	0.1100
	Correctness:	0.1400
	Correctness:	0.1550
	Correctness:	0.1700
	Correctness:	0.1850
	Correctness:	0.2050
	Correctness:	0.1550
	Correctness:	0.1750
	Correctness:	0.1550
	Correctness:	0.1800
	Correctness:	0.2200
	Correctness:	0.1775
	Correctness:	0.1975
	Correctness:	0.1775
	Correctness:	0.1975
	Correctness:	0.2000
	Correctness:	0.1675
	Correctness:	0.1525
	Correctness:	0.1675
	Correctness:	0.1425
	Correctness:	0.1725
	Correctness:	0.1850
	Correctness:	0.1988
	Correctness:	0.1875
	Correctness:	0.1850
	Correctness:	0.1650
	Correctness:	0.1663
	Correctness:	0.1737
	Correctness:	0.1850
	Correctness:	0.1812
	Correctness:	0.1812
	Correctness:	0.1844
	Correctness:	0.1888
	Correctness:	0.1694
	Correctness:	0.1744
	Correctness:	0.1812
	Correctness:	0.1888
	Correctness:	0.1762
	Correctness:	0.1688
	Correctness:	0.1694
	Correctness:	0.1888
Average:	0.1786
	Correctness:	0.2200
	Correctness:	0.2000
	Correctness:	0.2000
	Correctness:	0.1900
	Correctness:	0.2000
	Correctness:	0.1200
	Correctness:	0.1900
	Correctness:	0.2200
	Correctness:	0.1800
	Correctness:	0.1100
	Correctness:	0.1400
	Correctness:	0.1500
	Correctness:	0.1700
	Correctness:	0.1900
	Correctness:	0.2100
	Correctness:	0.1600
	Correctness:	0.1700
	Correctness:	0.1550
	Correctness:	0.1800
	Correctness:	0.2200
	Correctness:	0.1750
	Correctness:	0.1950
	Correctness:	0.1800
	Correctness:	0.1925
	Correctness:	0.2050
	Correctness:	0.1550
	Correctness:	0.1575
	Correctness:	0.1600
	Correctness:	0.1375
	Correctness:	0.1650
	Correctness:	0.1787
	Correctness:	0.1812
	Correctness:	0.1812
	Correctness:	0.1888
	Correctness:	0.1625
	Correctness:	0.1650
	Correctness:	0.1638
	Correctness:	0.1850
	Correctness:	0.1725
	Correctness:	0.1812
	Correctness:	0.1812
	Correctness:	0.1875
	Correctness:	0.1631
	Correctness:	0.1731
	Correctness:	0.1831
	Correctness:	0.1856
	Correctness:	0.1750
	Correctness:	0.1656
	Correctness:	0.1625
	Correctness:	0.1875
Average:	0.1764
	Correctness:	0.2300
	Correctness:	0.1800
	Correctness:	0.1900
	Correctness:	0.1800
	Correctness:	0.2100
	Correctness:	0.1200
	Correctness:	0.2000
	Correctness:	0.2300
	Correctness:	0.1900
	Correctness:	0.1100
	Correctness:	0.1400
	Correctness:	0.1550
	Correctness:	0.1700
	Correctness:	0.1850
	Correctness:	0.2050
	Correctness:	0.1550
	Correctness:	0.1750
	Correctness:	0.1550
	Correctness:	0.1800
	Correctness:	0.2200
	Correctness:	0.1775
	Correctness:	0.1975
	Correctness:	0.1775
	Correctness:	0.1975
	Correctness:	0.2000
	Correctness:	0.1675
	Correctness:	0.1525
	Correctness:	0.1675
	Correctness:	0.1425
	Correctness:	0.1725
	Correctness:	0.1850
	Correctness:	0.1988
	Correctness:	0.1875
	Correctness:	0.1850
	Correctness:	0.1650
	Correctness:	0.1663
	Correctness:	0.1737
	Correctness:	0.1850
	Correctness:	0.1812
	Correctness:	0.1812
	Correctness:	0.1844
	Correctness:	0.1888
	Correctness:	0.1694
	Correctness:	0.1744
	Correctness:	0.1812
	Correctness:	0.1888
	Correctness:	0.1762
	Correctness:	0.1688
	Correctness:	0.1694
	Correctness:	0.1888
Average:	0.1786
	Correctness:	0.8000
	Correctness:	0.7900
	Correctness:	0.8000
	Correctness:	0.8100
	Correctness:	0.8100
	Correctness:	0.8800
	Correctness:	0.8200
	Correctness:	0.7900
	Correctness:	0.8200
	Correctness:	0.9000
	Correctness:	0.8600
	Correctness:	0.8500
	Correctness:	0.8200
	Correctness:	0.8150
	Correctness:	0.8050
	Correctness:	0.8350
	Correctness:	0.8300
	Correctness:	0.8500
	Correctness:	0.8100
	Correctness:	0.7750
	Correctness:	0.8350
	Correctness:	0.8050
	Correctness:	0.8175
	Correctness:	0.8050
	Correctness:	0.7950
	Correctness:	0.8425
	Correctness:	0.8500
	Correctness:	0.8475
	Correctness:	0.8625
	Correctness:	0.8350
	Correctness:	0.8275
	Correctness:	0.8237
	Correctness:	0.8213
	Correctness:	0.8150
	Correctness:	0.8387
	Correctness:	0.8400
	Correctness:	0.8387
	Correctness:	0.8150
	Correctness:	0.8337
	Correctness:	0.8200
	Correctness:	0.8181
	Correctness:	0.8150
	Correctness:	0.8431
	Correctness:	0.8275
	Correctness:	0.8219
	Correctness:	0.8137
	Correctness:	0.8294
	Correctness:	0.8381
	Correctness:	0.8425
	Correctness:	0.8144
Average:	0.8261
	Correctness:	0.2200
	Correctness:	0.2000
	Correctness:	0.2000
	Correctness:	0.1900
	Correctness:	0.2100
	Correctness:	0.1100
	Correctness:	0.2000
	Correctness:	0.2300
	Correctness:	0.2000
	Correctness:	0.1100
	Correctness:	0.1450
	Correctness:	0.1600
	Correctness:	0.1750
	Correctness:	0.1850
	Correctness:	0.1950
	Correctness:	0.1550
	Correctness:	0.1700
	Correctness:	0.1550
	Correctness:	0.1850
	Correctness:	0.2200
	Correctness:	0.1700
	Correctness:	0.1950
	Correctness:	0.1825
	Correctness:	0.1975
	Correctness:	0.2025
	Correctness:	0.1675
	Correctness:	0.1475
	Correctness:	0.1625
	Correctness:	0.1450
	Correctness:	0.1750
	Correctness:	0.1775
	Correctness:	0.1925
	Correctness:	0.1837
	Correctness:	0.1800
	Correctness:	0.1625
	Correctness:	0.1625
	Correctness:	0.1725
	Correctness:	0.1862
	Correctness:	0.1762
	Correctness:	0.1775
	Correctness:	0.1844
	Correctness:	0.1869
	Correctness:	0.1638
	Correctness:	0.1744
	Correctness:	0.1756
	Correctness:	0.1888
	Correctness:	0.1725
	Correctness:	0.1656
	Correctness:	0.1638
	Correctness:	0.1862
Average:	0.1779
