	Correctness:	0.9600
	Correctness:	0.9500
	Correctness:	0.9600
	Correctness:	0.8100
	Correctness:	0.9100
	Correctness:	0.8800
	Correctness:	0.9300
	Correctness:	0.8800
	Correctness:	0.9000
	Correctness:	0.8500
	Correctness:	0.9500
	Correctness:	0.9150
	Correctness:	0.9100
	Correctness:	0.8950
	Correctness:	0.9050
	Correctness:	0.8600
	Correctness:	0.8750
	Correctness:	0.8800
	Correctness:	0.9450
	Correctness:	0.9150
	Correctness:	0.8900
	Correctness:	0.9075
	Correctness:	0.9125
	Correctness:	0.9400
	Correctness:	0.8850
	Correctness:	0.9100
	Correctness:	0.9375
	Correctness:	0.9175
	Correctness:	0.9075
	Correctness:	0.8675
	Correctness:	0.9012
	Correctness:	0.9075
	Correctness:	0.9387
	Correctness:	0.8962
	Correctness:	0.9075
	Correctness:	0.9250
	Correctness:	0.9025
	Correctness:	0.9125
	Correctness:	0.9125
	Correctness:	0.9087
	Correctness:	0.9213
	Correctness:	0.9012
	Correctness:	0.9087
	Correctness:	0.9187
	Correctness:	0.9081
	Correctness:	0.9213
	Correctness:	0.8962
	Correctness:	0.9012
	Correctness:	0.8719
	Correctness:	0.9306
Average:	0.9069
	Correctness:	0.5100
	Correctness:	0.5700
	Correctness:	0.5600
	Correctness:	0.5300
	Correctness:	0.6300
	Correctness:	0.5600
	Correctness:	0.4900
	Correctness:	0.5700
	Correctness:	0.5300
	Correctness:	0.5100
	Correctness:	0.5250
	Correctness:	0.5150
	Correctness:	0.5400
	Correctness:	0.5400
	Correctness:	0.5500
	Correctness:	0.5200
	Correctness:	0.5650
	Correctness:	0.5200
	Correctness:	0.5250
	Correctness:	0.5200
	Correctness:	0.5400
	Correctness:	0.5200
	Correctness:	0.5350
	Correctness:	0.5150
	Correctness:	0.5300
	Correctness:	0.5275
	Correctness:	0.5450
	Correctness:	0.5325
	Correctness:	0.5175
	Correctness:	0.5325
	Correctness:	0.5525
	Correctness:	0.5537
	Correctness:	0.5212
	Correctness:	0.5250
	Correctness:	0.5337
	Correctness:	0.5425
	Correctness:	0.5250
	Correctness:	0.5150
	Correctness:	0.5100
	Correctness:	0.5288
	Correctness:	0.5275
	Correctness:	0.5325
	Correctness:	0.5294
	Correctness:	0.5300
	Correctness:	0.5275
	Correctness:	0.5300
	Correctness:	0.5194
	Correctness:	0.5281
	Correctness:	0.5156
	Correctness:	0.5169
Average:	0.5328
	Correctness:	0.0600
	Correctness:	0.0500
	Correctness:	0.0500
	Correctness:	0.2100
	Correctness:	0.1000
	Correctness:	0.1000
	Correctness:	0.1000
	Correctness:	0.0500
	Correctness:	0.1300
	Correctness:	0.1600
	Correctness:	0.0350
	Correctness:	0.0900
	Correctness:	0.1150
	Correctness:	0.0900
	Correctness:	0.1000
	Correctness:	0.1450
	Correctness:	0.1500
	Correctness:	0.1450
	Correctness:	0.0500
	Correctness:	0.0900
	Correctness:	0.1225
	Correctness:	0.1075
	Correctness:	0.0950
	Correctness:	0.0600
	Correctness:	0.1225
	Correctness:	0.0925
	Correctness:	0.0700
	Correctness:	0.1025
	Correctness:	0.0950
	Correctness:	0.1350
	Correctness:	0.1050
	Correctness:	0.0988
	Correctness:	0.0725
	Correctness:	0.1200
	Correctness:	0.0988
	Correctness:	0.0813
	Correctness:	0.1087
	Correctness:	0.1050
	Correctness:	0.1037
	Correctness:	0.1050
	Correctness:	0.0862
	Correctness:	0.1169
	Correctness:	0.0969
	Correctness:	0.0887
	Correctness:	0.0975
	Correctness:	0.0906
	Correctness:	0.1081
	Correctness:	0.1119
	Correctness:	0.1269
	Correctness:	0.0800
Average:	0.1005
	Correctness:	0.9600
	Correctness:	0.9500
	Correctness:	0.9600
	Correctness:	0.8100
	Correctness:	0.9100
	Correctness:	0.8800
	Correctness:	0.9300
	Correctness:	0.8800
	Correctness:	0.9000
	Correctness:	0.8500
	Correctness:	0.9500
	Correctness:	0.9150
	Correctness:	0.9100
	Correctness:	0.8950
	Correctness:	0.9050
	Correctness:	0.8600
	Correctness:	0.8750
	Correctness:	0.8800
	Correctness:	0.9450
	Correctness:	0.9150
	Correctness:	0.8900
	Correctness:	0.9075
	Correctness:	0.9125
	Correctness:	0.9400
	Correctness:	0.8850
	Correctness:	0.9100
	Correctness:	0.9375
	Correctness:	0.9175
	Correctness:	0.9075
	Correctness:	0.8675
	Correctness:	0.9012
	Correctness:	0.9075
	Correctness:	0.9387
	Correctness:	0.8962
	Correctness:	0.9075
	Correctness:	0.9250
	Correctness:	0.9025
	Correctness:	0.9125
	Correctness:	0.9125
	Correctness:	0.9087
	Correctness:	0.9213
	Correctness:	0.9012
	Correctness:	0.9087
	Correctness:	0.9187
	Correctness:	0.9081
	Correctness:	0.9213
	Correctness:	0.8962
	Correctness:	0.9012
	Correctness:	0.8719
	Correctness:	0.9306
Average:	0.9069
	Correctness:	0.9600
	Correctness:	0.9500
	Correctness:	0.9600
	Correctness:	0.8100
	Correctness:	0.9100
	Correctness:	0.8800
	Correctness:	0.9300
	Correctness:	0.8800
	Correctness:	0.9000
	Correctness:	0.8500
	Correctness:	0.9500
	Correctness:	0.9150
	Correctness:	0.9100
	Correctness:	0.8950
	Correctness:	0.9050
	Correctness:	0.8600
	Correctness:	0.8750
	Correctness:	0.8800
	Correctness:	0.9450
	Correctness:	0.9150
	Correctness:	0.8900
	Correctness:	0.9075
	Correctness:	0.9125
	Correctness:	0.9400
	Correctness:	0.8850
	Correctness:	0.9100
	Correctness:	0.9375
	Correctness:	0.9175
	Correctness:	0.9075
	Correctness:	0.8675
	Correctness:	0.9012
	Correctness:	0.9075
	Correctness:	0.9387
	Correctness:	0.8962
	Correctness:	0.9075
	Correctness:	0.9250
	Correctness:	0.9025
	Correctness:	0.9125
	Correctness:	0.9125
	Correctness:	0.9087
	Correctness:	0.9169
	Correctness:	0.9012
	Correctness:	0.9087
	Correctness:	0.9187
	Correctness:	0.9081
	Correctness:	0.9213
	Correctness:	0.8962
	Correctness:	0.9012
	Correctness:	0.8719
	Correctness:	0.9306
Average:	0.9068
	Correctness:	0.9600
	Correctness:	0.9500
	Correctness:	0.9600
	Correctness:	0.8100
	Correctness:	0.9100
	Correctness:	0.8800
	Correctness:	0.9300
	Correctness:	0.8800
	Correctness:	0.9000
	Correctness:	0.8500
	Correctness:	0.9500
	Correctness:	0.9150
	Correctness:	0.9100
	Correctness:	0.8950
	Correctness:	0.9050
	Correctness:	0.8600
	Correctness:	0.8750
	Correctness:	0.8800
	Correctness:	0.9450
	Correctness:	0.9150
	Correctness:	0.8900
	Correctness:	0.9075
	Correctness:	0.9125
	Correctness:	0.9400
	Correctness:	0.8850
	Correctness:	0.9100
	Correctness:	0.9375
	Correctness:	0.9175
	Correctness:	0.9075
	Correctness:	0.8675
	Correctness:	0.9012
	Correctness:	0.9075
	Correctness:	0.9387
	Correctness:	0.8962
	Correctness:	0.9075
	Correctness:	0.9250
	Correctness:	0.9025
	Correctness:	0.9125
	Correctness:	0.9125
	Correctness:	0.9087
	Correctness:	0.9213
	Correctness:	0.8994
	Correctness:	0.9087
	Correctness:	0.9181
	Correctness:	0.9081
	Correctness:	0.9213
	Correctness:	0.8962
	Correctness:	0.9012
	Correctness:	0.8719
	Correctness:	0.9306
Average:	0.9069
	Correctness:	0.9600
	Correctness:	0.9600
	Correctness:	0.9600
	Correctness:	0.7900
	Correctness:	0.9100
	Correctness:	0.8800
	Correctness:	0.9100
	Correctness:	0.9200
	Correctness:	0.8800
	Correctness:	0.8500
	Correctness:	0.9600
	Correctness:	0.9050
	Correctness:	0.9000
	Correctness:	0.9150
	Correctness:	0.9050
	Correctness:	0.8600
	Correctness:	0.8550
	Correctness:	0.8600
	Correctness:	0.9450
	Correctness:	0.9150
	Correctness:	0.8700
	Correctness:	0.8975
	Correctness:	0.9075
	Correctness:	0.9400
	Correctness:	0.8750
	Correctness:	0.9000
	Correctness:	0.9325
	Correctness:	0.8950
	Correctness:	0.9075
	Correctness:	0.8575
	Correctness:	0.8938
	Correctness:	0.9000
	Correctness:	0.9287
	Correctness:	0.8812
	Correctness:	0.9025
	Correctness:	0.9200
	Correctness:	0.8925
	Correctness:	0.8975
	Correctness:	0.8975
	Correctness:	0.8938
	Correctness:	0.9150
	Correctness:	0.8819
	Correctness:	0.9038
	Correctness:	0.9106
	Correctness:	0.9006
	Correctness:	0.9100
	Correctness:	0.8900
	Correctness:	0.8888
	Correctness:	0.8744
	Correctness:	0.9206
Average:	0.9005
	Correctness:	0.4700
	Correctness:	0.4700
	Correctness:	0.4800
	Correctness:	0.4600
	Correctness:	0.4700
	Correctness:	0.4700
	Correctness:	0.4700
	Correctness:	0.4300
	Correctness:	0.4200
	Correctness:	0.4800
	Correctness:	0.4500
	Correctness:	0.4550
	Correctness:	0.4700
	Correctness:	0.4650
	Correctness:	0.4350
	Correctness:	0.4500
	Correctness:	0.4700
	Correctness:	0.4800
	Correctness:	0.4800
	Correctness:	0.5100
	Correctness:	0.4625
	Correctness:	0.4475
	Correctness:	0.4575
	Correctness:	0.4750
	Correctness:	0.4825
	Correctness:	0.4975
	Correctness:	0.4475
	Correctness:	0.4475
	Correctness:	0.4675
	Correctness:	0.4600
	Correctness:	0.4562
	Correctness:	0.4600
	Correctness:	0.4888
	Correctness:	0.4662
	Correctness:	0.4688
	Correctness:	0.4475
	Correctness:	0.4788
	Correctness:	0.4575
	Correctness:	0.4775
	Correctness:	0.4700
	Correctness:	0.4662
	Correctness:	0.4694
	Correctness:	0.4637
	Correctness:	0.4775
	Correctness:	0.4606
	Correctness:	0.4675
	Correctness:	0.4688
	Correctness:	0.4600
	Correctness:	0.4781
	Correctness:	0.4612
Average:	0.4655
	Correctness:	0.5000
	Correctness:	0.7900
	Correctness:	0.7000
	Correctness:	0.6600
	Correctness:	0.8800
	Correctness:	0.8100
	Correctness:	0.6600
	Correctness:	0.8800
	Correctness:	0.8000
	Correctness:	0.8600
	Correctness:	0.6850
	Correctness:	0.6100
	Correctness:	0.6400
	Correctness:	0.6750
	Correctness:	0.8600
	Correctness:	0.7800
	Correctness:	0.7950
	Correctness:	0.6900
	Correctness:	0.5200
	Correctness:	0.4150
	Correctness:	0.7875
	Correctness:	0.6550
	Correctness:	0.7075
	Correctness:	0.6325
	Correctness:	0.6550
	Correctness:	0.5475
	Correctness:	0.7750
	Correctness:	0.7425
	Correctness:	0.6950
	Correctness:	0.7325
	Correctness:	0.7600
	Correctness:	0.7450
	Correctness:	0.5537
	Correctness:	0.6138
	Correctness:	0.6288
	Correctness:	0.8263
	Correctness:	0.6400
	Correctness:	0.6975
	Correctness:	0.6088
	Correctness:	0.6462
	Correctness:	0.6488
	Correctness:	0.6481
	Correctness:	0.6806
	Correctness:	0.6331
	Correctness:	0.6687
	Correctness:	0.6656
	Correctness:	0.6481
	Correctness:	0.6781
	Correctness:	0.5887
	Correctness:	0.6112
Average:	0.6866
	Correctness:	0.0600
	Correctness:	0.0500
	Correctness:	0.0500
	Correctness:	0.2100
	Correctness:	0.1000
	Correctness:	0.1000
	Correctness:	0.1000
	Correctness:	0.0500
	Correctness:	0.1300
	Correctness:	0.1600
	Correctness:	0.0350
	Correctness:	0.0900
	Correctness:	0.1150
	Correctness:	0.0900
	Correctness:	0.1000
	Correctness:	0.1450
	Correctness:	0.1500
	Correctness:	0.1450
	Correctness:	0.0500
	Correctness:	0.0900
	Correctness:	0.1225
	Correctness:	0.1075
	Correctness:	0.0950
	Correctness:	0.0600
	Correctness:	0.1225
	Correctness:	0.0925
	Correctness:	0.0700
	Correctness:	0.1025
	Correctness:	0.0950
	Correctness:	0.1350
	Correctness:	0.1050
	Correctness:	0.0988
	Correctness:	0.0725
	Correctness:	0.1200
	Correctness:	0.0988
	Correctness:	0.0813
	Correctness:	0.1087
	Correctness:	0.1050
	Correctness:	0.1037
	Correctness:	0.1050
	Correctness:	0.0906
	Correctness:	0.1169
	Correctness:	0.0969
	Correctness:	0.0894
	Correctness:	0.0975
	Correctness:	0.0906
	Correctness:	0.1081
	Correctness:	0.1119
	Correctness:	0.1269
	Correctness:	0.0800
Average:	0.1006
