,Correctness:,0.0700,0.9300,0,, ,Correctness:,0.3000,0.7000,1,, ,Correctness:,0.6700,0.6700,1,, ,Correctness:,0.1000,0.9000,0,, 
,Correctness:,0.1900,0.8100,0,, ,Correctness:,0.7200,0.7200,1,, ,Correctness:,0.4000,0.6000,1,, ,Correctness:,0.1000,0.9000,0,, 
,Correctness:,0.1100,0.8900,0,, ,Correctness:,0.5400,0.5400,1,, ,Correctness:,0.5200,0.5200,1,, ,Correctness:,0.0900,0.9100,0,, 
,Correctness:,0.1100,0.8900,0,, ,Correctness:,0.6000,0.6000,1,, ,Correctness:,0.4500,0.5500,1,, ,Correctness:,0.0900,0.9100,0,, 
,Correctness:,0.0900,0.9100,0,, ,Correctness:,0.6200,0.6200,1,, ,Correctness:,0.4500,0.5500,1,, ,Correctness:,0.1100,0.8900,0,, 
,Correctness:,0.0700,0.9300,0,, ,Correctness:,0.8300,0.8300,1,, ,Correctness:,0.3200,0.6800,1,, ,Correctness:,0.0500,0.9500,0,, 
,Correctness:,0.2100,0.7900,0,, ,Correctness:,0.6900,0.6900,1,, ,Correctness:,0.4300,0.5700,1,, ,Correctness:,0.1200,0.8800,0,, 
,Correctness:,0.1200,0.8800,0,, ,Correctness:,0.5400,0.5400,1,, ,Correctness:,0.5200,0.5200,1,, ,Correctness:,0.1300,0.8700,0,, 
,Correctness:,0.1200,0.8800,0,, ,Correctness:,0.6600,0.6600,1,, ,Correctness:,0.4300,0.5700,1,, ,Correctness:,0.1200,0.8800,0,, 
,Correctness:,0.0700,0.9300,0,, ,Correctness:,0.3100,0.6900,1,, ,Correctness:,0.7100,0.7100,1,, ,Correctness:,0.0400,0.9600,0,, 
,Correctness:,0.0900,0.9100,0,, ,Correctness:,0.4750,0.5250,1,, ,Correctness:,0.5800,0.5800,1,, ,Correctness:,0.0900,0.9100,0,, 
,Correctness:,0.0400,0.9600,0,, ,Correctness:,0.6200,0.6200,1,, ,Correctness:,0.4850,0.5150,1,, ,Correctness:,0.0400,0.9600,0,, 
,Correctness:,0.0350,0.9650,0,, ,Correctness:,0.5950,0.5950,1,, ,Correctness:,0.4600,0.5400,1,, ,Correctness:,0.0250,0.9750,0,, 
,Correctness:,0.0550,0.9450,0,, ,Correctness:,0.6150,0.6150,1,, ,Correctness:,0.4600,0.5400,1,, ,Correctness:,0.0350,0.9650,0,, 
,Correctness:,0.1150,0.8850,0,, ,Correctness:,0.5050,0.5050,1,, ,Correctness:,0.5450,0.5450,1,, ,Correctness:,0.0800,0.9200,0,, 
,Correctness:,0.1850,0.8150,0,, ,Correctness:,0.6650,0.6650,1,, ,Correctness:,0.4100,0.5900,1,, ,Correctness:,0.1600,0.8400,0,, 
,Correctness:,0.0900,0.9100,0,, ,Correctness:,0.3600,0.6400,1,, ,Correctness:,0.6600,0.6600,1,, ,Correctness:,0.1000,0.9000,0,, 
,Correctness:,0.1050,0.8950,0,, ,Correctness:,0.5300,0.5300,1,, ,Correctness:,0.4900,0.5100,1,, ,Correctness:,0.0950,0.9050,0,, 
,Correctness:,0.0900,0.9100,0,, ,Correctness:,0.6850,0.6850,1,, ,Correctness:,0.4300,0.5700,1,, ,Correctness:,0.0800,0.9200,0,, 
,Correctness:,0.1100,0.8900,0,, ,Correctness:,0.4900,0.5100,1,, ,Correctness:,0.5600,0.5600,1,, ,Correctness:,0.0800,0.9200,0,, 
,Correctness:,0.1000,0.9000,0,, ,Correctness:,0.5875,0.5875,1,, ,Correctness:,0.4575,0.5425,1,, ,Correctness:,0.0900,0.9100,0,, 
,Correctness:,0.1075,0.8925,0,, ,Correctness:,0.4950,0.5050,1,, ,Correctness:,0.5350,0.5350,1,, ,Correctness:,0.0925,0.9075,0,, 
,Correctness:,0.0900,0.9100,0,, ,Correctness:,0.6275,0.6275,1,, ,Correctness:,0.4600,0.5400,1,, ,Correctness:,0.0800,0.9200,0,, 
,Correctness:,0.1150,0.8850,0,, ,Correctness:,0.5950,0.5950,1,, ,Correctness:,0.4575,0.5425,1,, ,Correctness:,0.1150,0.8850,0,, 
,Correctness:,0.0900,0.9100,0,, ,Correctness:,0.6025,0.6025,1,, ,Correctness:,0.4600,0.5400,1,, ,Correctness:,0.0700,0.9300,0,, 
,Correctness:,0.0950,0.9050,0,, ,Correctness:,0.5700,0.5700,1,, ,Correctness:,0.4925,0.5075,1,, ,Correctness:,0.0825,0.9175,0,, 
,Correctness:,0.0775,0.9225,0,, ,Correctness:,0.6025,0.6025,1,, ,Correctness:,0.4825,0.5175,1,, ,Correctness:,0.0525,0.9475,0,, 
,Correctness:,0.1350,0.8650,0,, ,Correctness:,0.5500,0.5500,1,, ,Correctness:,0.5100,0.5100,1,, ,Correctness:,0.1425,0.8575,0,, 
,Correctness:,0.0725,0.9275,0,, ,Correctness:,0.5575,0.5575,1,, ,Correctness:,0.5325,0.5325,1,, ,Correctness:,0.0725,0.9275,0,, 
,Correctness:,0.0750,0.9250,0,, ,Correctness:,0.5675,0.5675,1,, ,Correctness:,0.5025,0.5025,1,, ,Correctness:,0.0400,0.9600,0,, 
,Correctness:,0.1075,0.8925,0,, ,Correctness:,0.5550,0.5550,1,, ,Correctness:,0.5125,0.5125,1,, ,Correctness:,0.0850,0.9150,0,, 
,Correctness:,0.0825,0.9175,0,, ,Correctness:,0.5262,0.5262,1,, ,Correctness:,0.5300,0.5300,1,, ,Correctness:,0.0625,0.9375,0,, 
,Correctness:,0.0887,0.9113,0,, ,Correctness:,0.5650,0.5650,1,, ,Correctness:,0.4825,0.5175,1,, ,Correctness:,0.0813,0.9187,0,, 
,Correctness:,0.1288,0.8712,0,, ,Correctness:,0.5687,0.5687,1,, ,Correctness:,0.4738,0.5262,1,, ,Correctness:,0.1113,0.8888,0,, 
,Correctness:,0.1113,0.8888,0,, ,Correctness:,0.5988,0.5988,1,, ,Correctness:,0.4738,0.5262,1,, ,Correctness:,0.0963,0.9038,0,, 
,Correctness:,0.1225,0.8775,0,, ,Correctness:,0.5875,0.5875,1,, ,Correctness:,0.4700,0.5300,1,, ,Correctness:,0.1025,0.8975,0,, 
,Correctness:,0.0862,0.9138,0,, ,Correctness:,0.7100,0.7100,1,, ,Correctness:,0.3800,0.6200,1,, ,Correctness:,0.0587,0.9413,0,, 
,Correctness:,0.1025,0.8975,0,, ,Correctness:,0.5637,0.5637,1,, ,Correctness:,0.4900,0.5100,1,, ,Correctness:,0.0775,0.9225,0,, 
,Correctness:,0.1000,0.9000,0,, ,Correctness:,0.5150,0.5150,1,, ,Correctness:,0.5250,0.5250,1,, ,Correctness:,0.0925,0.9075,0,, 
,Correctness:,0.0700,0.9300,0,, ,Correctness:,0.5600,0.5600,1,, ,Correctness:,0.5000,0.5000,1,, ,Correctness:,0.0550,0.9450,0,, 
,Correctness:,0.1000,0.9000,0,, ,Correctness:,0.6094,0.6094,1,, ,Correctness:,0.4625,0.5375,1,, ,Correctness:,0.0762,0.9237,0,, 
,Correctness:,0.0750,0.9250,0,, ,Correctness:,0.6056,0.6056,1,, ,Correctness:,0.4481,0.5519,1,, ,Correctness:,0.0500,0.9500,0,, 
,Correctness:,0.1181,0.8819,0,, ,Correctness:,0.6356,0.6356,1,, ,Correctness:,0.4375,0.5625,1,, ,Correctness:,0.0931,0.9069,0,, 
,Correctness:,0.0900,0.9100,0,, ,Correctness:,0.6181,0.6181,1,, ,Correctness:,0.4506,0.5494,1,, ,Correctness:,0.0819,0.9181,0,, 
,Correctness:,0.0981,0.9019,0,, ,Correctness:,0.6138,0.6138,1,, ,Correctness:,0.4406,0.5594,1,, ,Correctness:,0.0794,0.9206,0,, 
,Correctness:,0.0887,0.9113,0,, ,Correctness:,0.5606,0.5606,1,, ,Correctness:,0.4969,0.5031,1,, ,Correctness:,0.0725,0.9275,0,, 
,Correctness:,0.1106,0.8894,0,, ,Correctness:,0.6194,0.6194,1,, ,Correctness:,0.4381,0.5619,1,, ,Correctness:,0.0906,0.9094,0,, 
,Correctness:,0.0919,0.9081,0,, ,Correctness:,0.5994,0.5994,1,, ,Correctness:,0.4556,0.5444,1,, ,Correctness:,0.0706,0.9294,0,, 
,Correctness:,0.0813,0.9187,0,, ,Correctness:,0.5694,0.5694,1,, ,Correctness:,0.4831,0.5169,1,, ,Correctness:,0.0675,0.9325,0,, 
,Correctness:,0.1100,0.8900,0,, ,Correctness:,0.5856,0.5856,1,, ,Correctness:,0.4763,0.5237,1,, ,Correctness:,0.0887,0.9113,0,, 
Average:,0.9001,,,,, Average:,0.6002,,,,, Average:,0.5506,,,,, Average:,0.9167,,,,, 
,Correctness:,0.5000,0.5000,1,, ,Correctness:,0.0700,0.9300,0,, ,Correctness:,0.2900,0.7100,1,, ,Correctness:,0.1000,0.9000,0,, 
,Correctness:,0.5100,0.5100,1,, ,Correctness:,0.1900,0.8100,0,, ,Correctness:,0.8400,0.8400,1,, ,Correctness:,0.1500,0.8500,0,, 
,Correctness:,0.4900,0.5100,1,, ,Correctness:,0.1100,0.8900,0,, ,Correctness:,0.5800,0.5800,1,, ,Correctness:,0.0900,0.9100,0,, 
,Correctness:,0.5500,0.5500,1,, ,Correctness:,0.1100,0.8900,0,, ,Correctness:,0.7000,0.7000,1,, ,Correctness:,0.0900,0.9100,0,, 
,Correctness:,0.5200,0.5200,1,, ,Correctness:,0.0900,0.9100,0,, ,Correctness:,0.7400,0.7400,1,, ,Correctness:,0.1800,0.8200,0,, 
,Correctness:,0.5100,0.5100,1,, ,Correctness:,0.0700,0.9300,0,, ,Correctness:,0.8900,0.8900,1,, ,Correctness:,0.0500,0.9500,0,, 
,Correctness:,0.5100,0.5100,1,, ,Correctness:,0.2100,0.7900,0,, ,Correctness:,0.7600,0.7600,1,, ,Correctness:,0.1700,0.8300,0,, 
,Correctness:,0.4800,0.5200,1,, ,Correctness:,0.1200,0.8800,0,, ,Correctness:,0.6300,0.6300,1,, ,Correctness:,0.1200,0.8800,0,, 
,Correctness:,0.5200,0.5200,1,, ,Correctness:,0.1200,0.8800,0,, ,Correctness:,0.7200,0.7200,1,, ,Correctness:,0.1200,0.8800,0,, 
,Correctness:,0.4800,0.5200,1,, ,Correctness:,0.0400,0.9600,0,, ,Correctness:,0.3200,0.6800,1,, ,Correctness:,0.0400,0.9600,0,, 
,Correctness:,0.5000,0.5000,1,, ,Correctness:,0.0900,0.9100,0,, ,Correctness:,0.5400,0.5400,1,, ,Correctness:,0.0900,0.9100,0,, 
,Correctness:,0.5050,0.5050,1,, ,Correctness:,0.0400,0.9600,0,, ,Correctness:,0.6850,0.6850,1,, ,Correctness:,0.0400,0.9600,0,, 
,Correctness:,0.5000,0.5000,1,, ,Correctness:,0.0350,0.9650,0,, ,Correctness:,0.7000,0.7000,1,, ,Correctness:,0.0250,0.9750,0,, 
,Correctness:,0.5050,0.5050,1,, ,Correctness:,0.0550,0.9450,0,, ,Correctness:,0.7050,0.7050,1,, ,Correctness:,0.0350,0.9650,0,, 
,Correctness:,0.5300,0.5300,1,, ,Correctness:,0.1150,0.8850,0,, ,Correctness:,0.5800,0.5800,1,, ,Correctness:,0.0950,0.9050,0,, 
,Correctness:,0.5000,0.5000,1,, ,Correctness:,0.1850,0.8150,0,, ,Correctness:,0.7500,0.7500,1,, ,Correctness:,0.1750,0.8250,0,, 
,Correctness:,0.5000,0.5000,1,, ,Correctness:,0.0900,0.9100,0,, ,Correctness:,0.4250,0.5750,1,, ,Correctness:,0.0900,0.9100,0,, 
,Correctness:,0.5150,0.5150,1,, ,Correctness:,0.1050,0.8950,0,, ,Correctness:,0.6300,0.6300,1,, ,Correctness:,0.0950,0.9050,0,, 
,Correctness:,0.5200,0.5200,1,, ,Correctness:,0.0900,0.9100,0,, ,Correctness:,0.7400,0.7400,1,, ,Correctness:,0.0800,0.9200,0,, 
,Correctness:,0.5000,0.5000,1,, ,Correctness:,0.1100,0.8900,0,, ,Correctness:,0.5400,0.5400,1,, ,Correctness:,0.1100,0.8900,0,, 
,Correctness:,0.5175,0.5175,1,, ,Correctness:,0.1000,0.9000,0,, ,Correctness:,0.6850,0.6850,1,, ,Correctness:,0.1000,0.9000,0,, 
,Correctness:,0.5100,0.5100,1,, ,Correctness:,0.1075,0.8925,0,, ,Correctness:,0.5700,0.5700,1,, ,Correctness:,0.0975,0.9025,0,, 
,Correctness:,0.5200,0.5200,1,, ,Correctness:,0.0900,0.9100,0,, ,Correctness:,0.7250,0.7250,1,, ,Correctness:,0.0900,0.9100,0,, 
,Correctness:,0.5200,0.5200,1,, ,Correctness:,0.1150,0.8850,0,, ,Correctness:,0.6825,0.6825,1,, ,Correctness:,0.1150,0.8850,0,, 
,Correctness:,0.5075,0.5075,1,, ,Correctness:,0.0900,0.9100,0,, ,Correctness:,0.6975,0.6975,1,, ,Correctness:,0.0800,0.9200,0,, 
,Correctness:,0.5100,0.5100,1,, ,Correctness:,0.0950,0.9050,0,, ,Correctness:,0.6275,0.6275,1,, ,Correctness:,0.0950,0.9050,0,, 
,Correctness:,0.5150,0.5150,1,, ,Correctness:,0.0775,0.9225,0,, ,Correctness:,0.6975,0.6975,1,, ,Correctness:,0.0675,0.9325,0,, 
,Correctness:,0.4950,0.5050,1,, ,Correctness:,0.1425,0.8575,0,, ,Correctness:,0.6100,0.6100,1,, ,Correctness:,0.1350,0.8650,0,, 
,Correctness:,0.5025,0.5025,1,, ,Correctness:,0.0725,0.9275,0,, ,Correctness:,0.6150,0.6150,1,, ,Correctness:,0.0725,0.9275,0,, 
,Correctness:,0.5225,0.5225,1,, ,Correctness:,0.0750,0.9250,0,, ,Correctness:,0.6600,0.6600,1,, ,Correctness:,0.0550,0.9450,0,, 
,Correctness:,0.5075,0.5075,1,, ,Correctness:,0.1075,0.8925,0,, ,Correctness:,0.6238,0.6238,1,, ,Correctness:,0.1000,0.9000,0,, 
,Correctness:,0.5088,0.5088,1,, ,Correctness:,0.0825,0.9175,0,, ,Correctness:,0.5988,0.5988,1,, ,Correctness:,0.0600,0.9400,0,, 
,Correctness:,0.5088,0.5088,1,, ,Correctness:,0.0887,0.9113,0,, ,Correctness:,0.6625,0.6625,1,, ,Correctness:,0.0737,0.9263,0,, 
,Correctness:,0.5012,0.5012,1,, ,Correctness:,0.1288,0.8712,0,, ,Correctness:,0.6438,0.6438,1,, ,Correctness:,0.1187,0.8812,0,, 
,Correctness:,0.5138,0.5138,1,, ,Correctness:,0.1113,0.8888,0,, ,Correctness:,0.6700,0.6700,1,, ,Correctness:,0.1062,0.8938,0,, 
,Correctness:,0.5138,0.5138,1,, ,Correctness:,0.1225,0.8775,0,, ,Correctness:,0.6562,0.6562,1,, ,Correctness:,0.1075,0.8925,0,, 
,Correctness:,0.5188,0.5188,1,, ,Correctness:,0.0862,0.9138,0,, ,Correctness:,0.8050,0.8050,1,, ,Correctness:,0.0712,0.9287,0,, 
,Correctness:,0.4975,0.5025,1,, ,Correctness:,0.1025,0.8975,0,, ,Correctness:,0.6462,0.6462,1,, ,Correctness:,0.0925,0.9075,0,, 
,Correctness:,0.5112,0.5112,1,, ,Correctness:,0.1000,0.9000,0,, ,Correctness:,0.5700,0.5700,1,, ,Correctness:,0.0900,0.9100,0,, 
,Correctness:,0.5088,0.5088,1,, ,Correctness:,0.0700,0.9300,0,, ,Correctness:,0.6488,0.6488,1,, ,Correctness:,0.0525,0.9475,0,, 
,Correctness:,0.5119,0.5119,1,, ,Correctness:,0.1000,0.9000,0,, ,Correctness:,0.6944,0.6944,1,, ,Correctness:,0.0912,0.9087,0,, 
,Correctness:,0.5069,0.5069,1,, ,Correctness:,0.0750,0.9250,0,, ,Correctness:,0.6956,0.6956,1,, ,Correctness:,0.0587,0.9413,0,, 
,Correctness:,0.5100,0.5100,1,, ,Correctness:,0.1181,0.8819,0,, ,Correctness:,0.7262,0.7262,1,, ,Correctness:,0.1094,0.8906,0,, 
,Correctness:,0.5119,0.5119,1,, ,Correctness:,0.0900,0.9100,0,, ,Correctness:,0.6869,0.6869,1,, ,Correctness:,0.0775,0.9225,0,, 
,Correctness:,0.5056,0.5056,1,, ,Correctness:,0.0981,0.9019,0,, ,Correctness:,0.7069,0.7069,1,, ,Correctness:,0.0900,0.9100,0,, 
,Correctness:,0.5125,0.5125,1,, ,Correctness:,0.0887,0.9113,0,, ,Correctness:,0.6425,0.6425,1,, ,Correctness:,0.0737,0.9263,0,, 
,Correctness:,0.5112,0.5112,1,, ,Correctness:,0.1106,0.8894,0,, ,Correctness:,0.6994,0.6994,1,, ,Correctness:,0.1056,0.8944,0,, 
,Correctness:,0.5106,0.5106,1,, ,Correctness:,0.0919,0.9081,0,, ,Correctness:,0.6906,0.6906,1,, ,Correctness:,0.0806,0.9194,0,, 
,Correctness:,0.5106,0.5106,1,, ,Correctness:,0.0813,0.9187,0,, ,Correctness:,0.6581,0.6581,1,, ,Correctness:,0.0788,0.9213,0,, 
,Correctness:,0.5075,0.5075,1,, ,Correctness:,0.1100,0.8900,0,, ,Correctness:,0.6594,0.6594,1,, ,Correctness:,0.1050,0.8950,0,, 
Average:,0.5114,,,,, Average:,0.9005,,,,, Average:,0.6730,,,,, Average:,0.9081,,,,, 
,Correctness:,0.9300,0.9300,0,, ,Correctness:,0.9200,0.9200,0,, ,Correctness:,0.2700,0.7300,1,, ,Correctness:,0.7000,0.7000,1,, 
,Correctness:,0.8600,0.8600,0,, ,Correctness:,0.8200,0.8200,0,, ,Correctness:,0.7400,0.7400,1,, ,Correctness:,0.1700,0.8300,1,, 
,Correctness:,0.9300,0.9300,0,, ,Correctness:,0.9100,0.9100,0,, ,Correctness:,0.4900,0.5100,1,, ,Correctness:,0.4100,0.5900,1,, 
,Correctness:,0.8900,0.8900,0,, ,Correctness:,0.8700,0.8700,0,, ,Correctness:,0.6200,0.6200,1,, ,Correctness:,0.3100,0.6900,1,, 
,Correctness:,0.8800,0.8800,0,, ,Correctness:,0.9000,0.9000,0,, ,Correctness:,0.6300,0.6300,1,, ,Correctness:,0.2500,0.7500,1,, 
,Correctness:,0.9600,0.9600,0,, ,Correctness:,0.9400,0.9400,0,, ,Correctness:,0.6700,0.6700,1,, ,Correctness:,0.1200,0.8800,1,, 
,Correctness:,0.8400,0.8400,0,, ,Correctness:,0.8000,0.8000,0,, ,Correctness:,0.6900,0.6900,1,, ,Correctness:,0.2500,0.7500,1,, 
,Correctness:,0.8700,0.8700,0,, ,Correctness:,0.8700,0.8700,0,, ,Correctness:,0.5400,0.5400,1,, ,Correctness:,0.3600,0.6400,1,, 
,Correctness:,0.8900,0.8900,0,, ,Correctness:,0.8900,0.8900,0,, ,Correctness:,0.6100,0.6100,1,, ,Correctness:,0.2900,0.7100,1,, 
,Correctness:,0.9500,0.9500,0,, ,Correctness:,0.9200,0.9200,0,, ,Correctness:,0.3400,0.6600,1,, ,Correctness:,0.6700,0.6700,1,, 
,Correctness:,0.9200,0.9200,0,, ,Correctness:,0.9200,0.9200,0,, ,Correctness:,0.4800,0.5200,1,, ,Correctness:,0.4550,0.5450,1,, 
,Correctness:,0.9650,0.9650,0,, ,Correctness:,0.9650,0.9650,0,, ,Correctness:,0.6000,0.6000,1,, ,Correctness:,0.3200,0.6800,1,, 
,Correctness:,0.9700,0.9700,0,, ,Correctness:,0.9600,0.9600,0,, ,Correctness:,0.6200,0.6200,1,, ,Correctness:,0.2950,0.7050,1,, 
,Correctness:,0.9650,0.9650,0,, ,Correctness:,0.9450,0.9450,0,, ,Correctness:,0.5950,0.5950,1,, ,Correctness:,0.3000,0.7000,1,, 
,Correctness:,0.8800,0.8800,0,, ,Correctness:,0.8700,0.8700,0,, ,Correctness:,0.5150,0.5150,1,, ,Correctness:,0.4250,0.5750,1,, 
,Correctness:,0.8300,0.8300,0,, ,Correctness:,0.8200,0.8200,0,, ,Correctness:,0.6550,0.6550,1,, ,Correctness:,0.2550,0.7450,1,, 
,Correctness:,0.9050,0.9050,0,, ,Correctness:,0.9050,0.9050,0,, ,Correctness:,0.3750,0.6250,1,, ,Correctness:,0.5700,0.5700,1,, 
,Correctness:,0.8900,0.8900,0,, ,Correctness:,0.8800,0.8800,0,, ,Correctness:,0.5900,0.5900,1,, ,Correctness:,0.3750,0.6250,1,, 
,Correctness:,0.9250,0.9250,0,, ,Correctness:,0.9150,0.9150,0,, ,Correctness:,0.6000,0.6000,1,, ,Correctness:,0.2650,0.7350,1,, 
,Correctness:,0.8950,0.8950,0,, ,Correctness:,0.8950,0.8950,0,, ,Correctness:,0.4750,0.5250,1,, ,Correctness:,0.4650,0.5350,1,, 
,Correctness:,0.8975,0.8975,0,, ,Correctness:,0.8975,0.8975,0,, ,Correctness:,0.5850,0.5850,1,, ,Correctness:,0.3125,0.6875,1,, 
,Correctness:,0.9050,0.9050,0,, ,Correctness:,0.8950,0.8950,0,, ,Correctness:,0.5175,0.5175,1,, ,Correctness:,0.4325,0.5675,1,, 
,Correctness:,0.9075,0.9075,0,, ,Correctness:,0.9075,0.9075,0,, ,Correctness:,0.6050,0.6050,1,, ,Correctness:,0.2725,0.7275,1,, 
,Correctness:,0.8875,0.8875,0,, ,Correctness:,0.8875,0.8875,0,, ,Correctness:,0.5600,0.5600,1,, ,Correctness:,0.3200,0.6800,1,, 
,Correctness:,0.9125,0.9125,0,, ,Correctness:,0.9025,0.9025,0,, ,Correctness:,0.5800,0.5800,1,, ,Correctness:,0.3050,0.6950,1,, 
,Correctness:,0.9075,0.9075,0,, ,Correctness:,0.9075,0.9075,0,, ,Correctness:,0.5350,0.5350,1,, ,Correctness:,0.3750,0.6250,1,, 
,Correctness:,0.9350,0.9350,0,, ,Correctness:,0.9250,0.9250,0,, ,Correctness:,0.5900,0.5900,1,, ,Correctness:,0.3050,0.6950,1,, 
,Correctness:,0.8550,0.8550,0,, ,Correctness:,0.8625,0.8625,0,, ,Correctness:,0.5600,0.5600,1,, ,Correctness:,0.3875,0.6125,1,, 
,Correctness:,0.9300,0.9300,0,, ,Correctness:,0.9300,0.9300,0,, ,Correctness:,0.5075,0.5075,1,, ,Correctness:,0.3875,0.6125,1,, 
,Correctness:,0.9475,0.9475,0,, ,Correctness:,0.9275,0.9275,0,, ,Correctness:,0.5600,0.5600,1,, ,Correctness:,0.3425,0.6575,1,, 
,Correctness:,0.8988,0.8988,0,, ,Correctness:,0.8912,0.8912,0,, ,Correctness:,0.5300,0.5300,1,, ,Correctness:,0.3750,0.6250,1,, 
,Correctness:,0.9387,0.9387,0,, ,Correctness:,0.9163,0.9163,0,, ,Correctness:,0.5150,0.5150,1,, ,Correctness:,0.4000,0.6000,1,, 
,Correctness:,0.9287,0.9287,0,, ,Correctness:,0.9137,0.9137,0,, ,Correctness:,0.5750,0.5750,1,, ,Correctness:,0.3362,0.6638,1,, 
,Correctness:,0.8812,0.8812,0,, ,Correctness:,0.8712,0.8712,0,, ,Correctness:,0.5450,0.5450,1,, ,Correctness:,0.3550,0.6450,1,, 
,Correctness:,0.8950,0.8950,0,, ,Correctness:,0.8900,0.8900,0,, ,Correctness:,0.5900,0.5900,1,, ,Correctness:,0.3312,0.6687,1,, 
,Correctness:,0.8950,0.8950,0,, ,Correctness:,0.8800,0.8800,0,, ,Correctness:,0.5625,0.5625,1,, ,Correctness:,0.3425,0.6575,1,, 
,Correctness:,0.9275,0.9275,0,, ,Correctness:,0.9125,0.9125,0,, ,Correctness:,0.6887,0.6887,1,, ,Correctness:,0.1938,0.8063,1,, 
,Correctness:,0.9087,0.9087,0,, ,Correctness:,0.8988,0.8988,0,, ,Correctness:,0.5513,0.5513,1,, ,Correctness:,0.3550,0.6450,1,, 
,Correctness:,0.9113,0.9113,0,, ,Correctness:,0.9012,0.9012,0,, ,Correctness:,0.4825,0.5175,1,, ,Correctness:,0.4313,0.5687,1,, 
,Correctness:,0.9500,0.9500,0,, ,Correctness:,0.9325,0.9325,0,, ,Correctness:,0.5475,0.5475,1,, ,Correctness:,0.3500,0.6500,1,, 
,Correctness:,0.9081,0.9081,0,, ,Correctness:,0.8994,0.8994,0,, ,Correctness:,0.5856,0.5856,1,, ,Correctness:,0.3050,0.6950,1,, 
,Correctness:,0.9406,0.9406,0,, ,Correctness:,0.9244,0.9244,0,, ,Correctness:,0.5875,0.5875,1,, ,Correctness:,0.3038,0.6963,1,, 
,Correctness:,0.8912,0.8912,0,, ,Correctness:,0.8825,0.8825,0,, ,Correctness:,0.6225,0.6225,1,, ,Correctness:,0.2744,0.7256,1,, 
,Correctness:,0.9206,0.9206,0,, ,Correctness:,0.9081,0.9081,0,, ,Correctness:,0.5763,0.5763,1,, ,Correctness:,0.3137,0.6863,1,, 
,Correctness:,0.9131,0.9131,0,, ,Correctness:,0.9031,0.9031,0,, ,Correctness:,0.5925,0.5925,1,, ,Correctness:,0.2925,0.7075,1,, 
,Correctness:,0.9256,0.9256,0,, ,Correctness:,0.9106,0.9106,0,, ,Correctness:,0.5300,0.5300,1,, ,Correctness:,0.3569,0.6431,1,, 
,Correctness:,0.8950,0.8950,0,, ,Correctness:,0.8900,0.8900,0,, ,Correctness:,0.5800,0.5800,1,, ,Correctness:,0.3013,0.6987,1,, 
,Correctness:,0.9200,0.9200,0,, ,Correctness:,0.9087,0.9087,0,, ,Correctness:,0.5944,0.5944,1,, ,Correctness:,0.3100,0.6900,1,, 
,Correctness:,0.9219,0.9219,0,, ,Correctness:,0.9194,0.9194,0,, ,Correctness:,0.5663,0.5663,1,, ,Correctness:,0.3425,0.6575,1,, 
,Correctness:,0.8956,0.8956,0,, ,Correctness:,0.8906,0.8906,0,, ,Correctness:,0.5581,0.5581,1,, ,Correctness:,0.3412,0.6587,1,, 
Average:,0.9099,,,,, Average:,0.9000,,,,, Average:,0.5852,,,,, Average:,0.6715,,,,, 
,Correctness:,0.2900,0.7100,1,, ,Correctness:,0.9300,0.9300,0,, ,Correctness:,0.1000,0.9000,0,, ,Correctness:,0.9900,0.9900,0,, 
,Correctness:,0.8400,0.8400,1,, ,Correctness:,0.8600,0.8600,0,, ,Correctness:,0.1500,0.8500,0,, ,Correctness:,0.9100,0.9100,0,, 
,Correctness:,0.5800,0.5800,1,, ,Correctness:,0.9300,0.9300,0,, ,Correctness:,0.0900,0.9100,0,, ,Correctness:,0.9300,0.9300,0,, 
,Correctness:,0.7000,0.7000,1,, ,Correctness:,0.8900,0.8900,0,, ,Correctness:,0.0900,0.9100,0,, ,Correctness:,0.8900,0.8900,0,, 
,Correctness:,0.7400,0.7400,1,, ,Correctness:,0.8800,0.8800,0,, ,Correctness:,0.1100,0.8900,0,, ,Correctness:,0.8100,0.8100,0,, 
,Correctness:,0.8900,0.8900,1,, ,Correctness:,0.9600,0.9600,0,, ,Correctness:,0.0500,0.9500,0,, ,Correctness:,0.9600,0.9600,0,, 
,Correctness:,0.7600,0.7600,1,, ,Correctness:,0.8400,0.8400,0,, ,Correctness:,0.1700,0.8300,0,, ,Correctness:,0.8300,0.8300,0,, 
,Correctness:,0.6300,0.6300,1,, ,Correctness:,0.8700,0.8700,0,, ,Correctness:,0.1200,0.8800,0,, ,Correctness:,0.8100,0.8100,0,, 
,Correctness:,0.7200,0.7200,1,, ,Correctness:,0.8900,0.8900,0,, ,Correctness:,0.1200,0.8800,0,, ,Correctness:,0.8900,0.8900,0,, 
,Correctness:,0.3200,0.6800,1,, ,Correctness:,0.9500,0.9500,0,, ,Correctness:,0.0400,0.9600,0,, ,Correctness:,0.9500,0.9500,0,, 
,Correctness:,0.5400,0.5400,1,, ,Correctness:,0.9200,0.9200,0,, ,Correctness:,0.0900,0.9100,0,, ,Correctness:,0.8950,0.8950,0,, 
,Correctness:,0.6850,0.6850,1,, ,Correctness:,0.9650,0.9650,0,, ,Correctness:,0.0400,0.9600,0,, ,Correctness:,0.9650,0.9650,0,, 
,Correctness:,0.7000,0.7000,1,, ,Correctness:,0.9700,0.9700,0,, ,Correctness:,0.0250,0.9750,0,, ,Correctness:,0.9700,0.9700,0,, 
,Correctness:,0.7050,0.7050,1,, ,Correctness:,0.9650,0.9650,0,, ,Correctness:,0.0350,0.9650,0,, ,Correctness:,0.9450,0.9450,0,, 
,Correctness:,0.5800,0.5800,1,, ,Correctness:,0.8800,0.8800,0,, ,Correctness:,0.0950,0.9050,0,, ,Correctness:,0.8600,0.8600,0,, 
,Correctness:,0.7500,0.7500,1,, ,Correctness:,0.8300,0.8300,0,, ,Correctness:,0.1750,0.8250,0,, ,Correctness:,0.8450,0.8450,0,, 
,Correctness:,0.4250,0.5750,1,, ,Correctness:,0.9050,0.9050,0,, ,Correctness:,0.0900,0.9100,0,, ,Correctness:,0.8650,0.8650,0,, 
,Correctness:,0.6300,0.6300,1,, ,Correctness:,0.8900,0.8900,0,, ,Correctness:,0.0950,0.9050,0,, ,Correctness:,0.8850,0.8850,0,, 
,Correctness:,0.7400,0.7400,1,, ,Correctness:,0.9250,0.9250,0,, ,Correctness:,0.0800,0.9200,0,, ,Correctness:,0.9100,0.9100,0,, 
,Correctness:,0.5400,0.5400,1,, ,Correctness:,0.8950,0.8950,0,, ,Correctness:,0.1100,0.8900,0,, ,Correctness:,0.8700,0.8700,0,, 
,Correctness:,0.6850,0.6850,1,, ,Correctness:,0.8975,0.8975,0,, ,Correctness:,0.1000,0.9000,0,, ,Correctness:,0.9050,0.9050,0,, 
,Correctness:,0.5700,0.5700,1,, ,Correctness:,0.9050,0.9050,0,, ,Correctness:,0.0975,0.9025,0,, ,Correctness:,0.9100,0.9100,0,, 
,Correctness:,0.7250,0.7250,1,, ,Correctness:,0.9075,0.9075,0,, ,Correctness:,0.0900,0.9100,0,, ,Correctness:,0.9075,0.9075,0,, 
,Correctness:,0.6825,0.6825,1,, ,Correctness:,0.8875,0.8875,0,, ,Correctness:,0.1150,0.8850,0,, ,Correctness:,0.8800,0.8800,0,, 
,Correctness:,0.6975,0.6975,1,, ,Correctness:,0.9125,0.9125,0,, ,Correctness:,0.0800,0.9200,0,, ,Correctness:,0.9025,0.9025,0,, 
,Correctness:,0.6275,0.6275,1,, ,Correctness:,0.9075,0.9075,0,, ,Correctness:,0.0950,0.9050,0,, ,Correctness:,0.9025,0.9025,0,, 
,Correctness:,0.6975,0.6975,1,, ,Correctness:,0.9350,0.9350,0,, ,Correctness:,0.0675,0.9325,0,, ,Correctness:,0.9225,0.9225,0,, 
,Correctness:,0.6100,0.6100,1,, ,Correctness:,0.8550,0.8550,0,, ,Correctness:,0.1425,0.8575,0,, ,Correctness:,0.8350,0.8350,0,, 
,Correctness:,0.6150,0.6150,1,, ,Correctness:,0.9300,0.9300,0,, ,Correctness:,0.0725,0.9275,0,, ,Correctness:,0.9375,0.9375,0,, 
,Correctness:,0.6600,0.6600,1,, ,Correctness:,0.9475,0.9475,0,, ,Correctness:,0.0550,0.9450,0,, ,Correctness:,0.9550,0.9550,0,, 
,Correctness:,0.6238,0.6238,1,, ,Correctness:,0.8988,0.8988,0,, ,Correctness:,0.1000,0.9000,0,, ,Correctness:,0.9163,0.9163,0,, 
,Correctness:,0.5988,0.5988,1,, ,Correctness:,0.9387,0.9387,0,, ,Correctness:,0.0600,0.9400,0,, ,Correctness:,0.9250,0.9250,0,, 
,Correctness:,0.6625,0.6625,1,, ,Correctness:,0.9287,0.9287,0,, ,Correctness:,0.0737,0.9263,0,, ,Correctness:,0.9163,0.9163,0,, 
,Correctness:,0.6438,0.6438,1,, ,Correctness:,0.8812,0.8812,0,, ,Correctness:,0.1187,0.8812,0,, ,Correctness:,0.8788,0.8788,0,, 
,Correctness:,0.6700,0.6700,1,, ,Correctness:,0.8950,0.8950,0,, ,Correctness:,0.1062,0.8938,0,, ,Correctness:,0.8975,0.8975,0,, 
,Correctness:,0.6562,0.6562,1,, ,Correctness:,0.8950,0.8950,0,, ,Correctness:,0.1075,0.8925,0,, ,Correctness:,0.8662,0.8662,0,, 
,Correctness:,0.8050,0.8050,1,, ,Correctness:,0.9275,0.9275,0,, ,Correctness:,0.0712,0.9287,0,, ,Correctness:,0.9313,0.9313,0,, 
,Correctness:,0.6462,0.6462,1,, ,Correctness:,0.9087,0.9087,0,, ,Correctness:,0.0925,0.9075,0,, ,Correctness:,0.9200,0.9200,0,, 
,Correctness:,0.5700,0.5700,1,, ,Correctness:,0.9113,0.9113,0,, ,Correctness:,0.0900,0.9100,0,, ,Correctness:,0.9012,0.9012,0,, 
,Correctness:,0.6488,0.6488,1,, ,Correctness:,0.9500,0.9500,0,, ,Correctness:,0.0525,0.9475,0,, ,Correctness:,0.9337,0.9337,0,, 
,Correctness:,0.6944,0.6944,1,, ,Correctness:,0.9081,0.9081,0,, ,Correctness:,0.0912,0.9087,0,, ,Correctness:,0.9175,0.9175,0,, 
,Correctness:,0.6956,0.6956,1,, ,Correctness:,0.9406,0.9406,0,, ,Correctness:,0.0587,0.9413,0,, ,Correctness:,0.9475,0.9475,0,, 
,Correctness:,0.7262,0.7262,1,, ,Correctness:,0.8912,0.8912,0,, ,Correctness:,0.1094,0.8906,0,, ,Correctness:,0.8925,0.8925,0,, 
,Correctness:,0.6869,0.6869,1,, ,Correctness:,0.9206,0.9206,0,, ,Correctness:,0.0775,0.9225,0,, ,Correctness:,0.9137,0.9137,0,, 
,Correctness:,0.7069,0.7069,1,, ,Correctness:,0.9131,0.9131,0,, ,Correctness:,0.0881,0.9119,0,, ,Correctness:,0.9206,0.9206,0,, 
,Correctness:,0.6425,0.6425,1,, ,Correctness:,0.9256,0.9256,0,, ,Correctness:,0.0737,0.9263,0,, ,Correctness:,0.9194,0.9194,0,, 
,Correctness:,0.6994,0.6994,1,, ,Correctness:,0.8950,0.8950,0,, ,Correctness:,0.1056,0.8944,0,, ,Correctness:,0.9019,0.9019,0,, 
,Correctness:,0.6906,0.6906,1,, ,Correctness:,0.9200,0.9200,0,, ,Correctness:,0.0806,0.9194,0,, ,Correctness:,0.9163,0.9163,0,, 
,Correctness:,0.6581,0.6581,1,, ,Correctness:,0.9219,0.9219,0,, ,Correctness:,0.0788,0.9213,0,, ,Correctness:,0.9144,0.9144,0,, 
,Correctness:,0.6594,0.6594,1,, ,Correctness:,0.8956,0.8956,0,, ,Correctness:,0.1050,0.8950,0,, ,Correctness:,0.9075,0.9075,0,, 
Average:,0.6730,,,,, Average:,0.9099,,,,, Average:,0.9094,,,,, Average:,0.9055,,,,, 
,Correctness:,0.5000,0.5000,1,, ,Correctness:,0.0700,0.9300,0,, ,Correctness:,0.9300,0.9300,0,, ,Correctness:,0.3000,0.7000,1,, 
,Correctness:,0.5100,0.5100,1,, ,Correctness:,0.1900,0.8100,0,, ,Correctness:,0.8600,0.8600,0,, ,Correctness:,0.6600,0.6600,1,, 
,Correctness:,0.5100,0.5100,1,, ,Correctness:,0.1100,0.8900,0,, ,Correctness:,0.9300,0.9300,0,, ,Correctness:,0.4200,0.5800,1,, 
,Correctness:,0.4800,0.5200,1,, ,Correctness:,0.1100,0.8900,0,, ,Correctness:,0.8900,0.8900,0,, ,Correctness:,0.6000,0.6000,1,, 
,Correctness:,0.4800,0.5200,1,, ,Correctness:,0.0900,0.9100,0,, ,Correctness:,0.8800,0.8800,0,, ,Correctness:,0.5500,0.5500,1,, 
,Correctness:,0.4600,0.5400,1,, ,Correctness:,0.0700,0.9300,0,, ,Correctness:,0.9600,0.9600,0,, ,Correctness:,0.6400,0.6400,1,, 
,Correctness:,0.5000,0.5000,1,, ,Correctness:,0.2100,0.7900,0,, ,Correctness:,0.8400,0.8400,0,, ,Correctness:,0.5700,0.5700,1,, 
,Correctness:,0.4700,0.5300,1,, ,Correctness:,0.1200,0.8800,0,, ,Correctness:,0.8700,0.8700,0,, ,Correctness:,0.4800,0.5200,1,, 
,Correctness:,0.4700,0.5300,1,, ,Correctness:,0.1200,0.8800,0,, ,Correctness:,0.8900,0.8900,0,, ,Correctness:,0.5300,0.5300,1,, 
,Correctness:,0.5000,0.5000,1,, ,Correctness:,0.0400,0.9600,0,, ,Correctness:,0.9500,0.9500,0,, ,Correctness:,0.2800,0.7200,1,, 
,Correctness:,0.4950,0.5050,1,, ,Correctness:,0.0900,0.9100,0,, ,Correctness:,0.9200,0.9200,0,, ,Correctness:,0.4350,0.5650,1,, 
,Correctness:,0.4750,0.5250,1,, ,Correctness:,0.0400,0.9600,0,, ,Correctness:,0.9650,0.9650,0,, ,Correctness:,0.5150,0.5150,1,, 
,Correctness:,0.4950,0.5050,1,, ,Correctness:,0.0350,0.9650,0,, ,Correctness:,0.9700,0.9700,0,, ,Correctness:,0.5800,0.5800,1,, 
,Correctness:,0.5100,0.5100,1,, ,Correctness:,0.0550,0.9450,0,, ,Correctness:,0.9650,0.9650,0,, ,Correctness:,0.5350,0.5350,1,, 
,Correctness:,0.4900,0.5100,1,, ,Correctness:,0.1150,0.8850,0,, ,Correctness:,0.8750,0.8750,0,, ,Correctness:,0.4600,0.5400,1,, 
,Correctness:,0.4700,0.5300,1,, ,Correctness:,0.1850,0.8150,0,, ,Correctness:,0.8300,0.8300,0,, ,Correctness:,0.5950,0.5950,1,, 
,Correctness:,0.4950,0.5050,1,, ,Correctness:,0.0900,0.9100,0,, ,Correctness:,0.9050,0.9050,0,, ,Correctness:,0.3350,0.6650,1,, 
,Correctness:,0.4750,0.5250,1,, ,Correctness:,0.1050,0.8950,0,, ,Correctness:,0.8900,0.8900,0,, ,Correctness:,0.5350,0.5350,1,, 
,Correctness:,0.4850,0.5150,1,, ,Correctness:,0.0900,0.9100,0,, ,Correctness:,0.9250,0.9250,0,, ,Correctness:,0.5400,0.5400,1,, 
,Correctness:,0.4900,0.5100,1,, ,Correctness:,0.1100,0.8900,0,, ,Correctness:,0.8950,0.8950,0,, ,Correctness:,0.4200,0.5800,1,, 
,Correctness:,0.4925,0.5075,1,, ,Correctness:,0.1000,0.9000,0,, ,Correctness:,0.8975,0.8975,0,, ,Correctness:,0.5325,0.5325,1,, 
,Correctness:,0.4900,0.5100,1,, ,Correctness:,0.1075,0.8925,0,, ,Correctness:,0.9050,0.9050,0,, ,Correctness:,0.4825,0.5175,1,, 
,Correctness:,0.4850,0.5150,1,, ,Correctness:,0.0900,0.9100,0,, ,Correctness:,0.9075,0.9075,0,, ,Correctness:,0.5400,0.5400,1,, 
,Correctness:,0.4775,0.5225,1,, ,Correctness:,0.1150,0.8850,0,, ,Correctness:,0.8875,0.8875,0,, ,Correctness:,0.5425,0.5425,1,, 
,Correctness:,0.5025,0.5025,1,, ,Correctness:,0.0900,0.9100,0,, ,Correctness:,0.9125,0.9125,0,, ,Correctness:,0.5400,0.5400,1,, 
,Correctness:,0.4975,0.5025,1,, ,Correctness:,0.0950,0.9050,0,, ,Correctness:,0.9075,0.9075,0,, ,Correctness:,0.5175,0.5175,1,, 
,Correctness:,0.4875,0.5125,1,, ,Correctness:,0.0775,0.9225,0,, ,Correctness:,0.9350,0.9350,0,, ,Correctness:,0.5275,0.5275,1,, 
,Correctness:,0.4825,0.5175,1,, ,Correctness:,0.1425,0.8575,0,, ,Correctness:,0.8550,0.8550,0,, ,Correctness:,0.4900,0.5100,1,, 
,Correctness:,0.5000,0.5000,1,, ,Correctness:,0.0725,0.9275,0,, ,Correctness:,0.9300,0.9300,0,, ,Correctness:,0.4600,0.5400,1,, 
,Correctness:,0.4750,0.5250,1,, ,Correctness:,0.0750,0.9250,0,, ,Correctness:,0.9475,0.9475,0,, ,Correctness:,0.5075,0.5075,1,, 
,Correctness:,0.4788,0.5212,1,, ,Correctness:,0.1075,0.8925,0,, ,Correctness:,0.8988,0.8988,0,, ,Correctness:,0.4825,0.5175,1,, 
,Correctness:,0.4838,0.5162,1,, ,Correctness:,0.0825,0.9175,0,, ,Correctness:,0.9387,0.9387,0,, ,Correctness:,0.4650,0.5350,1,, 
,Correctness:,0.4813,0.5188,1,, ,Correctness:,0.0887,0.9113,0,, ,Correctness:,0.9287,0.9287,0,, ,Correctness:,0.5225,0.5225,1,, 
,Correctness:,0.4850,0.5150,1,, ,Correctness:,0.1288,0.8712,0,, ,Correctness:,0.8812,0.8812,0,, ,Correctness:,0.5125,0.5125,1,, 
,Correctness:,0.4888,0.5112,1,, ,Correctness:,0.1113,0.8888,0,, ,Correctness:,0.8950,0.8950,0,, ,Correctness:,0.5387,0.5387,1,, 
,Correctness:,0.4875,0.5125,1,, ,Correctness:,0.1225,0.8775,0,, ,Correctness:,0.8950,0.8950,0,, ,Correctness:,0.5325,0.5325,1,, 
,Correctness:,0.4775,0.5225,1,, ,Correctness:,0.0862,0.9138,0,, ,Correctness:,0.9275,0.9275,0,, ,Correctness:,0.6075,0.6075,1,, 
,Correctness:,0.4838,0.5162,1,, ,Correctness:,0.1025,0.8975,0,, ,Correctness:,0.9087,0.9087,0,, ,Correctness:,0.5112,0.5112,1,, 
,Correctness:,0.4875,0.5125,1,, ,Correctness:,0.1000,0.9000,0,, ,Correctness:,0.9113,0.9113,0,, ,Correctness:,0.4512,0.5488,1,, 
,Correctness:,0.4813,0.5188,1,, ,Correctness:,0.0700,0.9300,0,, ,Correctness:,0.9500,0.9500,0,, ,Correctness:,0.5012,0.5012,1,, 
,Correctness:,0.4906,0.5094,1,, ,Correctness:,0.1000,0.9000,0,, ,Correctness:,0.9081,0.9081,0,, ,Correctness:,0.5413,0.5413,1,, 
,Correctness:,0.4800,0.5200,1,, ,Correctness:,0.0750,0.9250,0,, ,Correctness:,0.9406,0.9406,0,, ,Correctness:,0.5463,0.5463,1,, 
,Correctness:,0.4781,0.5219,1,, ,Correctness:,0.1181,0.8819,0,, ,Correctness:,0.8912,0.8912,0,, ,Correctness:,0.5694,0.5694,1,, 
,Correctness:,0.4844,0.5156,1,, ,Correctness:,0.0900,0.9100,0,, ,Correctness:,0.9206,0.9206,0,, ,Correctness:,0.5306,0.5306,1,, 
,Correctness:,0.4775,0.5225,1,, ,Correctness:,0.0981,0.9019,0,, ,Correctness:,0.9131,0.9131,0,, ,Correctness:,0.5563,0.5563,1,, 
,Correctness:,0.4806,0.5194,1,, ,Correctness:,0.0887,0.9113,0,, ,Correctness:,0.9256,0.9256,0,, ,Correctness:,0.4931,0.5069,1,, 
,Correctness:,0.4819,0.5181,1,, ,Correctness:,0.1106,0.8894,0,, ,Correctness:,0.8950,0.8950,0,, ,Correctness:,0.5437,0.5437,1,, 
,Correctness:,0.4881,0.5119,1,, ,Correctness:,0.0919,0.9081,0,, ,Correctness:,0.9200,0.9200,0,, ,Correctness:,0.5550,0.5550,1,, 
,Correctness:,0.4831,0.5169,1,, ,Correctness:,0.0813,0.9187,0,, ,Correctness:,0.9219,0.9219,0,, ,Correctness:,0.5156,0.5156,1,, 
,Correctness:,0.4831,0.5169,1,, ,Correctness:,0.1100,0.8900,0,, ,Correctness:,0.8956,0.8956,0,, ,Correctness:,0.5188,0.5188,1,, 
Average:,0.5151,,,,, Average:,0.9005,,,,, Average:,0.9098,,,,, Average:,0.5541,,,,, 
,Correctness:,0.0700,0.9300,0,, ,Correctness:,0.9300,0.9300,0,, ,Correctness:,0.9200,0.9200,0,, ,Correctness:,0.5200,0.5200,1,, 
,Correctness:,0.1900,0.8100,0,, ,Correctness:,0.8600,0.8600,0,, ,Correctness:,0.8200,0.8200,0,, ,Correctness:,0.5000,0.5000,1,, 
,Correctness:,0.1100,0.8900,0,, ,Correctness:,0.9300,0.9300,0,, ,Correctness:,0.9100,0.9100,0,, ,Correctness:,0.5100,0.5100,1,, 
,Correctness:,0.1100,0.8900,0,, ,Correctness:,0.8900,0.8900,0,, ,Correctness:,0.8700,0.8700,0,, ,Correctness:,0.5300,0.5300,1,, 
,Correctness:,0.0900,0.9100,0,, ,Correctness:,0.8800,0.8800,0,, ,Correctness:,0.9000,0.9000,0,, ,Correctness:,0.5300,0.5300,1,, 
,Correctness:,0.0700,0.9300,0,, ,Correctness:,0.9600,0.9600,0,, ,Correctness:,0.9400,0.9400,0,, ,Correctness:,0.5300,0.5300,1,, 
,Correctness:,0.2100,0.7900,0,, ,Correctness:,0.8400,0.8400,0,, ,Correctness:,0.8000,0.8000,0,, ,Correctness:,0.4900,0.5100,1,, 
,Correctness:,0.1200,0.8800,0,, ,Correctness:,0.8700,0.8700,0,, ,Correctness:,0.8700,0.8700,0,, ,Correctness:,0.4700,0.5300,1,, 
,Correctness:,0.1200,0.8800,0,, ,Correctness:,0.8900,0.8900,0,, ,Correctness:,0.8900,0.8900,0,, ,Correctness:,0.5000,0.5000,1,, 
,Correctness:,0.0400,0.9600,0,, ,Correctness:,0.9500,0.9500,0,, ,Correctness:,0.9500,0.9500,0,, ,Correctness:,0.4700,0.5300,1,, 
,Correctness:,0.0900,0.9100,0,, ,Correctness:,0.9200,0.9200,0,, ,Correctness:,0.9200,0.9200,0,, ,Correctness:,0.5150,0.5150,1,, 
,Correctness:,0.0400,0.9600,0,, ,Correctness:,0.9650,0.9650,0,, ,Correctness:,0.9650,0.9650,0,, ,Correctness:,0.5150,0.5150,1,, 
,Correctness:,0.0350,0.9650,0,, ,Correctness:,0.9700,0.9700,0,, ,Correctness:,0.9600,0.9600,0,, ,Correctness:,0.5300,0.5300,1,, 
,Correctness:,0.0550,0.9450,0,, ,Correctness:,0.9650,0.9650,0,, ,Correctness:,0.9450,0.9450,0,, ,Correctness:,0.5250,0.5250,1,, 
,Correctness:,0.1150,0.8850,0,, ,Correctness:,0.8800,0.8800,0,, ,Correctness:,0.8700,0.8700,0,, ,Correctness:,0.5450,0.5450,1,, 
,Correctness:,0.1850,0.8150,0,, ,Correctness:,0.8300,0.8300,0,, ,Correctness:,0.8200,0.8200,0,, ,Correctness:,0.5300,0.5300,1,, 
,Correctness:,0.0900,0.9100,0,, ,Correctness:,0.9050,0.9050,0,, ,Correctness:,0.9050,0.9050,0,, ,Correctness:,0.4700,0.5300,1,, 
,Correctness:,0.1050,0.8950,0,, ,Correctness:,0.8900,0.8900,0,, ,Correctness:,0.8800,0.8800,0,, ,Correctness:,0.5350,0.5350,1,, 
,Correctness:,0.0900,0.9100,0,, ,Correctness:,0.9250,0.9250,0,, ,Correctness:,0.9150,0.9150,0,, ,Correctness:,0.5250,0.5250,1,, 
,Correctness:,0.1100,0.8900,0,, ,Correctness:,0.8950,0.8950,0,, ,Correctness:,0.8950,0.8950,0,, ,Correctness:,0.4900,0.5100,1,, 
,Correctness:,0.1000,0.9000,0,, ,Correctness:,0.8975,0.8975,0,, ,Correctness:,0.8975,0.8975,0,, ,Correctness:,0.5225,0.5225,1,, 
,Correctness:,0.1075,0.8925,0,, ,Correctness:,0.9050,0.9050,0,, ,Correctness:,0.8950,0.8950,0,, ,Correctness:,0.5150,0.5150,1,, 
,Correctness:,0.0900,0.9100,0,, ,Correctness:,0.9075,0.9075,0,, ,Correctness:,0.9075,0.9075,0,, ,Correctness:,0.5075,0.5075,1,, 
,Correctness:,0.1150,0.8850,0,, ,Correctness:,0.8875,0.8875,0,, ,Correctness:,0.8875,0.8875,0,, ,Correctness:,0.5075,0.5075,1,, 
,Correctness:,0.0900,0.9100,0,, ,Correctness:,0.9125,0.9125,0,, ,Correctness:,0.9025,0.9025,0,, ,Correctness:,0.5075,0.5075,1,, 
,Correctness:,0.0950,0.9050,0,, ,Correctness:,0.9075,0.9075,0,, ,Correctness:,0.9075,0.9075,0,, ,Correctness:,0.5250,0.5250,1,, 
,Correctness:,0.0775,0.9225,0,, ,Correctness:,0.9350,0.9350,0,, ,Correctness:,0.9250,0.9250,0,, ,Correctness:,0.5175,0.5175,1,, 
,Correctness:,0.1425,0.8575,0,, ,Correctness:,0.8550,0.8550,0,, ,Correctness:,0.8550,0.8550,0,, ,Correctness:,0.5250,0.5250,1,, 
,Correctness:,0.0725,0.9275,0,, ,Correctness:,0.9300,0.9300,0,, ,Correctness:,0.9300,0.9300,0,, ,Correctness:,0.4900,0.5100,1,, 
,Correctness:,0.0750,0.9250,0,, ,Correctness:,0.9475,0.9475,0,, ,Correctness:,0.9275,0.9275,0,, ,Correctness:,0.5100,0.5100,1,, 
,Correctness:,0.1075,0.8925,0,, ,Correctness:,0.8988,0.8988,0,, ,Correctness:,0.8912,0.8912,0,, ,Correctness:,0.4950,0.5050,1,, 
,Correctness:,0.0825,0.9175,0,, ,Correctness:,0.9387,0.9387,0,, ,Correctness:,0.9163,0.9163,0,, ,Correctness:,0.5125,0.5125,1,, 
,Correctness:,0.0887,0.9113,0,, ,Correctness:,0.9287,0.9287,0,, ,Correctness:,0.9137,0.9137,0,, ,Correctness:,0.5050,0.5050,1,, 
,Correctness:,0.1288,0.8712,0,, ,Correctness:,0.8812,0.8812,0,, ,Correctness:,0.8712,0.8712,0,, ,Correctness:,0.5112,0.5112,1,, 
,Correctness:,0.1113,0.8888,0,, ,Correctness:,0.8950,0.8950,0,, ,Correctness:,0.8900,0.8900,0,, ,Correctness:,0.5275,0.5275,1,, 
,Correctness:,0.1225,0.8775,0,, ,Correctness:,0.8950,0.8950,0,, ,Correctness:,0.8800,0.8800,0,, ,Correctness:,0.5275,0.5275,1,, 
,Correctness:,0.0862,0.9138,0,, ,Correctness:,0.9275,0.9275,0,, ,Correctness:,0.9125,0.9125,0,, ,Correctness:,0.5325,0.5325,1,, 
,Correctness:,0.1025,0.8975,0,, ,Correctness:,0.9087,0.9087,0,, ,Correctness:,0.8988,0.8988,0,, ,Correctness:,0.5150,0.5150,1,, 
,Correctness:,0.1000,0.9000,0,, ,Correctness:,0.9113,0.9113,0,, ,Correctness:,0.9012,0.9012,0,, ,Correctness:,0.5088,0.5088,1,, 
,Correctness:,0.0700,0.9300,0,, ,Correctness:,0.9500,0.9500,0,, ,Correctness:,0.9325,0.9325,0,, ,Correctness:,0.4938,0.5062,1,, 
,Correctness:,0.1000,0.9000,0,, ,Correctness:,0.9081,0.9081,0,, ,Correctness:,0.8994,0.8994,0,, ,Correctness:,0.5212,0.5212,1,, 
,Correctness:,0.0750,0.9250,0,, ,Correctness:,0.9406,0.9406,0,, ,Correctness:,0.9244,0.9244,0,, ,Correctness:,0.5194,0.5194,1,, 
,Correctness:,0.1181,0.8819,0,, ,Correctness:,0.8912,0.8912,0,, ,Correctness:,0.8825,0.8825,0,, ,Correctness:,0.5181,0.5181,1,, 
,Correctness:,0.0900,0.9100,0,, ,Correctness:,0.9206,0.9206,0,, ,Correctness:,0.9081,0.9081,0,, ,Correctness:,0.5194,0.5194,1,, 
,Correctness:,0.0981,0.9019,0,, ,Correctness:,0.9131,0.9131,0,, ,Correctness:,0.9031,0.9031,0,, ,Correctness:,0.5294,0.5294,1,, 
,Correctness:,0.0887,0.9113,0,, ,Correctness:,0.9256,0.9256,0,, ,Correctness:,0.9106,0.9106,0,, ,Correctness:,0.4963,0.5037,1,, 
,Correctness:,0.1106,0.8894,0,, ,Correctness:,0.8950,0.8950,0,, ,Correctness:,0.8900,0.8900,0,, ,Correctness:,0.5206,0.5206,1,, 
,Correctness:,0.0919,0.9081,0,, ,Correctness:,0.9200,0.9200,0,, ,Correctness:,0.9087,0.9087,0,, ,Correctness:,0.5181,0.5181,1,, 
,Correctness:,0.0813,0.9187,0,, ,Correctness:,0.9219,0.9219,0,, ,Correctness:,0.9194,0.9194,0,, ,Correctness:,0.5212,0.5212,1,, 
,Correctness:,0.1100,0.8900,0,, ,Correctness:,0.8956,0.8956,0,, ,Correctness:,0.8906,0.8906,0,, ,Correctness:,0.5144,0.5144,1,, 
Average:,0.9005,,,,, Average:,0.9099,,,,, Average:,0.9005,,,,, Average:,0.5187,,,,, 
,Correctness:,0.9300,0.9300,0,, ,Correctness:,0.1000,0.9000,0,, ,Correctness:,0.9300,0.9300,0,, ,Correctness:,0.0700,0.9300,0,, 
,Correctness:,0.8600,0.8600,0,, ,Correctness:,0.1500,0.8500,0,, ,Correctness:,0.8700,0.8700,0,, ,Correctness:,0.1900,0.8100,0,, 
,Correctness:,0.9300,0.9300,0,, ,Correctness:,0.0900,0.9100,0,, ,Correctness:,0.9300,0.9300,0,, ,Correctness:,0.1100,0.8900,0,, 
,Correctness:,0.8900,0.8900,0,, ,Correctness:,0.0900,0.9100,0,, ,Correctness:,0.8900,0.8900,0,, ,Correctness:,0.1100,0.8900,0,, 
,Correctness:,0.8800,0.8800,0,, ,Correctness:,0.1100,0.8900,0,, ,Correctness:,0.8900,0.8900,0,, ,Correctness:,0.0900,0.9100,0,, 
,Correctness:,0.9600,0.9600,0,, ,Correctness:,0.0500,0.9500,0,, ,Correctness:,0.9600,0.9600,0,, ,Correctness:,0.0700,0.9300,0,, 
,Correctness:,0.8400,0.8400,0,, ,Correctness:,0.1700,0.8300,0,, ,Correctness:,0.8400,0.8400,0,, ,Correctness:,0.2100,0.7900,0,, 
,Correctness:,0.8700,0.8700,0,, ,Correctness:,0.1200,0.8800,0,, ,Correctness:,0.8700,0.8700,0,, ,Correctness:,0.1200,0.8800,0,, 
,Correctness:,0.8900,0.8900,0,, ,Correctness:,0.1200,0.8800,0,, ,Correctness:,0.8900,0.8900,0,, ,Correctness:,0.1200,0.8800,0,, 
,Correctness:,0.9500,0.9500,0,, ,Correctness:,0.0400,0.9600,0,, ,Correctness:,0.9500,0.9500,0,, ,Correctness:,0.0400,0.9600,0,, 
,Correctness:,0.9200,0.9200,0,, ,Correctness:,0.0900,0.9100,0,, ,Correctness:,0.9200,0.9200,0,, ,Correctness:,0.0900,0.9100,0,, 
,Correctness:,0.9650,0.9650,0,, ,Correctness:,0.0400,0.9600,0,, ,Correctness:,0.9650,0.9650,0,, ,Correctness:,0.0400,0.9600,0,, 
,Correctness:,0.9700,0.9700,0,, ,Correctness:,0.0250,0.9750,0,, ,Correctness:,0.9700,0.9700,0,, ,Correctness:,0.0350,0.9650,0,, 
,Correctness:,0.9650,0.9650,0,, ,Correctness:,0.0350,0.9650,0,, ,Correctness:,0.9650,0.9650,0,, ,Correctness:,0.0550,0.9450,0,, 
,Correctness:,0.8800,0.8800,0,, ,Correctness:,0.0950,0.9050,0,, ,Correctness:,0.8750,0.8750,0,, ,Correctness:,0.1150,0.8850,0,, 
,Correctness:,0.8300,0.8300,0,, ,Correctness:,0.1750,0.8250,0,, ,Correctness:,0.8250,0.8250,0,, ,Correctness:,0.1850,0.8150,0,, 
,Correctness:,0.9050,0.9050,0,, ,Correctness:,0.0900,0.9100,0,, ,Correctness:,0.9050,0.9050,0,, ,Correctness:,0.0900,0.9100,0,, 
,Correctness:,0.8900,0.8900,0,, ,Correctness:,0.0950,0.9050,0,, ,Correctness:,0.8900,0.8900,0,, ,Correctness:,0.1050,0.8950,0,, 
,Correctness:,0.9250,0.9250,0,, ,Correctness:,0.0800,0.9200,0,, ,Correctness:,0.9250,0.9250,0,, ,Correctness:,0.0900,0.9100,0,, 
,Correctness:,0.8950,0.8950,0,, ,Correctness:,0.1100,0.8900,0,, ,Correctness:,0.8950,0.8950,0,, ,Correctness:,0.1100,0.8900,0,, 
,Correctness:,0.8975,0.8975,0,, ,Correctness:,0.1000,0.9000,0,, ,Correctness:,0.8975,0.8975,0,, ,Correctness:,0.1000,0.9000,0,, 
,Correctness:,0.9050,0.9050,0,, ,Correctness:,0.0975,0.9025,0,, ,Correctness:,0.9050,0.9050,0,, ,Correctness:,0.1075,0.8925,0,, 
,Correctness:,0.9075,0.9075,0,, ,Correctness:,0.0900,0.9100,0,, ,Correctness:,0.9075,0.9075,0,, ,Correctness:,0.0900,0.9100,0,, 
,Correctness:,0.8875,0.8875,0,, ,Correctness:,0.1150,0.8850,0,, ,Correctness:,0.8875,0.8875,0,, ,Correctness:,0.1150,0.8850,0,, 
,Correctness:,0.9125,0.9125,0,, ,Correctness:,0.0800,0.9200,0,, ,Correctness:,0.9125,0.9125,0,, ,Correctness:,0.0900,0.9100,0,, 
,Correctness:,0.9075,0.9075,0,, ,Correctness:,0.0950,0.9050,0,, ,Correctness:,0.9100,0.9100,0,, ,Correctness:,0.0950,0.9050,0,, 
,Correctness:,0.9350,0.9350,0,, ,Correctness:,0.0675,0.9325,0,, ,Correctness:,0.9350,0.9350,0,, ,Correctness:,0.0775,0.9225,0,, 
,Correctness:,0.8550,0.8550,0,, ,Correctness:,0.1425,0.8575,0,, ,Correctness:,0.8550,0.8550,0,, ,Correctness:,0.1425,0.8575,0,, 
,Correctness:,0.9300,0.9300,0,, ,Correctness:,0.0725,0.9275,0,, ,Correctness:,0.9300,0.9300,0,, ,Correctness:,0.0725,0.9275,0,, 
,Correctness:,0.9475,0.9475,0,, ,Correctness:,0.0550,0.9450,0,, ,Correctness:,0.9475,0.9475,0,, ,Correctness:,0.0750,0.9250,0,, 
,Correctness:,0.8988,0.8988,0,, ,Correctness:,0.1000,0.9000,0,, ,Correctness:,0.8988,0.8988,0,, ,Correctness:,0.1075,0.8925,0,, 
,Correctness:,0.9387,0.9387,0,, ,Correctness:,0.0600,0.9400,0,, ,Correctness:,0.9387,0.9387,0,, ,Correctness:,0.0825,0.9175,0,, 
,Correctness:,0.9287,0.9287,0,, ,Correctness:,0.0737,0.9263,0,, ,Correctness:,0.9287,0.9287,0,, ,Correctness:,0.0887,0.9113,0,, 
,Correctness:,0.8812,0.8812,0,, ,Correctness:,0.1187,0.8812,0,, ,Correctness:,0.8800,0.8800,0,, ,Correctness:,0.1300,0.8700,0,, 
,Correctness:,0.8950,0.8950,0,, ,Correctness:,0.1062,0.8938,0,, ,Correctness:,0.8950,0.8950,0,, ,Correctness:,0.1113,0.8888,0,, 
,Correctness:,0.8950,0.8950,0,, ,Correctness:,0.1075,0.8925,0,, ,Correctness:,0.8950,0.8950,0,, ,Correctness:,0.1225,0.8775,0,, 
,Correctness:,0.9275,0.9275,0,, ,Correctness:,0.0712,0.9287,0,, ,Correctness:,0.9275,0.9275,0,, ,Correctness:,0.0862,0.9138,0,, 
,Correctness:,0.9087,0.9087,0,, ,Correctness:,0.0925,0.9075,0,, ,Correctness:,0.9087,0.9087,0,, ,Correctness:,0.1025,0.8975,0,, 
,Correctness:,0.9113,0.9113,0,, ,Correctness:,0.0900,0.9100,0,, ,Correctness:,0.9113,0.9113,0,, ,Correctness:,0.1000,0.9000,0,, 
,Correctness:,0.9500,0.9500,0,, ,Correctness:,0.0525,0.9475,0,, ,Correctness:,0.9500,0.9500,0,, ,Correctness:,0.0700,0.9300,0,, 
,Correctness:,0.9081,0.9081,0,, ,Correctness:,0.0912,0.9087,0,, ,Correctness:,0.9081,0.9081,0,, ,Correctness:,0.1000,0.9000,0,, 
,Correctness:,0.9406,0.9406,0,, ,Correctness:,0.0587,0.9413,0,, ,Correctness:,0.9406,0.9406,0,, ,Correctness:,0.0750,0.9250,0,, 
,Correctness:,0.8912,0.8912,0,, ,Correctness:,0.1094,0.8906,0,, ,Correctness:,0.8912,0.8912,0,, ,Correctness:,0.1181,0.8819,0,, 
,Correctness:,0.9206,0.9206,0,, ,Correctness:,0.0775,0.9225,0,, ,Correctness:,0.9213,0.9213,0,, ,Correctness:,0.0900,0.9100,0,, 
,Correctness:,0.9131,0.9131,0,, ,Correctness:,0.0881,0.9119,0,, ,Correctness:,0.9131,0.9131,0,, ,Correctness:,0.0981,0.9019,0,, 
,Correctness:,0.9256,0.9256,0,, ,Correctness:,0.0737,0.9263,0,, ,Correctness:,0.9250,0.9250,0,, ,Correctness:,0.0887,0.9113,0,, 
,Correctness:,0.8950,0.8950,0,, ,Correctness:,0.1056,0.8944,0,, ,Correctness:,0.8950,0.8950,0,, ,Correctness:,0.1106,0.8894,0,, 
,Correctness:,0.9200,0.9200,0,, ,Correctness:,0.0806,0.9194,0,, ,Correctness:,0.9200,0.9200,0,, ,Correctness:,0.0919,0.9081,0,, 
,Correctness:,0.9219,0.9219,0,, ,Correctness:,0.0788,0.9213,0,, ,Correctness:,0.9219,0.9219,0,, ,Correctness:,0.0813,0.9187,0,, 
,Correctness:,0.8956,0.8956,0,, ,Correctness:,0.1050,0.8950,0,, ,Correctness:,0.8956,0.8956,0,, ,Correctness:,0.1100,0.8900,0,, 
Average:,0.9099,,,,, Average:,0.9094,,,,, Average:,0.9102,,,,, Average:,0.9005,,,,, 
,Correctness:,0.1000,0.9000,0,, ,Correctness:,0.9300,0.9300,0,, ,Correctness:,0.1000,0.9000,0,, ,Correctness:,0.4900,0.5100,1,, 
,Correctness:,0.1500,0.8500,0,, ,Correctness:,0.8600,0.8600,0,, ,Correctness:,0.1500,0.8500,0,, ,Correctness:,0.5200,0.5200,1,, 
,Correctness:,0.0900,0.9100,0,, ,Correctness:,0.9300,0.9300,0,, ,Correctness:,0.0900,0.9100,0,, ,Correctness:,0.4800,0.5200,1,, 
,Correctness:,0.0900,0.9100,0,, ,Correctness:,0.8900,0.8900,0,, ,Correctness:,0.0900,0.9100,0,, ,Correctness:,0.5000,0.5000,1,, 
,Correctness:,0.1100,0.8900,0,, ,Correctness:,0.8800,0.8800,0,, ,Correctness:,0.1100,0.8900,0,, ,Correctness:,0.5000,0.5000,1,, 
,Correctness:,0.0500,0.9500,0,, ,Correctness:,0.9600,0.9600,0,, ,Correctness:,0.0500,0.9500,0,, ,Correctness:,0.5100,0.5100,1,, 
,Correctness:,0.1700,0.8300,0,, ,Correctness:,0.8400,0.8400,0,, ,Correctness:,0.1700,0.8300,0,, ,Correctness:,0.4900,0.5100,1,, 
,Correctness:,0.1200,0.8800,0,, ,Correctness:,0.8700,0.8700,0,, ,Correctness:,0.1200,0.8800,0,, ,Correctness:,0.4900,0.5100,1,, 
,Correctness:,0.1200,0.8800,0,, ,Correctness:,0.8900,0.8900,0,, ,Correctness:,0.1200,0.8800,0,, ,Correctness:,0.4800,0.5200,1,, 
,Correctness:,0.0400,0.9600,0,, ,Correctness:,0.9500,0.9500,0,, ,Correctness:,0.0400,0.9600,0,, ,Correctness:,0.5000,0.5000,1,, 
,Correctness:,0.0900,0.9100,0,, ,Correctness:,0.9200,0.9200,0,, ,Correctness:,0.0900,0.9100,0,, ,Correctness:,0.5050,0.5050,1,, 
,Correctness:,0.0400,0.9600,0,, ,Correctness:,0.9650,0.9650,0,, ,Correctness:,0.0400,0.9600,0,, ,Correctness:,0.5100,0.5100,1,, 
,Correctness:,0.0250,0.9750,0,, ,Correctness:,0.9700,0.9700,0,, ,Correctness:,0.0250,0.9750,0,, ,Correctness:,0.4950,0.5050,1,, 
,Correctness:,0.0350,0.9650,0,, ,Correctness:,0.9650,0.9650,0,, ,Correctness:,0.0350,0.9650,0,, ,Correctness:,0.5100,0.5100,1,, 
,Correctness:,0.0950,0.9050,0,, ,Correctness:,0.8800,0.8800,0,, ,Correctness:,0.0950,0.9050,0,, ,Correctness:,0.4950,0.5050,1,, 
,Correctness:,0.1750,0.8250,0,, ,Correctness:,0.8300,0.8300,0,, ,Correctness:,0.1750,0.8250,0,, ,Correctness:,0.4850,0.5150,1,, 
,Correctness:,0.0900,0.9100,0,, ,Correctness:,0.9050,0.9050,0,, ,Correctness:,0.0900,0.9100,0,, ,Correctness:,0.5000,0.5000,1,, 
,Correctness:,0.0950,0.9050,0,, ,Correctness:,0.8900,0.8900,0,, ,Correctness:,0.0950,0.9050,0,, ,Correctness:,0.5050,0.5050,1,, 
,Correctness:,0.0800,0.9200,0,, ,Correctness:,0.9250,0.9250,0,, ,Correctness:,0.0800,0.9200,0,, ,Correctness:,0.5000,0.5000,1,, 
,Correctness:,0.1100,0.8900,0,, ,Correctness:,0.8950,0.8950,0,, ,Correctness:,0.1100,0.8900,0,, ,Correctness:,0.5000,0.5000,1,, 
,Correctness:,0.1000,0.9000,0,, ,Correctness:,0.8975,0.8975,0,, ,Correctness:,0.1000,0.9000,0,, ,Correctness:,0.4925,0.5075,1,, 
,Correctness:,0.0975,0.9025,0,, ,Correctness:,0.9050,0.9050,0,, ,Correctness:,0.0975,0.9025,0,, ,Correctness:,0.4975,0.5025,1,, 
,Correctness:,0.0900,0.9100,0,, ,Correctness:,0.9075,0.9075,0,, ,Correctness:,0.0900,0.9100,0,, ,Correctness:,0.5025,0.5025,1,, 
,Correctness:,0.1150,0.8850,0,, ,Correctness:,0.8875,0.8875,0,, ,Correctness:,0.1150,0.8850,0,, ,Correctness:,0.5000,0.5000,1,, 
,Correctness:,0.0800,0.9200,0,, ,Correctness:,0.9125,0.9125,0,, ,Correctness:,0.0800,0.9200,0,, ,Correctness:,0.4925,0.5075,1,, 
,Correctness:,0.0950,0.9050,0,, ,Correctness:,0.9075,0.9075,0,, ,Correctness:,0.0950,0.9050,0,, ,Correctness:,0.4950,0.5050,1,, 
,Correctness:,0.0675,0.9325,0,, ,Correctness:,0.9350,0.9350,0,, ,Correctness:,0.0675,0.9325,0,, ,Correctness:,0.4850,0.5150,1,, 
,Correctness:,0.1425,0.8575,0,, ,Correctness:,0.8550,0.8550,0,, ,Correctness:,0.1425,0.8575,0,, ,Correctness:,0.5025,0.5025,1,, 
,Correctness:,0.0725,0.9275,0,, ,Correctness:,0.9300,0.9300,0,, ,Correctness:,0.0725,0.9275,0,, ,Correctness:,0.4950,0.5050,1,, 
,Correctness:,0.0550,0.9450,0,, ,Correctness:,0.9475,0.9475,0,, ,Correctness:,0.0550,0.9450,0,, ,Correctness:,0.4975,0.5025,1,, 
,Correctness:,0.1000,0.9000,0,, ,Correctness:,0.8988,0.8988,0,, ,Correctness:,0.1000,0.9000,0,, ,Correctness:,0.5025,0.5025,1,, 
,Correctness:,0.0600,0.9400,0,, ,Correctness:,0.9387,0.9387,0,, ,Correctness:,0.0600,0.9400,0,, ,Correctness:,0.4938,0.5062,1,, 
,Correctness:,0.0737,0.9263,0,, ,Correctness:,0.9287,0.9287,0,, ,Correctness:,0.0737,0.9263,0,, ,Correctness:,0.4988,0.5012,1,, 
,Correctness:,0.1187,0.8812,0,, ,Correctness:,0.8812,0.8812,0,, ,Correctness:,0.1187,0.8812,0,, ,Correctness:,0.4988,0.5012,1,, 
,Correctness:,0.1062,0.8938,0,, ,Correctness:,0.8950,0.8950,0,, ,Correctness:,0.1062,0.8938,0,, ,Correctness:,0.4900,0.5100,1,, 
,Correctness:,0.1075,0.8925,0,, ,Correctness:,0.8950,0.8950,0,, ,Correctness:,0.1075,0.8925,0,, ,Correctness:,0.4963,0.5037,1,, 
,Correctness:,0.0712,0.9287,0,, ,Correctness:,0.9275,0.9275,0,, ,Correctness:,0.0712,0.9287,0,, ,Correctness:,0.4988,0.5012,1,, 
,Correctness:,0.0925,0.9075,0,, ,Correctness:,0.9087,0.9087,0,, ,Correctness:,0.0925,0.9075,0,, ,Correctness:,0.5025,0.5025,1,, 
,Correctness:,0.0900,0.9100,0,, ,Correctness:,0.9113,0.9113,0,, ,Correctness:,0.0900,0.9100,0,, ,Correctness:,0.5012,0.5012,1,, 
,Correctness:,0.0525,0.9475,0,, ,Correctness:,0.9500,0.9500,0,, ,Correctness:,0.0525,0.9475,0,, ,Correctness:,0.4988,0.5012,1,, 
,Correctness:,0.0912,0.9087,0,, ,Correctness:,0.9081,0.9081,0,, ,Correctness:,0.0912,0.9087,0,, ,Correctness:,0.5031,0.5031,1,, 
,Correctness:,0.0587,0.9413,0,, ,Correctness:,0.9406,0.9406,0,, ,Correctness:,0.0587,0.9413,0,, ,Correctness:,0.4994,0.5006,1,, 
,Correctness:,0.1094,0.8906,0,, ,Correctness:,0.8912,0.8912,0,, ,Correctness:,0.1094,0.8906,0,, ,Correctness:,0.4950,0.5050,1,, 
,Correctness:,0.0775,0.9225,0,, ,Correctness:,0.9206,0.9206,0,, ,Correctness:,0.0775,0.9225,0,, ,Correctness:,0.4994,0.5006,1,, 
,Correctness:,0.0881,0.9119,0,, ,Correctness:,0.9131,0.9131,0,, ,Correctness:,0.0881,0.9119,0,, ,Correctness:,0.5019,0.5019,1,, 
,Correctness:,0.0737,0.9263,0,, ,Correctness:,0.9256,0.9256,0,, ,Correctness:,0.0737,0.9263,0,, ,Correctness:,0.5025,0.5025,1,, 
,Correctness:,0.1056,0.8944,0,, ,Correctness:,0.8950,0.8950,0,, ,Correctness:,0.1056,0.8944,0,, ,Correctness:,0.5012,0.5012,1,, 
,Correctness:,0.0806,0.9194,0,, ,Correctness:,0.9200,0.9200,0,, ,Correctness:,0.0806,0.9194,0,, ,Correctness:,0.5019,0.5019,1,, 
,Correctness:,0.0788,0.9213,0,, ,Correctness:,0.9219,0.9219,0,, ,Correctness:,0.0788,0.9213,0,, ,Correctness:,0.4994,0.5006,1,, 
,Correctness:,0.1050,0.8950,0,, ,Correctness:,0.8956,0.8956,0,, ,Correctness:,0.1050,0.8950,0,, ,Correctness:,0.4969,0.5031,1,, 
Average:,0.9094,,,,, Average:,0.9099,,,,, Average:,0.9094,,,,, Average:,0.5051,,,,, 
,Correctness:,0.7000,0.7000,1,, ,Correctness:,0.9200,0.9200,0,, ,Correctness:,0.2800,0.7200,1,, ,Correctness:,0.5300,0.5300,1,, 
,Correctness:,0.1700,0.8300,1,, ,Correctness:,0.8200,0.8200,0,, ,Correctness:,0.6000,0.6000,1,, ,Correctness:,0.5700,0.5700,1,, 
,Correctness:,0.4100,0.5900,1,, ,Correctness:,0.9100,0.9100,0,, ,Correctness:,0.4300,0.5700,1,, ,Correctness:,0.5300,0.5300,1,, 
,Correctness:,0.3100,0.6900,1,, ,Correctness:,0.8700,0.8700,0,, ,Correctness:,0.5100,0.5100,1,, ,Correctness:,0.5400,0.5400,1,, 
,Correctness:,0.2500,0.7500,1,, ,Correctness:,0.9000,0.9000,0,, ,Correctness:,0.4800,0.5200,1,, ,Correctness:,0.5000,0.5000,1,, 
,Correctness:,0.1200,0.8800,1,, ,Correctness:,0.9400,0.9400,0,, ,Correctness:,0.6000,0.6000,1,, ,Correctness:,0.5000,0.5000,1,, 
,Correctness:,0.2500,0.7500,1,, ,Correctness:,0.8000,0.8000,0,, ,Correctness:,0.6100,0.6100,1,, ,Correctness:,0.5400,0.5400,1,, 
,Correctness:,0.3600,0.6400,1,, ,Correctness:,0.8700,0.8700,0,, ,Correctness:,0.4300,0.5700,1,, ,Correctness:,0.4700,0.5300,1,, 
,Correctness:,0.2900,0.7100,1,, ,Correctness:,0.8900,0.8900,0,, ,Correctness:,0.5400,0.5400,1,, ,Correctness:,0.5500,0.5500,1,, 
,Correctness:,0.6700,0.6700,1,, ,Correctness:,0.9200,0.9200,0,, ,Correctness:,0.3200,0.6800,1,, ,Correctness:,0.5500,0.5500,1,, 
,Correctness:,0.4550,0.5450,1,, ,Correctness:,0.9200,0.9200,0,, ,Correctness:,0.3900,0.6100,1,, ,Correctness:,0.5300,0.5300,1,, 
,Correctness:,0.3200,0.6800,1,, ,Correctness:,0.9650,0.9650,0,, ,Correctness:,0.5150,0.5150,1,, ,Correctness:,0.5300,0.5300,1,, 
,Correctness:,0.2950,0.7050,1,, ,Correctness:,0.9600,0.9600,0,, ,Correctness:,0.5000,0.5000,1,, ,Correctness:,0.5250,0.5250,1,, 
,Correctness:,0.3000,0.7000,1,, ,Correctness:,0.9450,0.9450,0,, ,Correctness:,0.4850,0.5150,1,, ,Correctness:,0.5100,0.5100,1,, 
,Correctness:,0.4250,0.5750,1,, ,Correctness:,0.8700,0.8700,0,, ,Correctness:,0.4400,0.5600,1,, ,Correctness:,0.5250,0.5250,1,, 
,Correctness:,0.2550,0.7450,1,, ,Correctness:,0.8200,0.8200,0,, ,Correctness:,0.5600,0.5600,1,, ,Correctness:,0.5200,0.5200,1,, 
,Correctness:,0.5700,0.5700,1,, ,Correctness:,0.9050,0.9050,0,, ,Correctness:,0.3000,0.7000,1,, ,Correctness:,0.5350,0.5350,1,, 
,Correctness:,0.3750,0.6250,1,, ,Correctness:,0.8800,0.8800,0,, ,Correctness:,0.4650,0.5350,1,, ,Correctness:,0.5200,0.5200,1,, 
,Correctness:,0.2650,0.7350,1,, ,Correctness:,0.9150,0.9150,0,, ,Correctness:,0.5300,0.5300,1,, ,Correctness:,0.5400,0.5400,1,, 
,Correctness:,0.4650,0.5350,1,, ,Correctness:,0.8950,0.8950,0,, ,Correctness:,0.4100,0.5900,1,, ,Correctness:,0.5450,0.5450,1,, 
,Correctness:,0.3125,0.6875,1,, ,Correctness:,0.8975,0.8975,0,, ,Correctness:,0.4750,0.5250,1,, ,Correctness:,0.4975,0.5025,1,, 
,Correctness:,0.4325,0.5675,1,, ,Correctness:,0.8950,0.8950,0,, ,Correctness:,0.4200,0.5800,1,, ,Correctness:,0.5300,0.5300,1,, 
,Correctness:,0.2725,0.7275,1,, ,Correctness:,0.9075,0.9075,0,, ,Correctness:,0.4975,0.5025,1,, ,Correctness:,0.5225,0.5225,1,, 
,Correctness:,0.3200,0.6800,1,, ,Correctness:,0.8875,0.8875,0,, ,Correctness:,0.4550,0.5450,1,, ,Correctness:,0.5050,0.5050,1,, 
,Correctness:,0.3050,0.6950,1,, ,Correctness:,0.9025,0.9025,0,, ,Correctness:,0.4600,0.5400,1,, ,Correctness:,0.5200,0.5200,1,, 
,Correctness:,0.3750,0.6250,1,, ,Correctness:,0.9075,0.9075,0,, ,Correctness:,0.4725,0.5275,1,, ,Correctness:,0.5150,0.5150,1,, 
,Correctness:,0.3050,0.6950,1,, ,Correctness:,0.9250,0.9250,0,, ,Correctness:,0.4700,0.5300,1,, ,Correctness:,0.5175,0.5175,1,, 
,Correctness:,0.3875,0.6125,1,, ,Correctness:,0.8625,0.8625,0,, ,Correctness:,0.4875,0.5125,1,, ,Correctness:,0.5325,0.5325,1,, 
,Correctness:,0.3875,0.6125,1,, ,Correctness:,0.9300,0.9300,0,, ,Correctness:,0.4350,0.5650,1,, ,Correctness:,0.5225,0.5225,1,, 
,Correctness:,0.3425,0.6575,1,, ,Correctness:,0.9275,0.9275,0,, ,Correctness:,0.4525,0.5475,1,, ,Correctness:,0.5000,0.5000,1,, 
,Correctness:,0.3750,0.6250,1,, ,Correctness:,0.8912,0.8912,0,, ,Correctness:,0.4425,0.5575,1,, ,Correctness:,0.5000,0.5000,1,, 
,Correctness:,0.4000,0.6000,1,, ,Correctness:,0.9163,0.9163,0,, ,Correctness:,0.4363,0.5637,1,, ,Correctness:,0.5275,0.5275,1,, 
,Correctness:,0.3362,0.6638,1,, ,Correctness:,0.9137,0.9137,0,, ,Correctness:,0.4637,0.5363,1,, ,Correctness:,0.5175,0.5175,1,, 
,Correctness:,0.3550,0.6450,1,, ,Correctness:,0.8712,0.8712,0,, ,Correctness:,0.4537,0.5463,1,, ,Correctness:,0.5238,0.5238,1,, 
,Correctness:,0.3312,0.6687,1,, ,Correctness:,0.8900,0.8900,0,, ,Correctness:,0.5062,0.5062,1,, ,Correctness:,0.5450,0.5450,1,, 
,Correctness:,0.3425,0.6575,1,, ,Correctness:,0.8800,0.8800,0,, ,Correctness:,0.4763,0.5237,1,, ,Correctness:,0.5262,0.5262,1,, 
,Correctness:,0.1938,0.8063,1,, ,Correctness:,0.9125,0.9125,0,, ,Correctness:,0.5787,0.5787,1,, ,Correctness:,0.5188,0.5188,1,, 
,Correctness:,0.3550,0.6450,1,, ,Correctness:,0.8988,0.8988,0,, ,Correctness:,0.4512,0.5488,1,, ,Correctness:,0.5200,0.5200,1,, 
,Correctness:,0.4313,0.5687,1,, ,Correctness:,0.9012,0.9012,0,, ,Correctness:,0.4138,0.5862,1,, ,Correctness:,0.5112,0.5112,1,, 
,Correctness:,0.3500,0.6500,1,, ,Correctness:,0.9325,0.9325,0,, ,Correctness:,0.4412,0.5588,1,, ,Correctness:,0.5138,0.5138,1,, 
,Correctness:,0.3050,0.6950,1,, ,Correctness:,0.8994,0.8994,0,, ,Correctness:,0.4850,0.5150,1,, ,Correctness:,0.5138,0.5138,1,, 
,Correctness:,0.3038,0.6963,1,, ,Correctness:,0.9244,0.9244,0,, ,Correctness:,0.4819,0.5181,1,, ,Correctness:,0.5219,0.5219,1,, 
,Correctness:,0.2744,0.7256,1,, ,Correctness:,0.8825,0.8825,0,, ,Correctness:,0.5162,0.5162,1,, ,Correctness:,0.5150,0.5150,1,, 
,Correctness:,0.3137,0.6863,1,, ,Correctness:,0.9081,0.9081,0,, ,Correctness:,0.4931,0.5069,1,, ,Correctness:,0.5306,0.5306,1,, 
,Correctness:,0.2925,0.7075,1,, ,Correctness:,0.9031,0.9031,0,, ,Correctness:,0.4844,0.5156,1,, ,Correctness:,0.5062,0.5062,1,, 
,Correctness:,0.3569,0.6431,1,, ,Correctness:,0.9106,0.9106,0,, ,Correctness:,0.4375,0.5625,1,, ,Correctness:,0.5144,0.5144,1,, 
,Correctness:,0.3013,0.6987,1,, ,Correctness:,0.8900,0.8900,0,, ,Correctness:,0.4831,0.5169,1,, ,Correctness:,0.5019,0.5019,1,, 
,Correctness:,0.3100,0.6900,1,, ,Correctness:,0.9087,0.9087,0,, ,Correctness:,0.4906,0.5094,1,, ,Correctness:,0.5156,0.5156,1,, 
,Correctness:,0.3425,0.6575,1,, ,Correctness:,0.9194,0.9194,0,, ,Correctness:,0.4625,0.5375,1,, ,Correctness:,0.5231,0.5231,1,, 
,Correctness:,0.3412,0.6587,1,, ,Correctness:,0.8906,0.8906,0,, ,Correctness:,0.4713,0.5288,1,, ,Correctness:,0.5225,0.5225,1,, 
Average:,0.6715,,,,, Average:,0.9000,,,,, Average:,0.5529,,,,, Average:,0.5231,,,,, 
,Correctness:,0.9300,0.9300,0,, ,Correctness:,0.2900,0.7100,1,, ,Correctness:,0.9300,0.9300,0,, ,Correctness:,0.1000,0.9000,0,, 
,Correctness:,0.8600,0.8600,0,, ,Correctness:,0.8400,0.8400,1,, ,Correctness:,0.8700,0.8700,0,, ,Correctness:,0.1500,0.8500,0,, 
,Correctness:,0.9300,0.9300,0,, ,Correctness:,0.5800,0.5800,1,, ,Correctness:,0.9300,0.9300,0,, ,Correctness:,0.0900,0.9100,0,, 
,Correctness:,0.8900,0.8900,0,, ,Correctness:,0.7000,0.7000,1,, ,Correctness:,0.8900,0.8900,0,, ,Correctness:,0.0900,0.9100,0,, 
,Correctness:,0.8800,0.8800,0,, ,Correctness:,0.7400,0.7400,1,, ,Correctness:,0.8800,0.8800,0,, ,Correctness:,0.1100,0.8900,0,, 
,Correctness:,0.9600,0.9600,0,, ,Correctness:,0.8900,0.8900,1,, ,Correctness:,0.9600,0.9600,0,, ,Correctness:,0.0500,0.9500,0,, 
,Correctness:,0.8400,0.8400,0,, ,Correctness:,0.7600,0.7600,1,, ,Correctness:,0.8400,0.8400,0,, ,Correctness:,0.1700,0.8300,0,, 
,Correctness:,0.8700,0.8700,0,, ,Correctness:,0.6300,0.6300,1,, ,Correctness:,0.8700,0.8700,0,, ,Correctness:,0.1200,0.8800,0,, 
,Correctness:,0.8900,0.8900,0,, ,Correctness:,0.7200,0.7200,1,, ,Correctness:,0.8900,0.8900,0,, ,Correctness:,0.1200,0.8800,0,, 
,Correctness:,0.9500,0.9500,0,, ,Correctness:,0.3200,0.6800,1,, ,Correctness:,0.9500,0.9500,0,, ,Correctness:,0.0700,0.9300,0,, 
,Correctness:,0.9200,0.9200,0,, ,Correctness:,0.5400,0.5400,1,, ,Correctness:,0.9200,0.9200,0,, ,Correctness:,0.0900,0.9100,0,, 
,Correctness:,0.9650,0.9650,0,, ,Correctness:,0.6850,0.6850,1,, ,Correctness:,0.9650,0.9650,0,, ,Correctness:,0.0400,0.9600,0,, 
,Correctness:,0.9700,0.9700,0,, ,Correctness:,0.7000,0.7000,1,, ,Correctness:,0.9700,0.9700,0,, ,Correctness:,0.0250,0.9750,0,, 
,Correctness:,0.9650,0.9650,0,, ,Correctness:,0.7050,0.7050,1,, ,Correctness:,0.9650,0.9650,0,, ,Correctness:,0.0350,0.9650,0,, 
,Correctness:,0.8800,0.8800,0,, ,Correctness:,0.5800,0.5800,1,, ,Correctness:,0.8800,0.8800,0,, ,Correctness:,0.0950,0.9050,0,, 
,Correctness:,0.8500,0.8500,0,, ,Correctness:,0.7500,0.7500,1,, ,Correctness:,0.8250,0.8250,0,, ,Correctness:,0.1750,0.8250,0,, 
,Correctness:,0.9050,0.9050,0,, ,Correctness:,0.4250,0.5750,1,, ,Correctness:,0.9050,0.9050,0,, ,Correctness:,0.0900,0.9100,0,, 
,Correctness:,0.8900,0.8900,0,, ,Correctness:,0.6300,0.6300,1,, ,Correctness:,0.8900,0.8900,0,, ,Correctness:,0.0950,0.9050,0,, 
,Correctness:,0.9250,0.9250,0,, ,Correctness:,0.7400,0.7400,1,, ,Correctness:,0.9250,0.9250,0,, ,Correctness:,0.0800,0.9200,0,, 
,Correctness:,0.8950,0.8950,0,, ,Correctness:,0.5400,0.5400,1,, ,Correctness:,0.8950,0.8950,0,, ,Correctness:,0.1100,0.8900,0,, 
,Correctness:,0.8975,0.8975,0,, ,Correctness:,0.6850,0.6850,1,, ,Correctness:,0.8975,0.8975,0,, ,Correctness:,0.1000,0.9000,0,, 
,Correctness:,0.9050,0.9050,0,, ,Correctness:,0.5700,0.5700,1,, ,Correctness:,0.9050,0.9050,0,, ,Correctness:,0.0975,0.9025,0,, 
,Correctness:,0.9075,0.9075,0,, ,Correctness:,0.7250,0.7250,1,, ,Correctness:,0.9075,0.9075,0,, ,Correctness:,0.0900,0.9100,0,, 
,Correctness:,0.8875,0.8875,0,, ,Correctness:,0.6825,0.6825,1,, ,Correctness:,0.8875,0.8875,0,, ,Correctness:,0.1150,0.8850,0,, 
,Correctness:,0.9125,0.9125,0,, ,Correctness:,0.6975,0.6975,1,, ,Correctness:,0.9125,0.9125,0,, ,Correctness:,0.0800,0.9200,0,, 
,Correctness:,0.9175,0.9175,0,, ,Correctness:,0.6275,0.6275,1,, ,Correctness:,0.9075,0.9075,0,, ,Correctness:,0.0950,0.9050,0,, 
,Correctness:,0.9350,0.9350,0,, ,Correctness:,0.6975,0.6975,1,, ,Correctness:,0.9350,0.9350,0,, ,Correctness:,0.0675,0.9325,0,, 
,Correctness:,0.8550,0.8550,0,, ,Correctness:,0.6100,0.6100,1,, ,Correctness:,0.8550,0.8550,0,, ,Correctness:,0.1350,0.8650,0,, 
,Correctness:,0.9300,0.9300,0,, ,Correctness:,0.6150,0.6150,1,, ,Correctness:,0.9300,0.9300,0,, ,Correctness:,0.0725,0.9275,0,, 
,Correctness:,0.9475,0.9475,0,, ,Correctness:,0.6600,0.6600,1,, ,Correctness:,0.9475,0.9475,0,, ,Correctness:,0.0550,0.9450,0,, 
,Correctness:,0.8988,0.8988,0,, ,Correctness:,0.6238,0.6238,1,, ,Correctness:,0.8988,0.8988,0,, ,Correctness:,0.1000,0.9000,0,, 
,Correctness:,0.9387,0.9387,0,, ,Correctness:,0.5988,0.5988,1,, ,Correctness:,0.9387,0.9387,0,, ,Correctness:,0.0600,0.9400,0,, 
,Correctness:,0.9287,0.9287,0,, ,Correctness:,0.6625,0.6625,1,, ,Correctness:,0.9287,0.9287,0,, ,Correctness:,0.0737,0.9263,0,, 
,Correctness:,0.8812,0.8812,0,, ,Correctness:,0.6438,0.6438,1,, ,Correctness:,0.8812,0.8812,0,, ,Correctness:,0.1187,0.8812,0,, 
,Correctness:,0.8950,0.8950,0,, ,Correctness:,0.6700,0.6700,1,, ,Correctness:,0.8950,0.8950,0,, ,Correctness:,0.1062,0.8938,0,, 
,Correctness:,0.8950,0.8950,0,, ,Correctness:,0.6562,0.6562,1,, ,Correctness:,0.8950,0.8950,0,, ,Correctness:,0.1075,0.8925,0,, 
,Correctness:,0.9275,0.9275,0,, ,Correctness:,0.8050,0.8050,1,, ,Correctness:,0.9275,0.9275,0,, ,Correctness:,0.0712,0.9287,0,, 
,Correctness:,0.9087,0.9087,0,, ,Correctness:,0.6462,0.6462,1,, ,Correctness:,0.9087,0.9087,0,, ,Correctness:,0.0925,0.9075,0,, 
,Correctness:,0.9113,0.9113,0,, ,Correctness:,0.5700,0.5700,1,, ,Correctness:,0.9113,0.9113,0,, ,Correctness:,0.0900,0.9100,0,, 
,Correctness:,0.9550,0.9550,0,, ,Correctness:,0.6488,0.6488,1,, ,Correctness:,0.9500,0.9500,0,, ,Correctness:,0.0525,0.9475,0,, 
,Correctness:,0.9081,0.9081,0,, ,Correctness:,0.6944,0.6944,1,, ,Correctness:,0.9081,0.9081,0,, ,Correctness:,0.0912,0.9087,0,, 
,Correctness:,0.9406,0.9406,0,, ,Correctness:,0.6956,0.6956,1,, ,Correctness:,0.9406,0.9406,0,, ,Correctness:,0.0587,0.9413,0,, 
,Correctness:,0.8912,0.8912,0,, ,Correctness:,0.7262,0.7262,1,, ,Correctness:,0.8912,0.8912,0,, ,Correctness:,0.1094,0.8906,0,, 
,Correctness:,0.9231,0.9231,0,, ,Correctness:,0.6869,0.6869,1,, ,Correctness:,0.9206,0.9206,0,, ,Correctness:,0.0775,0.9225,0,, 
,Correctness:,0.9144,0.9144,0,, ,Correctness:,0.7069,0.7069,1,, ,Correctness:,0.9131,0.9131,0,, ,Correctness:,0.0881,0.9119,0,, 
,Correctness:,0.9281,0.9281,0,, ,Correctness:,0.6425,0.6425,1,, ,Correctness:,0.9256,0.9256,0,, ,Correctness:,0.0737,0.9263,0,, 
,Correctness:,0.8950,0.8950,0,, ,Correctness:,0.6994,0.6994,1,, ,Correctness:,0.8950,0.8950,0,, ,Correctness:,0.1056,0.8944,0,, 
,Correctness:,0.9150,0.9150,0,, ,Correctness:,0.6906,0.6906,1,, ,Correctness:,0.9200,0.9200,0,, ,Correctness:,0.0806,0.9194,0,, 
,Correctness:,0.9244,0.9244,0,, ,Correctness:,0.6581,0.6581,1,, ,Correctness:,0.9219,0.9219,0,, ,Correctness:,0.0788,0.9213,0,, 
,Correctness:,0.8981,0.8981,0,, ,Correctness:,0.6594,0.6594,1,, ,Correctness:,0.8956,0.8956,0,, ,Correctness:,0.1050,0.8950,0,, 
Average:,0.9108,,,,, Average:,0.6730,,,,, Average:,0.9100,,,,, Average:,0.9089,,,,, 
