65224242263256544246445353445541652626663615445121
FFFFFFFFFFFFFLFFFFFFFFFFFFFFFFFFFFFFLLLLLLLFFFFFFF
61566666666666661522112436525451313253156246356666
FFFLLLLLLLLLLLLLLFFFFFFFFFFFFFFFFFFFFFFFFFFFFLLLLL
25553615653325535356311136625666664423466231655636
FFFFFFFFLLFFFFFFFFFFFFFFFFFFFLLLLLFFFFFFFFFFFFFLLL
11444156666666666666666632122551216646334245455555
FFFFFFFLLLLLLLLLLLLLLLLLFFFFFFFFFFFFFFFFFFFFFFFFFF
65514342344162552456515313133613456426656334626644
FFFFFFFFFFFFFFFFFFFFFFFFFFFFFFFFFFLLFLFFFFFFFFFFFF
16151645115162351255652461312215465211613613421221
FFFFFFFFFFFFFFFFFFFFFFFFFFFFFFFFFFFFFFFFFFFFFFFFFF
24666666366666366621215443153661264442454666666636
FFFFLLLLLLLLLLLLLLFFFFFFFFFFFFFFFFFFFFFFLLLLLLLLLL
63662136412121434454642152434234115136454252662115
LLLLLFFFFFFFFFFFFFFFFFFFFFFFFFFFFFFFFFFFFFFFLLLFFF
24425332626663466236663442422446223664211356344642
FFFFFFFFFLLLLLLLLLLLLLFFFFFFFFFFFFFFFFFFFFFFFFFFFF
65666166666166163563133613631231123544632563261466
FFFFFFLLLLLLLLLLFFFFFFFFFFFFFFFFFFFFFFLFFFFFFFFFLL
43641366461666663131653364542514566666665664122342
FLLFFLLLLLLLLLLLFFFFFFFFFFFFFFFFFLLLLLLLFFFFFFFFFF
11146321645362464244215566633342321132362162464145
FFFFFFFFLFFFFFFFFFFFFFFFFFFFFFFFFFFFFFFFFFFFFLFFFF
56166623153356663314666661665346111355145652551133
FFFFFFFFFFFFFFFFFFFFLLLLLFLLFFFFFFFFFFFFFFFFFFFFFF
41661655313146466666264321214311352466356663536236
FLLLLLFFFFFFFFFLLLLLLLFFFFFFFFFFFFFFLLLFFFFFFFFFFF
43413552161413312611152256636666615354666666166465
FFFFFFFFFFFFFFFFFFFFFFFFFFLLFLLLLLFFFFLLLLLLLLLLLF
63162534313551533265612116466346566425336466646625
LLFFFFFFFFFFFFFFFFLLFFFFFFFFFFFFFFFFFFFFFFLLLLLLLL
56666636666636621666665266422666662636666625666634
LLLLLLLLLLLLLLLLLLLLLLLLLLLLLFLLLLLLLLLLLLFFLLLLLL
14534563412666666666666654155663642514431523151341
FFFFFFFFFFFLLLLFLLLFLLLLFFFFFFFFFFFFFFFFFFFFFFFFFF
14666666655324313552516656656235545535565211256544
FFFFLLLLLFFFFFFFFFFFFFFFFLLFFFFFFFFFFFFFFFFFFFFFFF
66666666666364536321133464666666356666662666651356
LLLLLLLLLLLLLFFFFFFFFFFFFFFLLLLLLLLLLLLLLLLLFFFFFF
16664446666636561561311414652344465552652666666164
LLLLLLLLLLLLLLFFFFFFFFFFFFFFFFFFFFFFFFLFFFFFLLLLLL
21446324361155643512365461336166666666366645654516
FFFFFFFFFFFFFFFFFFFFFFFFLFLLLLLLLLLLLLLLLLFFFFFFFF
66612666663266546366622244426565641426636661666366
LLFFLLLLLLLLLLLLLLLLLFFFFFFFLFFFFFFFFLLLLLLLLLLLLL
23115226614626342456216632636311425226622621545554
FFFFFFFFFFFFFFFFFFFFFLLLLLLLFFFFFFFFFFFFFFFFFFFFFF
55355142424266666266663666626666666553541355323216
FFFFFFFFFFFFFLLLFFLLLLLLLLLLLLLLLLLFFFFFFFFFFFFFFF
63335533342342561355256312515566665214211611161456
LFFFFFFFFFFFFFFFFFFFFFFFFFFFFFLLLLFFFFFFFFFFFFFFFF
52135564222214242345526641666666664522161665666666
FFFFFFFFFFFFFFFFFFFFLFFLLLLLLLLLLLFFFFFLLLLLLLLLLL
62666636666664666466666216666626461542252314144114
LLLLLLLLLLLLLLLLLLLLLLLLLLLLLLLLFFFFFFFFFFFFFFFFFF
36646626662414341213653342666553516212143611545326
FLLLLLLLLLFFFFFFFFFFFFFFFLLFFFFFFFFFFFFFFFFFFFFFFF
16136642153521346226165334222451663541414516166266
FFFLLLFFFFFFFFFFFFFFFFFFFFFFFFFFFFFFFFFFFFFFFFFFLL
35356342144611554242351166666666566666664666634366
FFFFFFFFFFFFFFFFFFFFFFFFLLLLLLLLLLLLLLLLLLLLLLLLLL
55234214166322356462126654356554221131325266163614
FFFFFFFFFFFFFFFFLLLLLLLLLFFFFFFFFFFFFFFFFFFLLLFFFF
35366366665666622664665146441416531651241532111562
FFFLLLLLLLLLLLLLLLLLLLFFFFFFFFFFFFFFFFFFFFFFFFFFFF
21636124253355325162224166443316551636346666665625
FLLLLFFFFFFFFFFFFFFFFFFFFFFFFFFFFFFFFFFLLLLLLLLLFF
66666663666355435262652561315621566662652522262155
LLLLLLLLLLFFFFFFFFFFFFFFFFFFFFFFLLLLLFFFFFFFFFFFFF
52422545262656135662646666243666666666666466352344
FFFFFFFFFFFFFFFFFFFFFFFFFFFFFLLLLLLLLLLLLLLFFFFFFF
45321221666666666633224345133256651556432111425115
FFFFFFFLLLLLLLLLLFFFFFFFFFFFFFFFFFFFFFFFFFFFFFFFFF
33542535265263615224412436234612141361566332456646
FFFFFFFFFFFFFFFFFFFFFFFFFFFFFFFFFFFFFFFFFFFFFLLLLL
35665132513566341663666664621614622366666626666666
FFFFFFFFFFFLLLLFFLLLLLLLFFFFFFFFFFFFLLLLLLLLLLLLLL
54122265332355446234463123666465666655251211611461
FFFFFFFFFFFFFFFFFFFFFFFFFLLLLLLLLLLFFFFFFFFLLFFFFF
66623633416112661366232245555315464316334541515661
LLLFFFFFFFFFFFLLLLLLLLFFFFFFFFFFFFFFFFFFFFFFFFFFFF
23666666513156642665415311221121141643412362316666
LLLLLLLLFFFFFLLFFFFFFFFFFFFFFFFFFFFFFFFFFFFFFFLLLL
53534232251662561463165144353332554423664441231146
FFFFFFFFFFFFFFFFFFFFFFFFFFFFFFFFFFFFFFFFFFFFFFFFFL
13361421445536336666513641452464656165224554664666
FFFFFFFFFFFFFFFFFLLLFFFFFFFFFFFFFFFFFFFFFFFFLLLLLL
54226143253256666514142224653256366666666666516442
FFFFFFFFFFFFFLLLLFFFFFFFFFLFFFFFFLLLLLLLLLLLFFFFFF
54142551555242223116434164322256556362666666144542
FFFFFFFFFFFFFFFFFFFFFFFFFFFFFFFFFFFFLLLLLLLLLFFFFF
56312552625615322234211666636616361236666662666666
FFFFFFFFFFFFFFFFFFFFFFFLLLLLLLLLLLLLLLLLLLLLLLLLLL
66352252466266666665463162666666262624153666666666
FFFFFFFFFLLLLLLLLLLFFLLLLLLLLLLLFFFFFFFFFLLLLLLLLL
21652112521152536666666413356616466666665666644536
FFFFFFFFFFFFFFFFLLLLLLLLLFFFFFFFFLLLLLLLLLLLFFFFFF
66666366166655446115646235232144266666666636626666
LLLLLLLLLLLLFFFFFFFFFFFFFFFFFFFFFFLLLLLLLLLLLLLLLF
32322561443451416332146635342216346236666656326356
FFFFFFFFFFFFFFFFFFFFFFFFFFFFFFFFFFFFFLLLLLFFFFLFFL
65121626656142333652455156612456641456365416446632
LLFFFFFLLFFFFFFFFFFFFFFFFFFFFFFFFFFFFFFFFFFFFFFFFF
35324363625546145462511554343425554225253114211426
FFFFFFFFFFFFFFFFFFLFFFFFFFFFFFFFFFFFFFFFFFFFFFFFLL
61544553643542616355664623564466615266466656626666
FFFFFFFFFFFFFFFFFFFLLLLLLFFLFFLLLFFFLLLLLLLLLLLLLL
46644662666666666662121226623634335423325366122566
LLLLLLLLLLLLLLLLLLFFFFFFFFFFFFFFFFFFFFFFFFFFFFFFFL
51223246232525414525242631212534441466666243611136
LLFFFFFFFFFFFFFFFFFFFFFFFFFFFFFFFFFFFLLLLLLLLFFFFF
24166266242214113646221662366466666163533212356233
FFFFFFFFFFFFFFFFFFFFFFFLLLLLLLLLLLLLLFFFFFFFFFFFFF
13256354112123112413466666666615333652663352245624
FFFFFFFFFFLFFFFFFFFFFLLLLLLLLLFFFFFFFFFFFFFFFFFFFF
22434564153353221255356564113231222513631542521523
FFFFFFFFFFFFFFFFFFFFFFLLLLFFFFFFFFFFFFFFFFFFFFFFFF
11263414554422263362151144351221254542146513424646
FFFFFFFFFFFFFFFFFFFFFFFFFFFFFFFFFFFFFLFFFFFFFFFFFL
51551112115346666526656666666666413652165535126666
FFFFFFFFFFFFFLLLLLLLLLLLLLLLLLLLLFFFFFFFFFFFLLLLLL
66664466666666662666666132662464351544336434152646
LLLLLLLLLLLLLLLLLLLLLLLLLLLFFLLFFFFFFFFFLFFFFFFFFF
66665435635456214626242421553322546513361653255651
FLFFFFFFFFFFLLLLFFFFFFFFFFFFFFFFFFFFFFFFFFFFFFFFFF
31226613313226462421116545444425245613621344241443
FFFFFFFFFFFFFFFFFFFFFFFFFFFFFFFFFFFFFFFFFFFFFFFFFF
35666664666666166666666453144312654354566664656636
FFLLLLLLLLLLLLLLLLLLLLLFFFFFFFFFFFFFFFFFLLLLLLLLLL
62551626465443431326635241145464525552321363236414
FFFFFFFFFFFFFFFFFFFFFFFFFFFFFFLLFFFFFFFFFFFFFFFFFF
66665666466366666266626641611661661344665625444211
LLLLLLLLLLLLLLLLLLLLFFLLLLLLLLLLLLFFFFLLFFFFFFFFFF
66666355614514533134666666666666666662666632261631
LLLLLFFFFFFFFFFFFFFFLLLLLLLLLLLLLLLLLLLLLLLLFFFFFF
45665366566266162666666666616656666352421314414165
FFLLFFLLLLLLLLLLLLLLLLLLLLLLLLLLLLLLFFFFFFFFFFFFFF
66654322422664463665654666666666666666665113546356
LLLFFFFFFFFFFFFFFLLLFFFLLLLLLLLLLLLLLLLLFFFFFFFFFL
61621423556156166661661646616666666666664166656366
FFFFFFFFFFFFFFLLLLLLLLLLLLLLLLLLLLLLLLLLLLLLLLLLLL
54446566266623231423153352641212521655333223152411
FFFFLLLLLLLLFFFFFFFFFFFFFFFFFFFFFFFFFFFFFFFFFFFFFF
66564634246543546661332434266555422322366623666666
LLFFFFFFFFFFFFFFLLLFFFFFFFFFFFFFFFFFFFLLLLLLLLLLLL
34235661665636266336362353662316434142343122454636
FFFFFFFFFFFFFLLLLFLLLLFFFFLLFFFFFFFFFFFFFFFFFFFFFL
15321121632335531415515261433532261212162311121334
FFFFFFFFFFFFFFFFFFFFFFFFFFFFFFFFFFFFFFFFFFFFFFFFFF
25314631456666166661666366636415232444636666111263
FFFFFFFFFFLLLLLLLLLLLLLLLLLLLFFFFFFFFFFFLLLLFFFFFF
52532355632211331314666616215514123266466666666613
FFFFFFFFFFFFFFFFFFFFLLLLLLFFFFFFFFFFFFFLLLLLLLLLLL
31135265466666611663612416154636666663251343613434
FFFFFFFFFFLLLLLLLLLFFFFFFFFFFLLLLLLLLFFFFFFFFFFFFF
66416663663666666662145311612364254512246566631241
FFFFLLLLLLLLLLLLLLLFFFFFFFFFFFFFFFFFFFFFFFFFFFFFFF
66666666662666636321555666646666666666666626625335
LLLLLLLLLLLLLLLFFFFFFFFFFLLLLLLLLLLLLLLLLLLLFFFFFF
52264454553621125615164635543332512554362511645633
FFFFFFFFFFFFFFFFFFFFFFFFFFFFFFFFFFFFFFFFFFFFFFFFFF
61563214266653465213126666153666355453252532414324
FFFFFFFFFFFFFFFFFFFFFFLLLLFFLLLLFFFFFFFFFFFFFFFFFF
63364663611542165531166666324263634333234425211662
LFFFFLLLLFFFFFFFFFFLLLLLLLFFFFFFFFFFFFFFFFFFFFFFFL
23661666666645363662666366436666666666664226655155
FLLLLLLLLLLLFFFLLLLLLLLLLLLLLLLLLLLLLLLLFFFLLFFFFF
62321352321536561662353646662235411666614625343355
FFFFFFFFFFFFLLLLLLLLLFFLLLLLFFFFFFFFFLLLLLFFFFFFFF
41241216662616361514261525122254555266164322353666
FFFFFFFLLLLLFFFFFFFFFFFFFFFFFFFFFFFFFFFFFFFFFFFLLL
22111652355464355516426136161321126125412561666663
FFFFFFFFFFFFFFFFFFFFFFFFFFFFFFFFFFFFFFFFFFLLLLLLLL
66661646666611666666666666666662356666441556345225
LLLLLLLLLLLLFFLLLLLLLLLLLLLLLLLLFFLLLLFFFFFFFFFFFF
56524366661612466666626666466651626266614333626666
FFFFFFLLLLFFFFFLLLLLLLLLLLLLLLFFFFFFLLLFFFFFFFLLLL
65114142155222662662466266146431336522365321126226
FFFFFFFFFFFFFFLLLLLLLLLLLLFFFFFFFFFFFFFFFFFFFFFFFF
66651616666666666515252231141426331165363355543364
LLLLLLLLLLLLLLLLLFFFFFFFFFFFFFFLFFFFFFFFFFFFFFFFFF
54566666666626132566365665512663445323266662643665
FFFLLLLLLLLLFFFFFFLLLLLLLFFFFFFFFFFFFFLLLLLFFFFFFF
11626231335441412312523113133312124313353435424324
FFFFFFFFFFFFFFFFFFFFFFFFFFFFFFFFFFFFFFFFFFFFFFFFFF
56564222162626513251312256623646324652363211542332
FFFFFFFFFFFFFFFFFFFFFFFFFFFFFFLFFFFFFFFFFFFFFFFFFF
44445545114666426666661666666666266666666666324622
FFFFFFFFFFFLLLLLLLLLLLLLLLLLLLLLLLLLLLLLLLLLFFFFFF
45246665666666166666642366566616266646166524412436
FFFFLLLLLLLLLFFFFFLLLLLLLLLLLLLLLLLLFFFFFFFFFFFFFF
45166166664661632216665666566616666566264666466361
FFFFLLLLLLLLLFFFFFFFFFFLLFLLLLLLLLLLLLLLLLLLLLLLLL
13315345433652434566666632425323161116624661546312
FFFFFFFFFFFFFFFFFFLLLLLLLFFFFFFFFFFFFFFFFFFFFFFFFF
66466666666666646666666332543412656545441254666511
LLLLLLLLLLLLLLLLLLLLLLFFFFFFFFFFFFFFFFFFFFFFFLLFFF
16136436321115252141126646564612633562665535516144
FFFFFFFFFFFFFFFFFFFFFFLLFFFFFFLLLFFFFFFFFFFFFFFFFF
36165655225241245436661636666663666662656664662666
FFLLLLFFFFFFFFFFFFFLLLLLLLLLLLLLLLLLLLLLLLLLLLLLLL
15654133643522246536666666316661266515534463666666
FFFFFFFFFFFFFFFFFFFLLLLLLFFFLLLFFFFFFFFFFFLLLLLLLL
24651362153446666662634532624452323266162122655436
FFFFFFFFFFFFFLLLLLLLLFFFFFFFFFFFFFFFFFFFFFFFFFFFFF
23315532366461515431214456666366636662665656662666
FFFFFFFFFFFFFFFFFFFFFFFFFLLLLLLLLLLLLLLLLLLLLLLLLL
34342554214112433366356513356646666641666366324511
FFFFFFFFFFFFFFFFFFFFFFFFFFFFLLLLLLLLLLLLLFFFFFFFFF
51635146646353354464155165624223666666512534255665
FFFFFFFFFFFFFFFFFFFFFFFFFFFFFFFFLLLLLLLFFFFFFFFFFF
66656662656254122532241621133522232456251435236136
LLLLLLLLFFFFFFFFFFFFFFFFFFFFFFFFFFFFFFFFFFFFFFLLLL
36662452354342441625415346666666661366623352532522
FFFFFFFFFFFFFFFFFFFFFFFFLLLLLLLLLLLFFFFFFFFFFFFFFF
53642524545432126335562666666666666666313663366666
FFFFFFFFFFFFFFFFFFFFFFFFLLLLLLLLLLLLLFFFFFFFFLLLLL
23541552352412143332545335136426266666655535346266
FFFFFFFFFFFFFFFFFFFFFFFFFFFFFFFFFFLLLLLFFFFFFFFFFF
12144566531422615666656263316235545153321366266242
FFFFFFFFFFFFFFLFFFLLFFFFFFFFFFFFFFFFFFFFFFLLLLFFFF
43611666666666166662666163155214111216151364423235
FFFFFLLLLLLLLLLLLLLLLLLLLFFFFFFFFFFFFFFFFFFFFFFFFF
54134263445315611452666666666662643454113331266614
FFFFFFFFFFFFFFFFFFFFLLLLFLLLLLLLLFFFFFFFFFFFFFFFFF
46326166626663521423452555623256666666666666366132
FFFFLLLLLLLLLFFFFFFFFFFFFFFFFFFLLLLLLLLLLLLLLLFFFF
53426664545666666666664665634134545355452662224625
FFFFFFLFFFFLLLLLLLLLLLLLLLLFFFFFFFFFFFFFFFFFFFFFFF
35145655211342651563144666665364155131164463212632
FFFFFFFFFFFFFFFFFFFFFFFLLLLLFFFFFFFFFFFFFFFFFFFFFF
32211526632626226252431144245151323225446135632234
FFFFFFFFFFFFFFFFFFFFFFFFFFFFFFFFFFFFFFFFFFFFFFFFFF
46333113666166666665665124363413123451446122431352
LLLFFFFFLLLLLLLLLLLLLLFFFFFFFFFFFFFFFFFFLFFFFFFFFF
66665521236513536666666366656661362246362466666652
LLLLFFFFFFFFFFFLLLLLLLLLLLLLLLLFFFFFFFFFFFLLLLLLLL
15332366666266666443366652616666466666633153136666
FFFFFFLLLLLLLLLLLLLFLLLLLLLLLLLLLLLLLLLFFFFFLLLLLL
41535222241113223346566462521243525544666666166566
FFFFFFFFFFFFFFFFFFFFFFLLLFFFFFFFFFFFFFLLLLLLLLLLLL
31632166666666666632643532414313414461266614334314
FFFFFFLLLLLLLLLLLLLLFFFFFFFFFFFFFFFFFFFLLLLLLFFFFF
42461543543354433123122533111522366446226643652366
FFFFFFFFFFFFFFFFFFFFFFFFFFFFFFFFFFLFFFFFFFFFFFFFLL
43244266141141424326115411532635565122253465541625
FFFFFFLLLLLFFFFFFFFFFFFFFFFFFFFFFFFFFFFFFFFFFFFFFF
66512223524212535665426361516416141315433514664126
FFFFFFFFFFFFFFFFFFLFLLLFFFFFFFFFFFFFFFFFFFFFFLFFFF
61162135111533456146532234126666664666666666616164
LFFFFFFFFFFFFFFFFFFFFFFFFFFFFLLLLLLLLLLLLLLLLLLFFF
54662666666516263266633431154666666244653512224114
FFLLLLLLLLFFFFFFFFFFFFFFFFFFFLLLLLLFFFFFFFFFFFFFFF
66666653316666666666465365333232222135316653311326
LLLLLFFFFFLLLLLLLLLLLLLLLLLLFFLLFFFFFFFFFFFFFFFFFF
36452421426213446522632661566266364241616446616626
FFFFFFFFFFFFFFFFLFFFFFFFFFFFLLLLLLFFFFFFFFFFFFLLFL
66266666666466666566666356565453566466646366644556
FLLLLLLLLLLLLLLLLLLLLLLFFFFFFFFFFLLLLLLLLLLLFFFFFL
66663662666666645255354546441113435516665312216622
FLLLLFFFLLLLLLLFFFFFFFFFFFFFFFFFFFFFFLLLFFFFFLLLLL
26252566655266322126666666626666626666663126656616
FFFFFFFFFFFFFFFFFFLLLLLLLLLLLLLLLLLLLLLLLLLLLLLLLL
41651612333153366326434331624166231366666346666661
FFFFFFFFFFFFFFFFFFFFFFFFFFFFFFFFFFFFLLLLLFFLLLLLLL
51625423513145616131156341325666453666654642516122
FFFFFFFFFFFFFFFFFFFFFFFFFFFFFLLLLLLLLLLFFFFFFFFFFF
16462262564622246542364343643614666125466666666616
FFFFFFFFFFFFFFFFFFFFFFFLLLLLFFFFFLLFFFFLLLLLLLLLLL
41265564445211226434412346666663646665416122366635
FFFFFFFFFFFFFFFFFFFFFFFFLLLLLLLLLLLLLFFFFFFFFFFFFL
56551122356666566665666626316151465235312445634265
FFFFFFFFLLLLLLLLLLLFLLLLFFFFFFFFFFFFFFFFFFFFFFFFFF
34556641442343325666466666333644433662443544521142
FFFFFFFFFFFFFFFFFFFFFLLLLLLFFFFFFFFFFFFFFFFFFFFFFF
26212332666665434123614666664665646316166656666664
FFFFFFFFLLLLLFFFFFFFFFFLLLLLFFFFFFFFFLLLLLLLLLLLLL
26252636541352545256466533215513266223434413355212
FFFFFLFFFFFFFFFFFFFFFFFFFFFFFFFFFFLFFFFFFFFFFFFFFF
31661215213653235453126654122462344645235122626566
FFFFFFFFFFFFFFFFFFFFFFLLFFFFFFFFFFFFFFFFFFFFLLLLLL
33641216544454665544166626666666666666666646666466
FFFFFFFFFFFFFFLLFFFFFLLLFLLLLLLLLLLLLLLLLLLLLLLLLL
23666166645611361436661163661433335654263155416255
FFFLLLLLLFFFFFFFFFFFLLFFFFFFFFFFFFFFFFFFFFFFFFFFFF
46665666234561355254533261445421466525511162123523
FLLLLLLLFFFFFFFFFFFFFFFFFFFFFFFFFFFFFFFFFFFFFFFFFF
41341325265544426666416661664215455453541424661666
FFFFFFFFFFFFFFFFLLLLLLLLLFLLFFFFFFFFFFFFFFFFFFFLLL
26366666665532463254223323545116451526666666666664
FFFLLLLLLLFFFFFFFFFFFFFFFFFFFFFFFFFFFFLLLLLLLLLLLF
26166666666665666646646616666646666661666364554436
LLLLLLLLLLLLLLLLLLLLLLLLLLLLLLLLLLLLLLLLLLLFFFFFFF
66666264126654636124355251666646666642362524354664
LLLLLFFFFFFFFFFFFFFFFFFFFFLLLLLLLLLFFFFFFFFFFFFFFF
11426436541331366362344653353455132654262454246666
FFFFFFFFFFFFFFFFFFFFFFFFFFFFFFFFFFFFFFFFFFFFFFLLLF
24226522211211626666266653164665362211466624465322
FFFFFFFFFFFFFFFFFLLLLLLLFFFFFLLFFFFFFFFFFFFFFFFFFF
25225613236615661665662123265612144543431421566622
FFFFFFFFFFFFFFLLFFFFFFFFFFFFFFFFFFFFFFFFFFFFFLLLLL
56664545314352553426241355242466662666666243322453
FFFFFFFFFFFFFFFFFFLLLLFFFFFFFFLLLLLLLLLLLFFFFFFFFF
66666666665666666666643426452261666645232616131655
LLLLLLLLLLLLLLLLLLLLLLLFFFFFFFFFFFFFFFFFFFFFFFFFFF
41163526665364666666656666663666666635466666316322
FFFFFFFLLLLLLLLLLLLLLLLLLLLLLLLLLLLLLLLLLLFFFFFFFF
16651565522333461465554541161656334155151564443323
FFFFFFFFFFFFFFFFFFFFFFFFFFFLFLLLFFFFFFFFFFFFFFFFFF
46512334466623666626666656656666666642462666665666
FLFFFFFFFFLLFFLLLLLLLLLLLLLLLLLLLLLLLLLLLLLLLLLLLL
56642235554624233443334665656666441112666666636524
LLLLFFFFFFFFFFFFFFFFFFFFFFFFLLLLLFFFFLLLLLLLLFFFFF
66566636666613564516241654363663124566253521244421
FLLLLLLLLLLLFFFFFFFFFFFFFFFFFFFFFFFFFFFFFFFFFFFFFF
66636666666666665665662646643336666166666143154666
LLLLLLLLLLLLLLLLLLLLLLLLLLLFFFFLLLLLLLLLLFFFFFFLLL
16154532663666143666366216663666666636666666662636
FFFFFFFLLLLLLLFFFLLLLLLLLLLLLLLLLLLLLLLLLLLLLLLLLL
21524561666226516656233126126662121413152323223132
FFFFFFFFFFFFFFFFFFFFFFFFFLLLLLLFFFFFFFFFFFFFFFFFFF
66266254356332113622223326666643666666626466662666
LLLLLFLFFFFFFFFFFFFFFFFFFLLLLLLLLLLLLLLLLLLLLLLLLL
66665513523441245415622661632463122662643233451162
LLLLFFFFFFFFFFFFFFFFFFLLFFFFFFFFFFFFFFFFFFFFFFFFFF
54564644344215112641365256432623212342233252222666
FFFLFFFFFFFFFFFFFFFFFFFFFFFFFFFFFFFFFFFFFFFFFFFLLL
36666631126234566422643454416466664135616361511651
FFFFFFFFFFFFFFFFFFFFFFFFFFFFFFLLLLLFFFLLLFFFFFFFFF
56351433413546461352562561526666566642465646565166
FFFFFFFFFFFFFFFFFFFFFFFFFFFFLLLLLLLLFFFLFFFFFFFFLL
46564111136142665656512366261266653251365221641344
FFFFFFFFFFFFFFFLLLLFFFFFFFFLLLLLFFFFFFFFFFFFFFFFFF
63344636641416666651264536331233456656114114154632
FFFFFLFFFFFFFLLLLLFFFFFFFFFFFFFFFFFFFFFFFFFFFFFFFF
53156666264246666643342131136162666145535155355466
FFFFFFFFFFFLLLLLLLFFFFFFFFFFFFLLLLFFFFFFFFFFFFFFFF
66664465664666661625244343522253323234231556655666
LLLLLLLLLLLLLLLLFFFFFFFFFFFFFFFFFFFFFFFFFFLLLLLLLL
22265666623611632231426114666616253413655244134663
FFFFLLLLLFFFFFFFFFFFFFLLLLLLLFFFFFFFFFFFFFFFFFFFFF
66616166666532166666631565216424666662523552654313
LLLLLLLLLLLLFFFLLLLLFFFFFFFFFFFFLLLLLFFFFFFFFFFFFF
22465356114265211125252321664353252412426436266213
FFFFFFFFFFFFFFFFFFFFFFFFFFFFFFFFFFFFFFFFFFFFFFFFFF
21441164265642336634322165213536165634465466511132
FFFFFFFFFFFFFFFFFFFFFFFFLFFFFFFLLLFFFFFFFFFFFFFFFF
25322355342513464551331246352632235654445613364433
FFFFFFFFFFFFFFFLFFFFFFFFFFFFFFFFFFFFFFFFFFFFFFFFFF
16222326556666566543441365516552626566666666661424
FFFFFFFFFFLLLLLLFFFFFFFFFFFFFFFFFFLLLLLLLLLLLLFFFF
36666442552364611552662645414151612255425436265632
LLLFFFFFFFFFFFFFFFFFFFFFFFFFFFFFFFFFFFFFFFFFFFFFFF
66666626522664235466146623116666663632516624344454
LLLLLLLLFFFFFFFFFLLLFFFFFFFFFFLLLLLFFFFFFFFFFFFFFF
23116242565656536222421243311443463266266564562114
FFFFFFFFFFFFFFFFFFFFFFFFFFFFFFFFFFFFLLLLLLFFFFFFFF
42656636666666666462243435123666164262144636455661
FFFFFFFLLLLLLLLLLFFFFFFFFFFFFLFFFFFFFFFFFFFFFFFFFF
33155165311566141232214111615122541566536425424512
FFFFFFFFFFFFFFFFFFFFFFFFFFFFFFFFFFFFFFFFFFFFFFFFFF
63645121634523256324455425253152645233352666263346
FFFFFFFFFFFFFFFFFFFFFFFFFFFFFFFFFFFFFFFFFLLLLLLLLL
31544532122224366363414366666634366663316456666666
FFFFFFFFFFFFFFFFFFFFFFFFLLLLLLFFFLLLLFFFFFFLLLLLLL
14336352532452341654622324122221246244211422115646
FFFFFFFFFFFFFFFFFFFFFFFFFFFFFFFFFFFFFFFFFFFFFFFFFF
46166643243425155214145665166614335131266666666662
LLLLLLFFFFFFFFFFFFFFFFFFFFFLLLLFFFFFFFFLLLLLLLLLLL
24466661442566661664212633261446535364436636665666
FFFLLLLFFFFFFLLLLLFFFFFFFFFFFFFFFFFFFFFFLLLLLLLLLL
36142355465365131446566413652446362626122614262254
FFFFFFFFFFFFFFFFFFFLLLLFFFFFFFFFFFFFFFFFFFFFFFFFFF
23536666656666666633634464332312426666666566422666
FFFFLLLLLLLLLLLLLFFFFFFFFFFFFFFFFLLLLLLLLLLLFFFLLL
16166651466666666613666616666214124126666646166666
FLLLLLFFFFLLLLLLLLLLLLLLLLLLLFFFFFFFFLLLLLLLLLLLLL
21132666662113366446361366633445135152641225643546
FFFFFLLLLLFFFFFFFFFFFFFFLLLFFFFFFFFFFFFFFFFFFFFFFF
35552256212656312514554332312666234332253563664451
FFFFFFFFFFFFFFFFFFFFFFFFFFFFFFFFFFFFFFFFFFFFFFFFFF
32353441546666664366666666666662566656446312133135
FFFFFFFFFFFLLLLLLLLLLLLLLLLLLLLFFFLFFFFFFFFFFFFFFF
25126323264114565443615135213413114666566166163352
FFFFFFFFFFFFFFFFFFFFFFFFFFFFFFFFFFFLLLLLLLLLLFFFFF
65222361235545661651132111311643362251521311526616
FFFFFFFFFFFFFFFFFFFFFFFFFFFFFFFFFFFFFFFFFFFFFFLLLL
66645665666666666424656544546345245256263664266666
LLLLLLLLLLLLLLLLLFFFFFFFFFFFFFFFFFFFFFFLFFFFFLLLLL
24351553536625125623551646646655212644456666665651
FFFFFFFFFFFFFFFFFFFFFFFFFFLLLLLFFFFFFFFFFLLLLLFFFF
22246262311366332452145355666323413112556665645642
FFFLLLLFFFFFFFFFFFFFFFFFFFLLLFFFFFFFFFFFLLLFFFFFFF
66666664161416166166655666665366666666634156326465
LLLLLLLFFFFFFFFFLLLLLLLLLLLLLLLLLLLLLLLFFFFFFFFFFF
36666466216661666666666661266645145442511145616616
FLLLLLLLFFLLLLLLLLLLLLLLLLFLLLFFFFFFFFFFFLLLLLLLFL
12342224122245253663666626346666656666512655113642
FFFFFFFFFFFFFFFFFLLLLLLLLLLLLLLLLLLLLLFFFFFFFFFFFF
66666666666661355241224416666656636666366266622134
LLLLLLLLLLFFFFFFFFFFFFFFFLLLLLLLLLLLLLFFLLLLFFFFFF
36363616466355636666664634651615422632666566656266
FFFFFFFFFFFFFFLLLLLLLLLLFFFFFFFFFFFFFLLLLLLLLLLLLL
55363466663666666266466622212126242162114636656432
FFFFFFLLLLLLLLLLLLLLLLLLLFFFFFFFFFFFFFFFFFFFFFFFFF
56216446664463666666466666166666666666166636533423
FFFFLLLLLLLLLLLLLLLLLLLLLLLLLLLLLLLLLLLLLLFFFFFFFF
11321643661224412632245364223625441323142153326151
FFFFFFFFFFFFFFFFFFFFFFFFFFFFFFFFFFFFFFFFFFFFFFFFFF
66666612114521612162553125666661332641364251111616
LLLLLLFFFFFFFFFFFFFFFFFFFFLLLLLLFFFFFFFFFFFFFFFFFF
43111264341443316164446446161553134466666666423654
FFFFFFFFFFFFFFFFFFFFFFFFFFFFFFFFFFFFLLLLLLLLFFLLFF
25616122313215331334535666666666666666546666666511
FFFFFFFFFFFFFFFFFFFFFFFFLLLLLLLLLLLLLLLLLLLLLLLLFF
15163614661254414514644342166233656616554131621256
FFFFFFFFFFFFFFFFFFFFFFFFFFFFFFFFFFFFFFFFFFFFFFFFFF
26666541133432334235155531445216112441531644263623
FLLLFFFFFFFFFFFFFFFFFFFFFFFFFFFFFFFFFFFFFLLFLFFFFF
66665131261516615656666656341131666646663622661663
LLLLFFFFFFFFFFFFFLLLLLLLLLFFFFFLLLLLLLLLLLLLLLLLLL
66616566666663621464466666654666632526323663525155
LLLLLLLLLLLLLLLFFFFFFLLLLLLLLLLLLFFFFFFFFFFFFFFFFF
41253541113365324423651463544323654663414162256244
FFFFFFFFFFFFFFFFFFFFFFFFFFFFFFFFLFFFFFFFFFFFFFFFFF
12414666536542513155432226444616156626515241364521
FFFFFLLLFFFFFFFFFFFFFFFFFFFFFFFFFFFFFFFFFFFFFFFFFF
16335655632115442555442651116666666666636666666431
FFFFFFFFLFFFFFFFFFFFFFFFFFFFLLLLLLLLLLLLLLLLLLLFFF
42666623522514613232164634621461351441354343121525
FFLLLLFFFFFFFFFFFFFFFFFFFFFFFFFFFFFFFFFFFFFFFFFFFF
54564413566112351641453646362665646632633656261422
FFFFFFFFFFFFFFFFFFFFFFFFFFFFFFFFFLLLFFFFFFFFFFFFFF
54536661535433454543625224463534216622146366666666
FFFFFFFFFFFFFFFFFFFFFFFFFFFFFFFFFFFFFFFFLLLLLLLLLL
66666666251451353612422433151266622626666144134465
LLLLLLLLFFFFFFFFFFFFFFFFFFFFFFLLLFFFLLLLLFFFFFFFFF
36666666666666666666666666346663314153151561526231
LLLLLLLLLLLLLLLLLLLLLLLLLLLLLLLLFFFFFFFFFFFFFFFFFF
43261456646662665666665666666466666662661666161533
FFFFFFFLLLLLLLLLLLLLLLLLLLLLLLLLLLLLLLLLLLLLFFFFFF
36466665626666656426662563553113313252412562142533
LLLLLLLLLLLLLLLLLLLLLLFFFFFFFFFFFFFFFFFFFFFFFFFFFF
65666666416623621236535516562365233263654535365661
FFLLLLLLLFFFFFFFFFFLLLLFFFFFFFFFFFFFFFFFFFFFLLLFFF
11223512411325235345232366255263345566426632643133
FFFFFFFFFFFFFFFFFFFFFFFFLLFFFFFFFFFFLLFFFLFFFFFFFF
61626636366665665666141466163451632662224561163666
LLLLLLLLLLLLLLLLLLLLLFFFFFFFFFFFFFFFFFFFFFFFFFFFLL
42625341433226662666361141361162412562456163631134
FFFFFFFFFFFFFFFFFLLLFFFFFFLLLFFFFFFFFFFFFFFFFFFFFF
46666542632344611546552266266666626451413513111456
LLLLFFFFFFFFFFFFFFFFFFFFFFFLLLLLLLLFFFFFFFFFFFFFFF
45154243531462346142256131433516666556616634432242
FFFFFFFFFFFFFFFFFFFFFFFFFFFFFFFLLLLLLLLFFFFFFFFFFF
62421126526154561315634246666324466666611335515316
FFFFFFFFFFFFFFFFFFFFFFFFFLLLLFFFFLLLLLLFFFFFFFFFFF
14626136666666446666663366626362666413666411553446
FFLLLLLLLLLLLLLLLLLLLLLLLLLFLLLLLLLLLLLLLLFFFFFFFF
66664665666666466666661665654165216666656124266666
LLLLLLLLLLLLLLLLLLLLLLFLLFFFFFFFFFLLLLLFFFFFFLLLLL
51666664666666665151536313565352116421645446666455
FFLLLLLLLLLLLLLLFFFFFFFFFFFFFFFFFFFFFFFFFFFFLLLLFF
12561116624262442136141231366225663266626626666666
FFFFFFFFFFFFFFFFFFFFFFFFFFFFFFFFLLLLLLLLLLLLLLLLLL
32126246522236465626513421326244161334651246666352
FFFFFFFFFFFFFFFFFFFFFFFFFFFFFFFFFFFFFFFFFFFFFFFFFF
34544535313243414563251543245341641355236161464243
FFFFFFFFFFFFFFFFFFFFFFFFFFFFFFFFFFFFFFFFFFFFFFFFFF
51451544142336156646641666166666665663466665666631
FFFFFFFFFFFFFFFFFLLLLLLLLLLLLLLLLLLLLLLLLLLLLLLLFF
63223453261163562622661464413426556645631543514164
FFFFFFFFFFFFFFFFFFFFFFFFFFFFFFFFFFFFFFFFFFFFFFFFFF
45632466666325646516166456253366516144356164553653
FFFFFFFLLLLFFFFFFFFFFFFFFFFFFFLLFFFFFFFFFFFFFFFLLL
64153554551221456666642352642332256656666666564646
FFFFFFFFFFFFFFFFLLLLLFFFFFFFFFFFFFLLLLLLLLLLLLLLLL
64245154225564366321342455444151436666666664633344
FFFFFFFFFFFFFFFFFFFFFFFFFFFFFFFFFFLLLLLLLLLFFFFFFF
24431654343342424563636366242253415243142226666666
FFFFFFFFFFFFFFFFFFFFLLLLLLFFFFFFFFFFFFFFFFFFLLLLLL
52322512653535526342136513623531126132462666126662
FFFFFFFFFFFFFFFFFFFFFFFFFFFFFFFFFFFFFFFLLLLLLLLLLF
11534211245416514566663665662666666646652533124134
FFFFFFFFFFFFFFFFFFLLLLLLLLLLLLLLLLLLLLLFFFFFFFFFFF
63663232266324643166424235435213544626616622533566
LLLLFFFFFFFFFFFFFFFFFFFFFFFFFFFFFFFFFLLFFFFFFFFFLL
61516646512132322144222451326444331665332343665235
FFFFFFFFFFFFFFFFFFFFFFFFFFFFFFFFFFFLLLFFFFFFLLLFFF
33233443556615341361111224436226633442654325441442
FFFFFFFFFFFFFFFFFFFFFFFFFFFFFFFFFFFFFFFFFFFFFFFFFF
56455344352162166515225566132612361614456613436632
FFFFFFFFFFFFFFFFFFFFFFFFFFFFFFFFFFFFFFFFFFFFFFFFFF
51255253353434124225225363436666661626665453312352
FLLFFFFFFFFFFFFFFFFFFFFFFFFFFLLLLLLLLLLFFFFFFFFFFF
23633625336566666616615646341353442514665666663666
FFFFFFFFFFFFFLLLLLLLLLLLFFFFFFFFFFFFFFLLLLLLLLFLLL
13646531466162543325346166524312343666566661526241
FFFFFFFFFFFFFFFFFFFFFFFFFFFFFFFFFFLLLLLLLFFFFFFFFF
45531225455321642322654543366663266666665461662322
FFFFFFFFFFFFFFFFFFFFFFFFFFFLLLLLLLLLLLFFFFFFFFFFFF
66661662354564333411366464445234331346346636616563
LLLLFFFFFFFFFFFFFFFFFFFFFFFFFFFFFFFFFFFFLLLLLLLLLF
65466666666623441524522232265616666666666666663466
LLLLLLLLLLLLLFFFFFFFFFFFFFFFFFFLLLLLLLLLLLLLLLFFFL
55421534131234443345266314152666561325161666666661
FFFFFFFFFFFFFFFFFFFFFFFFFFFFFFFFFFFFFFFFFLLLLLLLLL
66662525343212563216355234223213161532636666666646
LLLLFFFFFFFFFFFFFFFFFFFFFFFFFFFFFFFFFFLLLLLLLLLLLL
65123155515614515641363332666636662654133633564614
FFFFFFLFFFFFFFFFFFFFFFFFFFFLLLLLLLLLFFFFFFFFFFFFFF
61261666416665646666664666266666636666656666626216
FFFFFLLLLLLLLLLLLLLLLLLLLLLLLLLLLLLLLLLLLLLLLFFFFF
34344666565311615551666634635221334361656241666666
FFFFLLLLFFFFFFFFFFFFFFFFFFFFFFFFFFFFFFFFFFFFLLLLLL
54213524645161166616666663266316164112511323234351
FFFFFFFFFFFFFFFLLLLLLLLLLFFFFFFFFFFFFFFFFFFFFFFFFF
46334344666666666545232526616652561666626626555113
FFFFFFFFLLLLLLLLLFFFFFFFFFFFFFFFFFFFFFFFFFFFFFFFFF
66666656666666666664666626645666666666364666666266
LLLLLLLLLLLLLLLLLLLLLLLLLLLLLLLLLLLLLLLLLLLLLLLLLL
14543563444541216262646666666661144666664466446216
FFFFFFFFFFFFFFFFFLLFLLLLLLLLLLLFFFFLLLLLFFFFFFFFFF
61163425522342346413441162221335125624312661632512
FFFFFFFFFFFFFFFFFFFFFFFFFFFFFFFFFFFFFFFFFFFFFFFFFF
15112246664636555214414436262666666666666666666666
FFFFFFFLLLLLLLFFFFFFFFFFFFFFFLLLLLLLLLLLLLLLLLLLLL
34466666616666466546666625264164163664253354633414
FFLLLLLLLLLLLLLLLFFLLLLLFFFLFFLLLLLLLLLFFFFFFFFFFF
11352212246666566666666641453225266662225153321531
FFFFFFFFFFLLLLLLLLLLLLLLLFFFFFFFFLLLLFFFFFFFFFFFFF
22524366666666663665266466665666626166666666266466
FFFFFFLLLLLLLLLLLLLLLLLLLLLLLLLLLLLLLLLLLLLLLLLLLL
45666664666443314561256524255223243243522541166666
FFLLLLLLLLLLFFFFFFFFFFFFFFFFFFFFFFFFFFFFFFFFFLLLLL
62635426446266663661535526616534453151166332421164
LFFFFFFFFFLLLLLFFFFFFFFFFFFFFFFFFFFFFFFFFFFFFFFFFF
66666166666515526444653331615353261265633122434621
LLLLLLLLLLLLFFFFFFFFFFFFFFFFFFFFFFFFFFFFFFFFFFFFFF
44411554145144153451232663433456212655456166516265
FFFFFFFFFFFFFFFFFFFFFFFLLFFFFFFFFFFFFFFFFFFFFFFFFF
65326666666664566631442463354221541654163263142153
FFFFLLLLLLLLLFFFFFFFFFFFFFFFFFFFFFLLFFFFFFFFFFFFFF
62445626166366366333224511346261212331266166666662
LFFFFFFFFFFFLLLLLFFFFFFFFFFFFFFFFFFFFFFLLLLLLLLLLL
54223536613534123653242666666666666666645213512636
FFFFFFFFFFFFFFFFFFFFFFFFFLLLLLLLLLLLLLLLFFFFFFFFFF
51541341466662536366666666666666466636565666116666
FFFFFFFFFFLLLLLLLFLLLLLLLLLLLLLLLLLLLLLLLLLLLLLLLL
44266121111136666322114523666662655453344142153351
FFFFFFFFFFFFFLLLLFFFFFFFFFLLLLLLLFFFFFFFFFFFFFFFFF
26652345111463256126116663622526136226666645564415
FFFFFFFFFFFFFFFFFFFLLLLLLFFFFFFFFFFFFFFLLLFFFFFFFF
46653336656666616316454244466665531441335266636543
FLLFFFLLLLLLLLLFFFFFFFFFFFFLLLLFFFFFFFFFFFLLLLLFFF
66366636646531162614166666554523252636666666666666
LLLLLLLLLLLFFFFFFFFFFLLLLLFFFFFFFFFFFLLLLLLLLLLLLL
33643441535132326666625242323344625666666666262653
FFFFFFFFFFFFFFFFLLLLLLFFFFFFFFFFFFFLLLLLLLLLLLLFFF
22334116666435253543543123425514224422256635466666
FFFFFFFFLLLFFFFFFFFFFFFFFFFFFFFFFFFFFFFFFFFFFLLLLL
26651123366636566664141644224154112224322351643146
FFFFFFFFFLLLLLLLLLLLLFFLFFFFFFFFFFFFFFFFFFFFFFFFFF
66644246231124343311154366542366134122361661652353
LLLFFFFFFFFFFFFFFFFFFFFFFFFFFFFFFFFFFFFFFFFFFFFFFF
26564326616661215441526666656626666666266663312261
FFFFFFFFFFFFFFFFFFFFFFLLLLLLLLLLLLLLLLLLLLLLFFFFFF
53426636466626266626312126443416666666566666366665
FFFFLLLLLLLLLFFLLLLLFFFFFFFFFFFLLLLLLLLLLLLLLLLLLL
66636161655124462661665666666632656666656666563263
LLLLLLLLLFFFFFLLLLLLLLLLLLLLLLLLLLLLLLLLLLLLLFFFFF
66655626261253244344146214153224241633461554251333
LLLLLLLLFFFFFFFFFFFFFFFFFFFFFFFFFFFFFFFFFFFFFFFFFF
42232521611314665464152626662466464662666666655463
FFFFFFFFFFFFFFFFFFFFLLLLLLLLLLLLLLLLLLLLLLLLLLLLLL
12123366156223522523246456665616334613566166431424
FFFFFFLLFFFFFFFFFFFFFFFFFFFFFFFFFFFFFFFLLLLLLFFFFF
66466666666611632546366365163354141525235465266423
FFFLLLLLLLLLLFFFFFFFFLLLLFFFFFFFFFFFFFFFFFFFFFFFFF
65455542235116443242561364314266666531135341456262
FFFFFFFFFFFFFFFFFFFFFFFFFFFFFFLLLLLLFFFFFFFFFFFFFF
56634325163316245312241452562666666666665626665666
FFFFFFFFFFFFFFFFFFFFFFFFFFLLLLLLLLLLLLLLLLLLLLLLLL
12143245551633511261666566666656331115624566141166
FFFFFFFFFFFFFFFFFFFFFFLLLLLLLFFFFFFFFFFFFFFFFFFFFF
66616664666656661266366132413224642235526666666661
LLLLLLLLLLLLLLLLLLLLLLLFFFFFFFFFFFFLFFFFLLLLLLLLLL
15646666661666666661446152311551513644666666666664
FFLLLLLLLLLLLLLLLLLLFFFFFFFFFFFFFFFLLLLLLLLLLLLLLL
64466662123262514624251535131313335124266164514542
FFFFFFFFFFFFFFFFFFFFFFFFFFFFFFFFFFFFFFFFFFFFFFFFFF
24645122213412356644313215636153121446532212311563
FFFFFFFFFFFFFFFFFFFFFFFFFFFFFFFFFFFFFFFFFFFFFFFFFF
51556441666616666211116555166632125661233522356526
FFFFFFFFFFLLLLLLLFFFFFFFFFLLLLLFFFFFFFFFFFFFFFFFFL
26652666466664666666662426566666666642654221621564
FFFFFLLLLLLLLLLLLLLLLLLFLLLLLLLLLLFFFFFFFFFFFFFFFF
66656666656264135421666662442416546566355316566666
LLLLLLLLLLLFFFFFFFFLLLLLLLFFFFFFFFFFFFFFFFFFFLLLLL
65226434556166462241323421664645465461423331622222
LFFFLLLFFFFFFFFFFFFFFFFFFFFFFFFFFFFFFFFFFFFFFFFFFF
66666466523226262566651616653626151666541116166112
LLLLFFFFFFFFFFFFFFLLLFFFFFFFFFFFFFFLLLFFFFFFFFFFFF
25453655266616666666633666466526661233246661666666
FFLFFFFLLLLLLLLLLLLLLLLLLLLLLLLLLLFFFFFFLLLLLLLLLL
64245124554514534266164262663362236263453654134533
FFFFFFFFFFFFFFFFFFFFFFFFFFFFFFFFFFFFFFFFFFFFFFFFFF
16216266655122654655651541456664661666666666663652
LLLLLLLLFFFFFFFFFFFFFFFFFFFFFFLLLLLLLLLLLLLLLLFFFF
66666646666656542642315666622222446566666665563421
LLLLLLLLLFFFFFFFFFFFFFLLLLLFFFFFFFLLLLLLLLLFFFFFFF
34164155266346341621412234434266262656462455664666
FFFFFFFFFFFFFFFFFFFFFFFFFFFFFFFFFFFFFFLLFFFFLLLLLL
35362334665666164562666666666662165166616666311266
FFFLFFFFLLLLLLFFFFFFLLLLLLLLLLLFFFFFLLLLLLFFFFFFLL
66626245344136614266666316666611521566162666666234
LLLFFFFFFFFFFFFFFFLLLLLLFLLLLLFFFFFFFFFLLLLLLLLLFF
66455441632411434466666255645155365461411541366666
LLFFFFFFFFFFFFFFFFLLLLLLFFFFFFFFFFFFFFFFFFFFFLLLLL
33611266536541226114244652412266666656166365666646
FFFFFFFFFFFFFFFFFFFFFFFFFFFFFLLLLLLLLLLLLLLLLLLLLL
66666556666666622666642466423365412166266661666666
LLLLLLLLLLLLLLLLLLLLLLLLLLFFFFFFFFFFLLLLLLLLLLLLLL
66666423656636636666626666615666113463461433214551
LLLLLLLLLLLLLLLLLLLLLLLLLLLLFLLLLFFFFFFFFFFFFFFFFF
56336153112352564645334555265632466663646626662114
FFFFFFFFFFFFFFFFFFFFFFFFFFFFFFFFLLLLLLLLLLLLLLFFFF
41666661112434466566664616666662616365666661133641
FFFFFLLFFFFFFFFFFLLLLLLLLLLLLLLLLLLLLLLLLLLLFFFFFF
43461266362666634661664666666666666646666666666353
FFFFFFFFFFFLLLLFLLLLLLLLLLLLLLLLLLLLLLLLLLLLLLLFFF
66364634665624461426465561134351122554532212125542
LFFFFFFFFFFFFFFFFFFFFFFFFFFFFFFFFFFFFFFFFFFFFFFFFF
66656214446464442215641435151421543455635542635666
LLFFFFFFFFFFFFFFFFFFFFFFFFFFFFFFFFFFFFFFFFFFFFFFLL
66166666661666666666666166324353614354614614663642
LLLLLLLLLLLLLLLLLLLLLLFFFFFFFFFFFFFFFFFFFFFFFFFFFL
33563311363356325266356635666636626666636666462666
FFFFFFFFFFFFFFFFFFLLLLLLLLLLLLLLLLLLLLLLLLLLLLLLLL
66663666411351626666352233112356514436652566356446
LLLLLLLLFFFFFFLLLLLLLLLFFFFFFFFFFFFFFFFFFFFFFFFFFL
12616414213264635613261542652444265531154664666366
FFFFFFFFFFFFFFFFFFFFFFFFFFFFFFFFFFFFFFFFFLLLLLLFFF
66616321346313415631665645366666636666663666666623
LLLFFFFFFFFFFFFFFFFLLLLLLLLLLLLLLLLLLLLLLLLLLLLLFF
15514352545615455623646665635652412253326611236636
FFFFFFFFFFFFFFFFFFFFFFLLLFFFFFFFFFFFFFFFLFFFLLLLLL
52352155311624451511454461361251444356436153131514
FFFFFFFFFFFFFFFFFFFFFFFFFFFFFFFFFFFFFFFFFFFFFFFFFF
66661244251324233313154433131426656566566626664615
LLLLFFFFFFFFFFFFFFFFFFFFFFFFFFFLLLLLLLLLLLLLLLLLLL
66616462263231613133646152265114342646663665666666
LLLLLLLFFFFFFFFFFFFFFFFFFFFFFFFFFFFLLLLLLLLLLLLLLL
66621664566666636166652666666351226345126324436366
LLLFFFFFFLLLLLLLLLLLLLLLLLLLLLFFFFFFFFFFFFFFFFFFFF
43216652256661666616666661111616646666164666424525
FFFFLFFFFFFLLLLLLLLLLLLLLFFFFFFFLLLLLLLLFLLLFFFFFF
62224125463666626636666661666636136366266656554612
FFFFFFFFFLLLLLLLLLLLLLLLLLLLLLLLLLLLLLLLLLLLFFFFFF
66666466436214355646661164633161226433666353225531
LLLLLLLLFFFFFFFFFLLLLLLLLLLLFFFFFFFFFFFFFFFFFFFFFF
53351661414532335266666316522642652163261661643215
FFFFFFFFFFFFFFFFFFFLLLLLFFFFFFFFFFFFFFLLLLFFFFFFFF
65465623565636155256345665143212525362646666666666
FFFFFFFFFFFFFFFFFFFFFFFFFFFFFFFFFFFFFFLLLLLLLLLLLL
34363221132626655665142466616666636663662666666436
FFFFFFFFFFFFFFFFFFFFFFFFLLLLLLLLLLLLLLLLLLLLLLLLLL
23133632526143232541235115164256353521233256646366
FFFFFFFFFFFFFFFFFFFFFFFFFFFFFFFFFFFFFFFFFFFFFFFLLL
64512442364414213212663465166666533546546422153256
FFFFFFFFFFFFFFFFFFFFFLLLLLLLLLLLFFFFFFFFFFFFFFFFFL
43124666666662335361136145143636654542562156154223
FFFFFLLLLLLLLLFFFFFFFFFFFFFFFLLLLFFFFFFFFFFFFFFFFF
36665634641161633645463312162161532343635443466134
FFFFFFFFFFFFFFFFFFFFFFFFFFFFFFFFFFFFFFFFFFFFFFFFFF
34526164161666616663532516565343512424324151353122
FFFFFFFFFFLLLLLLLLLFFFFFFFFFFFFFFFFFFFFFFFFFFFFFFF
66466646616366666645154236465443232365646666166466
LLLLLLLLLLLLLLLLLLFFFFFFFFFFFFFFFFFFFFLLLLLLLLLLLF
46444616665212223131412336456565364646666663666466
FFFFFLLLLFFFFFFFFFFFFFFFFFFFFFFFFFFFFLLLLLLLLLLLLL
35644612513125333526634535665456211556223356612441
FFFFFFFFFFFFFFFFFFFFFFFFFFFFFFFFFFFFFFFFFFLLLFFFFF
12632333412165164446562256616366666666665666626664
FFFFFFFFFFFFFFFFFFFFFFFFFFFFLLLLLLLLLLLLLLLLLLLLLL
43352344326416152612266666616613625111625462441125
FFFFFFFFFFFFFFFFFFFFFLLLLLLLLLLFFFFFFFFFFFFFFFFFFF
66366666636666631321666666666666612232142621344652
LLLLLLLLLLLLLLFFFFFLLLLLLLLLLLLLLFFFFFFFFFFFFFFFFF
54616666634666636662145366426543152162666412234135
FFFFFLLLLLLLLLLLLLLFFFFLLLFFFFFFFFFFFFLLLFFFFFFFFF
35333633222223136263421613161314265164366434351155
FFFFFFFFFFFFFFFFFFFFFFFFFFFFFFFFFFFFFFFFFFFFFFFFFF
46565112662656145326423661455542614456442221615512
FFFFFFFFFFFFFFFFFFFFFFFFFFFFFFFFFFFFFLFFFFFFFFFFFF
46545263664464165621153666624263244322656666666266
FFFFFFFFFFFFFFFFFLFFFFFLLLLFFFFFFFFFFLLLLLLLLLLLLL
56463232361364244666653556162356266266661666666646
FFFFFFFFFFFFFFFLLLLLLLFFFFFFFFFFFLLLLLLLLLLLLLLLLL
56652344136251254316464316345525126365232666121156
FFFFFFFFFFFFFFFFFFFFFFFFFFFFFFFFFFFFFFFFFFFFFFFFFF
66656666654642541466315414154646666611522511415244
FFLLLLLLLFFFFFFFFFFFFFFFFFFFFFFFFFFFFFFFFFFFFFFFFF
14414523543156224361636665436443114623614246551345
FFFFFFFFFFFFFFFFFFFFFFFFFFFFFFFFFFFFFFFFFFFFFFFFFF
42132134434661425354321464544565361425641121664211
FFFFFFFFFFFFFFFFFFFFFFFFFFFFFFFFFFFFFFFFFFFFFFFFFF
11441622446666132114525411213623634131343542215214
FFFFFFFFFFLLLFFFFFFFFFFFFFFFFFFFFFFFFFFFFFFFFFFFFF
16153154551566226446531216126626636266666666462666
FFFFFFFFFFFFFFFFFFFFFFFFFLLLLLLLLLLLLLLLLLLLLLLLLL
66466666666666666166666665462111134256422616262256
LLLLLLLLLLLLLLLLLLLLLLLLLFFFFFFFFFFFFFFFFLLLLFFFFF
25553514354252224231262126532662341236666666165666
FFFFFFFFFFFFFFFFFFFFFFFFFFFLLLLFFFFFLLLLLLLLLLFFFF
41411135636646646635345654224523151135162242335442
FFFFFFFFLLLLLLFFLLFFFFFFFFFFFFFFFFFFFFFFFFFFFFFFFF
66463666464366633666646412241663536126544444545626
LLLLLLLLLFFFLLLLLLLLLLLFFFFFFFFFFFFFFFFFFFFFFFFFFL
61535266663664124443336656666663666466662652114366
FFFFFFFLLLLLLFFFFFFFFLLLLLLLLLLLLLLLLLLLLLFFFFFLLL
12654224614612422313131255665666662616436665616616
FFFFFFFFLFFFFFFFFFFFFFFFFFLLLLLLLLLLLLLLLLLLLLLLLL
33643336266626164666363536666666126666616366666666
FFFFFFFLLLLLLLFFFLLLLLFFFLLLLLLLLLLLLLLLLLLLLLLLLL
66651245232616222525456166466666665666666631666562
FFLFFFFFFFFFFFFFFFFFFFFFLLLLLLLLLLLLLLLLLLLLLLLLLL
65111656426653413646223142666134531544565511546551
FFFFFFFFFFFFFFFFFLLLFFFFFFFLLLFFFFFFFFFFFFFFFFFFFF
23142523126263346311232541421453561134264351656666
FFFFFFFFFFFFFFFFFFFFFFFFFFFFFFFFFFFFFFFFFFFFFLLLLL
42326666165334562431562546666616616461452554316661
FFFFLLLLLLFFFFFFFFFFFFFFFLLLLLLLLLLFFFFFFFFFFFFFFF
63556442522112362433321544253413142123541166366666
FFFFFFFFFFFFFFFFFFFFFFFFFFFFFFFFFFFFFFFFFFLLLLLLLL
41656666213443134132164653352425544635166151614426
LLLLLLLLFFFFFFFFFFFFFFFFFFFFFFFFFFFFFFFFFFFFFFFFFL
34261354163336526531166424363434336266163462126152
FFFFFFFFFFFFFFFFFFFFFLLLFFFFFFFFFFFFFFFFFFLFFFFFFF
52213635363123412144466633446464136666665662652444
FFFFFFFFFFFFFFFFFFFFFFFFFFFFFFFFFFFLLLLLLLLFFFFFFF
21661465636552466234521366626664666661666666666334
FFFFFFFFFFLFFFFFFFFFFFFFFFFFLLLLLLLLLLLLLLFLLLLLFF
65354363326241121436433532336543111452265625123661
LLLLLLLFFFFFFFFFFFFFFFFFFFFFFFFFFFFFFFFFFFFFFFFFFF
66666361116626611144635315514466161353323552341631
LLLLLFFFFFFLLLLFFFFFFFFFFFFFFFLLLLFFFFFFFFFFFFFFFF
66666661666625141613426466666666666666666666614445
LLLLLLLLLLLLFFFFFFFFFFLLLLLLLLLLLLLLLLLLLLLLLFFFFF
55612655116663631666654264342122416611635611441161
FFFLFFFFFLLLLLLLLLLLFFFFFFFFFFFFFFFFFFLFFFFFFFFFLL
16666665324415125461255662546141134636264346266666
FLLLLLFFFFFFFFFFFFFFFFFFFFFFLFFFFFFLLLLLLLFFFLLLLL
52166466666666666661661513644356666666616544342245
FFFFLLLLLLLLLLLLLLLLLFFFFFFFFFFLLLLLLLLLLFFFFFFFFF
66646666666166644546161154436666324462126666666636
LLLLLLLLLLLLLLLLFFFFFFFFFFFFLLLFFFFFFFFFLLLLLLLLLL
14145422211316424656634146666661663663643545321531
FFFFFFFFFFFFFLFFFFFFFFFFFFLLLLLLLLLLLLLFFFFFFFFFFF
54521435612511536142631413134143444454261165665636
FFFFFFFFFFFFFFFLLFFFFFFFFFFFFFFFFFFFFFFFFFFFFFFFFF
11554261431265151451112266214632234415662541121622
FFFFFFFFFFFFFFFFFFFFFFFFLLFFFFFFFFFFFFFFFFFFFFFFFF
11642462134561234326114126522244541355646234343513
FFFFFLFFFFFFFFFFFFFFFFFFFFFFFFFFFFFFFFFFFFFFFFFFFF
32466166665122366666666666556636666666666142663466
FFLLLLLLLFFFFFFLLLLLLLLLLLLLLLLLLLLLLLLLLFFLLLLLLL
32653234142236341523164123114536316614562122466616
FFLLFFFFFFFFFFFFFFFFFFFFFFFFFFFFFFFFFFFFFFFFFLLLLL
15325411145151322266241663666631624466664366266266
FFFFFFFFFFFFFFFFFFFFFFFLLFLLLLFFFFFFLLLLLLLLLLLLLL
46643631215666366632416226653534511366663666266363
FFFFFFFFFFLLLLLLLLFFFFFFFFFFFFFFFFFFLLLLLLLLLLLLLL
55626263126666125143115255542441665336663242556466
FFFFFFFFFFLLLLFFFFFFFFFFFFFFFFLLLLFFFLLLFFFFFFLLLL
66666111265165123254133166664556226666665543453616
LLLLLLLLLLLFFFFFFFFFFFFFLLLLFFFFFFLLLLLFFFFFFFFFFF
44666466666666444466332231166666615136144431422111
FFLLLLLLLLLLLLLFFFFFFFFFFFFFLLLLLFFFFFFFFFFFFFFFFL
66666433244533335625531651133511415113345655434631
LLLLLLFFFFFFFFFFFFFFFFFFFFFFFFFFFFFFFFFFFFFFFFFFFF
33442242646666661656144255614331115652666666664366
FFFFFFFFFFLLLLLLFFFFFFFFFFFFFFFFFFFFFFLLLLLLLLLLLL
44463212416665666661636666466645666566666625635652
FFFFFFFFFFLLLLLLLLLLLLLLLLLLLLLLLLLLLLLLLLLLLFFFFF
16666666662656413365342361346666663366666466666216
LLLLLLLLLLLLLFFFFFFFFFFFFFFFLLLLLLLLLLLLLLLLLLLLLL
65166656366666666666361366666656431666666645666515
FFFLLLLLLLLLLLLLLLLLLLLLLLLLLLLLLLLLLLLLLLFFLLLFFF
46664654131311366643324533465253134415556664666626
FFFFFFFFFFFFFFFFFFFFFFFFFFFFFFFFFFFFFFFFLLLFLLLLLL
66413561311662611236164416451135116456531354556651
FFFFFFFFFFFFFFFFFFFFFFFFFFFFFFFFFFFFFFFFFFFFFFFLFF
66626666666636663666266662666666265526162235443326
LLLLLLLLLLLLLLLLLLLLLLLLLLLLLLLLLLLLLLFFFFFFFFFFFF
46164524116455133533666562524326622644515333656466
FFFFFFFFFFFFFFFFFFFFLLLFFFFFFFFFFFFFFFFFFFFFFFFFLL
33334142566656666666364652366666666666663641331361
FFFFFFFFFFLLLLLLLLLLLLLLFFFFLLLLLLLLLLLLFFFFFFFFFF
43566131643116365645343443365513361653156666666666
FFFFFFFFFFFFFFFFFFFFFFFFFFFLFFFFFFFFFFFFLLLLLLLLLL
46626525231461635532226456332641353323431614214255
FFFFFFFFFFFFFFFFFFFFFFFFFFFFFFFFFFFFFFFFFFFFFFFFFF
66666666636666666664662634225631242453425116135466
LLLLLLLLLLLFLLLLLLLLLLFLLFFFFFFFFFFFFFFFFFFFFFFLFF
54565553253232562412635123542332522563256551424625
FFFFFFFFFFFFFFFFFFFFFFFFFFFFFFFFFFFFFFFFFFFFFFFFFF
35626134266666654221232166465636666646455241256665
FFFFFFFFFFLLLLLFFFFFFFFFFFFFFLLLLLLLLLFFFFFFFFFFFF
62635662115134223431524314352232224616666666366666
LLLLFFFFFFFFFFFFFFFFFFFFFFFFFFFFFFFFFFFFLLLLLLLLLL
64666656636664223666666666666656466334336316532151
LLLLLLLLLLLLLFFFFLLLLLLLLLLLLLLLFFFFFFFFFFFFFFFFFF
34664166166666666666666666666666656666466645444363
FFFFFFLLLLLLLLLLLLLLLLLLLLLLLLLLLLLLLLLLLLFFFFFFFF
24114452216532662162166666631363556363145115415364
FFFFFFFFFFFFFFFFFFFFFLLLLLLFFFFFFFFFFFFFFFFFFFFFFF
66646436444464356611666666666535566161124316666666
LLLLFFFFFFFFFFFLLLLLLLLLLLLLLFFFFFLLLFFFFFFFLLLLLL
11211466626521666636662666366666536661663636441264
FFFFFFFFFFFFFFLLLLLLLLLLLLLLLLLLFLLLLLLLLLLLFFFFFF
55316556564666626212635141223553133363153246243416
FFFFFFFFFFLLLLFFFFFFFFFFFFFFFFFFFFFFFFFFFFFFFFFFFF
35134526111666662662666666616666666666661136666123
FFFFFFFFFFFLLLLLLLLLLLLLLLLLLLLLLLLLLLLLFFFLLLLLFF
36566442611332251523224646663144256656666666666664
FFFLLFFFFFFFFFFFFFFFFFFFFLLLFFFFLLLLLLLLLLLLLLLLLL
66666661112452236115116443136526365456642164242331
LLLLLLLFFFFFFFFFFFFFFFFFFFFFFFFFFFFFFFFFFFFFFFFFFF
32546315245266433646635631226666656616666636564511
LLFFFFFFFFFFFFFFFFFFFFFFFFFFLLLLLLLLLLLLLLLLLFFFFF
61642331212412114533141165451435216452416514556662
FFFFFFFFFFFFFFFFFFFFFFFFFFFFFFFFFFFFFFFFFFFFFFFLLL
53454556666661413643515342666624366666643134565156
FFFFFFFLLLLLLFFFFFFFFFFFFFLLLLLLLLLLLLLFFFFFFFFFFF
36664444644156666666666631456666666366366666365366
LLLLFFFFFFFFLLLLLLLLLLLLFFFLLLLLLLLLLLLLLLLLLLLLLL
16626366366666662166666126314521666666456666263333
FLLLLLLFFLLLLLLLLLLLLLLLFFFFFFFFLLLLLLLLLLLLFFFFFF
43656656266663666666656366666666455656366661666666
FFFFLLLLLLLLLLLLLLLLLLLLLLLLLLLLFFFFFFFLLLLLLLLLLL
66611546631666646666666566266366613135636665122134
LLLFFFFLLLLLLLLLLLLLLLLLLLLLLLLLLFFFFFLLLLLFFFFFFF
15256566636633645655336151666663666636446566664134
FFLLLLLLLLLLFFFFFFFFFFFFFFLLLFFFLLLLLFFFFFFLLFFFFF
16346413666666664614541362131131621351614535665333
LLLLLLLLLLLLLLLFFFFFFFFFFFFFFFFFFFFFFFFFFFFFFFFFFF
25135321152222526566666336332566166333122325416666
FFFFFFFFFFFFFFFFFFLLLLLFFFFFFFLLLLFFFFLFFFFFFFLLLL
22363521111365644543214641263646341116543633623216
FFFFFFFFFFFFFFFFFFFFFFFFFFFLLFFFFFFFFFFFFFFFFFFFFL
63325563665136254423166665343243416333436663462224
FFFFFFFFFFFFFFFFFFFFFFFFFFFFFFFFFFFFFFFFLLLFFFFFFF
44541441245465142443261666665512315156562664534533
FFFFFFFFFFFFFFFFFFFFLLLLLLLLFFFFFFFFFFFFFFFFFFFFFF
66666666666566666666666662661266666666664326221622
LLLLLLLLLLLLLLLLLLLLLLLLLLLLLLLLLLLLLLLLFFFFFFFFFF
41145345446654336365612663336355655466512231126226
FFFFFFFFFFFFFFFFFFFFFFFFFFFFFFFFFFFFFFFFFFFFFFFFFF
61666645655412141413511453525425162125422235113231
LLLLLLFFFFFFFFFFFFFFFFFFFFFFFFFFFFFFFFFFFFFFFFFFFF
23513444356655662316666666666666656466666655241262
FFFFFFFFFFFFFFFFFFFFLLLLLLLLLLLLLLLLLLLLLFFFFFFFFF
66666666665666165666261666662541562561324256364534
LLLLLLLLLLLLLLLLLLLLLLLLLLLLFFFFFFFFFFFFFFFFFFFFFF
54462244256456334435665664666666616425232413562426
FFFFFFFFFFFFFFFFFFFFFLLLLLLLLLLFFFFFFFFFFFFFFFFFFF
61615566332361624152352443222326554233655663262622
LLLFFFFFFFFFFFFFFFFFFFFFFFFFFFFFFFFFFFFFFFFFFFFFFF
56566643214566156166546316156166662636666666666656
LLLLLLLLLFFLLLLFFFFFFFFFFFFFLLLLLLLLLLLLLLLLLLLLLL
66662513621444355265366116445541614361322266666456
LLLLLFFFLFFFFFFFFFFFFFFFFFFFFFFFLLFFFFFFFFLLLLLFLL
44255426664332313443363661644666135635642666621266
FFFFFFFFFFFFFFFFFFFFFFFFFFFFFFFFFFFFFFFFFLLLLLLLLL
55644126664111562666666661663663213564456425243511
FFFFFFFFFFFFFFFLLLLLLLLLLLLLLLLFFFFFFFFFFFFFFFFFFF
66311425213264621413256555661616666365666664626563
FFFFFFFFFFFFFFLLFFFFFFFFFFFFFFFLLLLLLLLLLLLFFFFFFF
62345646151141646666666666666524623145432565666666
FFFFFFFFFFFFFFFFLLLLLLLLLLLLLFFFFFFFFFFFFFFFLLLLLL
16124255222436122553265434325356666366166666443245
FFFFFFFFFFFFFFFFFFFFFFFFFFFFFFLLLLLLLLLLLLLLLFFFFF
24425535511323132334412512256416665611264612355365
FFFFFFFFFFFFFFFFFFFFFFFFFFFFFFFFLLLLFFFFFFFFFFFFFF
53516616121255465345355656666364615211656666166652
FFFFFLLFFFFFFFFFFFFFFFFLLLLLLFFFFFFFFFLLLLLLLLLLFF
61214154165224123646413453556564231225656133322664
LFFFFFFFFFFFFFFFFFFFFFFFFFFFFFFFFFFFFFFFLFFFFFFFFF
26665364251322553213223662122665613625652521563566
LLLLLLFFFFFFFFFFFFFFFFFFFFFFFLLLLFFFFFFFFFFFFFLLLL
21454213636665664666666666622141514633514261553246
FFFFFFFFLLLLLLLLLLLLLLLLLLFFFFFFFFFFFFFFFFFFFFFFLL
16666666442526435145252452225645453636666646616462
LLLLLLLFFFFFFFFFFFFFFFFFFFFFFFFFLLLLLLLLLLLLLLLFFF
64431252222616666666666666666446633331352136626161
FFFFFFFFFFFFLLLLLLLLLLLLLLLLLLLLLFFFFFFFFFLLLFFFFF
26662563641666364366666646666326666566663121614154
FLLLLLLLLLLLLLLLFFFLFFFLLLLLLLLLLLLLLLLLFFFFFFFFFF
66666266611261222544311356234563662363423616324335
LLLLLLLLFFFFFFFFFFFFFFFFFFFFFFLLLLFFFFFFFFFFFFFFFF
24654525665554663124224526263365666366666636466116
FFFFFFFFFFFFFFFFFFFFFFFFFLLLLLLLLLLLLLLLLLLLLLLLLL
66611516666666266666622346661466666666666666653441
LLFFFFFLLLLLLLLLLLLLLLLLLLLLLLLLLLLLLLLLLLLLLFFFFF
26242363564315251616256526521134225236666616641366
FFFFFFFFFFFFFFFFFFFFFFFFFFFFFFFFFFFFFLLLLLLLLFFFLL
66665615243251641445555163426563214611616163564656
LLLLLLLLFFFFFFFFFFFFFFFFFFFFFFFFFFFFFFFFFFFFFFFLLL
66266646666666665443454562666366666666663266666236
LLLLLLLLLLLLLLLLFFFFFFFFFFLLLLLLLLLLLLLLLLLLLLLLLL
54243511566662666651251233134161634215666636666666
FFFFFFFFLLLLLLLLLLLFFFFFFFFFFFFFFFFFFFLLLLLLLLLLLL
25522546232555313562515426163562166466666236666666
FFFFFFFFFFFFFFFFFFFFFFFFFFFFFFLFFLLLLLLLLLFLLLLLLL
62661616663666346641146216643466666111466611336136
LLLLLLLLLLLLLLLLLLFFFFFFFLLLLLLLLLFFFFFLFFFFFFFFFF
24144353131516555525166661566662314322222511224346
FFFFFFFFFFFFFFFFFFFFFLLLLLLLLLLFFFFFFFFFFFFFFFFFFF
51441116262416251151634661214462335442443352565232
FFFFFFFFFFFFFFFFFFFFFFFFFFFFFFFFFFFFFFFFFFFFFFFFFF
66666621612422436645232611315425665266442114341526
LLLLLLLLLFFFFFFFFFFFFFFFFFFFFFFFLFFFFFFFFFFFFFFFFF
16644245241316666266416666663234331616633235115562
FFFFFFFFFFFFFLLLLLLLLLLLLLLLLFFFFLLFFFFFFFFFFFFFFF
32256153635314566363253446245626665313121135535141
FFFFFFFFFFFFFFFFFFFFFFFFFFFFFFFLLLFFFFFFFFFFFFFFFF
31362641244166666634126666623435435526666326435343
FFFFFFFFFFLLLLLLLLLLLLLLLLLFFFFFFFFFFLLLLFFFFFFFFF
22634462113616225663645616226665146351234644241566
FFFFFFFFFFFFFFFFFFFFLFFLFFFFFFFFFFFFFFFFFFFFFFFFFF
34653624356626366666666666666353651344655234556366
FFFFFFFFFFLLLLLLLLLLLLLLLLLLLFFFFFFFFFFFFFFFFFFFFL
62631333435412634456556666666666666626666666634321
LLLFFFFFFFFFFFFFFFFFFFLLLLLLLLLLLLLLLLLLLLLLLFFFFF
53511154351666666666666566666666366665266666265552
FFFFFFFFFFLLLLLLLLLLLLLLLLLLLLLLLLLLLLLLLLLFFFFFFF
44114635163261621645646336661664624441551536666666
FFFFFFFFFFFFFFFFFFFFFFFFFLLLLLLLLFFFFFFFFFLLLLLLLL
35566454521665543135225336341654345324531156115666
LLLLLLFFFFFFFFFFFFFFFFFFFFFFFFFFFFFFFFFFFFFFFFFLLL
66666666366656662354555346533565315234454412154163
LLLLLLLLFLLLLLLLFFFFFFFFFFFFFFFFFFFFFFFFFFFFFFFFFF
66666363666666461542663666641666666146556411262655
LLLLLLLLLLLLLLFFFFFFLLLLLLLLLLLLLLLLLLFFFFFFFFFFFF
16434462542162346135145124666663554566366426413331
FFFFFFFFFFFFFFFFFFFFFFFFFFLLLLLLFFFFLLLLLFFFFFFFFF
66666666666616666616645543633542146436334246334266
LLLLLLLLLLLLLLLLLLLLLFFFFFFFFFFFFFFFFFFFFFFFFFFFFF
66526666666666666656334643456125366665432651364666
FLLLLLLLLLLLLLLLLLLLLLFFFFFFFFFFFLLLFFFFFFFFFLLLLL
64512454554133211132251666666561645545644542222514
FFFFFFFFFFFFFFFFFFFFFFFLLLLLLLLLLFFFFFFFFFFFFFFFFF
43124426221412444363666666664654266324523441531523
FFFFFFFFFFFFFFFFFFLLLLLLLLLLLLFFFFFFFFFFFFFFFFFFFF
46331151523456234333562563351535555661615412363454
FFFFFFFFFFFFFFFFFFFFFFFFFFFFFFFFFLLLLLLFFFFFFFFFFF
66632613156233261435266615314466666663541242666641
LLLFFFFFFFFFFFFFFFFFFFFFFFFFFFLLLLLLLFFFFFFFFLLLFF
26666666366666666614261366666666666662666666462666
LLLLLLLLLLLLLLLLLLFFFFFFLLLLLLLLLLLLLLLLLLLLLLLLLL
16666521231654663415651231321212665666662653415455
FLLLLLFFFFFFFFLLFFFFFFFFFFFFFFFFLLLLLLLLLLLFFFFFFF
51154135356352416646666561225666626555631466146621
FFFFFFFFFFFFFFFFFLLLLLLLLLFFFFLLLFFFFFFFFFFLLLLLLF
66666666366664566666656366666666665666663243363666
LLLLLLLLLLLLLLFLLLLLLLLLLLLLLLLLLLLLLLLLFFFFFLLLLL
22216623666363551315663112326636666621615264133146
FFFFFFFFFFFFFFFFFFFFFFFFFFFFFFFFLLLFFFFFFFFFFFFFFL
25333221512445426342126554436636666666666626611143
FFFFFFFFFFFFFFFFFFFFFFFFFFFFFFFLLLLLLLLLLLLLLLFFFF
15444111351234445625252565255226466666666652166261
FFFFFFFFFFFFFFFFFFFFFFFLFFFFFFFFFFLLLLLLLLLFLLLLLL
61666166615654255645235354265553135543152521533614
FFLLLLLLLFFLFFFFFFFFFFFFFFFFFFFFFFFFFFFFFFFFFFFFFF
34535152526366266164245446615161411262115322643114
FFFFFFFFFFFFFFFFFFFFFFFFLLLLFFFFFFFFFFFFFFFFFFFFFF
31361621564351446511624546435666666636666666666252
FLFFFFFFFFFFFFFFFFFFFFFFFFLLLLLLLLLLLLLLLLLLLLLFFF
66216145641552432351542426666666656656236341115536
LLFFFFFFFFFFFFFFFFFFFFFFFLLLLLLLLLLLLLFFFFFFFFFFFF
66666236565436446533266653453645453461544166665662
LLLLLFFFFFFFFFFFFFFFLLLLFFFFFFFFFFFFFFFFFLLLLLLLLF
66666165532166614562146122436436315146143652461365
LLLLLLLFFFFFLLLFFFFFFFFFFFFFFFFFFFFFFFFFFFFFFFFFFF
12566156366666216614155243362144351245651342425162
FFFFFFFFFFFFLLFFFFFFFFFFFFFFFFFFFFFFFFFFFFFFFFFFFF
66666555132666661454315241323361643666466366434321
LLLLLFFFFFFLLLLLLFFFFFFFFFFFFFFFFFFLLLLLLLLLFFFFFF
66622215654364361662432436666666666665162463415233
LLFFFFFFFFFFFFFFFFLFFFFFFLLLLLLLLLLLLFFFFFFFFFFFFF
26163565213616666666666614663166666666333655253236
FFFFFFFFFFFLLLLLLLLLLLLLLLLLLLLLLLLLLLFFFFFFFFFFFF
44113135212311423313465664633121133621163434423224
FFFFFFFFFFFFFFFFFFFFFFFFFFFFFFFFFFFFFFFFFFFFFFFFFF
42153122453312336414661666636665646666666666651612
FFFFFFFFFFFFFFFFFFFFFFFLLLLLLLLLLLLLLLLLLLLLLLLFFF
44453161516662166666636336344255144122242155421131
FFFFFFFFFFLLLLLLLLLLLLLFFFFFFFFFFFFFFFFFFFFFFFFFFF
14656256455621651232546436236662133146663631334525
FFFFFFFFFFFFFFFFFFFFFFFFFFFLLLLFFFFFLLLLLLFFFFFFFF
64226465235611626542656613211313652434141354635436
LFFFFFLFFFFFFFFFFFFFFFFFFFFFFFFFFFFFFFFFFFFFFFFFFF
66656616632646146666666656634166666314336666663321
LLLLLLLLLLLLLLLLLLLLLLLLLLLLLLLLLLLFFFFFLLLLLLFFFF
63461241451363353651661542115211144561422114341263
LLFFFFFFFFFFFFFFFFFFFFFFFFFFFFFFFFFFFFFFFFFFFFFFFF
41642366646256666646264666662646666626626463616563
FFFFFFFLLLLLLLLLLLLLLLLLLLLLLLLLLLLLLLLLLLLLLLLLLF
11635112123154456425611164356116665443264663136255
FFFFFFFFFFFFFFFFFFFFFFFFFFFFFFFLLLFFFFFFFFFFFFFFFF
55346326512241322332532443666666646652223342134231
FFFFFFFFFFFFFFFFFFFFFFFFFFLLLLLLLLLLLFFFFFFFFFFFFF
32612514556316362635151315331161156514464666441465
FFFFFFFFFFFFFFFFFFFFFFFFFFFFFFFFFFFFFFFLLLLLFFFFFF
23244361365335141543552562646446263234333415232366
FFFFFFFFLLLFFFFFFFFFFFFFFFFFFFFFFFFFFFFFFFFFFFFFFF
16666522311135642646622431115613522566513556266666
FLLLLLLLFFFFFFFFLLLLLLFFFFFFFFFFFFFFLLFFFFFLLLLLLL
24552361426163421262151121334523132644545131133545
FFFFFFFFFFFFFFFFFFFFFFFFFFFFFFFFFFFFFFFFFFFFFFFFFF
36432152613333126241241554416351666666666555265564
FFFFFFFFFFFFFFFFLFFFFFFFFFFFFFFFLLLLLLLFFFFFFLFFFF
66666366666466166565143465163254415466665666663445
LLLLLLLLLLFFLLLLLLLFFFFFFFFFFFFFFFFFLLLLLLLLLLFFFF
31666132223126365222561623516366356145455556422235
FFFFFFFFFFFFFFFFFFFFFFFFFFFFFFFFFFFFLLFFFFFFFFFFFF
65655135645223636162423263423666366636666615212666
FFFFFFFFFFFFFFFFFFFFFFFFFFFFFLLLLLLLLLLLLLFFFFFLLL
66666666566626666666666666661666361463551253414463
LLLLLLLLLLLLLLLLLLLLLLLLLLLLLLLLLLFFFFFFFFFFFFFFFF
46664435343462323326246664666666233251616325416261
FLLLFFFFFFFFFFFFFFFFFFFLLLLLLLLLFFFFFFFFFFFFFFFFLF
43463431136666666616355556256243462422166264366666
FFFFFFFFFFFLLLLLLFFFFFFFFFFFFFFFFFFFFFFFFFFFFFLLLF
36526426453655634213336166661663663662155666655646
FFFFFFFFFFFFFFFFFFFFFFFFLLLFFLLFFFFFFFFFFFLLLLLLFF
26616565232556163514563213635145526323156543266116
FLLFFFFFFFFFFLLLLFFFFFFFFFFFFFFFFFFFFFFFFFFFFLLLLL
15466256636666666345623665462452155663216636315236
FFFFLLLLLLLLLLLLLLFFFFFFLFFFFFFFFFFLLLFFFFFFFFFFFF
65434225632545325366554332141343344426666666665623
FFFFFFFFFFFFFFFFFFFFFFFFFFFFFFFFFFFFFLLLLLLLLLLLLL
22251141651366662636666665666266566666646553651436
FFFFFFFFFFFFLLLLLLLLLLLLLLLLLLLLLLLLLLFFFFFFFFFFFF
13652116666252453512252621326461222541113511461244
FFLLLLLLLLLFFFFFFFFFFFFFFFFFFFFFFFFFFFFFFFFFFFFFFF
66523661556611126643666646666664666311436633166666
FFFFFFFFFFFFFFFFFLLLLLLLLLLLLLLLLLLFFFFFFFFFLLLLLL
16313352642233133542663466666666665664256611421641
FFFFFFFFFFFFFFFFFFFLLLLLLLLLLLLLLLLLLFFFLLFFFFFFFF
66616663321512421246125113526615633414653366666656
LLLLLLLFFFFFFFFFFFFLFFFFFFFFFFFFFFFFFFFFFFLLLLLLLL
55661666213325466666666652346253262666615164423613
FLLLLLLLFFFFFFFLLLLLLLLLFFFFLFFFFFFLLLLFFFFFFFFFFF
66666666666636662131662151145641545233162163242636
LLLLLLLLLLLLLLLLFFFLLLFFFFFFFFFFFFFFFFFFFFFFFFFLLL
45142533341366663663435223443465566625213121354212
FFFFFFFFFFFLLLLLLLLFFFFFFFFFFFFFFLLLLFFFFFFFFFFFFF
54216655445426523516661526324212666321666666432234
FFFFFFFFFFFFFFFFFFFLLFFFFFFFFFFFLLLFFLLLLLLLFFFFFF
66366666363412626145453446246246466632233366666134
FFFLLLLLLLFFFFFFFFFFFFFFFFFFFFLLLLLFFFFFFFFFFFFFFF
61526411344666264145252565252146366663646661145241
FFFFFFFFFFFLLLLLLLFFFFFFFFFFFFFLLLLLLFFFFLFFFFFFFF
42166666616466666666666666146226366624224136256256
FLLLLLLLFFFFLLLLLLLLLLLLLLLLLLLLLLLLFFFFFFFFFFFFFF
66661665646636666664252256566666635335516611414316
LLLLLLLLLLLLLLLLLLLFFFFFFFFLLLLLFFFFFFFFFFFFFFFFFF
66666125565265662165566415265666664666566166662666
LLLLLFFFFFFFFFFFFFFFFFFFFFFFFLLLLLLLLLLLLLLLLLLLLL
62366251153134422315552641413636666666216454636325
LLLLFFFFFFFFFFFFFFFFFFFFFFFFFFLLLLLLLLLLFFFFFFFFFF
31522236663335243141566656366665665326414232666666
FFFFFFFLLLFFFFFFFFFFFLLLLLLLLLLLLLLLLLFFFFFFLLLLLF
23224455243341621414341114264211362665131166524252
FFFFFFFFFFFFFFFFFFFFFFFFFFFFFFFFFFFFFFFFFFFFFFFFFF
65223256153511224111545551115255412166466262423412
LFFFFFFFFFFFFFFFFFFFFFFFFFFFFFFFFFFFFFFLLFFFFFFFFF
44343342556613634422226266646666423366166623265566
FFFFFFFFFFFFFFFFFFFFFFLLLLLLLLLLFFFFLLLLLLLLLLLLLL
33556345315264553433231244342345612214116164411663
FFFFFFFFFFFFFFFFFFFFFFFFFFFFFFFFFFFFFFFFFFFFFFFLLL
36655223251266456561655534413613526252566422436223
FFFFFFFFFFFFFFFFFFFFFFFFFFFFFFFFFFFFFFFFFFFFFFFFFF
53362336366466654235565144143256255612166666363666
FFFFFFFLLLLLLLLFFFFFFFFFFFFFFFFFFFFFFFFFLLLLLLLLLL
62614631134441662366661163246214255416255435164353
LLLFFFFFFFFFFLLLLLLLLFFFFFFFFFFFFFFFFFFFFFFFFFFFFF
44125155662666666666666664315212624452561166666666
FFFFFFFFFFFFFFFLLLLLLLLLLFFFFFFFFFFFFFFLLLLLLLLLFF
12115311234554144153256415245463366425155562625532
FFFFFFFFFFFFFFFFFFFFFFFFFFFFFFLLLLFFFFFFFFLLLLFFFF
46666666146666666626462665666666663666664666636665
LLLLLLLLFFFLLLLLLLLLLLLLLLLLLLLLLLLLLLLLLLLLLLLLLL
62113225342343441666146546653631666265141122254526
FFFFFFFFFFFFFFFFFFFLFFLLLLLFFFFFFFFLLFFFFFFFFFFFFL
25246261611446266666666646153535522632612111336256
FFFFFFFFFFFLLLLLLLLLLLLLFFFFFFFFFFFFFFFFFFFFFFFFFF
45362563163655655626636221642352114563245335522625
FFFFFFFFFFFFFFFFFLLLFFFFFFLLLFFFFFFFFFFFFFFFFFFFFF
46666631211236166666666366666666666264666366666562
LLLLLLFFFFFFFFFLLLLLLLLLLLLLLLLLLLLLLLLLLLLLLLLLLL
43562213163626226215145544446216146136232256133154
FFFFFFFFFFFFFFFFFFFFFFFFFFFFFFFFFFFFFFFFFFFFFFFFFF
46326666666616612522521355354336241414554661215544
FLFFLLLLLLLLLFFFFFFFFFFFFFFFFFFFFFFFFFFFFFFFFFFFFF
54362665534253315113252266166253613416226246666662
FFFFFFFFFFFFFFFFFFFFFFFFLLLLLFFFFFFFFFFFFFFLLLLLLF
36224443112625555524265666646626366163163626663655
FFFFFFFFFFFFFFFFFFFFFLLLLLLLLLLLLLLFFFFFFFFFFFFFFF
61434666253446666666666666666266666466616656666446
FFFFFFFFFFFFFFLLLLLLLLLLLLLLLFLLLLLLLLLLLLLLLLLLLL
15362232355464615351165416442251511563266653166666
FFFFFFFFFFFFFFFFFFFFFFFFFFFFFFFFFFFFFFFFFFFFFFLLLL
13566424246666646666626656253624152445526666636666
FFFFFFFFFFFLLLLLLLLLLLLLLLFFFFFFFFFFFFFFLLLLLFLLLL
66516625225511144232246332325356221431532656663211
LLLLLLFFFFFFFFFFFFFFFFFFFFFFFFFFFFFFFFFFFFFLLLFFFF
43215461536231223346512432465436132646636112526313
FFFFFFFFFFFFFFFFFFFFFFFFFFFFFFFFFFFFFFFFFFFFFFFFFF
34636466666666463666636266616666666664666664666666
LLLLLLLLLLLLLLLLLLLLLLLLLLLLLLLLLLLLLLLLLLLLLLLLLL
41316265544126216252462123212232366434561324313623
FFFFFFFFFFFFFFFFFFFFFFFFFFFFFFFFFFFFFFFFFFFFFFFFFF
54513454451626261452666666661662466351455656225515
FFFFFFFFFFFFFFFFFFFLLLLLLLLLLLLLLLLLLFFFFFFFFFFFFF
31423321311436665566616613116466623333641533122532
FFFFFFFFFFFFFLLLFFLLLLLLFFFFFFFLLFFFFFFFFFFFFFFFFF
66616666666666564461533235146444411365264354666156
LLLLLLLLLLLLLLLLFFFFFFFFFFFFFFFFFFFFFFFFFFFFFFFFFL
56365626466666662566616466666656666334561132231415
FFFFFFFLLLLLLLLLLLLLLLLLLLLLLLLLLLLFFFFFFFFFFFFFFF
16666666662162565564661666345666666664234515646615
LLLLLLLLLLFFFFFFFFFFLLLLLLFFFLLLLLLLFFFFFFFFFFFFFF
66442633631323166666636666666666666665251415526666
LLFFFFFFFFFFFFFLLLLLLLLLLLLLLLLLLLLLLLFFFFFFFFFLLL
66563515242613543121252446225562432666666666664621
FFFFFFFFFFFFFFFFFFFFFFFFFFFFFFLFFFFLLLLLLLLLLLFFFF
43612346645425222554321162666656425223156422411654
FFFFFFFFFFFFFFFFFFFFFFFFFFLLLLLLFFFFFFFFFFFFFFFFFF
51262564631666366612355636625633234336661451121165
FFFFFFFFFFFLLLLLLLFFFFFFLLLLLLFFFFFFFFFFFFFFFFFFFF
54443125461336432532523142464135142216663663261214
FFFFFFFFFFFFFFFFFFFFFFFFFFFFFFFFFFFFFLLLLLLLLLFFFF
12422463333253553522154142566155426161261461561216
FFFFFFFFFFFFFFFFFFFFFFFFFFFFFFFFFFFFFFFFFFFFFFFFFF
64322536554166616666666112321166341332526641354646
LFFFFFFFFFFFLLLLLLLLLLLFFFFFFFFFFFFFFFFFFFFFFFFFFF
55226666661666666661156242466366636661666656666666
FFFFLLLLLLLLLLLLLLLFFFFFFFFFLLLLLLLLLLLLLLLLLLLLLL
42246412661223564566263625112462665153656321216266
FFFFFFFFFFFFFFFFFLLLFFFFFFFFFFFFFFFFFFFFFFFFFFFLLL
46661541225111122632425446316135614116325135442114
FLLLFFFFFFFFFFFFFFFFFFFFFFFFFFFFFFFFFFFFFFFFFFFFFF
13266142661314414511132466564235264466131115311424
FFFFFFFFLLFFFFFFFFFFFFFFLLLLFFFFFFFFLFFFFFFFFFFFFF
52666666545526561416336434162666666666663666666661
FFLLLLLLFFFFFFFFFFFFFFFFFFFFLLLLLLLLLLLLLLLLLLLLLF
55415466616454626656666545261453121363645143256661
FFFFFFFFFFFFFFFFFFFLLLFFFFFFFFFFFFFFFFFFFFFFFFFFFF
66533235235565546161656666666462655564666426666666
LLFFFFFFFFFFFFFLLLLLLLLLLLLLLLLLLFFFFFFFFFLLLLLLLL
65664536636612625266666614344313422263534114346631
FFFFFFFLLFFFFFFFFFLLLLFFFFFFFFFFFFFFFFFFFFFFFFFFFF
24362424626162666563343226666666666666666666266656
FFFFFFFFFLLLLLLLLFFFFFFFFLLLLLLLLLLLLLLLLLLLLLLLLL
35455316154451155113262161236666532666466666624664
FFFFFFFFFFFFFFFFFFFFFFFFFFFLLLLLLFFLLLLLLLLLLLLLLL
32451115323452365466266266666166436665636531542665
FFFFFFFFFFFFFFFLLLLLLLLLLLLLLLLLLLLLLLLLLFFFFFFFFF
66666646662666366642224662666666466661444315366663
LLLLLLLLLLLLLLLLLLLLLLLLLLLLLLLLLLLLLFFFFFFFFLLLLL
42132221563533355615466326643634652636234661321554
FFFFFFFFFFFFFFFFFFFFFFFFFFFFFFFFLFLLLLFFFFFFFFFFFF
42411661241431312666666614163563662635413413616523
FFFFFFFFFFFFFFFFFLLLLLLLFFFFFFFLLLLLFFFFFFFFFFFFFF
23245552565261442224535616466666666634256512311442
FFFFFFFFFFFFFFFFFFFFFFFFFLLLLLLLLLLLFFFFFFFFFFFFFF
22242146246563253614123354611433121225236666516666
FFFFFFFFFFFFFFFFFFFFFFFFFFFFFFFFFFFFFFFFFLLLLLLLLL
32254511454242431431162324346513166635335336636266
FFFFFFFFFFFFFFFFFFFFFFFFFFFFFFFFFFLLLLLLLLLLLLLLLL
26661626254623655322163234664566336516646566666666
LLLLLLLLLLFFFFFFFFFFFFFFFFFFFLLLLLFFFLLLLLLLLLLLLL
66636654535556562426353666662113661644666623561536
LLLFFFFFFFFFFFFFFFFFFFFLLLLLFFFFLLLLLLLLLLFFFFFFFF
12411645561124665664666626666642133344666666664665
FFFFFFFFFFFFFFLLLLLLLLLLLLLLLLFFFFFFFFFLLLLLLLLLLL
63142246245116412426246656666466666615533624366666
FFFFFFFFFFFFFFFFFFFFFFLLLLLLLLLLLLLLFFFFFFFFFLLLLL
66616656661666166165261665424342455326664216653452
LLLLLLLLLLFLLLLLLLLFFFFLLFFFFFFFFFFFLLLFFFFFFFFFFF
66616255232145435344511241211342615213622552231533
LLLFFFFFFFFFFFFFFFFFFFFFFFFFFFFFFFFFFFFFFFFFFFFFFF
56666366666646666666666645666466636366666632236224
LLLLLLLLLLLLLLLLLLLLLLLLLLLLLLLLLLLLLLLLLLFFFFFFFF
35364232645562364116531234366353215116321234254352
FFFFFFFFFFFFFFFFFFFLLLFFFFFFFFFFFFFFFFFFFFFFFFFFFF
54314626166266666366421465532366666466666664666634
FFFFFFFLLLLLLLLLLLLLFFFFFFFFFLLLLLLLLLLLLLLLLLLLFF
61366221142424145165263631631124314455236661551153
FFFFFFFFFFFFFFFFFFFFFFFFFFFFFFFFFFFFFFFFFFFFLFFFFF
12633416316466666664664661536646666636666661116313
FFFFFFFFFFFLLLLLLLLLLLLLLFFLLLLLLLLLLLLLLLLFFFFFFF
53561225421162362666654622515554421365556143443254
FFFFFFFFFFFFFFFLFLLLFFFFFFFFFFFFFFFFFFFFFFFFFFFFFF
56362666626255613222451321443163666226456113325644
LLLLLLLLLFFFFFFFFFFFFFFFFFFFFFFFLLLFFFFFFFFFFFFFFF
61162446666666613651266366666346666664626256542444
FFFFFFFLLLLLLLLFFFFFFFLLLLLLLLLLLLLLLLLFFFFLLFFFFF
43525211616512361416324466666666661566662666666651
FFFFFFFFFFFFFFFFFFFFFFFFLLLLLLLLLLFFLLLLLLLLLLLLFF
66665666666566661662656631114164341225423536265664
LLLLLLLLLLLLLLLLLLLLLLLLFFFFFFFFFFFFFFFFFFFLLLLLLL
63412141235524662666622163243661462521235416545614
FFFFFFFFFFFFFFFFFLLLLLFFFFFFFLLFFFFFFFFFFFFFFFFFFF
44541323112222361651632632256666666665666661321634
FFFFFFFFFFFFFFFFFFFFFFFFFFFFLLLLLLLLLLLLLLLFFFFFFF
16266161445516443662616255224123623524166654422436
FLLLLFFFFFFFFFFFFFFFFFFFFFFFFFFFFFFFFFLLLLFFFFFFFF
66666666666666336666666666664166666666666246666246
LLLLLLLLLLLLLLLLLLLLLLLLLLLLLLLLLLLLLLLLLLLLLLLLLL
25424434636343311366666435465536266444321211426633
FFFFFFFFFFFFFFFFFFLLLLLFFFFFFFFFFLLFFFFFFFFFFFFFFF
34623662554263324213554534326462651434322636122664
FFFFFFFFFFFFFFFFFFFFFFFFFFFFFFFFFFFFFFFFFFFFFFFLLF
53525466666666666622431123162121661223331335652135
FFFFFFLLLLLLLLLLFFFFFFFFFFFFFFFFFFFFFFFFFFFFFFFFFF
66631215156135522314665643316635125322663546234343
FFFFFFFFFFFFFFFFFFFFLLFFFFFFFFFFFFFFFFFFFFFFFFFFFF
43415264352535566666661666165651353214466663666661
FFFFFFFFFFFFFFFLLLLLLLLLLLLLLLFFFFFFFFFLLLLLLLLLLF
45166221656661661651526545326451125314231642366256
FFFFFFFFFFLLLLLLFFFFFFFFFFFFFFFFFFFFFFFFFFFFFFFFFF
46666266665534352142612431541666361165356355331131
LLLLLLLLLFFFFFFFFFFFFFFFFFFFFLLLLLFFFFFFFFFFFFFFFF
61636564546433623666523556433566632152666656116531
LLLLLFFFFFFFFFFFFLLLFFFFFFFFFFFLLFFFFLLLLLLLLFFFFL
64555162166564531366665423664623252162422215255646
LFFFFFFFFFFFLFFFFFLLLFFFFFFFFFFFFFFFFFFFFFFFFLLLLL
55126345345436365245264564666664366656666666666661
FFFFFFFFFFFFFFFFFFFFFFFFLLLLLLLLLLLLLLLLLLLLLLLLFF
66666666622613163361421216556656611131444512555163
LLLLLLLLFFFFFFFFFFFFFFFFFFFFLLLLLFFFFFFFFFFFFFFFLF
24563122264666666636266264661666636342636626422444
FFFFFFFFFLLLLLLLLLLLLLLLLLLLLLLLLLLFFFLLLLFFFFFFFF
54511515131244212126116366266531132666646262616166
FFFFFFFFFFFFFFFFFFFLLLLLLLLLLFFFFFFFLLLLLLLFFFLLLL
32666616321413146166226425123562126635251615266516
FLLLLLLLLLFFFFFFFFFFFFFFFFFFFFFFFFLLFFFFFFFFFFFFFF
66664666666226666656666611666224256334342115216664
FFFFLLLLLLLLLLLLLLLLLLLLLLLLLFFFFFFFFFFFFFFFFFFLLL
66666666666666566666645136666666666666166246434426
LLLLLLLLLLLLLLLLLLFFFFFFLLLLLLLLLLLLLLLLLFFFFFFFLL
23216544615562232614212365211465645146366666662561
FFFFFFFFLFFFFFFFFFFFFFFFFFFFFFFFFFFFFLLLLLLLLFFFFF
31134432154362455555366361362454666666526332456661
FFFFFFFFFFFFFFFFFFFFFFFFLFFFFFFLLLLLLLFFFFFFFFLLLL
41542161236662334642515556334632634665161665666563
FFFFFFFFFFLLLFFFFFFFFFFFFFFFFFFFFFFFFFFFFLLLLLLLLL
64433241414145256646251223246666466666616164666236
FFFFFFFFFFFFFFFFFLLLLLFFFFFFLLLLLLLLLLLLLLLLLLLFFF
54244626662632225531151434421151666666641434515251
FFFFFLLLLLFFFFFFFFFFFFFFFFFFFFFFLLLLLLLFFFFFFFFFFF
66365321116223151555253212264166666634614534566656
FFFFFFFFFFFFFFFFFFFFFFFFFFFFFLLLLLLLLLLFFFFFFFFFFL
54315451653234163662622666616666666626636666466661
FFFFFFFFFFFFFFLLLLLLLLLLLLLLLLLLLLLLLLLLLLLLLLLLLF
66631566666666662614444466436656643355232135224232
LLFFFLLLLLLLLLLLLLFFFFFFLLLLLLLLLLFFFFFFFFFFFFFFFF
65661646666166666656666565445256615623154113313235
LLLLLLLLLLLLLLLLLLLLLLLLLFFFFFFFLLLLLFFFFFFFFFFFFF
45456666321453522136324241265545166325425362636666
FFFFLLLLFFFFFFFFFFFFFFFFFFFFFFFFFFFFFFFFFFFFLLLLLL
65435143154634362135666666666352346266466666566316
FFFFFFFFFFFFFFFFFFFLLLLLLLLLLLLLFFLLLLFLLLLFFFFFFF
66166666652666566111463522635525663225442153642121
LLLLLLLLLLLLLLLLLLFFFFFFFFFFFFFFFFFFFFFFFFFFFFFFFF
54311666665613366656666666646342362616662254666666
FFFFFLLLLLFFFFLLLLLLLLLLLFFFFFFFFFFFFLLLLLLLLLLLLL
64665144261434412413434226321266661423162442423546
LLLLFFFFFFFFFFFFFFFFFFFFFFFFFFFFFFFFFFFFFFFFFFFFFF
63232462143421164144135666666623666632655555326646
FFFFFFFFFFFFFFFFFFFFFFFLLLLLLLLLLLLLLLLLFFFFFFFFFF
46666611666441533433522566365214661631344322242261
LLLLLLLLLLFFFFFFFFFFFFFFLLLLFFFFFFFFFFFFFFFFFFFFFF
56464612444451354464361566666666655546565635666566
FFFFFFFFFFFFFFFFFFFFFFFFFLLLLLLLLFFFFLLLLLLLLLLLLL
33341633253514546635131223624632266666666666656551
FFFFFFFFFFFFFFFFFFFFFFFFFFFFFFFFFLLLLLLLLLLLLFFFFF
15534644413622431132451545236664322346664656216134
FFFFFFFFFFFFFFFFFFFFFFFFFFFFFLLFFFFFFLLLLLLFFFFFFF
63114261545351332134522246446346265265123311566666
FFFFFFFFFFFFFFFFFFFFFFFFFFFFFFFFFFFFFFFFFFFFFLLLLL
45613553626654342631234224666621666626224164353634
FFFFFFFFLFFFFFFFFFFFFFFFFFLLLLLLLLLLLLFFFFFFFFFFFF
41164123252355456314546456155246141666666662616666
FFFFFFFFFFFFFFFFFFFFFFFFFFFFFFFFFFFLLLLLLLLLLLLLLL
66651666663556666666666246464661261311353135311356
LLLLLLLLLLFFFFFFFFFLLLLLLLLLLLLLLLFFFFFFFFFFFFFFFF
12661666663153461524153416666616566656264256432322
FFLLLLLLLLFFFFFFFFFFFFFFFLLLLLLLLLLFFFFFFFFFFFFFFF
66144115133326251513141116336212261151336521155435
LLFFFFFFFFFFFFFFFFFFFFFFFFFFFFFFFFFFFFFFFFFFFFFFFF
35651463611631654542646666666613541523414463255652
FFFFFFFFFFFFFFFFFFFFFFLLLLLLLLFFFFFFFFFFFFFFFFFFFF
15623234533146544616325114631261146663215242553215
FFFFFFFFFFFFFFFFFFFFFFFFFFFFFFFFFFFFFFFFFFFFFFFFFF
13133666346423422333462666626615156166514354445661
FFFFFLLLLLLFFFFFFFFFFFFLLLLLLFFFFFFFFFFFFFFFFFFFLF
16524324345263641263315644666666666666666666636526
FFFFFFFFFFFFFFFFFFFFFFFFFFLLLLLLLLLLLLFLLLLLLLLLLL
26623456666662666662646646666666612221451642346653
FFFFFFFLLLLLLLLLLLLLLLLLLLLLLLLLLFFFFFFFFLLFFFFFFF
36312443143621442131131146441422651366622254626466
FFFFFFFFFFFFFFFFFFFFFFFFFFFFFFFFFFFFFFFFFFFFFFLLLL
56311642366366661656416656626666622666631516324446
FFFFFFFFFLLFLLLLLLLLLLLLLLLLLLLLLFLLLLLLFFFFFFFFFF
65663666662264242256136363164526366235436654566224
LLLLLLLLLLLFFFFFFFFFFFFFFFFFFFFFFFFFFFFFFFFFFFFFFF
66666646666544155664455121666651352143514245412226
LLLLLLLLLLLFFFFFFFFFFFFFFFLLLLFFFFFFFFFFFFFFFFFFLL
66353163264616615131351441654123443621255523246666
LLFFFFFFLLFFFFFFFFFFFFFFFFFFFFFFFFFFFFFFFFFFFFLLLL
15514324343312623151263433122225446654145651664235
FFFFFFFFFFFFFFFFFFFFFFFFFFFFFFFFFFFFFFFFFFFLLLFFFF
25266666666634445666466654542352316661262435161246
FFFLLLLLLLLLFFFFFFLLLLLLFFFFFFFFFFFFFFFFFFFFFFFFFF
14442115562336263625464555565466566663616615666166
FFFFFFFFFFFFFFFFFFFFFFFFFFFFFFFFLLLLLLLLLLLLLLLLLL
13112636114553331125411313252266666626245454315643
FFFFFFFFFFFFFFFFFFFFFFFFFFFFFFLLLLLLLLFFFFFFFFFFFF
66666613112641436652356666656616666166666661522254
LLLLLFFFFFFFFFFFFFFFFFLLLLLLLLLLLLLLLLLLLLLFFFFFFF
65432412364515646516666666611315314615224423223126
FFFFFFFFFLFFFFFFFFFLLLLLLLFFFFFFFFFFFFFFFFFFFFFFFL
53563666665666666666663566666666646666641255115533
LLFFFFLLLLLLLLLLLLLLLLLLLLLLLLLLLLLLLLLFFFFFFFFFFF
62666666661626664126432435231263151163462633122644
LLLLLLLLLLLLLLLLFFFFFFFFFFFFFLLLLFFFFFFFFFFFFFFFFF
14515135416141546656266666661631345566422521533342
LFFFFFFFFFFFFFFFFFFLLLLLLLLLLFFFFFFFFFFFFFFFFFFFFF
42531555531434166632443125152556256243551331415316
FFFFFFFFFFFFFFFFFFFFFFFFFFFFFFFLFFFFFFFFFFFFFFFFFF
43226235415662562126452124253351166522666163243326
FFFFFFFFFFFFFFFFFFFFFFFFFFFFFFFFFFFFFFLLLFFFFFFFFL
36666656643336235566466121152156545361464666636363
LLLLLLLLLLFFFFFFFFLLLLLFFFFFFFFFFFFFLLLLLLLLLLLLLL
25333242162352153361144614153566663252564112225422
FFFFFFFFFFFFFFFFFFFFFFFFFFFFFFFLLLFFFFFFFFFFFFFFFF
53446266416616366245445566354564266633453214342222
FFFFFFFFFFFLLLFLLFFFFFFFFFFFFFFLLLLFFFFFFFFFFFFFFF
64654122666665666666646661646166666665644236561535
FFFFFFFFLLLLLLLLLLLLLLLLLLLFFFFLLLLFFFFFFFFFFFFFFF
36666656636666366666366666111433246255561441416612
LLLLLLLLLLLLLLLLLLLLLLLLLFFFFFFFFFFFFFFFFFFFFFFFFF
66636666626666666461661642454252611666665526666664
LLLLLLLLLLLLLLLLLLLLLLLLFFFFFFFFFFFLLLLLLLLLLLLLLF
66666666615134543352344356222154452162352664626666
LLLLLLLLLFFFFFFFFFFFFFFFFFFFFFFFFFFFFFFFFFLLLLLLLL
31243562125624522541566613461125166143455466666666
FFFFFFFFFFFFFFFFFFLFFFFFFFFFFFFFFFFFFFFFFFLLLLLLLL
55244451166656661661651365616323466646666513152242
FFFFFFFFFLLLLLLLLLLLLFFFLLFFFFFFFLLLLLLLLFFFFFFFFF
11163655262554424665221212126664466666656666461136
FFFFFFFFFFFFFFFFFFFLLLLFFFFFLLLLLLLLLLLLLLLLLLFFFF
66266666626661514445515243324316642334366666666665
LLLLLLLLLLLLLFFFFFFFFFFFFFFFFFFFFFFFFFFLLLLLLLLLLL
26666666666662644525465166316666666256216615333413
LLLLLLLLLLLLFFFFFFFFFFFFFFFFLLLLLLLFFLLLLLFFFFFFFF
25544253412434443245421661113342635221255442514523
FFFFFFFFFFFFFFFFFFFFFFFFFFFFFFFFFFFFFFFFFFFFFFFFFF
13416242526151264165412664666661624556653131323242
FFFFFFFFFFFFFFFFFFFFFFFLLLLLLLLFFFFFFLLFFFFFFFFFFF
53255666666566666666254344325625431666223542426641
FFFFFLLLLLLLLLLLLLLLFFFFFFFFFFFFFFFLLLFFFFFFFFFFFF
65325342161414452466335456366666666666666266666266
FFFFFFFFFFFFFFFFFFFFFFFFFFLLLLLLLLLLLLLLLLLLLLLLLL
11453513142626352166431312654234441454216461525641
FFFFFFFFFFFFFFFFFFFFFFFFFFFFFFFFFFFFFFFFFFFFFFFFFF
33356466666466142425461465265661666666566666666626
FFFLLLLLLLLLLLFFFFFFFFFFFFFLLLLLLLLLLLLLLLLLLLLLLL
26241564461242236545235262421225453115546666624243
FFFFFFFFFFFFFFFFFFFFFFFFFFFFFFFFFFFFFFFFLLLLLFFFFF
11611666161646614236151211323452563655661626636616
FFFFFLLLFFFFFFFFFFFFFFFFFFFFFFFFFFFFFLLLLLLLLLLLLL
64666666666666611463632616616636666666666666366166
LLLLLLLLLLLLLLLLLLLFFFFFFFFFFLLLLLLLLLLLLLLLLLLLLL
51661114456316616151456266445153111453121331413666
FFFFFFFFFFFFFFFFFFFFFFFFFFFFFFFFFFFFFFFFFFFFFFFLLL
13614534253466326266666666636666666661126651442223
FFFFFFFFFFFFFFFFLLLLLLLLLLLLLLLLLLLLFFFFLLFFFFFFFF
41132322114331626664413126636666666666541112456243
FFFFFFFFFFFFFFFFLLLFFFFFFFLLLLLLLLLLLFFFFFFFFFFFFF
61636666666462326244316364652415632221526344313163
LLLLLLLLLLLFFFFFFFFFFFFFFFFFFFFFFFFFFFFFFFFFFFFFFF
45646623323653566661323666666666626665666256143555
FFFFFFFFFFFFFFFFFFLFFFFLLLLLLLLLLLLLLLLLLLFFFFFFFF
66221262666621154254352433666126316632611325525366
LLFFFFFFLLLLFFFFFFFFFFFFLLLLLFFFFFFFFFFFFFFFFFFFFF
42455522456122432612321223466556554312431166562314
FFFFFFFFFFFFFFFFFFFFFFFFFFFLLLLLFFFFFFFFFFFFFFFFFF
61566165563265541653613233334666666626666661256314
LLFFFFFFLLFFFFFFFLFFFFFFFFFFFLLLLLLLLLLLLLFFFFFFFF
46653354554563141663666666616666155336646665661642
FFFFFFFFFFFFFFFFLLLLLLLLLLLLLLLFFFFFFFLLLLLLLLLLLL
25313124126325322145364632656412543423632543436666
FFFFFFFFFFFFFFFFFFFFFFFFFFFFFFFFFFFFFFFFFFFFFFLLLL
52441244615615433562542133264443122224666636616666
FFFFFFFFFFFFFFFFFFFFFFFFFFFFFFFFFFFFFFLLLLLLLLLLLL
14434424561343666164645366446261165513312424345225
FFFFFFFFFFFFFFLLLFFFFFFFFFFLLFFFFFFFFFFFFFFFFFFFFF
15411346565616366366643212112416666661456632666653
FFFFFFFFFFFFFLLLLLLLLFFFFFFFFFFLLLLLLLLLLLLLLLLLLL
51655345331233453632545135265614555422634216154641
FFFFFFFFFFFFFFFFFFFFFFFFFFFFFFFFFFFFFFFFFFFFFFFFFF
51342164166411166235442126563666661322311534666664
FFFFFFFFFFFFFFFFFFFFFFFFFFFFFFLLLLFFFFFFFFFFLLLLLL
66366666661666423345562212141625615131161436466666
LLLLLLLLLLLLLLFFFFFFFFFFFFFFFFFFFFFFFFFFFFFLLLLLLL
66526532116262425426413466666666666666615666316321
LFFFFFFFFFFFFFFFFFFFFFFFLLLLLLLLLLLLLLLLLLLLFFFFFF
26266656666656262463165235131434453141656243144636
FFFLLLFLLLLLFFFFFFFFFFFFFFFFFFFFFFFFFFFFFFFFFFFFFL
31341366424143226511613654512126565626216166243462
FFFFFFFFFFFFFFFFFFFFFFFFFFFFFFFFFFFFFFFFFFFFFFFFFF
13464144662451566341512654252515552323152126666514
FFFFFFFFFLFFFFFFFFFFFFFFFFFFFFFFFFLLFFFFFFFFFFFFFF
52156165456233153435136422335443562366656624434215
FFFFLFFFFFFFFFFFFFFFFFFFFFFFFFFFFFFFFFLLLLLFFFFFFF
16236136253245536526312251626341654166666562666456
FFFFFFFFFFFFFFFFFFFFFFFFFFFFLLFFFFFFLLLLFFFFLLFFFF
36662262236451545211666666666666666624164346141436
FFFFFFFFFFFFFFFFFFFFLLLLLLLLLLLLLLLLFFFFFFFFFFFFFF
63346664666664666646624136664616245612353352123666
LLLLLLLLLLLLLLLLLLLLLLFFFLLLFLFFFFFFFFFFFFFFFFLLLL
55541234232445463541366664662644325563332266246546
FFFFFFFFFFFFFFFFFFFFFLLLLLLFFFFFFFFFFFFFFFFFFFFFFF
42442621656664256666154521535616524521444454526146
FFFFFFFFLLLLLLFFLLLLFFFFFFFFFFFFFFFFFFFFFFFFFFFFFF
55662246321466223523313545411116664112511112551251
FFFLFFFFFFFFLFFFFFFFFFFFFFFFFFFFFFFFFFFFFFFFFFFFFF
45626666566666126611522234616666664532642665626166
FFFFLLLLLLLLLLLLLLLFFFFFFFFFLLLLLFFFFFFFFLLLLLLLLL
66253633645156666646616666466262326651324252126666
FFLFFFFFFFFFFLLLLLLLLLLLLLLLLLLFFFFFFFFFFFFFLLLLLL
62443423133624426615132646664566244662413324231465
FFFFFFFFFFFFFFFFFLFFFFFLLLFFFFFFFFFFLFFFFFFFFFFFFF
11213242222526666666666666666666144546145551624456
FFFFFFFFFFFFFLLLLLLLLLLLLLLLLLLLFFFFFFFFFFFFFFFFFF
55634516155212146334633511626551236446113632423655
FFFFFFFFFFFFFFFFFFFFFFFFFFFFFFFFFFFFFFFFFFFFFFFFFF
66666666665646655666661424136222342666666666363666
LLLLLLLLLLLLLLLLLLLLLLFFFFFFFFFFFFFLLLLLLLLLLLLLLL
44333362541331354612663666636552566666666666666656
FFFFFFFFFFFFFFFFFFFLLLLLLLLLLLFFFLLLLLLLLLLLLLLLLL
22316551512422345453334252341266626664135113622542
FFFFLFFFFFFFFFFFFFFFFFFFFFFFFFLLLLLLLFFFFFFFFFFFFF
51666636652421445266212334461426221266453536664135
LLLLLLLLLFFFFFFFFFFFFFFFFFFFFFFFFFFFFFFFFFFFFFFFFF
56335516666651634664522535633564635123666561636666
FFFFFFFLLLLLFFFFFFFFFFFFFFFFFFFFFFFFFFLLLLLLLLLLLL
64612226566666662263666666666666222312123166666666
FFFFFFFFLLLLLLLLFFFFLLLLLLLLLLLLLFFFFFFFLFFFFLLLLL
15456366666266666663625364266656522355266666665565
FFFFFFLLLLLLLLLLLLLFFFFFFFFLLLFFFFFFFFFLLLLLLLLLLL
66654666666661662666653365666662666666666366613666
LLLLLLLLLLLLLLLLLLLLLLFFFFFLLLLLLLLLLLLLLFFLLLLLLL
66664326666666666666666666566666666643666664646166
LLLLLFFLLLLLLLLLLLLLLLLLLLLLLLLLLLLLLLLLLLLLLLLLLL
66665653233336443265666642663532266631343511251664
LLLLFFFFFFFFFFFFFFLLLLLLLFFFFFFFFFFFFFFFFFFFFFFFFF
26616656542246254666166466366644266644151462666661
LLLLLLFFFFFFFFFFLLLLLLLLLLFFLLLLFFFFFFFFFFFFLLLLLL
66265231134633416154641111124643322664342534336666
LLLLFFFFFFFFFFFFFFFFFFFFFFFFFFFFFFFFFFFFFFFFLLLLLL
14141361664163251152551536411666666616412436465642
FFFFFFLLLLFFFFFFFFFFFFFFFFFFFLLLLLLLLFFFFFFFFFFLFF
56632613644541663455634154514655325142655552416451
FFFFFFFFFFFFFFFFFFFFFFFFFFFFFFFFFFFFFFFFFFFFFFFFFF
44425666661666616416641524236312146265445152325316
FFFFFLLLLLLLLLLLLLLLLFFFFFFFFFFFFFFFFFFFFFFFFFFFFF
41512165241146341644453135645236513462641255466566
FFFFFFFFFFFFFFFFFFFFFFFFFFFFFFFLFFFFFFFFFFFFLLLLLL
55451666666656563666665666666636665665664336666412
FFFFFLLLLLLLLLLLLLLLLLLLLLLLLLLLLLFLLLLLLLLLLLLFFF
66622666661661666666662566663631666666666664666666
FFFFFLLLLLLLLLLLLLLLLLLLLLLLFLLLLLLLLLLLLLLLLLLLLL
66612146666616646563663464532622634621523666646666
LLLLLLLLLLLLLLLLLFFFFFFFFFFFFFFFFFFFFFFFLLLLLLLLLL
52133423316646431564432666666666662166664322264152
FFFFFFFFFFLLFFFFFFFFFFFLLLLLLLLLLLLLLLLFFFFFFFFFFF
24241651664316566631256454414666666621666566666666
FFFFFFFFLLFFLLLLLLFFFFFFFFFFLLLLLLFFFFLLLLLLLLLLLL
66366666266666645535655233153241653645616666635666
LLLLLLLLLLLLLLFFFFFFFFFFFFFFFFFFFFFFFFFFFLLLLLLLLL
61263566663666666636666646566631242653123661616231
FFFFFFLLLLLLLLLLLLLLLLLLLLLLLLFFFFFFFFFFFFFFFFFFFF
66266123142111424566626666663155464365214613665431
LLFFFFFFFFFFFFFFFFLLLLLLLLLLFFFFFFFFFFFFFFFFFFFFFF
21521241234512464223616643412665626663666666242252
FLFFFFFFFFFFFFFFFFFFLLLLFFFLLLLLLLLLLLLLLLLLFFFFFF
55531661465436153663456213543664661154615245242644
FFFFFFFFFFFFFFFFFFFFFFFFFFFFFLLFFFFFFFFFFFFFFFFFFF
66443256156616665666636616666636254134425613125531
FFFFFFFLLLLLLLLLLLLLLLLLLLLLLLFFFFFFFFFFFFFFFFFFFF
66664612461551312355113552612563664116253136226234
LLLLFFFFFFFFFFFFFFFFFFFFFFFFFFFFFFFFFFFFFFFFFFFFFF
16666151151442564615315332515253232151422355135125
FFLLLFFFFFFFFFFLFFFFFFFFFFFFFFFFFFFFFFFFFFFFFFFFFF
21444663614225416661554562621264355355363145364333
FFFFFFFFFFFFFFFFFFFFFFFFFFLFFFFFFFFFFFFFFFFFFFFFFF
15155141642525554662623666661616666666666663663664
FFFFFFFFFFFFFFFFFFFFFFFLLLLLLLLLLLLLLLLLLLLLLLLLLL
61156661666665666666665355416561666361214546412551
LLLLLLLLLLLLLLLLLLFLLLFFFFFFFFFFLLLLLFFFFFFFFFFFFF
46166364166661464566442662463624533145544512222421
FFFFFFFFFFLLLLLLLLLLFFFLLLLLFFFFFFFFFFFFFFFFFFFFFF
55154215556533113516543662664516366366661626661565
FFFFFFFFFFFFFFFFFFFFFFFFFFFFFFFFFFFLLLLLLLLLLFFFFF
45535635534216654554314542441154411366666666466331
FFFFFFFFFFFFFFFFFFFFFFFFFFFFFFFFFFFFLLLLLLLLLLLFFF
43215655313635211521612562666646162322341114516666
FFFFFFFFFFFFFFFFFFFFFFFFLLLLLLLLFFFFFFFFFFFFFLLLLL
46666666666666665645152634433443555652346644261212
LLLLLLLLLLLLLLLLLFFFFFFFFFFFFFFFFFFFFFFFLLFFFFFFFF
61533416566666656646362611354264231354665443442652
FFFFFFFLLLLLLLLLLLLLLLLLFFFFFFFFFFFFFFFFFFFFFFFFFF
66666646216443666666666666666254242456666666636661
LLLLLLLLLLLFFFLLLLLLLLLLLLLLLFFFFFFFFLLLLLLLLLLLLL
66266116664666666666662465216566464544162251466463
LLLLLLLLLLLLLLLLLLLLLFFFFFFFFFLLLLFFFFFFFFFFFFFFFF
54145332364663626666616661616354324236113442133224
FFFFFFFFFFFLLLLFLLLLLLLLLLLFFFFFFFFFFFFFFFFFFFFFFF
66522616125124146643655656165566661666466664434615
LLFFFLFFFFFFFFFFLLFFFFFFFFFLLLLLLLLLLLLLLLLFFFFFFF
66666415632266425664316451313124353112212433426544
LLLLLFFFFFFFFFFLLLLFFFFFFFFFFFFFFFFFFFFFFFFFFFFFFF
41214236453153134255653254234641533256256435622363
FFFFFFFFFFFFFFFFFFFFFFFFFFFFFFFFFFFFLLFFFFFFFFFFFF
35321526136644255333141266336232331525151346661666
FFFFFFFFFFFFFFFFFFFFFFFFFFFFFFFFFFFFFFFFFFFLLLLLLL
63115323241245455251241661433555164566166646666461
FFFFFFFFFFFFFFFFFFFFFFFFFFFFFFFFFFFFLLLLLLLLLLLLLF
36664666666626626442156645144162155646661345634315
LLLLLLLLLLLLLLLLLLFFFFFFFFFFFFFFFFFFFFFFFFFFFFFFFF
64146662664663313226165521351111666266616666626666
LLLLLLLLLLLLLFFFFFFFFFFFFFFFFFFLLLLLLLLLLLLLLLLLLL
36566166666166656224654415644122144361552331453454
FFFFFFLLLLLLLLLFFFFFFFFFFFFFFFFFFFFFFFFFFFFFFFFFFF
24541132246634154335426361252426265666666661662662
FFFFFFFFFFLFFFFFFFFFFFFFFFFFFFFFFLLLLLLLLLLLLLLLLF
11632552621344265434155351666434663552551463524466
FFFFFFFFFFFFFFFFFFFFFFFFFFLLLFFFFLFFFFFFFFFFFFFLLL
44433315545536534124244622563156666366646666666665
FFFFFFFFFFFFFFFFFFFFFFFFFFFFFFFLLLLLLLLLLLLLLLLLLL
66434126422363666664436662666666666645166616636626
LLFFFFFFFFFFLLLLLLLFFLLLLLLLLLLLLLLLLLLLLLLLLFFLLL
34141345235443566543542622154122646366666666366666
FFFFFFFFFFFFFFFLLLLLFFFFFFFFFFFFFFLLLLLLLLLLLLLLLL
14245224323444216135513234566625636213121461331624
FFFFFFFFFFFFFFFFFFFFFFFFFFFLLLFFFFFFFFFFFFFFFFFLFF
56536142646666262143314163654665664166666646663651
FFFFFFFFFFLLLLLLFFFFFFFFFFFFFFLLLLLFLLLLLLLLLLLLLF
66666346161332666233653233262666666661611344563416
LLLLLLLLFFFFFLLLLFFFFFFFFFFLLLLLLLLLLLLFFFFFFFFFFF
54362336564265641262666666412646466666646233535656
FFFFFFFFFFFLLFFFFFLLLLLLLLFFFFFFFLLLLLLLLFFFFFFFFF
44616552666566666611126662666654666666661666666266
FFFFFFFFLLLLLLLLLLFFFFLLLLLLLLLLLLLLLLLLLLLLLLLFLL
66616662545256231266315352636263636144666666656465
LLLLLLLFFFFFFFFFFFLLLFFFFFFFFFFFLLLLLLLLLLLLLLLLLL
66666261623243441332266656666666366664666424146436
LLLLLLLLLFFFFFFFFFFFFLLLLLLLLLLLLLLLLLLLLFFFFFFFFF
12364521643622622123544666214511436536666626666666
FFFFFFFLLLFFFFFFFFFFFFFFFFFFFFFFFFFFFLLLLLLLLLLLLL
51233666462666666625156346411462666666124125624566
FFFFFLLLLLLLLLLLLLFFFFFFFFFFFFLLLLLLLLLLLLLLLFFLLL
32124332265242222115533623346443246616354351436534
FFFFFFFFFFFFFFFFFFFFFFFFFFFFFFFFFFFFFFFFFFFFFFFFFF
66664666661222666656553335536666466661666116616363
LLLLLLLLLLFFFFLLLLLLFFFFFFFFLLLLLLLLLLLLLLLLLLLLLL
51464345121616565321141311363431461363634622166166
FFFFFFFFFFFFFFFFFFFFFFFFFFFFFFFFFFFFFFFFFFFFFFLLLL
66666346164111563666666666666666666666525552243135
LLLLLLFFFFFFFFFLLLLLLLLLLLLLLLLLLLLLLFFFFFFFFFFFFF
66665216652243321115651341242143445112626333422666
LLLLLLLLLFFFFFFFFFFFFFFFFFFFFFFFFFFFFFLFFFFFFFLLLL
15325555366666525264666516664666646354522351542214
FFFFFFFFFLLLLLLFFFFFFLLLLLLLLLLLLLLLFFFFFFFFFFFFFF
54225634416216123132166562316666666633325343653225
FFFFFFFFFFFFFFFFFFFFFFFFFFFFLLLLLLLLFFFFFFFFLFFFFF
65666615315631441446553425262133652163365361322634
LLLLLLFFFFFFFFFFFFFFFFFFFFFFFFFFFFFFFFFFFFFFFFFFFF
46666666666224366633566661516222351164561116251651
FLLLLLLLLLLFFFFFFFFFFLLLLLFFFFFFFFFFFFFFFFFFFFFFFF
63151136336666666526532243512435666664621641551453
FFFFFFFFFFLLLLLLLFFFFFFFFFFFFFFFLLLLLFFFFFFFFFFFFF
